ID,MjD,Phase,Mag,Mag_err,Period,Npts,V,Amp,ra,dec,Type
3021003003795,53590.6180940857,0.893213053845,17.381196,0.166,0.402127,93,17.467,0.46736700000000003,4.873069999999999,-21.85406,2
3021003003795,53590.6302614929,0.923470676935,17.40058,0.167,0.402127,93,17.467,0.46736700000000003,4.873069999999999,-21.85406,2
3021003003795,53590.643084676,0.955359068146,17.359429,0.164,0.402127,93,17.467,0.46736700000000003,4.873069999999999,-21.85406,2
3021003003795,53590.6563211689,0.988275268493,17.323551,0.161,0.402127,93,17.467,0.46736700000000003,4.873069999999999,-21.85406,2
3021003003795,53608.6467728356,0.726508878026,17.844702,0.254,0.402127,93,17.467,0.46736700000000003,4.873069999999999,-21.85406,2
3021003003795,53608.658401007,0.755425542186,17.839638,0.253,0.402127,93,17.467,0.46736700000000003,4.873069999999999,-21.85406,2
3021003003795,53608.6701512152,0.784645684558,17.815235,0.249,0.402127,93,17.467,0.46736700000000003,4.873069999999999,-21.85406,2
3021003003795,53608.6818067708,0.813630447083,17.855942,0.254,0.402127,93,17.467,0.46736700000000003,4.873069999999999,-21.85406,2
3021003003795,53556.7303986458,0.622086171265,17.601514,0.212,0.402127,93,17.467,0.46736700000000003,4.873069999999999,-21.85406,2
3021003003795,53556.7385578474,0.642376282602,17.543365,0.280,0.402127,93,17.467,0.46736700000000003,4.873069999999999,-21.85406,2
3021003003795,53645.6245505905,0.681980047346,17.575162,0.240,0.402127,93,17.467,0.46736700000000003,4.873069999999999,-21.85406,2
3021003003795,53645.6330582059,0.703136585944,17.862063,0.280,0.402127,93,17.467,0.46736700000000003,4.873069999999999,-21.85406,2
3021003003795,53645.6415985764,0.724374579178,17.561552,0.241,0.402127,93,17.467,0.46736700000000003,4.873069999999999,-21.85406,2
3021003003795,53645.6501455323,0.745628948818,17.790547,0.272,0.402127,93,17.467,0.46736700000000003,4.873069999999999,-21.85406,2
3021003003795,53625.5713543751,0.814161633258,17.684444,0.175,0.402127,93,17.467,0.46736700000000003,4.873069999999999,-21.85406,2
3021003003795,53627.4903846181,0.586361070251,17.551354,0.151,0.402127,93,17.467,0.46736700000000003,4.873069999999999,-21.85406,2
3021003003795,53627.4983217245,0.606098880467,17.798257,0.169,0.402127,93,17.467,0.46736700000000003,4.873069999999999,-21.85406,2
3021003003795,53627.5062704169,0.625865502458,17.468485,0.145,0.402127,93,17.467,0.46736700000000003,4.873069999999999,-21.85406,2
3021003003795,53627.5142172453,0.645627489081,17.690115,0.160,0.402127,93,17.467,0.46736700000000003,4.873069999999999,-21.85406,2
3021003003795,53737.4951895719,0.143732134107,17.396667,0.205,0.402127,93,17.467,0.46736700000000003,4.873069999999999,-21.85406,2
3021003003795,53737.5003100924,0.156465724518,17.427805,0.209,0.402127,93,17.467,0.46736700000000003,4.873069999999999,-21.85406,2
3021003003795,53737.5054228242,0.169179946126,17.355056,0.202,0.402127,93,17.467,0.46736700000000003,4.873069999999999,-21.85406,2
3021003003795,53737.510697581,0.18229708774,17.390881,0.208,0.402127,93,17.467,0.46736700000000003,4.873069999999999,-21.85406,2
3021003003795,53920.7566844793,0.87412304891,17.358656,0.213,0.402127,93,17.467,0.46736700000000003,4.873069999999999,-21.85406,2
3021003003795,53920.7708308334,0.909301870794,17.434854,0.208,0.402127,93,17.467,0.46736700000000003,4.873069999999999,-21.85406,2
3021003003795,53920.784635324,0.943630554539,17.212734,0.177,0.402127,93,17.467,0.46736700000000003,4.873069999999999,-21.85406,2
3021003003795,53920.7990123262,0.97938294668,17.347435,0.180,0.402127,93,17.467,0.46736700000000003,4.873069999999999,-21.85406,2
3021003003795,53944.736742801,0.507170125347,17.617967,0.163,0.402127,93,17.467,0.46736700000000003,4.873069999999999,-21.85406,2
3021003003795,53944.7499870486,0.540105609922,17.56355,0.158,0.402127,93,17.467,0.46736700000000003,4.873069999999999,-21.85406,2
3021003003795,53944.7631894099,0.572936932615,17.599684,0.161,0.402127,93,17.467,0.46736700000000003,4.873069999999999,-21.85406,2
3021003003795,53944.7763694213,0.605712676101,17.675831,0.167,0.402127,93,17.467,0.46736700000000003,4.873069999999999,-21.85406,2
3021003003795,53882.7650116781,0.397321438504,17.534008,0.182,0.402127,93,17.467,0.46736700000000003,4.873069999999999,-21.85406,2
3021003003795,53882.7727892014,0.41666240117,17.585927,0.185,0.402127,93,17.467,0.46736700000000003,4.873069999999999,-21.85406,2
3021003003795,53882.7807018405,0.436339366657,16.832412,0.132,0.402127,93,17.467,0.46736700000000003,4.873069999999999,-21.85406,2
3021003003795,53882.7885674305,0.455899331544,17.631707,0.188,0.402127,93,17.467,0.46736700000000003,4.873069999999999,-21.85406,2
3021003003795,54048.4803439003,0.49432617132,17.552859,0.204,0.402127,93,17.467,0.46736700000000003,4.873069999999999,-21.85406,2
3021003003795,54048.4889314931,0.515681595862,17.473447,0.196,0.402127,93,17.467,0.46736700000000003,4.873069999999999,-21.85406,2
3021003003795,54048.4975101852,0.537014886359,17.528784,0.201,0.402127,93,17.467,0.46736700000000003,4.873069999999999,-21.85406,2
3021003003795,54048.5061585532,0.558521445229,17.59391,0.208,0.402127,93,17.467,0.46736700000000003,4.873069999999999,-21.85406,2
3021003003795,54011.5300615278,0.607229874644,17.811337,0.222,0.402127,93,17.467,0.46736700000000003,4.873069999999999,-21.85406,2
3021003003795,54011.5398970835,0.631688704074,17.688195,0.208,0.402127,93,17.467,0.46736700000000003,4.873069999999999,-21.85406,2
3021003003795,54011.5496372801,0.655910396716,17.591143,0.200,0.402127,93,17.467,0.46736700000000003,4.873069999999999,-21.85406,2
3021003003795,54011.5591588194,0.679588337516,17.711075,0.211,0.402127,93,17.467,0.46736700000000003,4.873069999999999,-21.85406,2
3021003003795,54020.5285596644,0.98448416646,17.249129,0.170,0.402127,93,17.467,0.46736700000000003,4.873069999999999,-21.85406,2
3021003003795,54020.5374917129,0.00669617534732,17.264825,0.171,0.402127,93,17.467,0.46736700000000003,4.873069999999999,-21.85406,2
3021003003795,54020.5461219099,0.0281575469999,17.297446,0.174,0.402127,93,17.467,0.46736700000000003,4.873069999999999,-21.85406,2
3021003003795,54326.7062953127,0.380102088908,17.524655,0.136,0.402127,93,17.467,0.46736700000000003,4.873069999999999,-21.85406,2
3021003003795,54326.7183965741,0.410195222154,17.338236,0.126,0.402127,93,17.467,0.46736700000000003,4.873069999999999,-21.85406,2
3021003003795,54326.7304910187,0.440271403553,17.462499,0.133,0.402127,93,17.467,0.46736700000000003,4.873069999999999,-21.85406,2
3021003003795,54326.7424481831,0.470006199757,17.484585,0.135,0.402127,93,17.467,0.46736700000000003,4.873069999999999,-21.85406,2
3021003003795,54302.6492752084,0.555668255052,17.623137,0.164,0.402127,93,17.467,0.46736700000000003,4.873069999999999,-21.85406,2
3021003003795,54302.6601627776,0.582743206993,17.572406,0.160,0.402127,93,17.467,0.46736700000000003,4.873069999999999,-21.85406,2
3021003003795,54302.6711054398,0.609955162916,17.616364,0.163,0.402127,93,17.467,0.46736700000000003,4.873069999999999,-21.85406,2
3021003003795,54302.6820955556,0.637285125355,17.691304,0.169,0.402127,93,17.467,0.46736700000000003,4.873069999999999,-21.85406,2
3021003003795,54375.6677322222,0.136256014142,17.383794,0.185,0.402127,93,17.467,0.46736700000000003,4.873069999999999,-21.85406,2
3021003003795,54375.6779812269,0.16174299884,17.299772,0.178,0.402127,93,17.467,0.46736700000000003,4.873069999999999,-21.85406,2
3021003003795,54375.6883691202,0.187575368473,17.322251,0.180,0.402127,93,17.467,0.46736700000000003,4.873069999999999,-21.85406,2
3021003003795,54375.6988450924,0.213626770623,17.359844,0.185,0.402127,93,17.467,0.46736700000000003,4.873069999999999,-21.85406,2
3021003003795,54393.5212140858,0.533876327128,17.544334,0.204,0.402127,93,17.467,0.46736700000000003,4.873069999999999,-21.85406,2
3021003003795,54393.5297437847,0.555087782443,17.507732,0.200,0.402127,93,17.467,0.46736700000000003,4.873069999999999,-21.85406,2
3021003003795,54393.5382591436,0.576263577415,17.392367,0.189,0.402127,93,17.467,0.46736700000000003,4.873069999999999,-21.85406,2
3021003003795,54393.5468029861,0.597510204738,17.570831,0.207,0.402127,93,17.467,0.46736700000000003,4.873069999999999,-21.85406,2
3021003003795,54349.6620944329,0.466045385896,17.533031,0.159,0.402127,93,17.467,0.46736700000000003,4.873069999999999,-21.85406,2
3021003003795,54349.6768290163,0.502687002619,17.461586,0.155,0.402127,93,17.467,0.46736700000000003,4.873069999999999,-21.85406,2
3021003003795,54349.6915607178,0.53932145267,17.589573,0.164,0.402127,93,17.467,0.46736700000000003,4.873069999999999,-21.85406,2
3021003003795,54701.5875960534,0.626135657134,17.582541,0.174,0.402127,93,17.467,0.46736700000000003,4.873069999999999,-21.85406,2
3021003003795,54701.5961410531,0.647385162156,17.692069,0.183,0.402127,93,17.467,0.46736700000000003,4.873069999999999,-21.85406,2
3021003003795,54701.6046932406,0.668652541615,17.538077,0.170,0.402127,93,17.467,0.46736700000000003,4.873069999999999,-21.85406,2
3021003003795,54701.6132304861,0.689882763661,17.624997,0.176,0.402127,93,17.467,0.46736700000000003,4.873069999999999,-21.85406,2
3021003003795,54475.4567632174,0.289279798162,17.189133,0.179,0.402127,93,17.467,0.46736700000000003,4.873069999999999,-21.85406,2
3021003003795,54475.4606188081,0.298867790785,17.308989,0.191,0.402127,93,17.467,0.46736700000000003,4.873069999999999,-21.85406,2
3021003003795,54475.4644743867,0.308455753286,17.280961,0.189,0.402127,93,17.467,0.46736700000000003,4.873069999999999,-21.85406,2
3021003003795,54475.4683442131,0.318079146877,17.334682,0.194,0.402127,93,17.467,0.46736700000000003,4.873069999999999,-21.85406,2
3021003003795,55031.6428910649,0.399908648018,17.441131,0.177,0.402127,93,17.467,0.46736700000000003,4.873069999999999,-21.85406,2
3021003003795,55031.6513690508,0.420991504681,17.37195,0.171,0.402127,93,17.467,0.46736700000000003,4.873069999999999,-21.85406,2
3021003003795,55031.659880602,0.442157830723,17.438407,0.176,0.402127,93,17.467,0.46736700000000003,4.873069999999999,-21.85406,2
3021003003795,55031.6683847454,0.463305735233,17.472112,0.178,0.402127,93,17.467,0.46736700000000003,4.873069999999999,-21.85406,2
3021003003795,55743.784815023,0.337756537105,17.364977,0.128,0.402127,93,17.467,0.46736700000000003,4.873069999999999,-21.85406,2
3021003003795,55743.8005662038,0.376926204393,17.400112,0.129,0.402127,93,17.467,0.46736700000000003,4.873069999999999,-21.85406,2
3021003003795,55743.8160934261,0.41553893697,17.544874,0.137,0.402127,93,17.467,0.46736700000000003,4.873069999999999,-21.85406,2
3021003003795,55743.8314642709,0.453762793593,17.359383,0.126,0.402127,93,17.467,0.46736700000000003,4.873069999999999,-21.85406,2
3021003003795,55775.7450145371,0.815631721052,17.734231,0.217,0.402127,93,17.467,0.46736700000000003,4.873069999999999,-21.85406,2
3021003003795,55775.7546025231,0.839474899956,17.557219,0.144,0.402127,93,17.467,0.46736700000000003,4.873069999999999,-21.85406,2
3021003003795,55775.7642270718,0.863409002137,17.638166,0.149,0.402127,93,17.467,0.46736700000000003,4.873069999999999,-21.85406,2
3021003003795,55775.7738266317,0.887280962721,17.359908,0.152,0.402127,93,17.467,0.46736700000000003,4.873069999999999,-21.85406,2
3021003003795,56155.6228954977,0.487043888366,17.544473,0.118,0.402127,93,17.467,0.46736700000000003,4.873069999999999,-21.85406,2
3021003003795,56155.6370202316,0.522168945638,17.470446,0.115,0.402127,93,17.467,0.46736700000000003,4.873069999999999,-21.85406,2
3021003003795,56155.6513201965,0.557729763241,17.493996,0.116,0.402127,93,17.467,0.46736700000000003,4.873069999999999,-21.85406,2
3021003003795,56155.6656055789,0.593254317413,17.579664,0.119,0.402127,93,17.467,0.46736700000000003,4.873069999999999,-21.85406,2
3021003003795,56485.71643022,0.355910495942,17.403201,0.155,0.402127,93,17.467,0.46736700000000003,4.873069999999999,-21.85406,2
3021003003795,56485.7260450694,0.37982047812,17.379935,0.154,0.402127,93,17.467,0.46736700000000003,4.873069999999999,-21.85406,2
3021003003795,56485.7358514584,0.404206776468,17.368216,0.153,0.402127,93,17.467,0.46736700000000003,4.873069999999999,-21.85406,2
3021003003795,56485.745945139,0.429307504848,17.376776,0.153,0.402127,93,17.467,0.46736700000000003,4.873069999999999,-21.85406,2
