ID,MjD,Phase,Mag,Mag_err,Period,Npts,V,Amp,ra,dec,Type
3021075019274,53731.694429,0.705238181545,16.5573,0.136,0.31440300000000004,230,16.447,0.44158000000000003,158.76716000000002,-20.947779999999998,2
3021075019274,53731.704207,0.736338393705,16.5655,0.135,0.31440300000000004,230,16.447,0.44158000000000003,158.76716000000002,-20.947779999999998,2
3021075019274,53731.714009,0.767514940992,16.4212,0.128,0.31440300000000004,230,16.447,0.44158000000000003,158.76716000000002,-20.947779999999998,2
3021075019274,53731.723815,0.798704210814,16.2002,0.118,0.31440300000000004,230,16.447,0.44158000000000003,158.76716000000002,-20.947779999999998,2
3021075019274,53850.440198,0.391739264538,16.5398,0.115,0.31440300000000004,230,16.447,0.44158000000000003,158.76716000000002,-20.947779999999998,2
3021075019274,53850.453405,0.43374586117,16.6256,0.106,0.31440300000000004,230,16.447,0.44158000000000003,158.76716000000002,-20.947779999999998,2
3021075019274,53850.466517,0.475450297847,16.677,0.106,0.31440300000000004,230,16.447,0.44158000000000003,158.76716000000002,-20.947779999999998,2
3021075019274,53850.479586,0.517017967359,16.6838,0.107,0.31440300000000004,230,16.447,0.44158000000000003,158.76716000000002,-20.947779999999998,2
3021075019274,53764.634297,0.474810990941,16.7803,0.165,0.31440300000000004,230,16.447,0.44158000000000003,158.76716000000002,-20.947779999999998,2
3021075019274,53764.646582,0.513885045599,16.8506,0.171,0.31440300000000004,230,16.447,0.44158000000000003,158.76716000000002,-20.947779999999998,2
3021075019274,53764.658818,0.552803249331,16.7216,0.160,0.31440300000000004,230,16.447,0.44158000000000003,158.76716000000002,-20.947779999999998,2
3021075019274,53764.670944,0.591371583578,16.5794,0.150,0.31440300000000004,230,16.447,0.44158000000000003,158.76716000000002,-20.947779999999998,2
3021075019274,53923.367208,0.345664640598,16.475,0.105,0.31440300000000004,230,16.447,0.44158000000000003,158.76716000000002,-20.947779999999998,2
3021075019274,53923.375925,0.373390202993,16.5465,0.108,0.31440300000000004,230,16.447,0.44158000000000003,158.76716000000002,-20.947779999999998,2
3021075019274,53923.384620,0.401045791514,16.5575,0.108,0.31440300000000004,230,16.447,0.44158000000000003,158.76716000000002,-20.947779999999998,2
3021075019274,53923.393351,0.428815882769,16.7292,0.116,0.31440300000000004,230,16.447,0.44158000000000003,158.76716000000002,-20.947779999999998,2
3021075019274,53893.469641,0.252529396967,16.4721,0.101,0.31440300000000004,230,16.447,0.44158000000000003,158.76716000000002,-20.947779999999998,2
3021075019274,53893.476341,0.273839626199,16.4826,0.101,0.31440300000000004,230,16.447,0.44158000000000003,158.76716000000002,-20.947779999999998,2
3021075019274,53893.483036,0.295133952255,16.5052,0.103,0.31440300000000004,230,16.447,0.44158000000000003,158.76716000000002,-20.947779999999998,2
3021075019274,53893.489737,0.316447362129,16.5877,0.106,0.31440300000000004,230,16.447,0.44158000000000003,158.76716000000002,-20.947779999999998,2
3021075019274,53819.541354,0.113911126769,16.2572,0.104,0.31440300000000004,230,16.447,0.44158000000000003,158.76716000000002,-20.947779999999998,2
3021075019274,53819.553290,0.151875141135,16.2944,0.106,0.31440300000000004,230,16.447,0.44158000000000003,158.76716000000002,-20.947779999999998,2
3021075019274,53819.565182,0.189699207665,16.4257,0.111,0.31440300000000004,230,16.447,0.44158000000000003,158.76716000000002,-20.947779999999998,2
3021075019274,53819.577086,0.227561441803,16.4143,0.111,0.31440300000000004,230,16.447,0.44158000000000003,158.76716000000002,-20.947779999999998,2
3021075019274,53857.476726,0.772339958581,16.4033,0.112,0.31440300000000004,230,16.447,0.44158000000000003,158.76716000000002,-20.947779999999998,2
3021075019274,53857.486266,0.802683180489,16.274,0.107,0.31440300000000004,230,16.447,0.44158000000000003,158.76716000000002,-20.947779999999998,2
3021075019274,53857.495838,0.833128182596,16.3079,0.109,0.31440300000000004,230,16.447,0.44158000000000003,158.76716000000002,-20.947779999999998,2
3021075019274,53857.505427,0.863627255429,16.2656,0.108,0.31440300000000004,230,16.447,0.44158000000000003,158.76716000000002,-20.947779999999998,2
3021075019274,53865.527662,0.379398415389,16.6147,0.122,0.31440300000000004,230,16.447,0.44158000000000003,158.76716000000002,-20.947779999999998,2
3021075019274,53865.536237,0.406672328158,16.5657,0.120,0.31440300000000004,230,16.447,0.44158000000000003,158.76716000000002,-20.947779999999998,2
3021075019274,53865.544897,0.434216594615,16.5492,0.120,0.31440300000000004,230,16.447,0.44158000000000003,158.76716000000002,-20.947779999999998,2
3021075019274,53865.553545,0.461722693464,16.6802,0.127,0.31440300000000004,230,16.447,0.44158000000000003,158.76716000000002,-20.947779999999998,2
3021075019274,53872.441998,0.371351418376,16.5932,0.121,0.31440300000000004,230,16.447,0.44158000000000003,158.76716000000002,-20.947779999999998,2
3021075019274,53872.450503,0.398402686988,16.5526,0.119,0.31440300000000004,230,16.447,0.44158000000000003,158.76716000000002,-20.947779999999998,2
3021075019274,53872.459055,0.425603445241,16.7168,0.127,0.31440300000000004,230,16.447,0.44158000000000003,158.76716000000002,-20.947779999999998,2
3021075019274,53872.467583,0.452727868338,16.6351,0.123,0.31440300000000004,230,16.447,0.44158000000000003,158.76716000000002,-20.947779999999998,2
3021075019274,53885.451739,0.750539912115,16.5115,0.101,0.31440300000000004,230,16.447,0.44158000000000003,158.76716000000002,-20.947779999999998,2
3021075019274,53885.462606,0.785103831673,16.4215,0.098,0.31440300000000004,230,16.447,0.44158000000000003,158.76716000000002,-20.947779999999998,2
3021075019274,53885.473474,0.819670931873,16.3212,0.096,0.31440300000000004,230,16.447,0.44158000000000003,158.76716000000002,-20.947779999999998,2
3021075019274,53885.484360,0.85429528344,16.3235,0.096,0.31440300000000004,230,16.447,0.44158000000000003,158.76716000000002,-20.947779999999998,2
3021075019274,54068.689688,0.562882669677,16.6049,0.118,0.31440300000000004,230,16.447,0.44158000000000003,158.76716000000002,-20.947779999999998,2
3021075019274,54068.697844,0.588823897968,16.6815,0.122,0.31440300000000004,230,16.447,0.44158000000000003,158.76716000000002,-20.947779999999998,2
3021075019274,54068.706045,0.614908254676,16.7546,0.124,0.31440300000000004,230,16.447,0.44158000000000003,158.76716000000002,-20.947779999999998,2
3021075019274,54068.714375,0.641402912821,16.6199,0.117,0.31440300000000004,230,16.447,0.44158000000000003,158.76716000000002,-20.947779999999998,2
3021075019274,54198.532969,0.546476973803,16.6738,0.141,0.31440300000000004,230,16.447,0.44158000000000003,158.76716000000002,-20.947779999999998,2
3021075019274,54198.543139,0.57882399339,16.6083,0.137,0.31440300000000004,230,16.447,0.44158000000000003,158.76716000000002,-20.947779999999998,2
3021075019274,54198.553376,0.611384115269,16.678,0.142,0.31440300000000004,230,16.447,0.44158000000000003,158.76716000000002,-20.947779999999998,2
3021075019274,54198.563643,0.644039656094,16.7602,0.147,0.31440300000000004,230,16.447,0.44158000000000003,158.76716000000002,-20.947779999999998,2
3021075019274,54206.476744,0.812695807574,16.2135,0.117,0.31440300000000004,230,16.447,0.44158000000000003,158.76716000000002,-20.947779999999998,2
3021075019274,54206.486902,0.845004659583,16.2436,0.118,0.31440300000000004,230,16.447,0.44158000000000003,158.76716000000002,-20.947779999999998,2
3021075019274,54206.497065,0.877329414769,16.2633,0.119,0.31440300000000004,230,16.447,0.44158000000000003,158.76716000000002,-20.947779999999998,2
3021075019274,54206.507252,0.909730505111,16.2089,0.117,0.31440300000000004,230,16.447,0.44158000000000003,158.76716000000002,-20.947779999999998,2
3021075019274,54138.704923,0.255525551562,16.2916,0.121,0.31440300000000004,230,16.447,0.44158000000000003,158.76716000000002,-20.947779999999998,2
3021075019274,54138.710056,0.271851731668,16.4431,0.129,0.31440300000000004,230,16.447,0.44158000000000003,158.76716000000002,-20.947779999999998,2
3021075019274,54138.715216,0.288263788796,16.5329,0.134,0.31440300000000004,230,16.447,0.44158000000000003,158.76716000000002,-20.947779999999998,2
3021075019274,54138.720400,0.30475218108,16.5609,0.136,0.31440300000000004,230,16.447,0.44158000000000003,158.76716000000002,-20.947779999999998,2
3021075019274,54153.580649,0.569724207453,16.6747,0.118,0.31440300000000004,230,16.447,0.44158000000000003,158.76716000000002,-20.947779999999998,2
3021075019274,54153.594941,0.615181788977,16.6608,0.118,0.31440300000000004,230,16.447,0.44158000000000003,158.76716000000002,-20.947779999999998,2
3021075019274,54153.608955,0.659755155008,16.6897,0.119,0.31440300000000004,230,16.447,0.44158000000000003,158.76716000000002,-20.947779999999998,2
3021075019274,54153.622807,0.703813258762,16.56,0.113,0.31440300000000004,230,16.447,0.44158000000000003,158.76716000000002,-20.947779999999998,2
3021075019274,54112.748588,0.697995884257,16.5905,0.140,0.31440300000000004,230,16.447,0.44158000000000003,158.76716000000002,-20.947779999999998,2
3021075019274,54112.752434,0.710228591954,16.6095,0.141,0.31440300000000004,230,16.447,0.44158000000000003,158.76716000000002,-20.947779999999998,2
3021075019274,54112.756305,0.722540815448,16.5717,0.138,0.31440300000000004,230,16.447,0.44158000000000003,158.76716000000002,-20.947779999999998,2
3021075019274,54112.760161,0.734805329441,16.5015,0.134,0.31440300000000004,230,16.447,0.44158000000000003,158.76716000000002,-20.947779999999998,2
3021075019274,54292.373874,0.0197898874758,16.2182,0.115,0.31440300000000004,230,16.447,0.44158000000000003,158.76716000000002,-20.947779999999998,2
3021075019274,54292.378294,0.0338482774969,16.275,0.117,0.31440300000000004,230,16.447,0.44158000000000003,158.76716000000002,-20.947779999999998,2
3021075019274,54292.382715,0.0479098481592,16.2622,0.117,0.31440300000000004,230,16.447,0.44158000000000003,158.76716000000002,-20.947779999999998,2
3021075019274,54292.387121,0.0619237093488,16.2513,0.116,0.31440300000000004,230,16.447,0.44158000000000003,158.76716000000002,-20.947779999999998,2
3021075019274,54186.548892,0.42954742795,16.6829,0.140,0.31440300000000004,230,16.447,0.44158000000000003,158.76716000000002,-20.947779999999998,2
3021075019274,54186.559540,0.463414789294,16.5708,0.134,0.31440300000000004,230,16.447,0.44158000000000003,158.76716000000002,-20.947779999999998,2
3021075019274,54186.570198,0.497313956905,16.7118,0.141,0.31440300000000004,230,16.447,0.44158000000000003,158.76716000000002,-20.947779999999998,2
3021075019274,54186.580849,0.531190860114,16.7067,0.142,0.31440300000000004,230,16.447,0.44158000000000003,158.76716000000002,-20.947779999999998,2
3021075019274,54231.440526,0.213280407595,16.3584,0.125,0.31440300000000004,230,16.447,0.44158000000000003,158.76716000000002,-20.947779999999998,2
3021075019274,54231.449426,0.241588025528,16.5144,0.133,0.31440300000000004,230,16.447,0.44158000000000003,158.76716000000002,-20.947779999999998,2
3021075019274,54231.458354,0.269984701154,16.3943,0.127,0.31440300000000004,230,16.447,0.44158000000000003,158.76716000000002,-20.947779999999998,2
3021075019274,54231.467267,0.298333667277,16.5015,0.133,0.31440300000000004,230,16.447,0.44158000000000003,158.76716000000002,-20.947779999999998,2
3021075019274,54236.466677,0.199613235221,16.3632,0.128,0.31440300000000004,230,16.447,0.44158000000000003,158.76716000000002,-20.947779999999998,2
3021075019274,54236.473059,0.21991202372,16.3922,0.130,0.31440300000000004,230,16.447,0.44158000000000003,158.76716000000002,-20.947779999999998,2
3021075019274,54236.479475,0.240318953671,16.4616,0.135,0.31440300000000004,230,16.447,0.44158000000000003,158.76716000000002,-20.947779999999998,2
3021075019274,54236.485893,0.260732244875,16.4184,0.141,0.31440300000000004,230,16.447,0.44158000000000003,158.76716000000002,-20.947779999999998,2
3021075019274,54247.455274,0.150288006145,16.2814,0.123,0.31440300000000004,230,16.447,0.44158000000000003,158.76716000000002,-20.947779999999998,2
3021075019274,54247.468101,0.191085962899,16.3673,0.127,0.31440300000000004,230,16.447,0.44158000000000003,158.76716000000002,-20.947779999999998,2
3021075019274,54247.480950,0.231953893526,16.4402,0.132,0.31440300000000004,230,16.447,0.44158000000000003,158.76716000000002,-20.947779999999998,2
3021075019274,54247.493798,0.272818643571,16.5289,0.137,0.31440300000000004,230,16.447,0.44158000000000003,158.76716000000002,-20.947779999999998,2
3021075019274,54424.693675,0.880281040561,16.3035,0.124,0.31440300000000004,230,16.447,0.44158000000000003,158.76716000000002,-20.947779999999998,2
3021075019274,54424.702784,0.909253410413,16.2849,0.122,0.31440300000000004,230,16.447,0.44158000000000003,158.76716000000002,-20.947779999999998,2
3021075019274,54424.711910,0.938279850991,16.2294,0.119,0.31440300000000004,230,16.447,0.44158000000000003,158.76716000000002,-20.947779999999998,2
3021075019274,54424.721161,0.967703870498,16.2045,0.117,0.31440300000000004,230,16.447,0.44158000000000003,158.76716000000002,-20.947779999999998,2
3021075019274,54803.672038,0.270697162516,16.4216,0.093,0.31440300000000004,230,16.447,0.44158000000000003,158.76716000000002,-20.947779999999998,2
3021075019274,54803.685110,0.312274373951,16.4882,0.099,0.31440300000000004,230,16.447,0.44158000000000003,158.76716000000002,-20.947779999999998,2
3021075019274,54803.698194,0.353889752936,16.5362,0.096,0.31440300000000004,230,16.447,0.44158000000000003,158.76716000000002,-20.947779999999998,2
3021075019274,54803.711295,0.395559202647,16.5842,0.095,0.31440300000000004,230,16.447,0.44158000000000003,158.76716000000002,-20.947779999999998,2
3021075019274,54471.701702,0.395479686878,16.5985,0.112,0.31440300000000004,230,16.447,0.44158000000000003,158.76716000000002,-20.947779999999998,2
3021075019274,54471.713488,0.432966606546,16.6542,0.115,0.31440300000000004,230,16.447,0.44158000000000003,158.76716000000002,-20.947779999999998,2
3021075019274,54471.725052,0.469747426047,16.6394,0.114,0.31440300000000004,230,16.447,0.44158000000000003,158.76716000000002,-20.947779999999998,2
3021075019274,54471.736624,0.506553690619,16.676,0.115,0.31440300000000004,230,16.447,0.44158000000000003,158.76716000000002,-20.947779999999998,2
3021075019274,54493.621973,0.115778157313,16.3683,0.124,0.31440300000000004,230,16.447,0.44158000000000003,158.76716000000002,-20.947779999999998,2
3021075019274,54493.632610,0.149610531691,16.2938,0.121,0.31440300000000004,230,16.447,0.44158000000000003,158.76716000000002,-20.947779999999998,2
3021075019274,54493.643351,0.183773691708,16.4782,0.129,0.31440300000000004,230,16.447,0.44158000000000003,158.76716000000002,-20.947779999999998,2
3021075019274,54493.654029,0.217736471939,16.3775,0.124,0.31440300000000004,230,16.447,0.44158000000000003,158.76716000000002,-20.947779999999998,2
3021075019274,54596.458039,0.19938104914,16.349,0.090,0.31440300000000004,230,16.447,0.44158000000000003,158.76716000000002,-20.947779999999998,2
3021075019274,54596.468926,0.234008581319,16.3963,0.091,0.31440300000000004,230,16.447,0.44158000000000003,158.76716000000002,-20.947779999999998,2
3021075019274,54596.479832,0.268696545478,16.4229,0.094,0.31440300000000004,230,16.447,0.44158000000000003,158.76716000000002,-20.947779999999998,2
3021075019274,54596.490708,0.30328909072,16.4776,0.094,0.31440300000000004,230,16.447,0.44158000000000003,158.76716000000002,-20.947779999999998,2
3021075019274,54616.442332,0.762047435914,16.3712,0.092,0.31440300000000004,230,16.447,0.44158000000000003,158.76716000000002,-20.947779999999998,2
3021075019274,54616.452145,0.793258970167,16.3243,0.090,0.31440300000000004,230,16.447,0.44158000000000003,158.76716000000002,-20.947779999999998,2
3021075019274,54616.462070,0.824826735101,16.1723,0.087,0.31440300000000004,230,16.447,0.44158000000000003,158.76716000000002,-20.947779999999998,2
3021075019274,54616.471923,0.856165494566,16.2565,0.089,0.31440300000000004,230,16.447,0.44158000000000003,158.76716000000002,-20.947779999999998,2
3021075019274,54937.547398,0.0788478481409,16.2386,0.106,0.31440300000000004,230,16.447,0.44158000000000003,158.76716000000002,-20.947779999999998,2
3021075019274,54937.557713,0.111656059249,16.3185,0.109,0.31440300000000004,230,16.447,0.44158000000000003,158.76716000000002,-20.947779999999998,2
3021075019274,54937.568006,0.144394296483,16.3759,0.111,0.31440300000000004,230,16.447,0.44158000000000003,158.76716000000002,-20.947779999999998,2
3021075019274,54937.578305,0.177151617507,16.4053,0.113,0.31440300000000004,230,16.447,0.44158000000000003,158.76716000000002,-20.947779999999998,2
3021075019274,54947.463653,0.618798166659,16.5958,0.120,0.31440300000000004,230,16.447,0.44158000000000003,158.76716000000002,-20.947779999999998,2
3021075019274,54947.474666,0.65382645838,16.6268,0.122,0.31440300000000004,230,16.447,0.44158000000000003,158.76716000000002,-20.947779999999998,2
3021075019274,54947.485752,0.689086936181,16.5752,0.133,0.31440300000000004,230,16.447,0.44158000000000003,158.76716000000002,-20.947779999999998,2
3021075019274,54947.496783,0.72417247924,16.2242,0.365,0.31440300000000004,230,16.447,0.44158000000000003,158.76716000000002,-20.947779999999998,2
3021075019274,54948.480144,0.851881184324,16.2321,0.104,0.31440300000000004,230,16.447,0.44158000000000003,158.76716000000002,-20.947779999999998,2
3021075019274,54948.485995,0.870491057634,16.2498,0.105,0.31440300000000004,230,16.447,0.44158000000000003,158.76716000000002,-20.947779999999998,2
3021075019274,54948.491981,0.88953031617,16.261,0.110,0.31440300000000004,230,16.447,0.44158000000000003,158.76716000000002,-20.947779999999998,2
3021075019274,54948.497896,0.908343749878,16.1395,0.113,0.31440300000000004,230,16.447,0.44158000000000003,158.76716000000002,-20.947779999999998,2
3021075019274,55171.699470,0.830240169453,16.2586,0.094,0.31440300000000004,230,16.447,0.44158000000000003,158.76716000000002,-20.947779999999998,2
3021075019274,55171.709632,0.862561743968,16.303,0.095,0.31440300000000004,230,16.447,0.44158000000000003,158.76716000000002,-20.947779999999998,2
3021075019274,55171.719813,0.894943750522,16.2581,0.094,0.31440300000000004,230,16.447,0.44158000000000003,158.76716000000002,-20.947779999999998,2
3021075019274,55171.730101,0.927666084579,16.3059,0.095,0.31440300000000004,230,16.447,0.44158000000000003,158.76716000000002,-20.947779999999998,2
3021075019274,54883.641585,0.624335645611,16.582,0.101,0.31440300000000004,230,16.447,0.44158000000000003,158.76716000000002,-20.947779999999998,2
3021075019274,54883.654602,0.665737922332,16.6162,0.102,0.31440300000000004,230,16.447,0.44158000000000003,158.76716000000002,-20.947779999999998,2
3021075019274,54883.667596,0.70706704451,16.4876,0.098,0.31440300000000004,230,16.447,0.44158000000000003,158.76716000000002,-20.947779999999998,2
3021075019274,54883.680539,0.74823395448,16.4433,0.097,0.31440300000000004,230,16.447,0.44158000000000003,158.76716000000002,-20.947779999999998,2
3021075019274,54847.729801,0.402193999413,16.218,0.085,0.31440300000000004,230,16.447,0.44158000000000003,158.76716000000002,-20.947779999999998,2
3021075019274,54860.623742,0.413065396948,16.634,0.118,0.31440300000000004,230,16.447,0.44158000000000003,158.76716000000002,-20.947779999999998,2
3021075019274,54860.632265,0.440173916897,16.523,0.114,0.31440300000000004,230,16.447,0.44158000000000003,158.76716000000002,-20.947779999999998,2
3021075019274,54860.640847,0.467470094096,16.6044,0.117,0.31440300000000004,230,16.447,0.44158000000000003,158.76716000000002,-20.947779999999998,2
3021075019274,54860.649426,0.4947567294,16.6895,0.121,0.31440300000000004,230,16.447,0.44158000000000003,158.76716000000002,-20.947779999999998,2
3021075019274,54998.418778,0.688259972056,16.7687,0.488,0.31440300000000004,230,16.447,0.44158000000000003,158.76716000000002,-20.947779999999998,2
3021075019274,55005.379491,0.827721109497,16.2731,0.095,0.31440300000000004,230,16.447,0.44158000000000003,158.76716000000002,-20.947779999999998,2
3021075019274,55005.388073,0.855017286725,16.2366,0.094,0.31440300000000004,230,16.447,0.44158000000000003,158.76716000000002,-20.947779999999998,2
3021075019274,55005.396679,0.882389799051,16.2636,0.095,0.31440300000000004,230,16.447,0.44158000000000003,158.76716000000002,-20.947779999999998,2
3021075019274,55005.405295,0.909794117702,16.2098,0.094,0.31440300000000004,230,16.447,0.44158000000000003,158.76716000000002,-20.947779999999998,2
3021075019274,54906.608330,0.673081999848,16.6155,0.103,0.31440300000000004,230,16.447,0.44158000000000003,158.76716000000002,-20.947779999999998,2
3021075019274,54906.621167,0.713911762898,16.5818,0.102,0.31440300000000004,230,16.447,0.44158000000000003,158.76716000000002,-20.947779999999998,2
3021075019274,54906.634067,0.754941905732,16.4392,0.098,0.31440300000000004,230,16.447,0.44158000000000003,158.76716000000002,-20.947779999999998,2
3021075019274,54906.646975,0.795997493638,16.3467,0.095,0.31440300000000004,230,16.447,0.44158000000000003,158.76716000000002,-20.947779999999998,2
3021075019274,54918.541909,0.629396029923,16.6305,0.120,0.31440300000000004,230,16.447,0.44158000000000003,158.76716000000002,-20.947779999999998,2
3021075019274,54918.550320,0.656148319191,16.5626,0.117,0.31440300000000004,230,16.447,0.44158000000000003,158.76716000000002,-20.947779999999998,2
3021075019274,54918.558753,0.682970582304,16.6041,0.119,0.31440300000000004,230,16.447,0.44158000000000003,158.76716000000002,-20.947779999999998,2
3021075019274,54918.567201,0.709840554919,16.5795,0.118,0.31440300000000004,230,16.447,0.44158000000000003,158.76716000000002,-20.947779999999998,2
3021075019274,54963.422635,0.378434684128,16.5218,0.101,0.31440300000000004,230,16.447,0.44158000000000003,158.76716000000002,-20.947779999999998,2
3021075019274,54963.433327,0.41244199322,16.5692,0.103,0.31440300000000004,230,16.447,0.44158000000000003,158.76716000000002,-20.947779999999998,2
3021075019274,54963.444105,0.446722836583,16.661,0.106,0.31440300000000004,230,16.447,0.44158000000000003,158.76716000000002,-20.947779999999998,2
3021075019274,54963.454799,0.480736506928,16.6624,0.107,0.31440300000000004,230,16.447,0.44158000000000003,158.76716000000002,-20.947779999999998,2
3021075019274,54978.442419,0.150828713435,16.2921,0.112,0.31440300000000004,230,16.447,0.44158000000000003,158.76716000000002,-20.947779999999998,2
3021075019274,54978.450850,0.177644615324,16.295,0.113,0.31440300000000004,230,16.447,0.44158000000000003,158.76716000000002,-20.947779999999998,2
3021075019274,54978.521063,0.400966275745,16.5795,0.129,0.31440300000000004,230,16.447,0.44158000000000003,158.76716000000002,-20.947779999999998,2
3021075019274,55303.530607,0.136471344071,16.3203,0.101,0.31440300000000004,230,16.447,0.44158000000000003,158.76716000000002,-20.947779999999998,2
3021075019274,55242.675632,0.579237475438,16.6916,0.110,0.31440300000000004,230,16.447,0.44158000000000003,158.76716000000002,-20.947779999999998,2
3021075019274,55207.671608,0.244345632789,16.4766,0.101,0.31440300000000004,230,16.447,0.44158000000000003,158.76716000000002,-20.947779999999998,2
3021075019274,55207.739182,0.459273607412,16.6888,0.108,0.31440300000000004,230,16.447,0.44158000000000003,158.76716000000002,-20.947779999999998,2
3021075019274,55268.610623,0.0688797498588,16.2369,0.088,0.31440300000000004,230,16.447,0.44158000000000003,158.76716000000002,-20.947779999999998,2
3021075019274,55322.458929,0.340483392298,16.5619,0.127,0.31440300000000004,230,16.447,0.44158000000000003,158.76716000000002,-20.947779999999998,2
3021075019274,55322.487678,0.431923359487,16.5148,0.127,0.31440300000000004,230,16.447,0.44158000000000003,158.76716000000002,-20.947779999999998,2
3021075019274,55658.532695,0.26719846818,16.4857,0.108,0.31440300000000004,230,16.447,0.44158000000000003,158.76716000000002,-20.947779999999998,2
3021075019274,55658.575274,0.40262656525,16.5927,0.128,0.31440300000000004,230,16.447,0.44158000000000003,158.76716000000002,-20.947779999999998,2
3021075019274,55678.547565,0.927119016007,16.2205,0.085,0.31440300000000004,230,16.447,0.44158000000000003,158.76716000000002,-20.947779999999998,2
3021075019274,55678.581922,0.0363959631068,16.3119,0.091,0.31440300000000004,230,16.447,0.44158000000000003,158.76716000000002,-20.947779999999998,2
3021075019274,55595.683094,0.365794855636,16.6097,0.106,0.31440300000000004,230,16.447,0.44158000000000003,158.76716000000002,-20.947779999999998,2
3021075019274,55595.725561,0.500866721995,16.5445,0.105,0.31440300000000004,230,16.447,0.44158000000000003,158.76716000000002,-20.947779999999998,2
3021075019274,55626.620148,0.765154912631,16.339,0.079,0.31440300000000004,230,16.447,0.44158000000000003,158.76716000000002,-20.947779999999998,2
3021075019274,55626.662530,0.899956425332,16.1914,0.077,0.31440300000000004,230,16.447,0.44158000000000003,158.76716000000002,-20.947779999999998,2
3021075019274,55648.596626,0.664227122499,16.6125,0.097,0.31440300000000004,230,16.447,0.44158000000000003,158.76716000000002,-20.947779999999998,2
3021075019274,55648.639051,0.799165402335,16.5112,0.127,0.31440300000000004,230,16.447,0.44158000000000003,158.76716000000002,-20.947779999999998,2
3021075019274,55696.499794,0.026539186947,16.3528,0.098,0.31440300000000004,230,16.447,0.44158000000000003,158.76716000000002,-20.947779999999998,2
3021075019274,55696.510565,0.0607977658801,16.3211,0.098,0.31440300000000004,230,16.447,0.44158000000000003,158.76716000000002,-20.947779999999998,2
3021075019274,55696.532038,0.129095460259,16.3483,0.099,0.31440300000000004,230,16.447,0.44158000000000003,158.76716000000002,-20.947779999999998,2
3021075019274,55701.410539,0.645808087051,16.6988,0.110,0.31440300000000004,230,16.447,0.44158000000000003,158.76716000000002,-20.947779999999998,2
3021075019274,55701.420095,0.676202199073,16.5889,0.106,0.31440300000000004,230,16.447,0.44158000000000003,158.76716000000002,-20.947779999999998,2
3021075019274,55701.429527,0.706201912806,16.5275,0.104,0.31440300000000004,230,16.447,0.44158000000000003,158.76716000000002,-20.947779999999998,2
3021075019274,55701.439071,0.73655785725,16.4427,0.101,0.31440300000000004,230,16.447,0.44158000000000003,158.76716000000002,-20.947779999999998,2
3021075019274,55031.374031,0.506766792911,16.4873,0.122,0.31440300000000004,230,16.447,0.44158000000000003,158.76716000000002,-20.947779999999998,2
3021075019274,55031.377810,0.518786398316,16.6337,0.129,0.31440300000000004,230,16.447,0.44158000000000003,158.76716000000002,-20.947779999999998,2
3021075019274,55031.381589,0.53080600372,16.5686,0.127,0.31440300000000004,230,16.447,0.44158000000000003,158.76716000000002,-20.947779999999998,2
3021075019274,55031.385366,0.542819247901,16.676,0.133,0.31440300000000004,230,16.447,0.44158000000000003,158.76716000000002,-20.947779999999998,2
3021075019274,54978.532278,0.436637054954,16.642,0.132,0.31440300000000004,230,16.447,0.44158000000000003,158.76716000000002,-20.947779999999998,2
3021075019274,55741.399650,0.836423316534,16.2882,0.090,0.31440300000000004,230,16.447,0.44158000000000003,158.76716000000002,-20.947779999999998,2
3021075019274,55741.410130,0.869756331813,16.2813,0.091,0.31440300000000004,230,16.447,0.44158000000000003,158.76716000000002,-20.947779999999998,2
3021075019274,55741.420624,0.903133875923,16.2548,0.090,0.31440300000000004,230,16.447,0.44158000000000003,158.76716000000002,-20.947779999999998,2
3021075019274,55741.431258,0.936956708407,16.176,0.089,0.31440300000000004,230,16.447,0.44158000000000003,158.76716000000002,-20.947779999999998,2
3021075019274,55922.702406,0.493630785932,16.5985,0.106,0.31440300000000004,230,16.447,0.44158000000000003,158.76716000000002,-20.947779999999998,2
3021075019274,55922.709676,0.516753974953,16.6906,0.112,0.31440300000000004,230,16.447,0.44158000000000003,158.76716000000002,-20.947779999999998,2
3021075019274,55922.717039,0.540172962705,16.6671,0.110,0.31440300000000004,230,16.447,0.44158000000000003,158.76716000000002,-20.947779999999998,2
3021075019274,55922.724248,0.563102133223,16.6706,0.110,0.31440300000000004,230,16.447,0.44158000000000003,158.76716000000002,-20.947779999999998,2
3021075019274,55979.604724,0.478920366499,16.6878,0.093,0.31440300000000004,230,16.447,0.44158000000000003,158.76716000000002,-20.947779999999998,2
3021075019274,55979.617454,0.519409802044,16.6234,0.092,0.31440300000000004,230,16.447,0.44158000000000003,158.76716000000002,-20.947779999999998,2
3021075019274,55979.630288,0.560230023228,16.6275,0.092,0.31440300000000004,230,16.447,0.44158000000000003,158.76716000000002,-20.947779999999998,2
3021075019274,55979.643102,0.600986631791,16.594,0.091,0.31440300000000004,230,16.447,0.44158000000000003,158.76716000000002,-20.947779999999998,2
3021075019274,56037.494111,0.603712432756,16.6858,0.094,0.31440300000000004,230,16.447,0.44158000000000003,158.76716000000002,-20.947779999999998,2
3021075019274,56037.508175,0.648444830353,16.6649,0.093,0.31440300000000004,230,16.447,0.44158000000000003,158.76716000000002,-20.947779999999998,2
3021075019274,56037.522318,0.693428497791,16.5463,0.090,0.31440300000000004,230,16.447,0.44158000000000003,158.76716000000002,-20.947779999999998,2
3021075019274,56037.536603,0.738863814884,16.4304,0.087,0.31440300000000004,230,16.447,0.44158000000000003,158.76716000000002,-20.947779999999998,2
3021075019274,56069.420716,0.150469302112,16.3752,0.088,0.31440300000000004,230,16.447,0.44158000000000003,158.76716000000002,-20.947779999999998,2
3021075019274,56069.431261,0.184009058401,16.3799,0.088,0.31440300000000004,230,16.447,0.44158000000000003,158.76716000000002,-20.947779999999998,2
3021075019274,56069.441879,0.2177810008,16.496,0.091,0.31440300000000004,230,16.447,0.44158000000000003,158.76716000000002,-20.947779999999998,2
3021075019274,56069.452521,0.251629278326,16.527,0.092,0.31440300000000004,230,16.447,0.44158000000000003,158.76716000000002,-20.947779999999998,2
3021075019274,56265.691421,0.415202781121,16.6489,0.092,0.31440300000000004,230,16.447,0.44158000000000003,158.76716000000002,-20.947779999999998,2
3021075019274,56265.702155,0.449343676708,16.5805,0.090,0.31440300000000004,230,16.447,0.44158000000000003,158.76716000000002,-20.947779999999998,2
3021075019274,56265.712925,0.483599075058,16.6411,0.091,0.31440300000000004,230,16.447,0.44158000000000003,158.76716000000002,-20.947779999999998,2
3021075019274,56265.723616,0.517603203509,16.6246,0.090,0.31440300000000004,230,16.447,0.44158000000000003,158.76716000000002,-20.947779999999998,2
3021075019274,56297.669806,0.12665273546,16.2438,0.102,0.31440300000000004,230,16.447,0.44158000000000003,158.76716000000002,-20.947779999999998,2
3021075019274,56297.679992,0.159050645161,16.3482,0.105,0.31440300000000004,230,16.447,0.44158000000000003,158.76716000000002,-20.947779999999998,2
3021075019274,56297.689913,0.190605687589,16.3579,0.105,0.31440300000000004,230,16.447,0.44158000000000003,158.76716000000002,-20.947779999999998,2
3021075019274,56297.699358,0.220646749513,16.4632,0.109,0.31440300000000004,230,16.447,0.44158000000000003,158.76716000000002,-20.947779999999998,2
3021075019274,56355.639638,0.507310680841,16.7624,0.107,0.31440300000000004,230,16.447,0.44158000000000003,158.76716000000002,-20.947779999999998,2
3021075019274,56355.649189,0.537688889715,16.6646,0.103,0.31440300000000004,230,16.447,0.44158000000000003,158.76716000000002,-20.947779999999998,2
3021075019274,56355.658727,0.56802575037,16.6712,0.103,0.31440300000000004,230,16.447,0.44158000000000003,158.76716000000002,-20.947779999999998,2
3021075019274,56355.668135,0.597949128947,16.5854,0.100,0.31440300000000004,230,16.447,0.44158000000000003,158.76716000000002,-20.947779999999998,2
3021075019274,56380.567607,0.793987334706,16.2639,0.081,0.31440300000000004,230,16.447,0.44158000000000003,158.76716000000002,-20.947779999999998,2
3021075019274,56380.581786,0.839085504878,16.3182,0.082,0.31440300000000004,230,16.447,0.44158000000000003,158.76716000000002,-20.947779999999998,2
3021075019274,56380.595918,0.884034185408,16.246,0.081,0.31440300000000004,230,16.447,0.44158000000000003,158.76716000000002,-20.947779999999998,2
3021075019274,56380.610061,0.929017852846,16.259,0.081,0.31440300000000004,230,16.447,0.44158000000000003,158.76716000000002,-20.947779999999998,2
3021075019274,56408.484450,0.587169969745,16.6883,0.092,0.31440300000000004,230,16.447,0.44158000000000003,158.76716000000002,-20.947779999999998,2
3021075019274,56408.492891,0.61401767793,16.6741,0.091,0.31440300000000004,230,16.447,0.44158000000000003,158.76716000000002,-20.947779999999998,2
3021075019274,56408.501355,0.64093854063,16.721,0.092,0.31440300000000004,230,16.447,0.44158000000000003,158.76716000000002,-20.947779999999998,2
3021075019274,56408.510002,0.668441458867,16.6997,0.092,0.31440300000000004,230,16.447,0.44158000000000003,158.76716000000002,-20.947779999999998,2
3021075019274,56423.458501,0.214104191109,16.4365,0.092,0.31440300000000004,230,16.447,0.44158000000000003,158.76716000000002,-20.947779999999998,2
3021075019274,56423.467451,0.242570840579,16.4917,0.094,0.31440300000000004,230,16.447,0.44158000000000003,158.76716000000002,-20.947779999999998,2
3021075019274,56423.476456,0.271212424792,16.5016,0.095,0.31440300000000004,230,16.447,0.44158000000000003,158.76716000000002,-20.947779999999998,2
3021075019274,56423.485531,0.300076653191,16.6043,0.097,0.31440300000000004,230,16.447,0.44158000000000003,158.76716000000002,-20.947779999999998,2
3021075019274,56461.370588,0.798472024733,16.3646,0.084,0.31440300000000004,230,16.447,0.44158000000000003,158.76716000000002,-20.947779999999998,2
3021075019274,56461.381879,0.834384531918,16.2925,0.083,0.31440300000000004,230,16.447,0.44158000000000003,158.76716000000002,-20.947779999999998,2
3021075019274,56461.393153,0.870242968376,16.2785,0.083,0.31440300000000004,230,16.447,0.44158000000000003,158.76716000000002,-20.947779999999998,2
3021075019274,56461.404444,0.90615547559,16.3239,0.086,0.31440300000000004,230,16.447,0.44158000000000003,158.76716000000002,-20.947779999999998,2
