ID,MjD,Phase,Mag,Mag_err,Period,Npts,V,Amp,ra,dec,Type
3021091017398,53591.377971,0.910291436419,17.1303,0.156,0.35431399999999996,237,17.28,0.35629299999999997,194.90285,-20.851760000000002,2
3021091017398,53591.387597,0.937459428649,17.2607,0.166,0.35431399999999996,237,17.28,0.35629299999999997,194.90285,-20.851760000000002,2
3021091017398,53591.397342,0.964963281178,17.1412,0.158,0.35431399999999996,237,17.28,0.35629299999999997,194.90285,-20.851760000000002,2
3021091017398,53591.406739,0.991484954022,17.2465,0.167,0.35431399999999996,237,17.28,0.35629299999999997,194.90285,-20.851760000000002,2
3021091017398,53733.679367,0.535392335616,17.3537,0.199,0.35431399999999996,237,17.28,0.35629299999999997,194.90285,-20.851760000000002,2
3021091017398,53733.687119,0.557271234022,17.3573,0.197,0.35431399999999996,237,17.28,0.35629299999999997,194.90285,-20.851760000000002,2
3021091017398,53733.694882,0.579181178298,17.5297,0.213,0.35431399999999996,237,17.28,0.35629299999999997,194.90285,-20.851760000000002,2
3021091017398,53733.702634,0.601060076675,17.2819,0.189,0.35431399999999996,237,17.28,0.35629299999999997,194.90285,-20.851760000000002,2
3021091017398,53554.395173,0.531695050158,17.4897,0.202,0.35431399999999996,237,17.28,0.35629299999999997,194.90285,-20.851760000000002,2
3021091017398,53554.402752,0.55308568108,17.5252,0.206,0.35431399999999996,237,17.28,0.35629299999999997,194.90285,-20.851760000000002,2
3021091017398,53554.410640,0.575348419778,17.4758,0.201,0.35431399999999996,237,17.28,0.35629299999999997,194.90285,-20.851760000000002,2
3021091017398,53554.418205,0.596699537709,17.4053,0.194,0.35431399999999996,237,17.28,0.35629299999999997,194.90285,-20.851760000000002,2
3021091017398,53568.458333,0.222929379059,17.3698,0.199,0.35431399999999996,237,17.28,0.35629299999999997,194.90285,-20.851760000000002,2
3021091017398,53568.471422,0.259871187736,17.2728,0.226,0.35431399999999996,237,17.28,0.35629299999999997,194.90285,-20.851760000000002,2
3021091017398,53568.477892,0.278131826606,17.443,0.212,0.35431399999999996,237,17.28,0.35629299999999997,194.90285,-20.851760000000002,2
3021091017398,53833.653944,0.69917079201,17.2473,0.116,0.35431399999999996,237,17.28,0.35629299999999997,194.90285,-20.851760000000002,2
3021091017398,53833.671127,0.747667323361,17.2276,0.115,0.35431399999999996,237,17.28,0.35629299999999997,194.90285,-20.851760000000002,2
3021091017398,53833.688316,0.796180788806,17.2233,0.115,0.35431399999999996,237,17.28,0.35629299999999997,194.90285,-20.851760000000002,2
3021091017398,53833.705477,0.844615228329,17.2315,0.116,0.35431399999999996,237,17.28,0.35629299999999997,194.90285,-20.851760000000002,2
3021091017398,53846.618995,0.291151351645,17.3935,0.169,0.35431399999999996,237,17.28,0.35629299999999997,194.90285,-20.851760000000002,2
3021091017398,53846.630586,0.323865272047,17.4957,0.177,0.35431399999999996,237,17.28,0.35629299999999997,194.90285,-20.851760000000002,2
3021091017398,53846.642182,0.356593304256,17.5828,0.185,0.35431399999999996,237,17.28,0.35629299999999997,194.90285,-20.851760000000002,2
3021091017398,53846.653940,0.389778558019,17.4642,0.175,0.35431399999999996,237,17.28,0.35629299999999997,194.90285,-20.851760000000002,2
3021091017398,53854.551062,0.678262783884,17.2969,0.163,0.35431399999999996,237,17.28,0.35629299999999997,194.90285,-20.851760000000002,2
3021091017398,53854.560729,0.705546492653,17.2928,0.163,0.35431399999999996,237,17.28,0.35629299999999997,194.90285,-20.851760000000002,2
3021091017398,53854.570508,0.733146305254,17.2807,0.162,0.35431399999999996,237,17.28,0.35629299999999997,194.90285,-20.851760000000002,2
3021091017398,53854.580217,0.760548552993,17.2837,0.162,0.35431399999999996,237,17.28,0.35629299999999997,194.90285,-20.851760000000002,2
3021091017398,53953.394918,0.650744819577,17.1168,0.177,0.35431399999999996,237,17.28,0.35629299999999997,194.90285,-20.851760000000002,2
3021091017398,53953.401749,0.67002432872,17.1297,0.179,0.35431399999999996,237,17.28,0.35629299999999997,194.90285,-20.851760000000002,2
3021091017398,53953.408598,0.689354640257,16.9073,0.163,0.35431399999999996,237,17.28,0.35629299999999997,194.90285,-20.851760000000002,2
3021091017398,53953.415432,0.708642616461,17.291,0.196,0.35431399999999996,237,17.28,0.35629299999999997,194.90285,-20.851760000000002,2
3021091017398,53767.675411,0.484307704464,17.4413,0.146,0.35431399999999996,237,17.28,0.35629299999999997,194.90285,-20.851760000000002,2
3021091017398,53767.692693,0.533083648974,17.2923,0.136,0.35431399999999996,237,17.28,0.35629299999999997,194.90285,-20.851760000000002,2
3021091017398,53767.709912,0.581681785086,17.1757,0.130,0.35431399999999996,237,17.28,0.35629299999999997,194.90285,-20.851760000000002,2
3021091017398,53767.727408,0.631061713648,17.1249,0.128,0.35431399999999996,237,17.28,0.35629299999999997,194.90285,-20.851760000000002,2
3021091017398,53901.476150,0.11753416463,17.3089,0.177,0.35431399999999996,237,17.28,0.35629299999999997,194.90285,-20.851760000000002,2
3021091017398,53901.484684,0.141620144859,17.25,0.172,0.35431399999999996,237,17.28,0.35629299999999997,194.90285,-20.851760000000002,2
3021091017398,53901.493238,0.1657625722,17.1762,0.166,0.35431399999999996,237,17.28,0.35629299999999997,194.90285,-20.851760000000002,2
3021091017398,53901.501779,0.189868308924,17.5681,0.201,0.35431399999999996,237,17.28,0.35629299999999997,194.90285,-20.851760000000002,2
3021091017398,53912.447208,0.0817579886934,17.1537,0.165,0.35431399999999996,237,17.28,0.35629299999999997,194.90285,-20.851760000000002,2
3021091017398,53912.455780,0.105951218429,17.2001,0.169,0.35431399999999996,237,17.28,0.35629299999999997,194.90285,-20.851760000000002,2
3021091017398,53912.464301,0.130000508041,17.2418,0.172,0.35431399999999996,237,17.28,0.35629299999999997,194.90285,-20.851760000000002,2
3021091017398,53818.657304,0.373324226559,17.2952,0.162,0.35431399999999996,237,17.28,0.35629299999999997,194.90285,-20.851760000000002,2
3021091017398,53818.667591,0.402357795625,17.3351,0.164,0.35431399999999996,237,17.28,0.35629299999999997,194.90285,-20.851760000000002,2
3021091017398,53818.677962,0.431628442602,17.3243,0.164,0.35431399999999996,237,17.28,0.35629299999999997,194.90285,-20.851760000000002,2
3021091017398,53818.688418,0.461138989718,17.4032,0.169,0.35431399999999996,237,17.28,0.35629299999999997,194.90285,-20.851760000000002,2
3021091017398,53871.481903,0.463111816091,17.4323,0.174,0.35431399999999996,237,17.28,0.35629299999999997,194.90285,-20.851760000000002,2
3021091017398,53871.490432,0.487183684541,17.4648,0.176,0.35431399999999996,237,17.28,0.35629299999999997,194.90285,-20.851760000000002,2
3021091017398,53871.498953,0.511232974153,17.2551,0.160,0.35431399999999996,237,17.28,0.35629299999999997,194.90285,-20.851760000000002,2
3021091017398,53871.507457,0.535234283743,17.3126,0.165,0.35431399999999996,237,17.28,0.35629299999999997,194.90285,-20.851760000000002,2
3021091017398,53880.488160,0.881969100883,16.9894,0.144,0.35431399999999996,237,17.28,0.35629299999999997,194.90285,-20.851760000000002,2
3021091017398,53880.498581,0.911380865582,17.109,0.151,0.35431399999999996,237,17.28,0.35629299999999997,194.90285,-20.851760000000002,2
3021091017398,53880.509007,0.940806742059,17.1053,0.154,0.35431399999999996,237,17.28,0.35629299999999997,194.90285,-20.851760000000002,2
3021091017398,53880.519417,0.970187460858,16.9456,0.141,0.35431399999999996,237,17.28,0.35629299999999997,194.90285,-20.851760000000002,2
3021091017398,54198.619730,0.762295590917,17.2623,0.190,0.35431399999999996,237,17.28,0.35629299999999997,194.90285,-20.851760000000002,2
3021091017398,54198.629954,0.791151351645,17.226,0.187,0.35431399999999996,237,17.28,0.35629299999999997,194.90285,-20.851760000000002,2
3021091017398,54198.640183,0.82002122415,17.0884,0.175,0.35431399999999996,237,17.28,0.35629299999999997,194.90285,-20.851760000000002,2
3021091017398,54198.650421,0.848916497809,17.2156,0.186,0.35431399999999996,237,17.28,0.35629299999999997,194.90285,-20.851760000000002,2
3021091017398,54203.609991,0.846585232328,17.0733,0.173,0.35431399999999996,237,17.28,0.35629299999999997,194.90285,-20.851760000000002,2
3021091017398,54203.618470,0.870515983028,17.1141,0.177,0.35431399999999996,237,17.28,0.35629299999999997,194.90285,-20.851760000000002,2
3021091017398,54203.626932,0.894398753648,17.0703,0.173,0.35431399999999996,237,17.28,0.35629299999999997,194.90285,-20.851760000000002,2
3021091017398,54203.635406,0.91831539257,16.9756,0.168,0.35431399999999996,237,17.28,0.35629299999999997,194.90285,-20.851760000000002,2
3021091017398,54208.671565,0.132145498064,17.0883,0.177,0.35431399999999996,237,17.28,0.35629299999999997,194.90285,-20.851760000000002,2
3021091017398,54208.680400,0.157081007259,17.2183,0.189,0.35431399999999996,237,17.28,0.35629299999999997,194.90285,-20.851760000000002,2
3021091017398,54208.689318,0.182250771933,17.1339,0.187,0.35431399999999996,237,17.28,0.35629299999999997,194.90285,-20.851760000000002,2
3021091017398,54208.698059,0.206920979719,17.3445,0.219,0.35431399999999996,237,17.28,0.35629299999999997,194.90285,-20.851760000000002,2
3021091017398,54316.356270,0.0566446711309,17.0731,0.163,0.35431399999999996,237,17.28,0.35629299999999997,194.90285,-20.851760000000002,2
3021091017398,54316.361371,0.0710415055801,17.1965,0.171,0.35431399999999996,237,17.28,0.35629299999999997,194.90285,-20.851760000000002,2
3021091017398,54316.366544,0.08564154958,17.1911,0.172,0.35431399999999996,237,17.28,0.35629299999999997,194.90285,-20.851760000000002,2
3021091017398,54316.371658,0.100075074646,17.2036,0.173,0.35431399999999996,237,17.28,0.35629299999999997,194.90285,-20.851760000000002,2
3021091017398,54463.697121,0.904878158937,17.0837,0.202,0.35431399999999996,237,17.28,0.35629299999999997,194.90285,-20.851760000000002,2
3021091017398,54463.704270,0.925055177067,17.0495,0.197,0.35431399999999996,237,17.28,0.35629299999999997,194.90285,-20.851760000000002,2
3021091017398,54463.711628,0.945822067442,17.2836,0.220,0.35431399999999996,237,17.28,0.35629299999999997,194.90285,-20.851760000000002,2
3021091017398,54463.718804,0.96607528915,17.1853,0.209,0.35431399999999996,237,17.28,0.35629299999999997,194.90285,-20.851760000000002,2
3021091017398,54153.699725,0.982080866146,17.1013,0.144,0.35431399999999996,237,17.28,0.35629299999999997,194.90285,-20.851760000000002,2
3021091017398,54153.713538,0.021066060086,17.2086,0.150,0.35431399999999996,237,17.28,0.35629299999999997,194.90285,-20.851760000000002,2
3021091017398,54153.727283,0.0598593338218,17.2318,0.152,0.35431399999999996,237,17.28,0.35629299999999997,194.90285,-20.851760000000002,2
3021091017398,54153.740989,0.0985425357358,17.3027,0.157,0.35431399999999996,237,17.28,0.35629299999999997,194.90285,-20.851760000000002,2
3021091017398,54267.469945,0.0820656254073,17.3223,0.182,0.35431399999999996,237,17.28,0.35629299999999997,194.90285,-20.851760000000002,2
3021091017398,54267.478761,0.106947509834,17.3326,0.184,0.35431399999999996,237,17.28,0.35629299999999997,194.90285,-20.851760000000002,2
3021091017398,54267.487549,0.131750368339,17.2203,0.175,0.35431399999999996,237,17.28,0.35629299999999997,194.90285,-20.851760000000002,2
3021091017398,54267.496366,0.156635075109,17.3453,0.185,0.35431399999999996,237,17.28,0.35629299999999997,194.90285,-20.851760000000002,2
3021091017398,54170.648123,0.816481990565,17.2939,0.188,0.35431399999999996,237,17.28,0.35629299999999997,194.90285,-20.851760000000002,2
3021091017398,54170.659648,0.849009635538,17.0961,0.171,0.35431399999999996,237,17.28,0.35629299999999997,194.90285,-20.851760000000002,2
3021091017398,54170.671134,0.881427208631,17.0319,0.167,0.35431399999999996,237,17.28,0.35629299999999997,194.90285,-20.851760000000002,2
3021091017398,54170.682653,0.913937919511,17.243,0.184,0.35431399999999996,237,17.28,0.35629299999999997,194.90285,-20.851760000000002,2
3021091017398,54186.685083,0.0784812341735,17.2996,0.189,0.35431399999999996,237,17.28,0.35629299999999997,194.90285,-20.851760000000002,2
3021091017398,54186.695564,0.108062340209,17.387,0.197,0.35431399999999996,237,17.28,0.35629299999999997,194.90285,-20.851760000000002,2
3021091017398,54186.705980,0.13745999313,17.3131,0.191,0.35431399999999996,237,17.28,0.35629299999999997,194.90285,-20.851760000000002,2
3021091017398,54186.716362,0.166761685978,17.3857,0.198,0.35431399999999996,237,17.28,0.35629299999999997,194.90285,-20.851760000000002,2
3021091017398,54227.594423,0.539174291742,17.4257,0.168,0.35431399999999996,237,17.28,0.35629299999999997,194.90285,-20.851760000000002,2
3021091017398,54227.605300,0.569873050496,17.4173,0.168,0.35431399999999996,237,17.28,0.35629299999999997,194.90285,-20.851760000000002,2
3021091017398,54227.616174,0.60056334213,17.5878,0.183,0.35431399999999996,237,17.28,0.35629299999999997,194.90285,-20.851760000000002,2
3021091017398,54227.627044,0.631242344389,17.4154,0.169,0.35431399999999996,237,17.28,0.35629299999999997,194.90285,-20.851760000000002,2
3021091017398,54234.513203,0.0664297770127,17.2617,0.188,0.35431399999999996,237,17.28,0.35629299999999997,194.90285,-20.851760000000002,2
3021091017398,54234.520866,0.0880574857583,17.3515,0.196,0.35431399999999996,237,17.28,0.35629299999999997,194.90285,-20.851760000000002,2
3021091017398,54234.528577,0.109820667538,17.1219,0.176,0.35431399999999996,237,17.28,0.35629299999999997,194.90285,-20.851760000000002,2
3021091017398,54234.536247,0.131468132779,17.3033,0.192,0.35431399999999996,237,17.28,0.35629299999999997,194.90285,-20.851760000000002,2
3021091017398,54698.374989,0.249205507018,17.4945,0.182,0.35431399999999996,237,17.28,0.35629299999999997,194.90285,-20.851760000000002,2
3021091017398,54698.378960,0.260413079959,17.5392,0.192,0.35431399999999996,237,17.28,0.35629299999999997,194.90285,-20.851760000000002,2
3021091017398,54698.382926,0.271606541093,17.323,0.173,0.35431399999999996,237,17.28,0.35629299999999997,194.90285,-20.851760000000002,2
3021091017398,54698.386895,0.282808469346,16.9982,0.149,0.35431399999999996,237,17.28,0.35629299999999997,194.90285,-20.851760000000002,2
3021091017398,54830.720687,0.775789271691,17.1261,0.160,0.35431399999999996,237,17.28,0.35629299999999997,194.90285,-20.851760000000002,2
3021091017398,54830.724878,0.787617762806,17.1659,0.163,0.35431399999999996,237,17.28,0.35629299999999997,194.90285,-20.851760000000002,2
3021091017398,54830.729081,0.799480122165,17.1536,0.162,0.35431399999999996,237,17.28,0.35629299999999997,194.90285,-20.851760000000002,2
3021091017398,54830.733279,0.811328369775,16.9593,0.148,0.35431399999999996,237,17.28,0.35629299999999997,194.90285,-20.851760000000002,2
3021091017398,54491.646575,0.788168122061,17.0226,0.140,0.35431399999999996,237,17.28,0.35629299999999997,194.90285,-20.851760000000002,2
3021091017398,54491.656637,0.816566661233,17.0972,0.145,0.35431399999999996,237,17.28,0.35629299999999997,194.90285,-20.851760000000002,2
3021091017398,54491.666664,0.84486641793,17.1696,0.149,0.35431399999999996,237,17.28,0.35629299999999997,194.90285,-20.851760000000002,2
3021091017398,54491.676705,0.873205687618,17.1197,0.145,0.35431399999999996,237,17.28,0.35629299999999997,194.90285,-20.851760000000002,2
3021091017398,54624.471694,0.667848292767,17.2714,0.112,0.35431399999999996,237,17.28,0.35629299999999997,194.90285,-20.851760000000002,2
3021091017398,54624.481667,0.695995642309,17.3654,0.117,0.35431399999999996,237,17.28,0.35629299999999997,194.90285,-20.851760000000002,2
3021091017398,54624.491565,0.72393131518,17.2842,0.113,0.35431399999999996,237,17.28,0.35629299999999997,194.90285,-20.851760000000002,2
3021091017398,54624.501583,0.752205670695,17.2459,0.111,0.35431399999999996,237,17.28,0.35629299999999997,194.90285,-20.851760000000002,2
3021091017398,54644.439772,0.0248593055876,17.2384,0.127,0.35431399999999996,237,17.28,0.35629299999999997,194.90285,-20.851760000000002,2
3021091017398,54644.449615,0.0526397489302,17.3936,0.136,0.35431399999999996,237,17.28,0.35629299999999997,194.90285,-20.851760000000002,2
3021091017398,54644.459433,0.080349633412,17.3527,0.133,0.35431399999999996,237,17.28,0.35629299999999997,194.90285,-20.851760000000002,2
3021091017398,54644.469210,0.107943801297,17.2984,0.131,0.35431399999999996,237,17.28,0.35629299999999997,194.90285,-20.851760000000002,2
3021091017398,54532.632123,0.463947233278,17.5503,0.174,0.35431399999999996,237,17.28,0.35629299999999997,194.90285,-20.851760000000002,2
3021091017398,54532.645291,0.501112008002,17.5649,0.176,0.35431399999999996,237,17.28,0.35629299999999997,194.90285,-20.851760000000002,2
3021091017398,54532.658417,0.538158243842,17.4334,0.167,0.35431399999999996,237,17.28,0.35629299999999997,194.90285,-20.851760000000002,2
3021091017398,54532.671589,0.575334308,17.6319,0.183,0.35431399999999996,237,17.28,0.35629299999999997,194.90285,-20.851760000000002,2
3021091017398,54593.526816,0.330407491681,17.415,0.132,0.35431399999999996,237,17.28,0.35629299999999997,194.90285,-20.851760000000002,2
3021091017398,54593.538265,0.36272063764,17.3978,0.131,0.35431399999999996,237,17.28,0.35629299999999997,194.90285,-20.851760000000002,2
3021091017398,54593.549736,0.395095875429,17.4081,0.132,0.35431399999999996,237,17.28,0.35629299999999997,194.90285,-20.851760000000002,2
3021091017398,54593.561163,0.427346929559,17.5307,0.139,0.35431399999999996,237,17.28,0.35629299999999997,194.90285,-20.851760000000002,2
3021091017398,54948.571590,0.392911372415,17.5466,0.194,0.35431399999999996,237,17.28,0.35629299999999997,194.90285,-20.851760000000002,2
3021091017398,54948.579975,0.416576821706,17.5062,0.184,0.35431399999999996,237,17.28,0.35629299999999997,194.90285,-20.851760000000002,2
3021091017398,54948.596936,0.464446790167,17.4889,0.181,0.35431399999999996,237,17.28,0.35629299999999997,194.90285,-20.851760000000002,2
3021091017398,54949.569469,0.209280468756,17.1552,0.134,0.35431399999999996,237,17.28,0.35629299999999997,194.90285,-20.851760000000002,2
3021091017398,54889.643115,0.0758169307665,17.3149,0.163,0.35431399999999996,237,17.28,0.35629299999999997,194.90285,-20.851760000000002,2
3021091017398,54889.653422,0.104906946974,17.2658,0.159,0.35431399999999996,237,17.28,0.35629299999999997,194.90285,-20.851760000000002,2
3021091017398,54889.663975,0.134691262589,17.2812,0.169,0.35431399999999996,237,17.28,0.35629299999999997,194.90285,-20.851760000000002,2
3021091017398,54889.674085,0.163225274766,17.3272,0.172,0.35431399999999996,237,17.28,0.35629299999999997,194.90285,-20.851760000000002,2
3021091017398,54862.701695,0.0375570821634,17.1229,0.155,0.35431399999999996,237,17.28,0.35629299999999997,194.90285,-20.851760000000002,2
3021091017398,54862.710291,0.0618180484162,17.2249,0.161,0.35431399999999996,237,17.28,0.35629299999999997,194.90285,-20.851760000000002,2
3021091017398,54862.733364,0.126938252535,17.2356,0.160,0.35431399999999996,237,17.28,0.35629299999999997,194.90285,-20.851760000000002,2
3021091017398,54862.741955,0.15118510701,16.9634,0.142,0.35431399999999996,237,17.28,0.35629299999999997,194.90285,-20.851760000000002,2
3021091017398,55031.432316,0.25532155094,17.3771,0.180,0.35431399999999996,237,17.28,0.35629299999999997,194.90285,-20.851760000000002,2
3021091017398,55031.439915,0.276768628974,17.3792,0.181,0.35431399999999996,237,17.28,0.35629299999999997,194.90285,-20.851760000000002,2
3021091017398,55031.447511,0.298207239917,17.3707,0.181,0.35431399999999996,237,17.28,0.35629299999999997,194.90285,-20.851760000000002,2
3021091017398,55031.455120,0.319682541478,17.352,0.180,0.35431399999999996,237,17.28,0.35629299999999997,194.90285,-20.851760000000002,2
3021091017398,55001.498928,0.772664924356,17.2526,0.170,0.35431399999999996,237,17.28,0.35629299999999997,194.90285,-20.851760000000002,2
3021091017398,55001.506956,0.795322792779,17.2009,0.142,0.35431399999999996,237,17.28,0.35629299999999997,194.90285,-20.851760000000002,2
3021091017398,55001.515029,0.818107667234,17.3237,0.152,0.35431399999999996,237,17.28,0.35629299999999997,194.90285,-20.851760000000002,2
3021091017398,55001.523343,0.841572729289,17.1993,0.143,0.35431399999999996,237,17.28,0.35629299999999997,194.90285,-20.851760000000002,2
3021091017398,54907.647602,0.890876454214,17.125,0.152,0.35431399999999996,237,17.28,0.35629299999999997,194.90285,-20.851760000000002,2
3021091017398,54907.655228,0.912399735855,17.1794,0.156,0.35431399999999996,237,17.28,0.35629299999999997,194.90285,-20.851760000000002,2
3021091017398,54907.662818,0.933821412647,17.2947,0.164,0.35431399999999996,237,17.28,0.35629299999999997,194.90285,-20.851760000000002,2
3021091017398,54907.670399,0.955217688286,17.2712,0.162,0.35431399999999996,237,17.28,0.35629299999999997,194.90285,-20.851760000000002,2
3021091017398,54918.628299,0.882304961153,17.3294,0.164,0.35431399999999996,237,17.28,0.35629299999999997,194.90285,-20.851760000000002,2
3021091017398,54918.639061,0.912679149013,17.1822,0.155,0.35431399999999996,237,17.28,0.35629299999999997,194.90285,-20.851760000000002,2
3021091017398,54918.649795,0.942974310921,17.2801,0.161,0.35431399999999996,237,17.28,0.35629299999999997,194.90285,-20.851760000000002,2
3021091017398,54918.660498,0.973181979847,17.2689,0.160,0.35431399999999996,237,17.28,0.35629299999999997,194.90285,-20.851760000000002,2
3021091017398,54963.567910,0.71785478419,16.9528,0.121,0.35431399999999996,237,17.28,0.35629299999999997,194.90285,-20.851760000000002,2
3021091017398,54963.578784,0.748545075854,17.1748,0.133,0.35431399999999996,237,17.28,0.35629299999999997,194.90285,-20.851760000000002,2
3021091017398,54963.589585,0.779029335594,17.1144,0.129,0.35431399999999996,237,17.28,0.35629299999999997,194.90285,-20.851760000000002,2
3021091017398,54963.600394,0.809536174143,16.8853,0.119,0.35431399999999996,237,17.28,0.35629299999999997,194.90285,-20.851760000000002,2
3021091017398,55247.677971,0.577394627384,17.3303,0.194,0.35431399999999996,237,17.28,0.35629299999999997,194.90285,-20.851760000000002,2
3021091017398,55216.675347,0.076974096417,17.0963,0.159,0.35431399999999996,237,17.28,0.35629299999999997,194.90285,-20.851760000000002,2
3021091017398,55216.703033,0.155113825604,17.5086,0.190,0.35431399999999996,237,17.28,0.35629299999999997,194.90285,-20.851760000000002,2
3021091017398,55363.520554,0.52632410801,17.7316,0.162,0.35431399999999996,237,17.28,0.35629299999999997,194.90285,-20.851760000000002,2
3021091017398,55266.696039,0.253139870299,17.4413,0.137,0.35431399999999996,237,17.28,0.35629299999999997,194.90285,-20.851760000000002,2
3021091017398,55272.613161,0.953360578482,17.0132,0.156,0.35431399999999996,237,17.28,0.35629299999999997,194.90285,-20.851760000000002,2
3021091017398,55321.535103,0.0284634533455,17.1194,0.119,0.35431399999999996,237,17.28,0.35629299999999997,194.90285,-20.851760000000002,2
3021091017398,55321.577784,0.148924400419,17.3506,0.131,0.35431399999999996,237,17.28,0.35629299999999997,194.90285,-20.851760000000002,2
3021091017398,55330.541327,0.44722760038,17.4736,0.139,0.35431399999999996,237,17.28,0.35629299999999997,194.90285,-20.851760000000002,2
3021091017398,55330.584084,0.567903046467,17.3084,0.131,0.35431399999999996,237,17.28,0.35629299999999997,194.90285,-20.851760000000002,2
3021091017398,55675.560893,0.215032428881,17.3087,0.146,0.35431399999999996,237,17.28,0.35629299999999997,194.90285,-20.851760000000002,2
3021091017398,55675.596629,0.31589211832,17.3283,0.148,0.35431399999999996,237,17.28,0.35629299999999997,194.90285,-20.851760000000002,2
3021091017398,55567.707979,0.815787691157,17.2416,0.140,0.35431399999999996,237,17.28,0.35629299999999997,194.90285,-20.851760000000002,2
3021091017398,55567.734632,0.891011927277,17.2625,0.143,0.35431399999999996,237,17.28,0.35629299999999997,194.90285,-20.851760000000002,2
3021091017398,55646.656932,0.637784563995,17.4644,0.189,0.35431399999999996,237,17.28,0.35629299999999997,194.90285,-20.851760000000002,2
3021091017398,55646.688381,0.726544816192,17.1423,0.164,0.35431399999999996,237,17.28,0.35629299999999997,194.90285,-20.851760000000002,2
3021091017398,55690.537314,0.483813792292,17.5712,0.141,0.35431399999999996,237,17.28,0.35629299999999997,194.90285,-20.851760000000002,2
3021091017398,55690.588264,0.627612795448,17.5147,0.139,0.35431399999999996,237,17.28,0.35629299999999997,194.90285,-20.851760000000002,2
3021091017398,54949.584274,0.251065439137,17.299,0.137,0.35431399999999996,237,17.28,0.35629299999999997,194.90285,-20.851760000000002,2
3021091017398,54949.593091,0.275950145937,17.3982,0.235,0.35431399999999996,237,17.28,0.35629299999999997,194.90285,-20.851760000000002,2
3021091017398,54949.601921,0.300871543353,17.4254,0.126,0.35431399999999996,237,17.28,0.35629299999999997,194.90285,-20.851760000000002,2
3021091017398,54949.610771,0.325849387853,17.56,0.300,0.35431399999999996,237,17.28,0.35629299999999997,194.90285,-20.851760000000002,2
3021091017398,54949.624576,0.364812002925,17.4966,0.192,0.35431399999999996,237,17.28,0.35629299999999997,194.90285,-20.851760000000002,2
3021091017398,54949.651059,0.43955643868,17.5922,0.129,0.35431399999999996,237,17.28,0.35629299999999997,194.90285,-20.851760000000002,2
3021091017398,54949.569469,0.209280468756,17.1552,0.134,0.35431399999999996,237,17.28,0.35629299999999997,194.90285,-20.851760000000002,2
3021091017398,54949.584274,0.251065439137,17.299,0.137,0.35431399999999996,237,17.28,0.35629299999999997,194.90285,-20.851760000000002,2
3021091017398,54949.601921,0.300871543353,17.4254,0.126,0.35431399999999996,237,17.28,0.35629299999999997,194.90285,-20.851760000000002,2
3021091017398,54949.651059,0.43955643868,17.5922,0.129,0.35431399999999996,237,17.28,0.35629299999999997,194.90285,-20.851760000000002,2
3021091017398,55745.439083,0.436113165168,17.4724,0.138,0.35431399999999996,237,17.28,0.35629299999999997,194.90285,-20.851760000000002,2
3021091017398,55745.453095,0.475660007796,17.4232,0.135,0.35431399999999996,237,17.28,0.35629299999999997,194.90285,-20.851760000000002,2
3021091017398,55745.467271,0.515669716726,17.3541,0.132,0.35431399999999996,237,17.28,0.35629299999999997,194.90285,-20.851760000000002,2
3021091017398,55745.481502,0.555834655155,17.4102,0.134,0.35431399999999996,237,17.28,0.35629299999999997,194.90285,-20.851760000000002,2
3021091017398,55776.383205,0.771420265664,16.9603,0.118,0.35431399999999996,237,17.28,0.35629299999999997,194.90285,-20.851760000000002,2
3021091017398,55776.388506,0.786381571175,16.9787,0.119,0.35431399999999996,237,17.28,0.35629299999999997,194.90285,-20.851760000000002,2
3021091017398,55776.393828,0.801402146142,16.9891,0.121,0.35431399999999996,237,17.28,0.35629299999999997,194.90285,-20.851760000000002,2
3021091017398,55776.399171,0.816481990565,16.9653,0.121,0.35431399999999996,237,17.28,0.35629299999999997,194.90285,-20.851760000000002,2
3021091017398,55929.682421,0.436276861787,17.4751,0.204,0.35431399999999996,237,17.28,0.35629299999999997,194.90285,-20.851760000000002,2
3021091017398,55929.693985,0.468914578611,17.5552,0.205,0.35431399999999996,237,17.28,0.35629299999999997,194.90285,-20.851760000000002,2
3021091017398,55929.713225,0.523216694797,17.5284,0.198,0.35431399999999996,237,17.28,0.35629299999999997,194.90285,-20.851760000000002,2
3021091017398,55929.724879,0.556108423625,17.567,0.202,0.35431399999999996,237,17.28,0.35629299999999997,194.90285,-20.851760000000002,2
3021091017398,56030.579853,0.204680029594,17.1823,0.112,0.35431399999999996,237,17.28,0.35629299999999997,194.90285,-20.851760000000002,2
3021091017398,56030.590472,0.234650620667,17.3875,0.121,0.35431399999999996,237,17.28,0.35629299999999997,194.90285,-20.851760000000002,2
3021091017398,56030.601114,0.264686125884,17.3524,0.120,0.35431399999999996,237,17.28,0.35629299999999997,194.90285,-20.851760000000002,2
3021091017398,56030.611748,0.294699052291,17.4258,0.123,0.35431399999999996,237,17.28,0.35629299999999997,194.90285,-20.851760000000002,2
3021091017398,56088.444441,0.519107345492,17.4913,0.129,0.35431399999999996,237,17.28,0.35629299999999997,194.90285,-20.851760000000002,2
3021091017398,56088.455015,0.548950930533,17.5055,0.130,0.35431399999999996,237,17.28,0.35629299999999997,194.90285,-20.851760000000002,2
3021091017398,56088.465577,0.57876064736,17.4412,0.127,0.35431399999999996,237,17.28,0.35629299999999997,194.90285,-20.851760000000002,2
3021091017398,56088.476175,0.608671968948,17.313,0.121,0.35431399999999996,237,17.28,0.35629299999999997,194.90285,-20.851760000000002,2
3021091017398,56139.413973,0.373236733547,17.4527,0.128,0.35431399999999996,237,17.28,0.35629299999999997,194.90285,-20.851760000000002,2
3021091017398,56139.422118,0.396224817552,17.3996,0.126,0.35431399999999996,237,17.28,0.35629299999999997,194.90285,-20.851760000000002,2
3021091017398,56139.429524,0.41712718099,17.4601,0.129,0.35431399999999996,237,17.28,0.35629299999999997,194.90285,-20.851760000000002,2
3021091017398,56139.436830,0.437747308897,17.5234,0.133,0.35431399999999996,237,17.28,0.35629299999999997,194.90285,-20.851760000000002,2
3021091017398,56139.413973,0.373236733547,17.2998,0.121,0.35431399999999996,237,17.28,0.35629299999999997,194.90285,-20.851760000000002,2
3021091017398,56139.422118,0.396224817552,17.3879,0.126,0.35431399999999996,237,17.28,0.35629299999999997,194.90285,-20.851760000000002,2
3021091017398,56139.429524,0.41712718099,17.3899,0.126,0.35431399999999996,237,17.28,0.35629299999999997,194.90285,-20.851760000000002,2
3021091017398,56139.436830,0.437747308897,17.5567,0.135,0.35431399999999996,237,17.28,0.35629299999999997,194.90285,-20.851760000000002,2
3021091017398,56294.692201,0.623568360286,17.4587,0.127,0.35431399999999996,237,17.28,0.35629299999999997,194.90285,-20.851760000000002,2
3021091017398,56294.704249,0.657572097087,17.3909,0.124,0.35431399999999996,237,17.28,0.35629299999999997,194.90285,-20.851760000000002,2
3021091017398,56294.716364,0.691764931689,16.9444,0.105,0.35431399999999996,237,17.28,0.35629299999999997,194.90285,-20.851760000000002,2
3021091017398,56294.728505,0.726031147526,16.9367,0.104,0.35431399999999996,237,17.28,0.35629299999999997,194.90285,-20.851760000000002,2
3021091017398,56356.755320,0.787741946406,17.2084,0.127,0.35431399999999996,237,17.28,0.35629299999999997,194.90285,-20.851760000000002,2
3021091017398,56356.762969,0.80933014222,17.3345,0.133,0.35431399999999996,237,17.28,0.35629299999999997,194.90285,-20.851760000000002,2
3021091017398,56356.770148,0.829591830989,17.1805,0.127,0.35431399999999996,237,17.28,0.35629299999999997,194.90285,-20.851760000000002,2
3021091017398,56356.777418,0.850110354106,17.2549,0.130,0.35431399999999996,237,17.28,0.35629299999999997,194.90285,-20.851760000000002,2
3021091017398,56410.627752,0.834886569559,17.0714,0.106,0.35431399999999996,237,17.28,0.35629299999999997,194.90285,-20.851760000000002,2
3021091017398,56410.639497,0.868035132677,17.1042,0.107,0.35431399999999996,237,17.28,0.35629299999999997,194.90285,-20.851760000000002,2
3021091017398,56410.651150,0.900924039131,17.1148,0.108,0.35431399999999996,237,17.28,0.35629299999999997,194.90285,-20.851760000000002,2
3021091017398,56410.662594,0.933223073342,17.0574,0.106,0.35431399999999996,237,17.28,0.35629299999999997,194.90285,-20.851760000000002,2
3021091017398,56416.550178,0.550077050313,16.9634,0.110,0.35431399999999996,237,17.28,0.35629299999999997,194.90285,-20.851760000000002,2
3021091017398,56416.562334,0.584385601484,17.5602,0.139,0.35431399999999996,237,17.28,0.35629299999999997,194.90285,-20.851760000000002,2
3021091017398,56416.574402,0.618445785396,17.3307,0.128,0.35431399999999996,237,17.28,0.35629299999999997,194.90285,-20.851760000000002,2
3021091017398,56426.548867,0.769930062059,17.0957,0.104,0.35431399999999996,237,17.28,0.35629299999999997,194.90285,-20.851760000000002,2
3021091017398,56447.455492,0.775854185864,17.0432,0.118,0.35431399999999996,237,17.28,0.35629299999999997,194.90285,-20.851760000000002,2
3021091017398,56447.466084,0.80574857333,17.1139,0.112,0.35431399999999996,237,17.28,0.35629299999999997,194.90285,-20.851760000000002,2
3021091017398,56447.476667,0.835617559584,17.0534,0.108,0.35431399999999996,237,17.28,0.35629299999999997,194.90285,-20.851760000000002,2
3021091017398,56479.457070,0.0956778450927,17.3454,0.128,0.35431399999999996,237,17.28,0.35629299999999997,194.90285,-20.851760000000002,2
3021091017398,56479.466681,0.122803501989,17.2673,0.124,0.35431399999999996,237,17.28,0.35629299999999997,194.90285,-20.851760000000002,2
3021091017398,56479.476121,0.149446536147,17.2994,0.127,0.35431399999999996,237,17.28,0.35629299999999997,194.90285,-20.851760000000002,2
3021091017398,56479.485615,0.17624197746,17.243,0.124,0.35431399999999996,237,17.28,0.35629299999999997,194.90285,-20.851760000000002,2
