ID,MjD,Phase,Mag,Mag_err,Period,Npts,V,Amp,ra,dec,Type
3021098025051,53600.397023,0.046106864349,16.6779,0.141,0.26033,208,16.511,0.31600500000000004,208.61021000000002,-20.75806,2
3021098025051,53600.403685,0.0716974608949,16.5457,0.134,0.26033,208,16.511,0.31600500000000004,208.61021000000002,-20.75806,2
3021098025051,53600.410442,0.0976529789041,16.6952,0.143,0.26033,208,16.511,0.31600500000000004,208.61021000000002,-20.75806,2
3021098025051,53600.417150,0.123420274263,16.8949,0.156,0.26033,208,16.511,0.31600500000000004,208.61021000000002,-20.75806,2
3021098025051,53610.403769,0.484803902713,16.6131,0.157,0.26033,208,16.511,0.31600500000000004,208.61021000000002,-20.75806,2
3021098025051,53610.411513,0.514550762484,16.5479,0.154,0.26033,208,16.511,0.31600500000000004,208.61021000000002,-20.75806,2
3021098025051,53610.419246,0.544255368179,16.5759,0.157,0.26033,208,16.511,0.31600500000000004,208.61021000000002,-20.75806,2
3021098025051,53610.426966,0.573910037259,16.4324,0.149,0.26033,208,16.511,0.31600500000000004,208.61021000000002,-20.75806,2
3021098025051,53578.452646,0.751645987766,16.3802,0.112,0.26033,208,16.511,0.31600500000000004,208.61021000000002,-20.75806,2
3021098025051,53578.460189,0.780620750564,16.4593,0.116,0.26033,208,16.511,0.31600500000000004,208.61021000000002,-20.75806,2
3021098025051,53578.467732,0.809595513361,16.4157,0.114,0.26033,208,16.511,0.31600500000000004,208.61021000000002,-20.75806,2
3021098025051,53578.475299,0.838662466849,16.4365,0.116,0.26033,208,16.511,0.31600500000000004,208.61021000000002,-20.75806,2
3021098025051,53834.552073,0.500837398664,16.3589,0.077,0.26033,208,16.511,0.31600500000000004,208.61021000000002,-20.75806,2
3021098025051,53834.567647,0.560661468131,16.4033,0.078,0.26033,208,16.511,0.31600500000000004,208.61021000000002,-20.75806,2
3021098025051,53834.583052,0.619836361555,16.4011,0.078,0.26033,208,16.511,0.31600500000000004,208.61021000000002,-20.75806,2
3021098025051,53834.598408,0.6788230323,16.5165,0.080,0.26033,208,16.511,0.31600500000000004,208.61021000000002,-20.75806,2
3021098025051,53846.667717,0.0403987246682,16.8135,0.130,0.26033,208,16.511,0.31600500000000004,208.61021000000002,-20.75806,2
3021098025051,53846.678166,0.080536242458,16.7932,0.130,0.26033,208,16.511,0.31600500000000004,208.61021000000002,-20.75806,2
3021098025051,53846.688610,0.120654553815,16.8012,0.130,0.26033,208,16.511,0.31600500000000004,208.61021000000002,-20.75806,2
3021098025051,53846.699035,0.160699880915,16.7182,0.126,0.26033,208,16.511,0.31600500000000004,208.61021000000002,-20.75806,2
3021098025051,53854.640726,0.666945799545,16.3885,0.112,0.26033,208,16.511,0.31600500000000004,208.61021000000002,-20.75806,2
3021098025051,53854.652115,0.710694118985,16.4058,0.113,0.26033,208,16.511,0.31600500000000004,208.61021000000002,-20.75806,2
3021098025051,53854.663427,0.754146660009,16.4977,0.117,0.26033,208,16.511,0.31600500000000004,208.61021000000002,-20.75806,2
3021098025051,53854.674753,0.797652978916,16.4894,0.117,0.26033,208,16.511,0.31600500000000004,208.61021000000002,-20.75806,2
3021098025051,53954.406300,0.894288019044,16.554,0.130,0.26033,208,16.511,0.31600500000000004,208.61021000000002,-20.75806,2
3021098025051,53954.413995,0.923846656166,16.7724,0.143,0.26033,208,16.511,0.31600500000000004,208.61021000000002,-20.75806,2
3021098025051,53954.421688,0.95339761072,16.6546,0.137,0.26033,208,16.511,0.31600500000000004,208.61021000000002,-20.75806,2
3021098025051,53954.429356,0.982852533314,16.703,0.140,0.26033,208,16.511,0.31600500000000004,208.61021000000002,-20.75806,2
3021098025051,53738.722422,0.392471094383,16.2783,0.124,0.26033,208,16.511,0.31600500000000004,208.61021000000002,-20.75806,2
3021098025051,53738.727518,0.412046248995,16.272,0.123,0.26033,208,16.511,0.31600500000000004,208.61021000000002,-20.75806,2
3021098025051,53738.732590,0.431529212918,16.4465,0.132,0.26033,208,16.511,0.31600500000000004,208.61021000000002,-20.75806,2
3021098025051,53738.737658,0.450996811735,16.2982,0.124,0.26033,208,16.511,0.31600500000000004,208.61021000000002,-20.75806,2
3021098025051,53938.434207,0.541032535606,16.3327,0.119,0.26033,208,16.511,0.31600500000000004,208.61021000000002,-20.75806,2
3021098025051,53938.443107,0.575219913182,16.3147,0.119,0.26033,208,16.511,0.31600500000000004,208.61021000000002,-20.75806,2
3021098025051,53938.452038,0.60952637039,16.3672,0.122,0.26033,208,16.511,0.31600500000000004,208.61021000000002,-20.75806,2
3021098025051,53938.460971,0.643840510107,16.3978,0.123,0.26033,208,16.511,0.31600500000000004,208.61021000000002,-20.75806,2
3021098025051,53912.481399,0.849072331242,16.6386,0.131,0.26033,208,16.511,0.31600500000000004,208.61021000000002,-20.75806,2
3021098025051,53912.489886,0.881673260854,16.6356,0.131,0.26033,208,16.511,0.31600500000000004,208.61021000000002,-20.75806,2
3021098025051,53912.498432,0.914500825864,16.6239,0.131,0.26033,208,16.511,0.31600500000000004,208.61021000000002,-20.75806,2
3021098025051,53912.506981,0.94733991471,16.7026,0.135,0.26033,208,16.511,0.31600500000000004,208.61021000000002,-20.75806,2
3021098025051,53818.694891,0.588987054885,16.3114,0.108,0.26033,208,16.511,0.31600500000000004,208.61021000000002,-20.75806,2
3021098025051,53818.704162,0.624599546718,16.3824,0.111,0.26033,208,16.511,0.31600500000000004,208.61021000000002,-20.75806,2
3021098025051,53818.713722,0.661322168016,16.3256,0.109,0.26033,208,16.511,0.31600500000000004,208.61021000000002,-20.75806,2
3021098025051,53818.723018,0.697030691808,16.4831,0.115,0.26033,208,16.511,0.31600500000000004,208.61021000000002,-20.75806,2
3021098025051,53871.554828,0.638720086048,16.4192,0.114,0.26033,208,16.511,0.31600500000000004,208.61021000000002,-20.75806,2
3021098025051,53871.564623,0.67634540773,16.4429,0.115,0.26033,208,16.511,0.31600500000000004,208.61021000000002,-20.75806,2
3021098025051,53871.574411,0.713943840499,16.5081,0.118,0.26033,208,16.511,0.31600500000000004,208.61021000000002,-20.75806,2
3021098025051,53871.584282,0.751861099387,16.4937,0.118,0.26033,208,16.511,0.31600500000000004,208.61021000000002,-20.75806,2
3021098025051,54198.660773,0.143713747937,16.8223,0.153,0.26033,208,16.511,0.31600500000000004,208.61021000000002,-20.75806,2
3021098025051,54198.671012,0.183044597245,16.7509,0.150,0.26033,208,16.511,0.31600500000000004,208.61021000000002,-20.75806,2
3021098025051,54198.681246,0.222356240149,16.8685,0.158,0.26033,208,16.511,0.31600500000000004,208.61021000000002,-20.75806,2
3021098025051,54198.691480,0.261667883082,16.5983,0.141,0.26033,208,16.511,0.31600500000000004,208.61021000000002,-20.75806,2
3021098025051,54203.644347,0.287008796528,16.5067,0.135,0.26033,208,16.511,0.31600500000000004,208.61021000000002,-20.75806,2
3021098025051,54203.652837,0.319621249946,16.4747,0.133,0.26033,208,16.511,0.31600500000000004,208.61021000000002,-20.75806,2
3021098025051,54203.661334,0.352260592306,16.3824,0.128,0.26033,208,16.511,0.31600500000000004,208.61021000000002,-20.75806,2
3021098025051,54203.669881,0.385091998614,16.2978,0.124,0.26033,208,16.511,0.31600500000000004,208.61021000000002,-20.75806,2
3021098025051,54325.419461,0.0591211154824,16.7376,0.140,0.26033,208,16.511,0.31600500000000004,208.61021000000002,-20.75806,2
3021098025051,54325.428014,0.0919755694631,16.7066,0.138,0.26033,208,16.511,0.31600500000000004,208.61021000000002,-20.75806,2
3021098025051,54325.436629,0.125068182708,16.7921,0.144,0.26033,208,16.511,0.31600500000000004,208.61021000000002,-20.75806,2
3021098025051,54325.445285,0.158318288333,16.7728,0.144,0.26033,208,16.511,0.31600500000000004,208.61021000000002,-20.75806,2
3021098025051,54158.699580,0.641647140175,16.4766,0.153,0.26033,208,16.511,0.31600500000000004,208.61021000000002,-20.75806,2
3021098025051,54158.708903,0.677459378465,16.1906,0.140,0.26033,208,16.511,0.31600500000000004,208.61021000000002,-20.75806,2
3021098025051,54158.718323,0.713644220785,15.9559,0.226,0.26033,208,16.511,0.31600500000000004,208.61021000000002,-20.75806,2
3021098025051,54158.727474,0.748795759224,16.608,0.140,0.26033,208,16.511,0.31600500000000004,208.61021000000002,-20.75806,2
3021098025051,54130.723963,0.17951446239,16.5539,0.135,0.26033,208,16.511,0.31600500000000004,208.61021000000002,-20.75806,2
3021098025051,54130.730069,0.202969308186,16.5207,0.133,0.26033,208,16.511,0.31600500000000004,208.61021000000002,-20.75806,2
3021098025051,54130.736306,0.226927361422,16.4105,0.127,0.26033,208,16.511,0.31600500000000004,208.61021000000002,-20.75806,2
3021098025051,54130.742594,0.251081319875,16.3645,0.125,0.26033,208,16.511,0.31600500000000004,208.61021000000002,-20.75806,2
3021098025051,54298.456675,0.487554258056,16.3127,0.101,0.26033,208,16.511,0.31600500000000004,208.61021000000002,-20.75806,2
3021098025051,54298.464876,0.519056582008,16.3189,0.101,0.26033,208,16.511,0.31600500000000004,208.61021000000002,-20.75806,2
3021098025051,54298.473090,0.550608842605,16.2994,0.101,0.26033,208,16.511,0.31600500000000004,208.61021000000002,-20.75806,2
3021098025051,54298.481309,0.582180309604,16.2905,0.101,0.26033,208,16.511,0.31600500000000004,208.61021000000002,-20.75806,2
3021098025051,54266.493449,0.707905350893,16.5183,0.127,0.26033,208,16.511,0.31600500000000004,208.61021000000002,-20.75806,2
3021098025051,54266.502873,0.744105558319,16.5295,0.128,0.26033,208,16.511,0.31600500000000004,208.61021000000002,-20.75806,2
3021098025051,54266.512229,0.780044558836,16.476,0.125,0.26033,208,16.511,0.31600500000000004,208.61021000000002,-20.75806,2
3021098025051,54266.521744,0.81659432259,16.5359,0.128,0.26033,208,16.511,0.31600500000000004,208.61021000000002,-20.75806,2
3021098025051,54273.529651,0.735915952828,16.3849,0.103,0.26033,208,16.511,0.31600500000000004,208.61021000000002,-20.75806,2
3021098025051,54273.541118,0.779963891982,16.4295,0.105,0.26033,208,16.511,0.31600500000000004,208.61021000000002,-20.75806,2
3021098025051,54273.552638,0.824215418892,16.481,0.107,0.26033,208,16.511,0.31600500000000004,208.61021000000002,-20.75806,2
3021098025051,54273.564125,0.868340183602,16.5984,0.112,0.26033,208,16.511,0.31600500000000004,208.61021000000002,-20.75806,2
3021098025051,54187.546152,0.449360427156,16.3546,0.126,0.26033,208,16.511,0.31600500000000004,208.61021000000002,-20.75806,2
3021098025051,54187.556910,0.490684899938,16.3772,0.127,0.26033,208,16.511,0.31600500000000004,208.61021000000002,-20.75806,2
3021098025051,54187.567610,0.531786578562,16.3913,0.127,0.26033,208,16.511,0.31600500000000004,208.61021000000002,-20.75806,2
3021098025051,54187.578254,0.572673145623,16.4685,0.131,0.26033,208,16.511,0.31600500000000004,208.61021000000002,-20.75806,2
3021098025051,54233.570195,0.24052164561,16.5471,0.137,0.26033,208,16.511,0.31600500000000004,208.61021000000002,-20.75806,2
3021098025051,54233.579552,0.276464487397,16.5935,0.139,0.26033,208,16.511,0.31600500000000004,208.61021000000002,-20.75806,2
3021098025051,54233.588989,0.312714631436,16.5443,0.137,0.26033,208,16.511,0.31600500000000004,208.61021000000002,-20.75806,2
3021098025051,54233.598390,0.34882648944,16.3817,0.128,0.26033,208,16.511,0.31600500000000004,208.61021000000002,-20.75806,2
3021098025051,54706.382515,0.44426305074,16.3506,0.095,0.26033,208,16.511,0.31600500000000004,208.61021000000002,-20.75806,2
3021098025051,54706.390717,0.475769215991,16.3208,0.095,0.26033,208,16.511,0.31600500000000004,208.61021000000002,-20.75806,2
3021098025051,54706.398928,0.507309952751,16.3471,0.096,0.26033,208,16.511,0.31600500000000004,208.61021000000002,-20.75806,2
3021098025051,54706.407131,0.538819959271,16.2649,0.094,0.26033,208,16.511,0.31600500000000004,208.61021000000002,-20.75806,2
3021098025051,54475.715116,0.386570890783,16.3734,0.127,0.26033,208,16.511,0.31600500000000004,208.61021000000002,-20.75806,2
3021098025051,54475.722664,0.415564859984,16.3166,0.124,0.26033,208,16.511,0.31600500000000004,208.61021000000002,-20.75806,2
3021098025051,54475.730246,0.444689432625,16.373,0.126,0.26033,208,16.511,0.31600500000000004,208.61021000000002,-20.75806,2
3021098025051,54475.737920,0.474167402892,16.4638,0.131,0.26033,208,16.511,0.31600500000000004,208.61021000000002,-20.75806,2
3021098025051,54675.444212,0.601628702047,16.3664,0.111,0.26033,208,16.511,0.31600500000000004,208.61021000000002,-20.75806,2
3021098025051,54675.449294,0.621150078747,16.3484,0.110,0.26033,208,16.511,0.31600500000000004,208.61021000000002,-20.75806,2
3021098025051,54675.454365,0.640629201371,16.3381,0.110,0.26033,208,16.511,0.31600500000000004,208.61021000000002,-20.75806,2
3021098025051,54675.459431,0.660089117679,16.3892,0.112,0.26033,208,16.511,0.31600500000000004,208.61021000000002,-20.75806,2
3021098025051,54623.554767,0.279825605976,16.4665,0.096,0.26033,208,16.511,0.31600500000000004,208.61021000000002,-20.75806,2
3021098025051,54623.561219,0.304609534069,16.3929,0.093,0.26033,208,16.511,0.31600500000000004,208.61021000000002,-20.75806,2
3021098025051,54623.567668,0.329381938325,16.3128,0.091,0.26033,208,16.511,0.31600500000000004,208.61021000000002,-20.75806,2
3021098025051,54623.574144,0.354258057079,16.3532,0.093,0.26033,208,16.511,0.31600500000000004,208.61021000000002,-20.75806,2
3021098025051,54642.489594,0.0137671417033,16.8022,0.107,0.26033,208,16.511,0.31600500000000004,208.61021000000002,-20.75806,2
3021098025051,54642.500511,0.055702377751,16.7693,0.106,0.26033,208,16.511,0.31600500000000004,208.61021000000002,-20.75806,2
3021098025051,54642.511352,0.0973456766515,16.7573,0.106,0.26033,208,16.511,0.31600500000000004,208.61021000000002,-20.75806,2
3021098025051,54642.522242,0.139177198173,16.8146,0.108,0.26033,208,16.511,0.31600500000000004,208.61021000000002,-20.75806,2
3021098025051,54536.766126,0.900495524926,16.7258,0.138,0.26033,208,16.511,0.31600500000000004,208.61021000000002,-20.75806,2
3021098025051,54536.773061,0.927134790458,16.6667,0.135,0.26033,208,16.511,0.31600500000000004,208.61021000000002,-20.75806,2
3021098025051,54536.780050,0.953981485043,16.7756,0.141,0.26033,208,16.511,0.31600500000000004,208.61021000000002,-20.75806,2
3021098025051,54536.787009,0.980712941266,16.7293,0.139,0.26033,208,16.511,0.31600500000000004,208.61021000000002,-20.75806,2
3021098025051,54951.661285,0.628298697819,16.4638,0.099,0.26033,208,16.511,0.31600500000000004,208.61021000000002,-20.75806,2
3021098025051,54951.669375,0.659374639858,16.4824,0.105,0.26033,208,16.511,0.31600500000000004,208.61021000000002,-20.75806,2
3021098025051,54951.677533,0.690711788891,16.5386,0.111,0.26033,208,16.511,0.31600500000000004,208.61021000000002,-20.75806,2
3021098025051,54951.685678,0.721999001282,16.6153,0.109,0.26033,208,16.511,0.31600500000000004,208.61021000000002,-20.75806,2
3021098025051,55023.503166,0.592962778028,16.4823,0.123,0.26033,208,16.511,0.31600500000000004,208.61021000000002,-20.75806,2
3021098025051,55023.509434,0.617039910867,16.4809,0.123,0.26033,208,16.511,0.31600500000000004,208.61021000000002,-20.75806,2
3021098025051,55023.515738,0.641255329771,16.4608,0.122,0.26033,208,16.511,0.31600500000000004,208.61021000000002,-20.75806,2
3021098025051,55023.522077,0.665605193411,16.3882,0.120,0.26033,208,16.511,0.31600500000000004,208.61021000000002,-20.75806,2
3021098025051,54907.704296,0.777267314581,16.6787,0.125,0.26033,208,16.511,0.31600500000000004,208.61021000000002,-20.75806,2
3021098025051,54907.713236,0.811608343269,16.7276,0.128,0.26033,208,16.511,0.31600500000000004,208.61021000000002,-20.75806,2
3021098025051,54907.722201,0.846045403887,16.7735,0.131,0.26033,208,16.511,0.31600500000000004,208.61021000000002,-20.75806,2
3021098025051,54907.731275,0.88090116391,16.8306,0.134,0.26033,208,16.511,0.31600500000000004,208.61021000000002,-20.75806,2
3021098025051,54918.717014,0.0801828448602,16.7215,0.127,0.26033,208,16.511,0.31600500000000004,208.61021000000002,-20.75806,2
3021098025051,54918.726837,0.117915722367,16.6069,0.121,0.26033,208,16.511,0.31600500000000004,208.61021000000002,-20.75806,2
3021098025051,54918.736771,0.156074981758,16.526,0.118,0.26033,208,16.511,0.31600500000000004,208.61021000000002,-20.75806,2
3021098025051,54918.746645,0.194003764453,16.4131,0.113,0.26033,208,16.511,0.31600500000000004,208.61021000000002,-20.75806,2
3021098025051,54956.594277,0.577294203482,16.481,0.082,0.26033,208,16.511,0.31600500000000004,208.61021000000002,-20.75806,2
3021098025051,54956.608407,0.631571466976,16.6325,0.086,0.26033,208,16.511,0.31600500000000004,208.61021000000002,-20.75806,2
3021098025051,54956.622570,0.685975492641,16.6433,0.086,0.26033,208,16.511,0.31600500000000004,208.61021000000002,-20.75806,2
3021098025051,54956.636712,0.740298851451,16.7905,0.092,0.26033,208,16.511,0.31600500000000004,208.61021000000002,-20.75806,2
3021098025051,54964.570207,0.215061652503,16.3885,0.115,0.26033,208,16.511,0.31600500000000004,208.61021000000002,-20.75806,2
3021098025051,54964.579085,0.249164521927,16.3222,0.113,0.26033,208,16.511,0.31600500000000004,208.61021000000002,-20.75806,2
3021098025051,54964.588016,0.283470979135,16.4238,0.117,0.26033,208,16.511,0.31600500000000004,208.61021000000002,-20.75806,2
3021098025051,54964.596911,0.317639150308,16.2515,0.110,0.26033,208,16.511,0.31600500000000004,208.61021000000002,-20.75806,2
3021098025051,55394.385188,0.254054469318,16.2735,0.096,0.26033,208,16.511,0.31600500000000004,208.61021000000002,-20.75806,2
3021098025051,55394.419496,0.385841047915,16.4229,0.101,0.26033,208,16.511,0.31600500000000004,208.61021000000002,-20.75806,2
3021098025051,55355.500717,0.887976798695,16.7434,0.143,0.26033,208,16.511,0.31600500000000004,208.61021000000002,-20.75806,2
3021098025051,55355.532357,0.00951484651887,16.614,0.135,0.26033,208,16.511,0.31600500000000004,208.61021000000002,-20.75806,2
3021098025051,55270.725053,0.241051742021,16.3026,0.100,0.26033,208,16.511,0.31600500000000004,208.61021000000002,-20.75806,2
3021098025051,55325.566086,0.900726001593,16.7768,0.118,0.26033,208,16.511,0.31600500000000004,208.61021000000002,-20.75806,2
3021098025051,55325.602642,0.041147773969,16.5014,0.107,0.26033,208,16.511,0.31600500000000004,208.61021000000002,-20.75806,2
3021098025051,55331.543514,0.861690930731,16.7989,0.119,0.26033,208,16.511,0.31600500000000004,208.61021000000002,-20.75806,2
3021098025051,55331.575475,0.984462028951,16.6544,0.113,0.26033,208,16.511,0.31600500000000004,208.61021000000002,-20.75806,2
3021098025051,55657.728110,0.827526600828,16.6361,0.110,0.26033,208,16.511,0.31600500000000004,208.61021000000002,-20.75806,2
3021098025051,55657.762385,0.959186417254,16.8008,0.109,0.26033,208,16.511,0.31600500000000004,208.61021000000002,-20.75806,2
3021098025051,55676.607541,0.348676679598,16.421,0.093,0.26033,208,16.511,0.31600500000000004,208.61021000000002,-20.75806,2
3021098025051,55676.655145,0.531536895462,16.4612,0.095,0.26033,208,16.511,0.31600500000000004,208.61021000000002,-20.75806,2
3021098025051,55685.583763,0.828844159347,16.7446,0.114,0.26033,208,16.511,0.31600500000000004,208.61021000000002,-20.75806,2
3021098025051,55685.619440,0.965889448009,16.7673,0.114,0.26033,208,16.511,0.31600500000000004,208.61021000000002,-20.75806,2
3021098025051,55690.607993,0.128310221626,16.5706,0.098,0.26033,208,16.511,0.31600500000000004,208.61021000000002,-20.75806,2
3021098025051,55690.655070,0.309146083804,16.2961,0.091,0.26033,208,16.511,0.31600500000000004,208.61021000000002,-20.75806,2
3021098025051,54158.745200,0.816886259738,16.3011,0.167,0.26033,208,16.511,0.31600500000000004,208.61021000000002,-20.75806,2
3021098025051,54158.753731,0.849656205566,16.6985,0.146,0.26033,208,16.511,0.31600500000000004,208.61021000000002,-20.75806,2
3021098025051,54158.762235,0.882322436897,16.6595,0.144,0.26033,208,16.511,0.31600500000000004,208.61021000000002,-20.75806,2
3021098025051,54158.699580,0.641647140175,16.4766,0.153,0.26033,208,16.511,0.31600500000000004,208.61021000000002,-20.75806,2
3021098025051,54158.727474,0.748795759224,16.608,0.140,0.26033,208,16.511,0.31600500000000004,208.61021000000002,-20.75806,2
3021098025051,54158.753731,0.849656205566,16.6985,0.146,0.26033,208,16.511,0.31600500000000004,208.61021000000002,-20.75806,2
3021098025051,54158.762235,0.882322436897,16.6595,0.144,0.26033,208,16.511,0.31600500000000004,208.61021000000002,-20.75806,2
3021098025051,55762.407439,0.929969653895,16.7905,0.118,0.26033,208,16.511,0.31600500000000004,208.61021000000002,-20.75806,2
3021098025051,55762.416272,0.963899665803,16.771,0.117,0.26033,208,16.511,0.31600500000000004,208.61021000000002,-20.75806,2
3021098025051,55762.425139,0.99796028118,16.543,0.108,0.26033,208,16.511,0.31600500000000004,208.61021000000002,-20.75806,2
3021098025051,55762.433980,0.0319210233283,16.7814,0.118,0.26033,208,16.511,0.31600500000000004,208.61021000000002,-20.75806,2
3021098025051,55795.403810,0.678216110333,16.485,0.100,0.26033,208,16.511,0.31600500000000004,208.61021000000002,-20.75806,2
3021098025051,55795.410933,0.705577536195,16.4486,0.100,0.26033,208,16.511,0.31600500000000004,208.61021000000002,-20.75806,2
3021098025051,55795.417984,0.732662390044,16.4599,0.100,0.26033,208,16.511,0.31600500000000004,208.61021000000002,-20.75806,2
3021098025051,55795.425027,0.759716513654,16.5681,0.104,0.26033,208,16.511,0.31600500000000004,208.61021000000002,-20.75806,2
3021098025051,56058.585974,0.634172012447,16.3857,0.090,0.26033,208,16.511,0.31600500000000004,208.61021000000002,-20.75806,2
3021098025051,56058.598691,0.683021549572,16.3433,0.089,0.26033,208,16.511,0.31600500000000004,208.61021000000002,-20.75806,2
3021098025051,56058.611444,0.732009372732,16.4322,0.091,0.26033,208,16.511,0.31600500000000004,208.61021000000002,-20.75806,2
3021098025051,56058.624198,0.781001037132,16.41,0.090,0.26033,208,16.511,0.31600500000000004,208.61021000000002,-20.75806,2
3021098025051,56092.494374,0.885775746166,16.4893,0.097,0.26033,208,16.511,0.31600500000000004,208.61021000000002,-20.75806,2
3021098025051,56092.505717,0.929347366793,16.5512,0.101,0.26033,208,16.511,0.31600500000000004,208.61021000000002,-20.75806,2
3021098025051,56092.517105,0.973091844964,16.6426,0.099,0.26033,208,16.511,0.31600500000000004,208.61021000000002,-20.75806,2
3021098025051,56092.528522,0.0169477201998,16.633,0.097,0.26033,208,16.511,0.31600500000000004,208.61021000000002,-20.75806,2
3021098025051,56128.463661,0.0538201513409,16.6706,0.093,0.26033,208,16.511,0.31600500000000004,208.61021000000002,-20.75806,2
3021098025051,56128.476367,0.102627434419,16.772,0.097,0.26033,208,16.511,0.31600500000000004,208.61021000000002,-20.75806,2
3021098025051,56128.491453,0.160576960014,16.673,0.095,0.26033,208,16.511,0.31600500000000004,208.61021000000002,-20.75806,2
3021098025051,56128.504131,0.209276687296,16.7471,0.098,0.26033,208,16.511,0.31600500000000004,208.61021000000002,-20.75806,2
3021098025051,56362.720477,0.899462221045,16.3738,0.094,0.26033,208,16.511,0.31600500000000004,208.61021000000002,-20.75806,2
3021098025051,56362.731202,0.940659931628,16.4145,0.095,0.26033,208,16.511,0.31600500000000004,208.61021000000002,-20.75806,2
3021098025051,56362.741899,0.981750086416,16.4268,0.095,0.26033,208,16.511,0.31600500000000004,208.61021000000002,-20.75806,2
3021098025051,56362.752819,0.0236968462996,16.5354,0.098,0.26033,208,16.511,0.31600500000000004,208.61021000000002,-20.75806,2
3021098025051,56384.638110,0.0911919486825,16.6163,0.099,0.26033,208,16.511,0.31600500000000004,208.61021000000002,-20.75806,2
3021098025051,56384.650692,0.139522913232,16.6524,0.100,0.26033,208,16.511,0.31600500000000004,208.61021000000002,-20.75806,2
3021098025051,56384.663202,0.18757730574,16.6735,0.101,0.26033,208,16.511,0.31600500000000004,208.61021000000002,-20.75806,2
3021098025051,56384.676029,0.23684938348,16.7415,0.103,0.26033,208,16.511,0.31600500000000004,208.61021000000002,-20.75806,2
3021098025051,56398.546958,0.518949026213,16.4087,0.084,0.26033,208,16.511,0.31600500000000004,208.61021000000002,-20.75806,2
3021098025051,56398.558447,0.56308147352,16.3082,0.082,0.26033,208,16.511,0.31600500000000004,208.61021000000002,-20.75806,2
3021098025051,56398.569986,0.607405984716,16.3847,0.084,0.26033,208,16.511,0.31600500000000004,208.61021000000002,-20.75806,2
3021098025051,56398.581438,0.651396304689,16.3084,0.082,0.26033,208,16.511,0.31600500000000004,208.61021000000002,-20.75806,2
3021098025051,56411.594786,0.639288595237,16.4195,0.086,0.26033,208,16.511,0.31600500000000004,208.61021000000002,-20.75806,2
3021098025051,56411.604059,0.674908769637,16.3902,0.085,0.26033,208,16.511,0.31600500000000004,208.61021000000002,-20.75806,2
3021098025051,56411.613362,0.710644182371,16.4321,0.086,0.26033,208,16.511,0.31600500000000004,208.61021000000002,-20.75806,2
3021098025051,56411.622619,0.74620289632,16.3749,0.085,0.26033,208,16.511,0.31600500000000004,208.61021000000002,-20.75806,2
3021098025051,56423.559653,0.599673491321,16.4057,0.076,0.26033,208,16.511,0.31600500000000004,208.61021000000002,-20.75806,2
3021098025051,56423.570981,0.643187492795,16.3958,0.076,0.26033,208,16.511,0.31600500000000004,208.61021000000002,-20.75806,2
3021098025051,56423.582372,0.686943494773,16.3955,0.076,0.26033,208,16.511,0.31600500000000004,208.61021000000002,-20.75806,2
3021098025051,56423.593714,0.73051127416,16.3592,0.076,0.26033,208,16.511,0.31600500000000004,208.61021000000002,-20.75806,2
3021098025051,56443.496633,0.183163676877,16.7235,0.103,0.26033,208,16.511,0.31600500000000004,208.61021000000002,-20.75806,2
3021098025051,56443.505555,0.217435562576,16.6933,0.102,0.26033,208,16.511,0.31600500000000004,208.61021000000002,-20.75806,2
3021098025051,56443.514553,0.251999385393,16.7054,0.103,0.26033,208,16.511,0.31600500000000004,208.61021000000002,-20.75806,2
3021098025051,56443.523557,0.286586255912,16.7093,0.103,0.26033,208,16.511,0.31600500000000004,208.61021000000002,-20.75806,2
3021098025051,56481.473989,0.0647601121454,16.3884,0.091,0.26033,208,16.511,0.31600500000000004,208.61021000000002,-20.75806,2
3021098025051,56481.485948,0.110697960277,16.469,0.094,0.26033,208,16.511,0.31600500000000004,208.61021000000002,-20.75806,2
3021098025051,56481.497881,0.156535935152,16.4967,0.094,0.26033,208,16.511,0.31600500000000004,208.61021000000002,-20.75806,2
3021098025051,56481.509722,0.202020512428,16.4583,0.094,0.26033,208,16.511,0.31600500000000004,208.61021000000002,-20.75806,2
