ID,MjD,Phase,Mag,Mag_err,Period,Npts,V,Amp,ra,dec,Type
3021079009650,53724.707062,0.113586042891,18.0569,0.215,0.35273699999999997,213,18.015,0.45753900000000003,168.2883,-21.62087,2
3021079009650,53724.715821,0.138417574577,18.0114,0.210,0.35273699999999997,213,18.015,0.45753900000000003,168.2883,-21.62087,2
3021079009650,53724.724616,0.163351165334,17.9316,0.202,0.35273699999999997,213,18.015,0.45753900000000003,168.2883,-21.62087,2
3021079009650,53724.733464,0.188435009652,18.0253,0.211,0.35273699999999997,213,18.015,0.45753900000000003,168.2883,-21.62087,2
3021079009650,53846.536256,0.496106164093,18.2259,0.247,0.35273699999999997,213,18.015,0.45753900000000003,168.2883,-21.62087,2
3021079009650,53846.545957,0.523608240706,18.2558,0.251,0.35273699999999997,213,18.015,0.45753900000000003,168.2883,-21.62087,2
3021079009650,53846.555676,0.55116134687,18.2079,0.245,0.35273699999999997,213,18.015,0.45753900000000003,168.2883,-21.62087,2
3021079009650,53846.565426,0.578802337172,18.4285,0.275,0.35273699999999997,213,18.015,0.45753900000000003,168.2883,-21.62087,2
3021079009650,53854.470369,0.989105197368,17.9326,0.215,0.35273699999999997,213,18.015,0.45753900000000003,168.2883,-21.62087,2
3021079009650,53854.479443,0.0148297456908,17.7081,0.193,0.35273699999999997,213,18.015,0.45753900000000003,168.2883,-21.62087,2
3021079009650,53854.488546,0.0406365082308,17.808,0.202,0.35273699999999997,213,18.015,0.45753900000000003,168.2883,-21.62087,2
3021079009650,53854.497592,0.0662816773111,17.9369,0.216,0.35273699999999997,213,18.015,0.45753900000000003,168.2883,-21.62087,2
3021079009650,54095.659111,0.752764807781,18.1766,0.327,0.35273699999999997,213,18.015,0.45753900000000003,168.2883,-21.62087,2
3021079009650,54095.666822,0.77462528742,17.7744,0.261,0.35273699999999997,213,18.015,0.45753900000000003,168.2883,-21.62087,2
3021079009650,54095.674526,0.796465922234,17.8048,0.250,0.35273699999999997,213,18.015,0.45753900000000003,168.2883,-21.62087,2
3021079009650,54095.682202,0.818227177777,17.6738,0.233,0.35273699999999997,213,18.015,0.45753900000000003,168.2883,-21.62087,2
3021079009650,53741.651029,0.149281192513,18.5104,0.211,0.35273699999999997,213,18.015,0.45753900000000003,168.2883,-21.62087,2
3021079009650,53741.666637,0.193529456825,18.0046,0.166,0.35273699999999997,213,18.015,0.45753900000000003,168.2883,-21.62087,2
3021079009650,53765.725927,0.400975797849,18.1565,0.230,0.35273699999999997,213,18.015,0.45753900000000003,168.2883,-21.62087,2
3021079009650,53765.735497,0.428106492967,18.2711,0.246,0.35273699999999997,213,18.015,0.45753900000000003,168.2883,-21.62087,2
3021079009650,53765.744891,0.454738232744,18.3744,0.263,0.35273699999999997,213,18.015,0.45753900000000003,168.2883,-21.62087,2
3021079009650,53765.754294,0.481395487295,18.2751,0.246,0.35273699999999997,213,18.015,0.45753900000000003,168.2883,-21.62087,2
3021079009650,53938.386894,0.890218491433,17.8599,0.242,0.35273699999999997,213,18.015,0.45753900000000003,168.2883,-21.62087,2
3021079009650,53938.392014,0.904733555042,17.7287,0.226,0.35273699999999997,213,18.015,0.45753900000000003,168.2883,-21.62087,2
3021079009650,53938.397156,0.919310988073,17.8071,0.237,0.35273699999999997,213,18.015,0.45753900000000003,168.2883,-21.62087,2
3021079009650,53938.402309,0.933919605828,17.7377,0.230,0.35273699999999997,213,18.015,0.45753900000000003,168.2883,-21.62087,2
3021079009650,53890.417656,0.898706401669,17.7754,0.166,0.35273699999999997,213,18.015,0.45753900000000003,168.2883,-21.62087,2
3021079009650,53890.428484,0.929403493268,17.8134,0.169,0.35273699999999997,213,18.015,0.45753900000000003,168.2883,-21.62087,2
3021079009650,53890.439700,0.961200554535,17.5764,0.152,0.35273699999999997,213,18.015,0.45753900000000003,168.2883,-21.62087,2
3021079009650,53890.450575,0.992030889902,17.8506,0.173,0.35273699999999997,213,18.015,0.45753900000000003,168.2883,-21.62087,2
3021079009650,53818.593946,0.280401545635,18.0376,0.226,0.35273699999999997,213,18.015,0.45753900000000003,168.2883,-21.62087,2
3021079009650,53818.602975,0.305998520169,18.0457,0.226,0.35273699999999997,213,18.015,0.45753900000000003,168.2883,-21.62087,2
3021079009650,53818.612012,0.331618174445,18.1902,0.243,0.35273699999999997,213,18.015,0.45753900000000003,168.2883,-21.62087,2
3021079009650,53818.621041,0.357215148979,18.0631,0.228,0.35273699999999997,213,18.015,0.45753900000000003,168.2883,-21.62087,2
3021079009650,53819.543024,0.971012397349,17.813,0.199,0.35273699999999997,213,18.015,0.45753900000000003,168.2883,-21.62087,2
3021079009650,53819.554970,0.0048789891589,17.6773,0.187,0.35273699999999997,213,18.015,0.45753900000000003,168.2883,-21.62087,2
3021079009650,53819.566873,0.0386236771592,17.8801,0.206,0.35273699999999997,213,18.015,0.45753900000000003,168.2883,-21.62087,2
3021079009650,53819.578777,0.0723712001054,17.9092,0.209,0.35273699999999997,213,18.015,0.45753900000000003,168.2883,-21.62087,2
3021079009650,53871.370260,0.899846060958,17.6983,0.196,0.35273699999999997,213,18.015,0.45753900000000003,168.2883,-21.62087,2
3021079009650,53871.379500,0.926041214872,17.9976,0.226,0.35273699999999997,213,18.015,0.45753900000000003,168.2883,-21.62087,2
3021079009650,53871.388648,0.951975551201,17.8174,0.208,0.35273699999999997,213,18.015,0.45753900000000003,168.2883,-21.62087,2
3021079009650,53871.397788,0.977887207759,17.7748,0.203,0.35273699999999997,213,18.015,0.45753900000000003,168.2883,-21.62087,2
3021079009650,53880.389913,0.470322081324,18.4914,0.419,0.35273699999999997,213,18.015,0.45753900000000003,168.2883,-21.62087,2
3021079009650,53880.400143,0.49932385885,18.0723,0.231,0.35273699999999997,213,18.015,0.45753900000000003,168.2883,-21.62087,2
3021079009650,53880.410369,0.528314296505,18.3235,0.263,0.35273699999999997,213,18.015,0.45753900000000003,168.2883,-21.62087,2
3021079009650,53880.420600,0.557318909006,18.2961,0.264,0.35273699999999997,213,18.015,0.45753900000000003,168.2883,-21.62087,2
3021079009650,54198.531290,0.392652316048,18.1964,0.294,0.35273699999999997,213,18.015,0.45753900000000003,168.2883,-21.62087,2
3021079009650,54198.541459,0.421481160185,18.3571,0.320,0.35273699999999997,213,18.015,0.45753900000000003,168.2883,-21.62087,2
3021079009650,54198.551698,0.450508452486,18.4724,0.342,0.35273699999999997,213,18.015,0.45753900000000003,168.2883,-21.62087,2
3021079009650,54198.561960,0.479600949155,18.1705,0.291,0.35273699999999997,213,18.015,0.45753900000000003,168.2883,-21.62087,2
3021079009650,54206.531835,0.0739842999319,17.8515,0.244,0.35273699999999997,213,18.015,0.45753900000000003,168.2883,-21.62087,2
3021079009650,54206.540343,0.098104253324,17.7447,0.231,0.35273699999999997,213,18.015,0.45753900000000003,168.2883,-21.62087,2
3021079009650,54206.548860,0.122249721491,18.0849,0.276,0.35273699999999997,213,18.015,0.45753900000000003,168.2883,-21.62087,2
3021079009650,54206.557382,0.146409364505,18.0793,0.275,0.35273699999999997,213,18.015,0.45753900000000003,168.2883,-21.62087,2
3021079009650,54138.726368,0.847291324724,17.6791,0.227,0.35273699999999997,213,18.015,0.45753900000000003,168.2883,-21.62087,2
3021079009650,54138.734845,0.87132339392,17.906,0.254,0.35273699999999997,213,18.015,0.45753900000000003,168.2883,-21.62087,2
3021079009650,54138.743366,0.895480201987,17.8311,0.245,0.35273699999999997,213,18.015,0.45753900000000003,168.2883,-21.62087,2
3021079009650,54138.751906,0.919690874522,17.6371,0.223,0.35273699999999997,213,18.015,0.45753900000000003,168.2883,-21.62087,2
3021079009650,54151.687424,0.591539872519,18.254,0.310,0.35273699999999997,213,18.015,0.45753900000000003,168.2883,-21.62087,2
3021079009650,54151.694278,0.610970779962,18.2339,0.308,0.35273699999999997,213,18.015,0.45753900000000003,168.2883,-21.62087,2
3021079009650,54151.701330,0.63096301214,18.2369,0.308,0.35273699999999997,213,18.015,0.45753900000000003,168.2883,-21.62087,2
3021079009650,54151.708190,0.650410929404,18.0895,0.286,0.35273699999999997,213,18.015,0.45753900000000003,168.2883,-21.62087,2
3021079009650,54293.361140,0.232751313306,18.211,0.276,0.35273699999999997,213,18.015,0.45753900000000003,168.2883,-21.62087,2
3021079009650,54293.367769,0.251544351748,18.0181,0.322,0.35273699999999997,213,18.015,0.45753900000000003,168.2883,-21.62087,2
3021079009650,54293.374370,0.270258010947,18.1609,0.271,0.35273699999999997,213,18.015,0.45753900000000003,168.2883,-21.62087,2
3021079009650,54293.380981,0.289000019868,18.4063,0.449,0.35273699999999997,213,18.015,0.45753900000000003,168.2883,-21.62087,2
3021079009650,54302.359712,0.74346326018,17.9331,0.194,0.35273699999999997,213,18.015,0.45753900000000003,168.2883,-21.62087,2
3021079009650,54302.365104,0.758749436558,18.2149,0.223,0.35273699999999997,213,18.015,0.45753900000000003,168.2883,-21.62087,2
3021079009650,54302.370501,0.774049787811,18.0941,0.211,0.35273699999999997,213,18.015,0.45753900000000003,168.2883,-21.62087,2
3021079009650,54302.375902,0.789361478965,17.9156,0.194,0.35273699999999997,213,18.015,0.45753900000000003,168.2883,-21.62087,2
3021079009650,54186.592562,0.546676418977,18.3467,0.315,0.35273699999999997,213,18.015,0.45753900000000003,168.2883,-21.62087,2
3021079009650,54186.603210,0.576863215392,17.999,0.262,0.35273699999999997,213,18.015,0.45753900000000003,168.2883,-21.62087,2
3021079009650,54186.613966,0.607356188906,18.297,0.308,0.35273699999999997,213,18.015,0.45753900000000003,168.2883,-21.62087,2
3021079009650,54186.624691,0.637761278253,18.2602,0.305,0.35273699999999997,213,18.015,0.45753900000000003,168.2883,-21.62087,2
3021079009650,54232.394768,0.394710506691,18.1386,0.490,0.35273699999999997,213,18.015,0.45753900000000003,168.2883,-21.62087,2
3021079009650,54232.402043,0.415334937949,17.9572,0.358,0.35273699999999997,213,18.015,0.45753900000000003,168.2883,-21.62087,2
3021079009650,54232.408987,0.435020992998,17.6905,0.450,0.35273699999999997,213,18.015,0.45753900000000003,168.2883,-21.62087,2
3021079009650,54233.454735,0.399688719946,18.1239,0.286,0.35273699999999997,213,18.015,0.45753900000000003,168.2883,-21.62087,2
3021079009650,54233.463559,0.424704524921,18.3092,0.316,0.35273699999999997,213,18.015,0.45753900000000003,168.2883,-21.62087,2
3021079009650,54233.472380,0.449711824971,18.3138,0.317,0.35273699999999997,213,18.015,0.45753900000000003,168.2883,-21.62087,2
3021079009650,54233.481173,0.474639745778,18.403,0.333,0.35273699999999997,213,18.015,0.45753900000000003,168.2883,-21.62087,2
3021079009650,54243.471599,0.797231365024,17.7105,0.189,0.35273699999999997,213,18.015,0.45753900000000003,168.2883,-21.62087,2
3021079009650,54243.483328,0.830482767633,17.8378,0.203,0.35273699999999997,213,18.015,0.45753900000000003,168.2883,-21.62087,2
3021079009650,54243.495434,0.864802955184,17.6498,0.189,0.35273699999999997,213,18.015,0.45753900000000003,168.2883,-21.62087,2
3021079009650,54243.507182,0.898108222289,17.9644,0.222,0.35273699999999997,213,18.015,0.45753900000000003,168.2883,-21.62087,2
3021079009650,54808.680038,0.148101843602,18.0451,0.246,0.35273699999999997,213,18.015,0.45753900000000003,168.2883,-21.62087,2
3021079009650,54808.687476,0.169188375497,17.5948,0.196,0.35273699999999997,213,18.015,0.45753900000000003,168.2883,-21.62087,2
3021079009650,54808.694816,0.189997079986,18.1713,0.261,0.35273699999999997,213,18.015,0.45753900000000003,168.2883,-21.62087,2
3021079009650,54808.702200,0.210930523317,17.818,0.217,0.35273699999999997,213,18.015,0.45753900000000003,168.2883,-21.62087,2
3021079009650,54477.626793,0.620969731011,18.5,0.361,0.35273699999999997,213,18.015,0.45753900000000003,168.2883,-21.62087,2
3021079009650,54477.635775,0.646433461778,18.0461,0.285,0.35273699999999997,213,18.015,0.45753900000000003,168.2883,-21.62087,2
3021079009650,54477.676071,0.760671548516,17.8547,0.254,0.35273699999999997,213,18.015,0.45753900000000003,168.2883,-21.62087,2
3021079009650,54477.685240,0.786665419291,18.0157,0.275,0.35273699999999997,213,18.015,0.45753900000000003,168.2883,-21.62087,2
3021079009650,54493.629041,0.986916597933,17.7269,0.229,0.35273699999999997,213,18.015,0.45753900000000003,168.2883,-21.62087,2
3021079009650,54493.639699,0.017131744069,17.7773,0.234,0.35273699999999997,213,18.015,0.45753900000000003,168.2883,-21.62087,2
3021079009650,54493.650451,0.0476133776829,17.848,0.243,0.35273699999999997,213,18.015,0.45753900000000003,168.2883,-21.62087,2
3021079009650,54493.661103,0.0778115139692,17.8043,0.238,0.35273699999999997,213,18.015,0.45753900000000003,168.2883,-21.62087,2
3021079009650,54648.360270,0.645829612447,18.2038,0.193,0.35273699999999997,213,18.015,0.45753900000000003,168.2883,-21.62087,2
3021079009650,54648.371776,0.678448815976,17.901,0.168,0.35273699999999997,213,18.015,0.45753900000000003,168.2883,-21.62087,2
3021079009650,54648.381107,0.704901952471,18.1979,0.194,0.35273699999999997,213,18.015,0.45753900000000003,168.2883,-21.62087,2
3021079009650,54648.389439,0.728522950551,18.1935,0.194,0.35273699999999997,213,18.015,0.45753900000000003,168.2883,-21.62087,2
3021079009650,54596.499746,0.622625355463,18.2567,0.191,0.35273699999999997,213,18.015,0.45753900000000003,168.2883,-21.62087,2
3021079009650,54596.510621,0.653455690801,18.2456,0.192,0.35273699999999997,213,18.015,0.45753900000000003,168.2883,-21.62087,2
3021079009650,54596.521508,0.68432004581,18.0742,0.176,0.35273699999999997,213,18.015,0.45753900000000003,168.2883,-21.62087,2
3021079009650,54596.532488,0.715448053379,18.1485,0.182,0.35273699999999997,213,18.015,0.45753900000000003,168.2883,-21.62087,2
3021079009650,54617.496932,0.149088414328,17.949,0.167,0.35273699999999997,213,18.015,0.45753900000000003,168.2883,-21.62087,2
3021079009650,54617.502922,0.166069904779,18.0415,0.176,0.35273699999999997,213,18.015,0.45753900000000003,168.2883,-21.62087,2
3021079009650,54617.508916,0.18306273513,18.059,0.177,0.35273699999999997,213,18.015,0.45753900000000003,168.2883,-21.62087,2
3021079009650,54617.514905,0.200041390635,18.0917,0.180,0.35273699999999997,213,18.015,0.45753900000000003,168.2883,-21.62087,2
3021079009650,54937.552441,0.49793188693,18.4219,0.278,0.35273699999999997,213,18.015,0.45753900000000003,168.2883,-21.62087,2
3021079009650,54937.562727,0.52709242297,18.1219,0.239,0.35273699999999997,213,18.015,0.45753900000000003,168.2883,-21.62087,2
3021079009650,54937.573041,0.556332338281,18.4517,0.284,0.35273699999999997,213,18.015,0.45753900000000003,168.2883,-21.62087,2
3021079009650,54937.583330,0.585501379246,18.1941,0.250,0.35273699999999997,213,18.015,0.45753900000000003,168.2883,-21.62087,2
3021079009650,54947.472051,0.619762032351,18.2174,0.250,0.35273699999999997,213,18.015,0.45753900000000003,168.2883,-21.62087,2
3021079009650,54947.483107,0.651105497876,17.8868,0.212,0.35273699999999997,213,18.015,0.45753900000000003,168.2883,-21.62087,2
3021079009650,54947.494180,0.682497157948,17.9358,0.305,0.35273699999999997,213,18.015,0.45753900000000003,168.2883,-21.62087,2
3021079009650,54948.507863,0.556261463935,18.2428,0.252,0.35273699999999997,213,18.015,0.45753900000000003,168.2883,-21.62087,2
3021079009650,54948.512876,0.57047318542,18.1375,0.238,0.35273699999999997,213,18.015,0.45753900000000003,168.2883,-21.62087,2
3021079009650,54948.517882,0.584665062081,18.124,0.237,0.35273699999999997,213,18.015,0.45753900000000003,168.2883,-21.62087,2
3021079009650,54948.522890,0.598862608691,18.2736,0.257,0.35273699999999997,213,18.015,0.45753900000000003,168.2883,-21.62087,2
3021079009650,54882.697474,0.985561480658,17.8626,0.174,0.35273699999999997,213,18.015,0.45753900000000003,168.2883,-21.62087,2
3021079009650,54882.711145,0.0243184015562,17.9004,0.178,0.35273699999999997,213,18.015,0.45753900000000003,168.2883,-21.62087,2
3021079009650,54884.653284,0.530230738485,18.301,0.206,0.35273699999999997,213,18.015,0.45753900000000003,168.2883,-21.62087,2
3021079009650,54884.666336,0.567232810863,18.1636,0.193,0.35273699999999997,213,18.015,0.45753900000000003,168.2883,-21.62087,2
3021079009650,54884.679373,0.604192358616,18.3738,0.215,0.35273699999999997,213,18.015,0.45753900000000003,168.2883,-21.62087,2
3021079009650,54884.692394,0.641106546798,18.1742,0.196,0.35273699999999997,213,18.015,0.45753900000000003,168.2883,-21.62087,2
3021079009650,55031.390808,0.527202986937,17.9774,0.239,0.35273699999999997,213,18.015,0.45753900000000003,168.2883,-21.62087,2
3021079009650,55031.394987,0.539050340623,18.2186,0.272,0.35273699999999997,213,18.015,0.45753900000000003,168.2883,-21.62087,2
3021079009650,55031.399032,0.550517807889,18.0236,0.246,0.35273699999999997,213,18.015,0.45753900000000003,168.2883,-21.62087,2
3021079009650,55031.403207,0.562353821704,18.3566,0.293,0.35273699999999997,213,18.015,0.45753900000000003,168.2883,-21.62087,2
3021079009650,54896.556060,0.274283673119,18.1852,0.168,0.35273699999999997,213,18.015,0.45753900000000003,168.2883,-21.62087,2
3021079009650,54896.565883,0.30213161651,18.0963,0.161,0.35273699999999997,213,18.015,0.45753900000000003,168.2883,-21.62087,2
3021079009650,54896.575725,0.330033424369,18.1472,0.165,0.35273699999999997,213,18.015,0.45753900000000003,168.2883,-21.62087,2
3021079009650,54896.585673,0.358235739404,18.2417,0.172,0.35273699999999997,213,18.015,0.45753900000000003,168.2883,-21.62087,2
3021079009650,54906.616852,0.796361028188,17.841,0.169,0.35273699999999997,213,18.015,0.45753900000000003,168.2883,-21.62087,2
3021079009650,54906.629727,0.832861310279,18.0394,0.185,0.35273699999999997,213,18.015,0.45753900000000003,168.2883,-21.62087,2
3021079009650,54906.642628,0.869435301662,17.8113,0.167,0.35273699999999997,213,18.015,0.45753900000000003,168.2883,-21.62087,2
3021079009650,54906.655591,0.906185061409,17.8566,0.171,0.35273699999999997,213,18.015,0.45753900000000003,168.2883,-21.62087,2
3021079009650,54918.548583,0.622500616621,18.2354,0.250,0.35273699999999997,213,18.015,0.45753900000000003,168.2883,-21.62087,2
3021079009650,54918.557015,0.646405112027,18.1806,0.243,0.35273699999999997,213,18.015,0.45753900000000003,168.2883,-21.62087,2
3021079009650,54918.565477,0.670394656656,18.0837,0.231,0.35273699999999997,213,18.015,0.45753900000000003,168.2883,-21.62087,2
3021079009650,54918.573891,0.694248122541,17.9699,0.219,0.35273699999999997,213,18.015,0.45753900000000003,168.2883,-21.62087,2
3021079009650,54963.468107,0.968154744216,17.966,0.182,0.35273699999999997,213,18.015,0.45753900000000003,168.2883,-21.62087,2
3021079009650,54963.478839,0.998579678359,17.849,0.173,0.35273699999999997,213,18.015,0.45753900000000003,168.2883,-21.62087,2
3021079009650,54963.489533,0.0288968835375,17.8595,0.174,0.35273699999999997,213,18.015,0.45753900000000003,168.2883,-21.62087,2
3021079009650,54963.500222,0.0591999138414,18.0046,0.186,0.35273699999999997,213,18.015,0.45753900000000003,168.2883,-21.62087,2
3021079009650,54979.432470,0.226698645187,17.9239,0.195,0.35273699999999997,213,18.015,0.45753900000000003,168.2883,-21.62087,2
3021079009650,54979.446201,0.26562566447,17.9531,0.267,0.35273699999999997,213,18.015,0.45753900000000003,168.2883,-21.62087,2
3021079009650,54979.460009,0.304770976683,18.1324,0.169,0.35273699999999997,213,18.015,0.45753900000000003,168.2883,-21.62087,2
3021079009650,54979.473731,0.34367248122,18.1439,0.226,0.35273699999999997,213,18.015,0.45753900000000003,168.2883,-21.62087,2
3021079009650,55305.454614,0.490793424018,18.5438,0.260,0.35273699999999997,213,18.015,0.45753900000000003,168.2883,-21.62087,2
3021079009650,55243.650773,0.278550308052,18.0001,0.238,0.35273699999999997,213,18.015,0.45753900000000003,168.2883,-21.62087,2
3021079009650,55212.708378,0.55768462058,18.3651,0.285,0.35273699999999997,213,18.015,0.45753900000000003,168.2883,-21.62087,2
3021079009650,55212.730895,0.621519715845,18.2463,0.266,0.35273699999999997,213,18.015,0.45753900000000003,168.2883,-21.62087,2
3021079009650,55350.394010,0.892784142314,17.73,0.222,0.35273699999999997,213,18.015,0.45753900000000003,168.2883,-21.62087,2
3021079009650,55350.429318,0.992881381913,17.9547,0.273,0.35273699999999997,213,18.015,0.45753900000000003,168.2883,-21.62087,2
3021079009650,55351.414494,0.785829102155,17.8601,0.244,0.35273699999999997,213,18.015,0.45753900000000003,168.2883,-21.62087,2
3021079009650,55351.443038,0.866750581888,17.7151,0.229,0.35273699999999997,213,18.015,0.45753900000000003,168.2883,-21.62087,2
3021079009650,55266.640752,0.454528444709,18.1677,0.187,0.35273699999999997,213,18.015,0.45753900000000003,168.2883,-21.62087,2
3021079009650,55660.557684,0.198538854747,18.0328,0.171,0.35273699999999997,213,18.015,0.45753900000000003,168.2883,-21.62087,2
3021079009650,55660.591831,0.295344690239,17.9584,0.165,0.35273699999999997,213,18.015,0.45753900000000003,168.2883,-21.62087,2
3021079009650,55681.528753,0.650960914238,17.9847,0.169,0.35273699999999997,213,18.015,0.45753900000000003,168.2883,-21.62087,2
3021079009650,55681.560704,0.741541148251,18.0683,0.178,0.35273699999999997,213,18.015,0.45753900000000003,168.2883,-21.62087,2
3021079009650,55649.579834,0.0766264951089,17.8526,0.141,0.35273699999999997,213,18.015,0.45753900000000003,168.2883,-21.62087,2
3021079009650,55649.604495,0.146539773268,17.9347,0.147,0.35273699999999997,213,18.015,0.45753900000000003,168.2883,-21.62087,2
3021079009650,54979.493273,0.399073530716,18.1091,0.174,0.35273699999999997,213,18.015,0.45753900000000003,168.2883,-21.62087,2
3021079009650,54979.514330,0.458769564866,18.2348,0.200,0.35273699999999997,213,18.015,0.45753900000000003,168.2883,-21.62087,2
3021079009650,54979.528209,0.49811616019,18.2987,0.188,0.35273699999999997,213,18.015,0.45753900000000003,168.2883,-21.62087,2
3021079009650,54979.542250,0.537922021234,18.2644,0.199,0.35273699999999997,213,18.015,0.45753900000000003,168.2883,-21.62087,2
3021079009650,55323.571146,0.850679117895,18.0412,0.259,0.35273699999999997,213,18.015,0.45753900000000003,168.2883,-21.62087,2
3021079009650,55323.601734,0.937395283196,17.5088,0.202,0.35273699999999997,213,18.015,0.45753900000000003,168.2883,-21.62087,2
3021079009650,55655.537817,0.967349611747,17.6276,0.163,0.35273699999999997,213,18.015,0.45753900000000003,168.2883,-21.62087,2
3021079009650,55655.657609,0.306956741173,18.2757,0.253,0.35273699999999997,213,18.015,0.45753900000000003,168.2883,-21.62087,2
3021079009650,55742.422476,0.283043740812,18.0236,0.211,0.35273699999999997,213,18.015,0.45753900000000003,168.2883,-21.62087,2
3021079009650,55742.430783,0.306593864574,17.9881,0.197,0.35273699999999997,213,18.015,0.45753900000000003,168.2883,-21.62087,2
3021079009650,55742.439132,0.3302630572,18.1752,0.222,0.35273699999999997,213,18.015,0.45753900000000003,168.2883,-21.62087,2
3021079009650,55742.447426,0.353776326287,17.8239,0.323,0.35273699999999997,213,18.015,0.45753900000000003,168.2883,-21.62087,2
3021079009650,56069.474666,0.467291494802,18.1199,0.168,0.35273699999999997,213,18.015,0.45753900000000003,168.2883,-21.62087,2
3021079009650,56069.488705,0.507091685897,18.3682,0.188,0.35273699999999997,213,18.015,0.45753900000000003,168.2883,-21.62087,2
3021079009650,56069.502850,0.54719238414,18.2069,0.176,0.35273699999999997,213,18.015,0.45753900000000003,168.2883,-21.62087,2
3021079009650,56069.517015,0.587349781854,18.3677,0.190,0.35273699999999997,213,18.015,0.45753900000000003,168.2883,-21.62087,2
3021079009650,56092.385010,0.417506527534,18.2646,0.208,0.35273699999999997,213,18.015,0.45753900000000003,168.2883,-21.62087,2
3021079009650,56092.395444,0.447086639644,18.1716,0.199,0.35273699999999997,213,18.015,0.45753900000000003,168.2883,-21.62087,2
3021079009650,56092.406138,0.477403844794,18.3505,0.217,0.35273699999999997,213,18.015,0.45753900000000003,168.2883,-21.62087,2
3021079009650,56092.416760,0.507516931888,18.1097,0.194,0.35273699999999997,213,18.015,0.45753900000000003,168.2883,-21.62087,2
3021079009650,56266.714994,0.638367962558,18.2783,0.199,0.35273699999999997,213,18.015,0.45753900000000003,168.2883,-21.62087,2
3021079009650,56266.720698,0.654538650619,18.1369,0.187,0.35273699999999997,213,18.015,0.45753900000000003,168.2883,-21.62087,2
3021079009650,56266.726598,0.671264993493,18.5311,0.226,0.35273699999999997,213,18.015,0.45753900000000003,168.2883,-21.62087,2
3021079009650,56266.732210,0.687174864026,17.81,0.160,0.35273699999999997,213,18.015,0.45753900000000003,168.2883,-21.62087,2
3021079009650,56297.676239,0.412672897946,18.4352,0.268,0.35273699999999997,213,18.015,0.45753900000000003,168.2883,-21.62087,2
3021079009650,56297.686703,0.442338059249,18.1213,0.228,0.35273699999999997,213,18.015,0.45753900000000003,168.2883,-21.62087,2
3021079009650,56297.696396,0.469817456091,18.3396,0.252,0.35273699999999997,213,18.015,0.45753900000000003,168.2883,-21.62087,2
3021079009650,56297.707954,0.502584078233,18.0033,0.213,0.35273699999999997,213,18.015,0.45753900000000003,168.2883,-21.62087,2
3021079009650,56355.690679,0.882065108017,17.7036,0.155,0.35273699999999997,213,18.015,0.45753900000000003,168.2883,-21.62087,2
3021079009650,56355.698997,0.905646416475,17.9407,0.173,0.35273699999999997,213,18.015,0.45753900000000003,168.2883,-21.62087,2
3021079009650,56355.707518,0.929803224513,18.0618,0.183,0.35273699999999997,213,18.015,0.45753900000000003,168.2883,-21.62087,2
3021079009650,56355.715864,0.953463912214,17.9987,0.178,0.35273699999999997,213,18.015,0.45753900000000003,168.2883,-21.62087,2
3021079009650,56380.629252,0.58225533471,18.0932,0.152,0.35273699999999997,213,18.015,0.45753900000000003,168.2883,-21.62087,2
3021079009650,56380.643595,0.622917357716,18.1897,0.160,0.35273699999999997,213,18.015,0.45753900000000003,168.2883,-21.62087,2
3021079009650,56380.657895,0.663457476825,18.0316,0.151,0.35273699999999997,213,18.015,0.45753900000000003,168.2883,-21.62087,2
3021079009650,56380.672101,0.703731108457,17.7661,0.135,0.35273699999999997,213,18.015,0.45753900000000003,168.2883,-21.62087,2
3021079009650,56410.480370,0.209379792883,18.11,0.155,0.35273699999999997,213,18.015,0.45753900000000003,168.2883,-21.62087,2
3021079009650,56410.493311,0.246067183209,17.9616,0.144,0.35273699999999997,213,18.015,0.45753900000000003,168.2883,-21.62087,2
3021079009650,56410.507418,0.286060152488,18.0521,0.151,0.35273699999999997,213,18.015,0.45753900000000003,168.2883,-21.62087,2
3021079009650,56410.520232,0.32238750119,18.1556,0.158,0.35273699999999997,213,18.015,0.45753900000000003,168.2883,-21.62087,2
3021079009650,56429.490180,0.10168482468,18.055,0.155,0.35273699999999997,213,18.015,0.45753900000000003,168.2883,-21.62087,2
3021079009650,56429.500668,0.131418025354,18.0341,0.154,0.35273699999999997,213,18.015,0.45753900000000003,168.2883,-21.62087,2
3021079009650,56429.511240,0.161389363755,17.9523,0.149,0.35273699999999997,213,18.015,0.45753900000000003,168.2883,-21.62087,2
3021079009650,56429.521823,0.19139188691,17.6604,0.132,0.35273699999999997,213,18.015,0.45753900000000003,168.2883,-21.62087,2
3021079009650,56464.385170,0.028052061476,17.7849,0.137,0.35273699999999997,213,18.015,0.45753900000000003,168.2883,-21.62087,2
3021079009650,56464.396465,0.060073085624,17.9242,0.145,0.35273699999999997,213,18.015,0.45753900000000003,168.2883,-21.62087,2
3021079009650,56464.407763,0.0921026147262,17.8663,0.143,0.35273699999999997,213,18.015,0.45753900000000003,168.2883,-21.62087,2
3021079009650,56464.419066,0.124146318674,17.7386,0.137,0.35273699999999997,213,18.015,0.45753900000000003,168.2883,-21.62087,2
