ID,MjD,Phase,Mag,Mag_err,Period,Npts,V,Amp,ra,dec,Type
3021073010685,53731.693529,0.433153719001,12.2254,0.054,0.3025,241,12.122,0.392624,154.61709,-21.636470000000003,2
3021073010685,53731.703253,0.465299173549,12.2555,0.054,0.3025,241,12.122,0.392624,154.61709,-21.636470000000003,2
3021073010685,53731.713163,0.498059504142,12.2608,0.054,0.3025,241,12.122,0.392624,154.61709,-21.636470000000003,2
3021073010685,53731.722892,0.530221487599,12.2763,0.054,0.3025,241,12.122,0.392624,154.61709,-21.636470000000003,2
3021073010685,53690.729347,0.0143702479545,12.0087,0.054,0.3025,241,12.122,0.392624,154.61709,-21.636470000000003,2
3021073010685,53690.733728,0.0288528925739,12.0131,0.054,0.3025,241,12.122,0.392624,154.61709,-21.636470000000003,2
3021073010685,53690.738246,0.0437884297571,12.006,0.054,0.3025,241,12.122,0.392624,154.61709,-21.636470000000003,2
3021073010685,53690.742712,0.0585520661261,11.9745,0.054,0.3025,241,12.122,0.392624,154.61709,-21.636470000000003,2
3021073010685,53850.432550,0.958842975204,11.9848,0.052,0.3025,241,12.122,0.392624,154.61709,-21.636470000000003,2
3021073010685,53850.445772,0.00255206611473,11.962,0.052,0.3025,241,12.122,0.392624,154.61709,-21.636470000000003,2
3021073010685,53850.458961,0.0461520661192,11.9371,0.052,0.3025,241,12.122,0.392624,154.61709,-21.636470000000003,2
3021073010685,53850.472008,0.0892826446216,11.9263,0.052,0.3025,241,12.122,0.392624,154.61709,-21.636470000000003,2
3021073010685,53761.632728,0.405712396692,12.1843,0.054,0.3025,241,12.122,0.392624,154.61709,-21.636470000000003,2
3021073010685,53761.642338,0.437480991735,12.2327,0.055,0.3025,241,12.122,0.392624,154.61709,-21.636470000000003,2
3021073010685,53761.651623,0.468175206624,12.2628,0.055,0.3025,241,12.122,0.392624,154.61709,-21.636470000000003,2
3021073010685,53761.660764,0.498393388436,12.2615,0.055,0.3025,241,12.122,0.392624,154.61709,-21.636470000000003,2
3021073010685,53764.633484,0.325566942134,12.093,0.055,0.3025,241,12.122,0.392624,154.61709,-21.636470000000003,2
3021073010685,53764.645777,0.366204958671,12.133,0.055,0.3025,241,12.122,0.392624,154.61709,-21.636470000000003,2
3021073010685,53764.658088,0.406902479328,12.2038,0.055,0.3025,241,12.122,0.392624,154.61709,-21.636470000000003,2
3021073010685,53764.670215,0.446991735545,12.2225,0.055,0.3025,241,12.122,0.392624,154.61709,-21.636470000000003,2
3021073010685,53894.458056,0.49770578515,12.2385,0.054,0.3025,241,12.122,0.392624,154.61709,-21.636470000000003,2
3021073010685,53894.463203,0.514720661158,12.2642,0.054,0.3025,241,12.122,0.392624,154.61709,-21.636470000000003,2
3021073010685,53903.408814,0.0869884297717,11.9238,0.052,0.3025,241,12.122,0.392624,154.61709,-21.636470000000003,2
3021073010685,53903.420273,0.124869421503,11.9342,0.052,0.3025,241,12.122,0.392624,154.61709,-21.636470000000003,2
3021073010685,53903.431713,0.162687603297,11.9516,0.052,0.3025,241,12.122,0.392624,154.61709,-21.636470000000003,2
3021073010685,53903.443168,0.200555371906,11.9661,0.052,0.3025,241,12.122,0.392624,154.61709,-21.636470000000003,2
3021073010685,53819.506448,0.723795041326,12.3149,0.053,0.3025,241,12.122,0.392624,154.61709,-21.636470000000003,2
3021073010685,53819.514952,0.751907438011,12.2972,0.053,0.3025,241,12.122,0.392624,154.61709,-21.636470000000003,2
3021073010685,53819.523465,0.780049586785,12.2715,0.053,0.3025,241,12.122,0.392624,154.61709,-21.636470000000003,2
3021073010685,53819.531919,0.807996694231,12.2456,0.053,0.3025,241,12.122,0.392624,154.61709,-21.636470000000003,2
3021073010685,53857.475894,0.242624793405,12.0093,0.053,0.3025,241,12.122,0.392624,154.61709,-21.636470000000003,2
3021073010685,53857.485426,0.274135537184,12.0212,0.053,0.3025,241,12.122,0.392624,154.61709,-21.636470000000003,2
3021073010685,53857.495002,0.305791735562,12.0501,0.053,0.3025,241,12.122,0.392624,154.61709,-21.636470000000003,2
3021073010685,53857.504580,0.337454545457,12.098,0.053,0.3025,241,12.122,0.392624,154.61709,-21.636470000000003,2
3021073010685,53865.526815,0.857239669422,12.1885,0.053,0.3025,241,12.122,0.392624,154.61709,-21.636470000000003,2
3021073010685,53865.535403,0.885629752069,12.1225,0.053,0.3025,241,12.122,0.392624,154.61709,-21.636470000000003,2
3021073010685,53865.544042,0.914188429771,12.0832,0.053,0.3025,241,12.122,0.392624,154.61709,-21.636470000000003,2
3021073010685,53865.552698,0.942803305777,12.03,0.053,0.3025,241,12.122,0.392624,154.61709,-21.636470000000003,2
3021073010685,53872.441158,0.71457190084,12.3174,0.054,0.3025,241,12.122,0.392624,154.61709,-21.636470000000003,2
3021073010685,53872.449660,0.74267768595,12.3149,0.054,0.3025,241,12.122,0.392624,154.61709,-21.636470000000003,2
3021073010685,53872.458208,0.770935537177,12.2983,0.054,0.3025,241,12.122,0.392624,154.61709,-21.636470000000003,2
3021073010685,53872.466746,0.799160330585,12.2776,0.054,0.3025,241,12.122,0.392624,154.61709,-21.636470000000003,2
3021073010685,53885.447412,0.710452892585,12.3239,0.053,0.3025,241,12.122,0.392624,154.61709,-21.636470000000003,2
3021073010685,53885.458296,0.746433057851,12.3093,0.053,0.3025,241,12.122,0.392624,154.61709,-21.636470000000003,2
3021073010685,53885.469156,0.782333884301,12.2912,0.053,0.3025,241,12.122,0.392624,154.61709,-21.636470000000003,2
3021073010685,53885.480035,0.818297520658,12.287,0.053,0.3025,241,12.122,0.392624,154.61709,-21.636470000000003,2
3021073010685,54068.664767,0.387659504137,12.1269,0.053,0.3025,241,12.122,0.392624,154.61709,-21.636470000000003,2
3021073010685,54068.670341,0.40608595041,12.1503,0.053,0.3025,241,12.122,0.392624,154.61709,-21.636470000000003,2
3021073010685,54068.675911,0.424499173561,12.1835,0.053,0.3025,241,12.122,0.392624,154.61709,-21.636470000000003,2
3021073010685,54068.681465,0.442859504139,12.1829,0.053,0.3025,241,12.122,0.392624,154.61709,-21.636470000000003,2
3021073010685,54198.495700,0.580826446298,12.2804,0.054,0.3025,241,12.122,0.392624,154.61709,-21.636470000000003,2
3021073010685,54198.504169,0.608823140501,12.2823,0.054,0.3025,241,12.122,0.392624,154.61709,-21.636470000000003,2
3021073010685,54198.512645,0.636842975218,12.3082,0.055,0.3025,241,12.122,0.392624,154.61709,-21.636470000000003,2
3021073010685,54198.521117,0.664849586785,12.3042,0.055,0.3025,241,12.122,0.392624,154.61709,-21.636470000000003,2
3021073010685,54206.477575,0.967190082651,11.9612,0.053,0.3025,241,12.122,0.392624,154.61709,-21.636470000000003,2
3021073010685,54206.487745,0.000809917342849,11.9536,0.053,0.3025,241,12.122,0.392624,154.61709,-21.636470000000003,2
3021073010685,54206.497899,0.0343768595194,11.9421,0.053,0.3025,241,12.122,0.392624,154.61709,-21.636470000000003,2
3021073010685,54206.508098,0.0680925619963,11.9349,0.053,0.3025,241,12.122,0.392624,154.61709,-21.636470000000003,2
3021073010685,54137.704126,0.616945454531,12.332,0.055,0.3025,241,12.122,0.392624,154.61709,-21.636470000000003,2
3021073010685,54137.712767,0.645510743809,12.3449,0.055,0.3025,241,12.122,0.392624,154.61709,-21.636470000000003,2
3021073010685,54137.721328,0.673811570246,12.3443,0.055,0.3025,241,12.122,0.392624,154.61709,-21.636470000000003,2
3021073010685,54137.729879,0.702079338836,12.3302,0.055,0.3025,241,12.122,0.392624,154.61709,-21.636470000000003,2
3021073010685,54154.585288,0.422439669434,12.1416,0.053,0.3025,241,12.122,0.392624,154.61709,-21.636470000000003,2
3021073010685,54154.596255,0.458694214874,12.1766,0.053,0.3025,241,12.122,0.392624,154.61709,-21.636470000000003,2
3021073010685,54154.607161,0.494747107441,12.2261,0.053,0.3025,241,12.122,0.392624,154.61709,-21.636470000000003,2
3021073010685,54154.618385,0.531851239677,12.2523,0.053,0.3025,241,12.122,0.392624,154.61709,-21.636470000000003,2
3021073010685,54292.355692,0.861791735544,12.2436,0.054,0.3025,241,12.122,0.392624,154.61709,-21.636470000000003,2
3021073010685,54292.360107,0.876386776858,12.215,0.054,0.3025,241,12.122,0.392624,154.61709,-21.636470000000003,2
3021073010685,54292.364624,0.891319008282,12.2017,0.054,0.3025,241,12.122,0.392624,154.61709,-21.636470000000003,2
3021073010685,54292.369043,0.905927272717,12.1507,0.054,0.3025,241,12.122,0.392624,154.61709,-21.636470000000003,2
3021073010685,54186.548060,0.0844958677772,11.9178,0.053,0.3025,241,12.122,0.392624,154.61709,-21.636470000000003,2
3021073010685,54186.558682,0.119609917369,11.9138,0.053,0.3025,241,12.122,0.392624,154.61709,-21.636470000000003,2
3021073010685,54186.569355,0.154892561986,11.929,0.053,0.3025,241,12.122,0.392624,154.61709,-21.636470000000003,2
3021073010685,54186.580001,0.190085950424,11.9676,0.053,0.3025,241,12.122,0.392624,154.61709,-21.636470000000003,2
3021073010685,54228.405901,0.457523966936,12.1864,0.053,0.3025,241,12.122,0.392624,154.61709,-21.636470000000003,2
3021073010685,54228.414614,0.486327272723,12.2041,0.053,0.3025,241,12.122,0.392624,154.61709,-21.636470000000003,2
3021073010685,54228.423311,0.515077685937,12.1255,0.054,0.3025,241,12.122,0.392624,154.61709,-21.636470000000003,2
3021073010685,54228.431999,0.54379834712,12.1711,0.056,0.3025,241,12.122,0.392624,154.61709,-21.636470000000003,2
3021073010685,54236.424362,0.964833057864,11.9849,0.054,0.3025,241,12.122,0.392624,154.61709,-21.636470000000003,2
3021073010685,54236.434915,0.99971900825,11.9633,0.054,0.3025,241,12.122,0.392624,154.61709,-21.636470000000003,2
3021073010685,54236.445518,0.0347702479339,11.9649,0.054,0.3025,241,12.122,0.392624,154.61709,-21.636470000000003,2
3021073010685,54236.456093,0.0697289256204,11.9557,0.054,0.3025,241,12.122,0.392624,154.61709,-21.636470000000003,2
3021073010685,54247.451046,0.416680991737,12.1509,0.054,0.3025,241,12.122,0.392624,154.61709,-21.636470000000003,2
3021073010685,54247.463862,0.459047933866,12.2077,0.054,0.3025,241,12.122,0.392624,154.61709,-21.636470000000003,2
3021073010685,54247.476671,0.501391735539,12.2432,0.055,0.3025,241,12.122,0.392624,154.61709,-21.636470000000003,2
3021073010685,54247.489547,0.543957024784,12.2839,0.055,0.3025,241,12.122,0.392624,154.61709,-21.636470000000003,2
3021073010685,54413.726933,0.0890347107488,11.9585,0.054,0.3025,241,12.122,0.392624,154.61709,-21.636470000000003,2
3021073010685,54413.731235,0.103256198345,11.9646,0.054,0.3025,241,12.122,0.392624,154.61709,-21.636470000000003,2
3021073010685,54413.735542,0.117494214879,11.9378,0.053,0.3025,241,12.122,0.392624,154.61709,-21.636470000000003,2
3021073010685,54413.739819,0.13163305787,11.9497,0.053,0.3025,241,12.122,0.392624,154.61709,-21.636470000000003,2
3021073010685,54803.666857,0.146634710749,11.9332,0.051,0.3025,241,12.122,0.392624,154.61709,-21.636470000000003,2
3021073010685,54803.679913,0.18979504134,11.9419,0.051,0.3025,241,12.122,0.392624,154.61709,-21.636470000000003,2
3021073010685,54803.692985,0.233008264477,11.935,0.051,0.3025,241,12.122,0.392624,154.61709,-21.636470000000003,2
3021073010685,54803.706036,0.27615206613,11.9937,0.051,0.3025,241,12.122,0.392624,154.61709,-21.636470000000003,2
3021073010685,54471.698381,0.730185123975,12.2773,0.053,0.3025,241,12.122,0.392624,154.61709,-21.636470000000003,2
3021073010685,54471.710130,0.769024793379,12.2824,0.053,0.3025,241,12.122,0.392624,154.61709,-21.636470000000003,2
3021073010685,54471.721785,0.807553719031,12.2579,0.053,0.3025,241,12.122,0.392624,154.61709,-21.636470000000003,2
3021073010685,54471.733383,0.845894214872,12.1928,0.053,0.3025,241,12.122,0.392624,154.61709,-21.636470000000003,2
3021073010685,54493.577247,0.0570148760453,11.9497,0.055,0.3025,241,12.122,0.392624,154.61709,-21.636470000000003,2
3021073010685,54493.587577,0.0911636363599,11.9277,0.054,0.3025,241,12.122,0.392624,154.61709,-21.636470000000003,2
3021073010685,54493.598094,0.125930578506,11.9241,0.054,0.3025,241,12.122,0.392624,154.61709,-21.636470000000003,2
3021073010685,54493.608627,0.160750413226,11.9316,0.054,0.3025,241,12.122,0.392624,154.61709,-21.636470000000003,2
3021073010685,54631.403434,0.68077355373,12.3287,0.052,0.3025,241,12.122,0.392624,154.61709,-21.636470000000003,2
3021073010685,54631.412055,0.709272727283,12.3315,0.052,0.3025,241,12.122,0.392624,154.61709,-21.636470000000003,2
3021073010685,54631.420716,0.737904132227,12.3153,0.052,0.3025,241,12.122,0.392624,154.61709,-21.636470000000003,2
3021073010685,54631.429334,0.766393388447,12.2745,0.052,0.3025,241,12.122,0.392624,154.61709,-21.636470000000003,2
3021073010685,54591.522793,0.84394380165,12.196,0.052,0.3025,241,12.122,0.392624,154.61709,-21.636470000000003,2
3021073010685,54591.530315,0.86880991736,12.1335,0.052,0.3025,241,12.122,0.392624,154.61709,-21.636470000000003,2
3021073010685,54591.537852,0.893725619855,12.0976,0.052,0.3025,241,12.122,0.392624,154.61709,-21.636470000000003,2
3021073010685,54591.545361,0.918548760324,12.0422,0.052,0.3025,241,12.122,0.392624,154.61709,-21.636470000000003,2
3021073010685,54616.435848,0.201150413224,11.9208,0.051,0.3025,241,12.122,0.392624,154.61709,-21.636470000000003,2
3021073010685,54616.445674,0.233633057855,11.9668,0.052,0.3025,241,12.122,0.392624,154.61709,-21.636470000000003,2
3021073010685,54616.455512,0.266155371908,11.9696,0.052,0.3025,241,12.122,0.392624,154.61709,-21.636470000000003,2
3021073010685,54616.465405,0.298859504139,12.0102,0.052,0.3025,241,12.122,0.392624,154.61709,-21.636470000000003,2
3021073010685,54937.497486,0.561937190098,12.268,0.053,0.3025,241,12.122,0.392624,154.61709,-21.636470000000003,2
3021073010685,54937.507822,0.596105785138,12.2911,0.053,0.3025,241,12.122,0.392624,154.61709,-21.636470000000003,2
3021073010685,54937.518165,0.630297520664,12.2927,0.054,0.3025,241,12.122,0.392624,154.61709,-21.636470000000003,2
3021073010685,54937.528595,0.664776859514,12.2988,0.054,0.3025,241,12.122,0.392624,154.61709,-21.636470000000003,2
3021073010685,54947.434483,0.411514049571,12.1385,0.053,0.3025,241,12.122,0.392624,154.61709,-21.636470000000003,2
3021073010685,54947.442964,0.439550413226,12.1674,0.053,0.3025,241,12.122,0.392624,154.61709,-21.636470000000003,2
3021073010685,54947.451449,0.467600000004,12.1914,0.053,0.3025,241,12.122,0.392624,154.61709,-21.636470000000003,2
3021073010685,54947.459975,0.49578512396,12.213,0.053,0.3025,241,12.122,0.392624,154.61709,-21.636470000000003,2
3021073010685,54865.732621,0.322714049602,12.0207,0.053,0.3025,241,12.122,0.392624,154.61709,-21.636470000000003,2
3021073010685,54865.740250,0.347933884303,12.086,0.053,0.3025,241,12.122,0.392624,154.61709,-21.636470000000003,2
3021073010685,54865.747818,0.372952066129,12.085,0.053,0.3025,241,12.122,0.392624,154.61709,-21.636470000000003,2
3021073010685,54865.755443,0.398158677708,12.1476,0.053,0.3025,241,12.122,0.392624,154.61709,-21.636470000000003,2
3021073010685,54882.673642,0.32608925621,12.0492,0.052,0.3025,241,12.122,0.392624,154.61709,-21.636470000000003,2
3021073010685,54882.677914,0.340211570263,12.088,0.052,0.3025,241,12.122,0.392624,154.61709,-21.636470000000003,2
3021073010685,54882.682199,0.354376859526,12.083,0.052,0.3025,241,12.122,0.392624,154.61709,-21.636470000000003,2
3021073010685,54882.686504,0.368608264456,12.1045,0.052,0.3025,241,12.122,0.392624,154.61709,-21.636470000000003,2
3021073010685,54835.643813,0.855580165313,12.1788,0.053,0.3025,241,12.122,0.392624,154.61709,-21.636470000000003,2
3021073010685,54835.652975,0.885867768578,11.8267,0.053,0.3025,241,12.122,0.392624,154.61709,-21.636470000000003,2
3021073010685,54835.662193,0.916340495867,12.0203,0.053,0.3025,241,12.122,0.392624,154.61709,-21.636470000000003,2
3021073010685,54835.671428,0.946869421488,11.9565,0.053,0.3025,241,12.122,0.392624,154.61709,-21.636470000000003,2
3021073010685,55031.353658,0.830274380161,12.2728,0.054,0.3025,241,12.122,0.392624,154.61709,-21.636470000000003,2
3021073010685,55031.358691,0.846912396693,12.2501,0.054,0.3025,241,12.122,0.392624,154.61709,-21.636470000000003,2
3021073010685,55031.363736,0.863590082648,12.2274,0.054,0.3025,241,12.122,0.392624,154.61709,-21.636470000000003,2
3021073010685,55031.368783,0.88027438015,12.1897,0.054,0.3025,241,12.122,0.392624,154.61709,-21.636470000000003,2
3021073010685,55004.352370,0.56981818183,12.2568,0.053,0.3025,241,12.122,0.392624,154.61709,-21.636470000000003,2
3021073010685,55004.360569,0.596922314056,12.2899,0.053,0.3025,241,12.122,0.392624,154.61709,-21.636470000000003,2
3021073010685,55004.368596,0.623457851238,12.2741,0.053,0.3025,241,12.122,0.392624,154.61709,-21.636470000000003,2
3021073010685,55004.380459,0.662674380175,12.2984,0.053,0.3025,241,12.122,0.392624,154.61709,-21.636470000000003,2
3021073010685,54897.572997,0.580155371921,12.2854,0.052,0.3025,241,12.122,0.392624,154.61709,-21.636470000000003,2
3021073010685,54897.578332,0.597791735519,12.3011,0.052,0.3025,241,12.122,0.392624,154.61709,-21.636470000000003,2
3021073010685,54897.583662,0.615411570237,12.2922,0.052,0.3025,241,12.122,0.392624,154.61709,-21.636470000000003,2
3021073010685,54897.588997,0.633047933894,12.3068,0.052,0.3025,241,12.122,0.392624,154.61709,-21.636470000000003,2
3021073010685,54906.560635,0.291355371912,12.0203,0.052,0.3025,241,12.122,0.392624,154.61709,-21.636470000000003,2
3021073010685,54906.573508,0.333910743822,12.0553,0.052,0.3025,241,12.122,0.392624,154.61709,-21.636470000000003,2
3021073010685,54906.586383,0.376472727279,12.1181,0.052,0.3025,241,12.122,0.392624,154.61709,-21.636470000000003,2
3021073010685,54906.599265,0.41905785125,12.162,0.052,0.3025,241,12.122,0.392624,154.61709,-21.636470000000003,2
3021073010685,54918.482870,0.703702479339,12.2824,0.053,0.3025,241,12.122,0.392624,154.61709,-21.636470000000003,2
3021073010685,54918.493133,0.737629752082,12.2787,0.053,0.3025,241,12.122,0.392624,154.61709,-21.636470000000003,2
3021073010685,54918.503297,0.771229752077,12.2628,0.053,0.3025,241,12.122,0.392624,154.61709,-21.636470000000003,2
3021073010685,54918.513360,0.804495867778,12.2339,0.053,0.3025,241,12.122,0.392624,154.61709,-21.636470000000003,2
3021073010685,54962.439276,0.0141355371743,11.9916,0.051,0.3025,241,12.122,0.392624,154.61709,-21.636470000000003,2
3021073010685,54962.456889,0.0723603305814,11.9559,0.051,0.3025,241,12.122,0.392624,154.61709,-21.636470000000003,2
3021073010685,54962.474585,0.130859504163,11.9433,0.051,0.3025,241,12.122,0.392624,154.61709,-21.636470000000003,2
3021073010685,54962.492295,0.189404958684,11.968,0.051,0.3025,241,12.122,0.392624,154.61709,-21.636470000000003,2
3021073010685,54978.416304,0.830757024785,12.2109,0.054,0.3025,241,12.122,0.392624,154.61709,-21.636470000000003,2
3021073010685,54978.423465,0.854429752071,12.2054,0.054,0.3025,241,12.122,0.392624,154.61709,-21.636470000000003,2
3021073010685,54978.430340,0.877157024806,12.1521,0.053,0.3025,241,12.122,0.392624,154.61709,-21.636470000000003,2
3021073010685,54978.437331,0.900267768593,12.1128,0.053,0.3025,241,12.122,0.392624,154.61709,-21.636470000000003,2
3021073010685,55163.708486,0.366895867774,12.0761,0.053,0.3025,241,12.122,0.392624,154.61709,-21.636470000000003,2
3021073010685,55163.714373,0.386357024807,12.0866,0.054,0.3025,241,12.122,0.392624,154.61709,-21.636470000000003,2
3021073010685,55163.720220,0.40568595042,12.1088,0.053,0.3025,241,12.122,0.392624,154.61709,-21.636470000000003,2
3021073010685,55163.726050,0.424958677671,12.1492,0.054,0.3025,241,12.122,0.392624,154.61709,-21.636470000000003,2
3021073010685,55303.527122,0.577262809908,12.2425,0.053,0.3025,241,12.122,0.392624,154.61709,-21.636470000000003,2
3021073010685,55242.670352,0.397857851262,12.1315,0.052,0.3025,241,12.122,0.392624,154.61709,-21.636470000000003,2
3021073010685,55207.669458,0.692423140485,12.2871,0.053,0.3025,241,12.122,0.392624,154.61709,-21.636470000000003,2
3021073010685,55207.736913,0.915414876043,12.0172,0.052,0.3025,241,12.122,0.392624,154.61709,-21.636470000000003,2
3021073010685,55322.422234,0.0404429752089,11.9686,0.053,0.3025,241,12.122,0.392624,154.61709,-21.636470000000003,2
3021073010685,55322.450740,0.134677685943,11.9174,0.053,0.3025,241,12.122,0.392624,154.61709,-21.636470000000003,2
3021073010685,55658.529159,0.137715702469,11.9629,0.052,0.3025,241,12.122,0.392624,154.61709,-21.636470000000003,2
3021073010685,55658.571746,0.278499173553,12.0085,0.053,0.3025,241,12.122,0.392624,154.61709,-21.636470000000003,2
3021073010685,55676.484286,0.493507438019,12.2434,0.053,0.3025,241,12.122,0.392624,154.61709,-21.636470000000003,2
3021073010685,55676.520197,0.612221487594,12.4606,0.054,0.3025,241,12.122,0.392624,154.61709,-21.636470000000003,2
3021073010685,55595.676114,0.359054545464,12.0251,0.052,0.3025,241,12.122,0.392624,154.61709,-21.636470000000003,2
3021073010685,55595.718496,0.499160330597,12.2884,0.053,0.3025,241,12.122,0.392624,154.61709,-21.636470000000003,2
3021073010685,55626.614557,0.634899173572,12.2786,0.051,0.3025,241,12.122,0.392624,154.61709,-21.636470000000003,2
3021073010685,55626.656858,0.774737190106,12.2658,0.051,0.3025,241,12.122,0.392624,154.61709,-21.636470000000003,2
3021073010685,55647.598914,0.00467438017949,11.9676,0.051,0.3025,241,12.122,0.392624,154.61709,-21.636470000000003,2
3021073010685,55647.615911,0.0608628099144,11.9591,0.051,0.3025,241,12.122,0.392624,154.61709,-21.636470000000003,2
3021073010685,55696.491618,0.633447933884,12.3244,0.053,0.3025,241,12.122,0.392624,154.61709,-21.636470000000003,2
3021073010685,55696.502244,0.668575206626,12.3388,0.053,0.3025,241,12.122,0.392624,154.61709,-21.636470000000003,2
3021073010685,55696.523728,0.739596694213,12.3243,0.053,0.3025,241,12.122,0.392624,154.61709,-21.636470000000003,2
3021073010685,55701.405745,0.878495867772,12.1341,0.052,0.3025,241,12.122,0.392624,154.61709,-21.636470000000003,2
3021073010685,55701.415325,0.910165289271,12.0517,0.052,0.3025,241,12.122,0.392624,154.61709,-21.636470000000003,2
3021073010685,55701.424805,0.941504132235,12.0187,0.052,0.3025,241,12.122,0.392624,154.61709,-21.636470000000003,2
3021073010685,55701.434275,0.972809917352,11.9743,0.052,0.3025,241,12.122,0.392624,154.61709,-21.636470000000003,2
3021073010685,54835.684942,0.991543801647,11.9458,0.052,0.3025,241,12.122,0.392624,154.61709,-21.636470000000003,2
3021073010685,54835.694879,0.0243933884485,11.4273,0.058,0.3025,241,12.122,0.392624,154.61709,-21.636470000000003,2
3021073010685,54835.704303,0.0555471074476,12.3403,0.056,0.3025,241,12.122,0.392624,154.61709,-21.636470000000003,2
3021073010685,54835.713705,0.0866280991759,12.0372,0.084,0.3025,241,12.122,0.392624,154.61709,-21.636470000000003,2
3021073010685,54835.643813,0.855580165313,12.1788,0.053,0.3025,241,12.122,0.392624,154.61709,-21.636470000000003,2
3021073010685,54835.662193,0.916340495867,12.0203,0.053,0.3025,241,12.122,0.392624,154.61709,-21.636470000000003,2
3021073010685,54835.671428,0.946869421488,11.9565,0.053,0.3025,241,12.122,0.392624,154.61709,-21.636470000000003,2
3021073010685,54835.684942,0.991543801647,11.9458,0.052,0.3025,241,12.122,0.392624,154.61709,-21.636470000000003,2
3021073010685,55737.368052,0.762155371893,12.2797,0.052,0.3025,241,12.122,0.392624,154.61709,-21.636470000000003,2
3021073010685,55737.376474,0.78999669422,12.2744,0.052,0.3025,241,12.122,0.392624,154.61709,-21.636470000000003,2
3021073010685,55737.384933,0.817960330576,12.2448,0.052,0.3025,241,12.122,0.392624,154.61709,-21.636470000000003,2
3021073010685,55737.393372,0.845857851236,12.2151,0.052,0.3025,241,12.122,0.392624,154.61709,-21.636470000000003,2
3021073010685,55922.669085,0.32755371902,12.0554,0.052,0.3025,241,12.122,0.392624,154.61709,-21.636470000000003,2
3021073010685,55922.677633,0.355811570247,12.0792,0.052,0.3025,241,12.122,0.392624,154.61709,-21.636470000000003,2
3021073010685,55922.686257,0.384320661164,12.0902,0.052,0.3025,241,12.122,0.392624,154.61709,-21.636470000000003,2
3021073010685,55922.694846,0.412714049598,12.1519,0.052,0.3025,241,12.122,0.392624,154.61709,-21.636470000000003,2
3021073010685,55979.600505,0.530595041346,12.2706,0.052,0.3025,241,12.122,0.392624,154.61709,-21.636470000000003,2
3021073010685,55979.613230,0.572661157028,12.2883,0.052,0.3025,241,12.122,0.392624,154.61709,-21.636470000000003,2
3021073010685,55979.626036,0.614995041338,12.3044,0.052,0.3025,241,12.122,0.392624,154.61709,-21.636470000000003,2
3021073010685,55979.638866,0.657408264466,12.31,0.052,0.3025,241,12.122,0.392624,154.61709,-21.636470000000003,2
3021073010685,56068.468463,0.308968595025,12.0589,0.052,0.3025,241,12.122,0.392624,154.61709,-21.636470000000003,2
3021073010685,56068.478608,0.342505785113,12.1086,0.052,0.3025,241,12.122,0.392624,154.61709,-21.636470000000003,2
3021073010685,56068.487609,0.372261157056,12.1121,0.052,0.3025,241,12.122,0.392624,154.61709,-21.636470000000003,2
3021073010685,56068.496570,0.401884297549,12.1482,0.052,0.3025,241,12.122,0.392624,154.61709,-21.636470000000003,2
3021073010685,56252.703925,0.351818181836,12.0484,0.052,0.3025,241,12.122,0.392624,154.61709,-21.636470000000003,2
3021073010685,56252.715925,0.391487603309,12.1014,0.052,0.3025,241,12.122,0.392624,154.61709,-21.636470000000003,2
3021073010685,56252.727941,0.431209917355,12.1322,0.052,0.3025,241,12.122,0.392624,154.61709,-21.636470000000003,2
3021073010685,56252.740308,0.472092561977,12.1615,0.052,0.3025,241,12.122,0.392624,154.61709,-21.636470000000003,2
3021073010685,56290.610545,0.662958677713,12.3128,0.052,0.3025,241,12.122,0.392624,154.61709,-21.636470000000003,2
3021073010685,56290.620614,0.69624462811,12.2843,0.052,0.3025,241,12.122,0.392624,154.61709,-21.636470000000003,2
3021073010685,56290.630506,0.728945454553,12.2968,0.052,0.3025,241,12.122,0.392624,154.61709,-21.636470000000003,2
3021073010685,56290.640069,0.760558677692,12.3059,0.052,0.3025,241,12.122,0.392624,154.61709,-21.636470000000003,2
3021073010685,56355.593111,0.481358677702,12.2067,0.052,0.3025,241,12.122,0.392624,154.61709,-21.636470000000003,2
3021073010685,56355.602689,0.513021487597,12.2187,0.052,0.3025,241,12.122,0.392624,154.61709,-21.636470000000003,2
3021073010685,56355.612220,0.544528925646,12.2595,0.052,0.3025,241,12.122,0.392624,154.61709,-21.636470000000003,2
3021073010685,56355.621859,0.576393388445,12.2767,0.052,0.3025,241,12.122,0.392624,154.61709,-21.636470000000003,2
3021073010685,56380.562008,0.0231669421482,11.9579,0.051,0.3025,241,12.122,0.392624,154.61709,-21.636470000000003,2
3021073010685,56380.576087,0.0697090909234,11.9228,0.051,0.3025,241,12.122,0.392624,154.61709,-21.636470000000003,2
3021073010685,56380.590264,0.116575206601,11.9141,0.051,0.3025,241,12.122,0.392624,154.61709,-21.636470000000003,2
3021073010685,56380.604371,0.163209917373,11.9236,0.051,0.3025,241,12.122,0.392624,154.61709,-21.636470000000003,2
3021073010685,56408.446735,0.204082644632,11.9468,0.051,0.3025,241,12.122,0.392624,154.61709,-21.636470000000003,2
3021073010685,56408.457591,0.239970247931,11.9616,0.051,0.3025,241,12.122,0.392624,154.61709,-21.636470000000003,2
3021073010685,56408.467614,0.27310413224,11.9906,0.051,0.3025,241,12.122,0.392624,154.61709,-21.636470000000003,2
3021073010685,56408.477501,0.305788429774,12.0257,0.051,0.3025,241,12.122,0.392624,154.61709,-21.636470000000003,2
3021073010685,56423.454966,0.818069421483,12.2344,0.052,0.3025,241,12.122,0.392624,154.61709,-21.636470000000003,2
3021073010685,56423.463848,0.847431404953,12.1762,0.052,0.3025,241,12.122,0.392624,154.61709,-21.636470000000003,2
3021073010685,56423.472842,0.877163636382,12.0816,0.052,0.3025,241,12.122,0.392624,154.61709,-21.636470000000003,2
3021073010685,56423.481891,0.907077685959,12.0658,0.052,0.3025,241,12.122,0.392624,154.61709,-21.636470000000003,2
3021073010685,56461.365016,0.140548760333,11.9258,0.051,0.3025,241,12.122,0.392624,154.61709,-21.636470000000003,2
3021073010685,56461.376228,0.177613223146,11.9252,0.051,0.3025,241,12.122,0.392624,154.61709,-21.636470000000003,2
3021073010685,56461.387522,0.214948760316,11.9624,0.051,0.3025,241,12.122,0.392624,154.61709,-21.636470000000003,2
3021073010685,56461.398808,0.252257851243,11.9852,0.051,0.3025,241,12.122,0.392624,154.61709,-21.636470000000003,2
