ID,MjD,Phase,Mag,Mag_err,Period,Npts,V,Amp,ra,dec,Type
3021013004601,53598.699762,0.736254995281,14.8185,0.078,0.314296,135,14.588,0.442568,26.16965,-21.79309,2
3021013004601,53598.709358,0.766786723339,14.864,0.079,0.314296,135,14.588,0.442568,26.16965,-21.79309,2
3021013004601,53598.718817,0.796882556577,14.7907,0.078,0.314296,135,14.588,0.442568,26.16965,-21.79309,2
3021013004601,53598.728172,0.826647491544,14.6702,0.076,0.314296,135,14.588,0.442568,26.16965,-21.79309,2
3021013004601,53709.514834,0.318126861297,14.5188,0.072,0.314296,135,14.588,0.442568,26.16965,-21.79309,2
3021013004601,53709.525017,0.350526255497,14.5879,0.073,0.314296,135,14.588,0.442568,26.16965,-21.79309,2
3021013004601,53709.535216,0.382976557099,14.6117,0.073,0.314296,135,14.588,0.442568,26.16965,-21.79309,2
3021013004601,53709.545423,0.415452312474,14.6775,0.074,0.314296,135,14.588,0.442568,26.16965,-21.79309,2
3021013004601,53730.490605,0.057032224373,14.3722,0.069,0.314296,135,14.588,0.442568,26.16965,-21.79309,2
3021013004601,53730.499957,0.0867876142147,14.4212,0.071,0.314296,135,14.588,0.442568,26.16965,-21.79309,2
3021013004601,53730.509328,0.116603456612,14.3552,0.069,0.314296,135,14.588,0.442568,26.16965,-21.79309,2
3021013004601,53730.518697,0.146412935574,14.4018,0.071,0.314296,135,14.588,0.442568,26.16965,-21.79309,2
3021013004601,53581.719449,0.709754498908,14.7888,0.078,0.314296,135,14.588,0.442568,26.16965,-21.79309,2
3021013004601,53581.727123,0.734170972573,14.8192,0.078,0.314296,135,14.588,0.442568,26.16965,-21.79309,2
3021013004601,53581.735321,0.760254664376,14.8068,0.078,0.314296,135,14.588,0.442568,26.16965,-21.79309,2
3021013004601,53581.743926,0.787633313827,14.7546,0.077,0.314296,135,14.588,0.442568,26.16965,-21.79309,2
3021013004601,53655.494639,0.441313284275,14.7127,0.069,0.314296,135,14.588,0.442568,26.16965,-21.79309,2
3021013004601,53655.506185,0.478049354744,14.7383,0.069,0.314296,135,14.588,0.442568,26.16965,-21.79309,2
3021013004601,53655.517669,0.514588158927,14.7756,0.070,0.314296,135,14.588,0.442568,26.16965,-21.79309,2
3021013004601,53655.529414,0.551957390475,14.7999,0.070,0.314296,135,14.588,0.442568,26.16965,-21.79309,2
3021013004601,53618.630287,0.149486471346,14.4027,0.067,0.314296,135,14.588,0.442568,26.16965,-21.79309,2
3021013004601,53618.641294,0.184507597936,14.4306,0.067,0.314296,135,14.588,0.442568,26.16965,-21.79309,2
3021013004601,53618.651924,0.218329218304,14.4539,0.067,0.314296,135,14.588,0.442568,26.16965,-21.79309,2
3021013004601,53618.662533,0.252084022708,14.477,0.068,0.314296,135,14.588,0.442568,26.16965,-21.79309,2
3021013004601,53953.694590,0.228287983278,14.4864,0.071,0.314296,135,14.588,0.442568,26.16965,-21.79309,2
3021013004601,53953.702763,0.254292132246,14.4983,0.071,0.314296,135,14.588,0.442568,26.16965,-21.79309,2
3021013004601,53953.710986,0.280455366912,14.5164,0.071,0.314296,135,14.588,0.442568,26.16965,-21.79309,2
3021013004601,53953.719533,0.307649476919,14.5733,0.072,0.314296,135,14.588,0.442568,26.16965,-21.79309,2
3021013004601,54054.532350,0.0652060477878,14.3582,0.068,0.314296,135,14.588,0.442568,26.16965,-21.79309,2
3021013004601,54054.537574,0.0818273220211,14.3615,0.070,0.314296,135,14.588,0.442568,26.16965,-21.79309,2
3021013004601,54054.542815,0.098502685345,14.3653,0.068,0.314296,135,14.588,0.442568,26.16965,-21.79309,2
3021013004601,54054.548029,0.115092142427,14.3765,0.068,0.314296,135,14.588,0.442568,26.16965,-21.79309,2
3021013004601,54011.576553,0.392143075296,14.6214,0.071,0.314296,135,14.588,0.442568,26.16965,-21.79309,2
3021013004601,54011.587844,0.42806780868,14.6896,0.072,0.314296,135,14.588,0.442568,26.16965,-21.79309,2
3021013004601,54011.599126,0.46396390663,14.7193,0.073,0.314296,135,14.588,0.442568,26.16965,-21.79309,2
3021013004601,54011.610009,0.498590500676,14.7221,0.073,0.314296,135,14.588,0.442568,26.16965,-21.79309,2
3021013004601,54019.589838,0.888124570454,14.5274,0.070,0.314296,135,14.588,0.442568,26.16965,-21.79309,2
3021013004601,54033.623988,0.54077684728,14.7774,0.075,0.314296,135,14.588,0.442568,26.16965,-21.79309,2
3021013004601,54033.637962,0.585238119471,14.8079,0.075,0.314296,135,14.588,0.442568,26.16965,-21.79309,2
3021013004601,54033.651931,0.629683483072,14.7766,0.075,0.314296,135,14.588,0.442568,26.16965,-21.79309,2
3021013004601,54033.665933,0.674233843223,14.774,0.075,0.314296,135,14.588,0.442568,26.16965,-21.79309,2
3021013004601,54324.698458,0.65650851425,14.7653,0.067,0.314296,135,14.588,0.442568,26.16965,-21.79309,2
3021013004601,54324.714494,0.70753048081,14.8084,0.068,0.314296,135,14.588,0.442568,26.16965,-21.79309,2
3021013004601,54324.742383,0.79626530403,14.7593,0.067,0.314296,135,14.588,0.442568,26.16965,-21.79309,2
3021013004601,54324.758018,0.84601140325,14.703,0.066,0.314296,135,14.588,0.442568,26.16965,-21.79309,2
3021013004601,54113.456786,0.545912133792,14.8365,0.090,0.314296,135,14.588,0.442568,26.16965,-21.79309,2
3021013004601,54113.460261,0.556968590099,14.8414,0.093,0.314296,135,14.588,0.442568,26.16965,-21.79309,2
3021013004601,54113.463704,0.567923231603,14.8258,0.095,0.314296,135,14.588,0.442568,26.16965,-21.79309,2
3021013004601,54113.467176,0.578970142786,14.8213,0.095,0.314296,135,14.588,0.442568,26.16965,-21.79309,2
3021013004601,54303.666909,0.740133504703,14.7787,0.074,0.314296,135,14.588,0.442568,26.16965,-21.79309,2
3021013004601,54303.675457,0.767330796429,14.8002,0.076,0.314296,135,14.588,0.442568,26.16965,-21.79309,2
3021013004601,54303.684064,0.794715809287,14.7809,0.076,0.314296,135,14.588,0.442568,26.16965,-21.79309,2
3021013004601,54303.692705,0.822209000413,14.7044,0.080,0.314296,135,14.588,0.442568,26.16965,-21.79309,2
3021013004601,54402.586100,0.472713620286,14.7268,0.075,0.314296,135,14.588,0.442568,26.16965,-21.79309,2
3021013004601,54402.596949,0.507232036034,14.7685,0.076,0.314296,135,14.588,0.442568,26.16965,-21.79309,2
3021013004601,54402.607856,0.541934991226,14.7757,0.076,0.314296,135,14.588,0.442568,26.16965,-21.79309,2
3021013004601,54402.618707,0.576459770411,14.7997,0.076,0.314296,135,14.588,0.442568,26.16965,-21.79309,2
3021013004601,54702.766126,0.559720772784,14.7969,0.069,0.314296,135,14.588,0.442568,26.16965,-21.79309,2
3021013004601,54702.774958,0.587821671274,14.7777,0.069,0.314296,135,14.588,0.442568,26.16965,-21.79309,2
3021013004601,54702.783754,0.615808028087,14.7982,0.069,0.314296,135,14.588,0.442568,26.16965,-21.79309,2
3021013004601,54702.792543,0.643772112904,14.7996,0.069,0.314296,135,14.588,0.442568,26.16965,-21.79309,2
3021013004601,54703.698546,0.526414590044,14.7527,0.069,0.314296,135,14.588,0.442568,26.16965,-21.79309,2
3021013004601,54703.710090,0.563144297077,14.7564,0.069,0.314296,135,14.588,0.442568,26.16965,-21.79309,2
3021013004601,54703.721170,0.598397688795,14.7805,0.070,0.314296,135,14.588,0.442568,26.16965,-21.79309,2
3021013004601,54703.732243,0.633628808486,14.7888,0.070,0.314296,135,14.588,0.442568,26.16965,-21.79309,2
3021013004601,54478.498619,0.00464212079532,14.416,0.071,0.314296,135,14.588,0.442568,26.16965,-21.79309,2
3021013004601,54478.502594,0.0172894341522,14.3983,0.071,0.314296,135,14.588,0.442568,26.16965,-21.79309,2
3021013004601,54478.506557,0.0298985669506,14.3772,0.070,0.314296,135,14.588,0.442568,26.16965,-21.79309,2
3021013004601,54478.510535,0.0425554254616,14.3634,0.071,0.314296,135,14.588,0.442568,26.16965,-21.79309,2
3021013004601,54492.481485,0.494123374112,14.7267,0.077,0.314296,135,14.588,0.442568,26.16965,-21.79309,2
3021013004601,54492.485509,0.506926591479,14.7301,0.078,0.314296,135,14.588,0.442568,26.16965,-21.79309,2
3021013004601,54492.489528,0.519713900256,14.6396,0.105,0.314296,135,14.588,0.442568,26.16965,-21.79309,2
3021013004601,54492.493561,0.532545753056,14.6722,0.086,0.314296,135,14.588,0.442568,26.16965,-21.79309,2
3021013004601,54646.782563,0.436031638965,14.6353,0.068,0.314296,135,14.588,0.442568,26.16965,-21.79309,2
3021013004601,54646.791463,0.46434889402,14.6613,0.068,0.314296,135,14.588,0.442568,26.16965,-21.79309,2
3021013004601,54646.800522,0.493172041635,14.7055,0.068,0.314296,135,14.588,0.442568,26.16965,-21.79309,2
3021013004601,54646.809627,0.522141548077,14.7146,0.069,0.314296,135,14.588,0.442568,26.16965,-21.79309,2
3021013004601,54799.518880,0.399317840493,14.6207,0.069,0.314296,135,14.588,0.442568,26.16965,-21.79309,2
3021013004601,54799.524705,0.417851324863,14.6194,0.069,0.314296,135,14.588,0.442568,26.16965,-21.79309,2
3021013004601,54799.530538,0.436410262919,14.6868,0.070,0.314296,135,14.588,0.442568,26.16965,-21.79309,2
3021013004601,54799.536366,0.454953292414,14.6664,0.070,0.314296,135,14.588,0.442568,26.16965,-21.79309,2
3021013004601,54718.601763,0.944189553789,14.3807,0.061,0.314296,135,14.588,0.442568,26.16965,-21.79309,2
3021013004601,54718.610826,0.973025428248,14.3179,0.061,0.314296,135,14.588,0.442568,26.16965,-21.79309,2
3021013004601,54718.617774,0.995131977485,14.4193,0.061,0.314296,135,14.588,0.442568,26.16965,-21.79309,2
3021013004601,54718.624824,0.0175630615558,14.3707,0.061,0.314296,135,14.588,0.442568,26.16965,-21.79309,2
3021013004601,55181.533488,0.860564563336,14.5746,0.065,0.314296,135,14.588,0.442568,26.16965,-21.79309,2
3021013004601,55181.541771,0.886918700824,14.5422,0.068,0.314296,135,14.588,0.442568,26.16965,-21.79309,2
3021013004601,55181.549837,0.912582406367,14.473,0.063,0.314296,135,14.588,0.442568,26.16965,-21.79309,2
3021013004601,55181.557856,0.938096571364,14.481,0.065,0.314296,135,14.588,0.442568,26.16965,-21.79309,2
3021013004601,54832.457300,0.199951637944,14.3942,0.061,0.314296,135,14.588,0.442568,26.16965,-21.79309,2
3021013004601,54832.468530,0.235682286759,14.4182,0.061,0.314296,135,14.588,0.442568,26.16965,-21.79309,2
3021013004601,54832.479765,0.271428844135,14.4425,0.069,0.314296,135,14.588,0.442568,26.16965,-21.79309,2
3021013004601,54832.491027,0.307261307782,14.4702,0.062,0.314296,135,14.588,0.442568,26.16965,-21.79309,2
3021013004601,54860.473231,0.338633008389,14.5325,0.069,0.314296,135,14.588,0.442568,26.16965,-21.79309,2
3021013004601,54860.476991,0.350596253207,14.5345,0.069,0.314296,135,14.588,0.442568,26.16965,-21.79309,2
3021013004601,54860.480765,0.362604042049,14.5242,0.069,0.314296,135,14.588,0.442568,26.16965,-21.79309,2
3021013004601,54860.484535,0.37459910402,14.5719,0.069,0.314296,135,14.588,0.442568,26.16965,-21.79309,2
3021013004601,55031.716763,0.186585257179,14.3796,0.067,0.314296,135,14.588,0.442568,26.16965,-21.79309,2
3021013004601,55031.725792,0.215312953369,14.4187,0.067,0.314296,135,14.588,0.442568,26.16965,-21.79309,2
3021013004601,55031.734834,0.244082011865,14.3911,0.067,0.314296,135,14.588,0.442568,26.16965,-21.79309,2
3021013004601,55031.743913,0.272968793724,14.4493,0.068,0.314296,135,14.588,0.442568,26.16965,-21.79309,2
3021013004601,55083.682358,0.526249140908,14.733,0.066,0.314296,135,14.588,0.442568,26.16965,-21.79309,2
3021013004601,55083.691951,0.556771323842,14.7584,0.066,0.314296,135,14.588,0.442568,26.16965,-21.79309,2
3021013004601,55083.701580,0.58740804845,14.7864,0.066,0.314296,135,14.588,0.442568,26.16965,-21.79309,2
3021013004601,55083.711218,0.618073408492,14.8119,0.067,0.314296,135,14.588,0.442568,26.16965,-21.79309,2
3021013004601,55219.484751,0.610631379328,14.7715,0.076,0.314296,135,14.588,0.442568,26.16965,-21.79309,2
3021013004601,55219.495916,0.646155216731,14.8323,0.078,0.314296,135,14.588,0.442568,26.16965,-21.79309,2
3021013004601,54019.593705,0.900428258698,14.5008,0.070,0.314296,135,14.588,0.442568,26.16965,-21.79309,2
3021013004601,54019.604046,0.93333036371,14.4455,0.069,0.314296,135,14.588,0.442568,26.16965,-21.79309,2
3021013004601,54019.614330,0.966051111027,14.4228,0.069,0.314296,135,14.588,0.442568,26.16965,-21.79309,2
3021013004601,54019.624587,0.998685952072,14.4011,0.068,0.314296,135,14.588,0.442568,26.16965,-21.79309,2
3021013004601,55773.758321,0.150638251827,14.3521,0.061,0.314296,135,14.588,0.442568,26.16965,-21.79309,2
3021013004601,55773.769170,0.185156667576,14.376,0.062,0.314296,135,14.588,0.442568,26.16965,-21.79309,2
3021013004601,55773.787236,0.242637513671,14.4558,0.062,0.314296,135,14.588,0.442568,26.16965,-21.79309,2
3021013004601,55773.798020,0.276949118037,14.4631,0.062,0.314296,135,14.588,0.442568,26.16965,-21.79309,2
3021013004601,55804.768458,0.816026929999,14.705,0.069,0.314296,135,14.588,0.442568,26.16965,-21.79309,2
3021013004601,55804.778163,0.846905464918,14.6629,0.068,0.314296,135,14.588,0.442568,26.16965,-21.79309,2
3021013004601,55804.787857,0.877749000938,14.623,0.068,0.314296,135,14.588,0.442568,26.16965,-21.79309,2
3021013004601,55804.797530,0.908525720966,14.4932,0.067,0.314296,135,14.588,0.442568,26.16965,-21.79309,2
3021013004601,56177.670371,0.283283910685,14.474,0.058,0.314296,135,14.588,0.442568,26.16965,-21.79309,2
3021013004601,56177.685210,0.330497365532,14.4842,0.058,0.314296,135,14.588,0.442568,26.16965,-21.79309,2
3021013004601,56177.700180,0.378127624892,14.584,0.058,0.314296,135,14.588,0.442568,26.16965,-21.79309,2
3021013004601,56177.715100,0.425598798582,14.6237,0.058,0.314296,135,14.588,0.442568,26.16965,-21.79309,2
3021013004601,56250.473876,0.923218876444,14.4307,0.059,0.314296,135,14.588,0.442568,26.16965,-21.79309,2
3021013004601,56250.483737,0.954593758739,14.3914,0.059,0.314296,135,14.588,0.442568,26.16965,-21.79309,2
3021013004601,56250.493662,0.986172270728,14.3834,0.059,0.314296,135,14.588,0.442568,26.16965,-21.79309,2
3021013004601,56250.503535,0.0175853335822,14.3439,0.058,0.314296,135,14.588,0.442568,26.16965,-21.79309,2
3021013004601,56298.527560,0.816300557432,14.7228,0.064,0.314296,135,14.588,0.442568,26.16965,-21.79309,2
3021013004601,56298.537246,0.847118639736,14.6711,0.064,0.314296,135,14.588,0.442568,26.16965,-21.79309,2
3021013004601,56298.544441,0.870011072344,14.5988,0.064,0.314296,135,14.588,0.442568,26.16965,-21.79309,2
3021013004601,56298.551608,0.892814416962,14.5823,0.063,0.314296,135,14.588,0.442568,26.16965,-21.79309,2
3021013004601,56495.789502,0.447393539827,14.6942,0.063,0.314296,135,14.588,0.442568,26.16965,-21.79309,2
3021013004601,56495.801466,0.485459566757,14.7972,0.073,0.314296,135,14.588,0.442568,26.16965,-21.79309,2
3021013004601,56495.813545,0.523891490797,14.7843,0.065,0.314296,135,14.588,0.442568,26.16965,-21.79309,2
3021013004601,56495.825543,0.562065696024,14.8225,0.069,0.314296,135,14.588,0.442568,26.16965,-21.79309,2
