ID,MjD,Phase,Mag,Mag_err,Period,Npts,V,Amp,ra,dec,Type
3021091019980,53591.377971,0.345598008076,16.2778,0.111,0.344594,243,16.477,0.442275,193.83058,-20.64799,2
3021091019980,53591.387597,0.373532330792,16.2784,0.111,0.344594,243,16.477,0.442275,193.83058,-20.64799,2
3021091019980,53591.397342,0.401811987424,16.287,0.112,0.344594,243,16.477,0.442275,193.83058,-20.64799,2
3021091019980,53591.406739,0.429081759969,16.2755,0.112,0.344594,243,16.477,0.442275,193.83058,-20.64799,2
3021091019980,53733.679367,0.299381300865,16.2185,0.121,0.344594,243,16.477,0.442275,193.83058,-20.64799,2
3021091019980,53733.687119,0.321877339709,16.2476,0.122,0.344594,243,16.477,0.442275,193.83058,-20.64799,2
3021091019980,53733.694882,0.344405300159,16.3098,0.124,0.344594,243,16.477,0.442275,193.83058,-20.64799,2
3021091019980,53733.702634,0.366901338974,16.1531,0.117,0.344594,243,16.477,0.442275,193.83058,-20.64799,2
3021091019980,53554.395173,0.0227833334066,16.6423,0.138,0.344594,243,16.477,0.442275,193.83058,-20.64799,2
3021091019980,53554.402752,0.0447773321648,16.6671,0.139,0.344594,243,16.477,0.442275,193.83058,-20.64799,2
3021091019980,53554.410640,0.0676680383331,16.6473,0.138,0.344594,243,16.477,0.442275,193.83058,-20.64799,2
3021091019980,53554.418205,0.089621409541,16.691,0.141,0.344594,243,16.477,0.442275,193.83058,-20.64799,2
3021091019980,53568.458333,0.833592575626,16.764,0.151,0.344594,243,16.477,0.442275,193.83058,-20.64799,2
3021091019980,53568.464943,0.852774569474,16.4845,0.149,0.344594,243,16.477,0.442275,193.83058,-20.64799,2
3021091019980,53568.471422,0.871576405858,16.8496,0.183,0.344594,243,16.477,0.442275,193.83058,-20.64799,2
3021091019980,53568.477892,0.890352124523,16.6626,0.148,0.344594,243,16.477,0.442275,193.83058,-20.64799,2
3021091019980,53833.653944,0.422183787276,16.3515,0.087,0.344594,243,16.477,0.442275,193.83058,-20.64799,2
3021091019980,53833.671127,0.472048265481,16.3217,0.086,0.344594,243,16.477,0.442275,193.83058,-20.64799,2
3021091019980,53833.688316,0.52193015549,16.335,0.086,0.344594,243,16.477,0.442275,193.83058,-20.64799,2
3021091019980,53833.705477,0.571730790427,16.3899,0.088,0.344594,243,16.477,0.442275,193.83058,-20.64799,2
3021091019980,53846.618995,0.0463182759995,16.6505,0.123,0.344594,243,16.477,0.442275,193.83058,-20.64799,2
3021091019980,53846.630586,0.0799549614894,16.6295,0.122,0.344594,243,16.477,0.442275,193.83058,-20.64799,2
3021091019980,53846.642182,0.11360615681,16.6039,0.121,0.344594,243,16.477,0.442275,193.83058,-20.64799,2
3021091019980,53846.653940,0.147727470583,16.5127,0.117,0.344594,243,16.477,0.442275,193.83058,-20.64799,2
3021091019980,53854.551062,0.0649053668894,16.658,0.125,0.344594,243,16.477,0.442275,193.83058,-20.64799,2
3021091019980,53854.560729,0.0929586701968,16.6496,0.124,0.344594,243,16.477,0.442275,193.83058,-20.64799,2
3021091019980,53854.570508,0.121336993674,16.5505,0.119,0.344594,243,16.477,0.442275,193.83058,-20.64799,2
3021091019980,53854.580217,0.149512179545,16.5096,0.118,0.344594,243,16.477,0.442275,193.83058,-20.64799,2
3021091019980,53953.394918,0.906394191406,16.7674,0.151,0.344594,243,16.477,0.442275,193.83058,-20.64799,2
3021091019980,53953.401749,0.926217519736,16.7015,0.148,0.344594,243,16.477,0.442275,193.83058,-20.64799,2
3021091019980,53953.408598,0.946093083447,16.6688,0.147,0.344594,243,16.477,0.442275,193.83058,-20.64799,2
3021091019980,53953.415432,0.965925117664,16.7099,0.150,0.344594,243,16.477,0.442275,193.83058,-20.64799,2
3021091019980,53767.675411,0.954738039523,16.6546,0.108,0.344594,243,16.477,0.442275,193.83058,-20.64799,2
3021091019980,53767.692693,0.00488981234957,16.6637,0.107,0.344594,243,16.477,0.442275,193.83058,-20.64799,2
3021091019980,53767.709912,0.0548587613157,16.6919,0.109,0.344594,243,16.477,0.442275,193.83058,-20.64799,2
3021091019980,53767.727408,0.105631554819,16.609,0.106,0.344594,243,16.477,0.442275,193.83058,-20.64799,2
3021091019980,53901.476150,0.239905511989,16.2761,0.115,0.344594,243,16.477,0.442275,193.83058,-20.64799,2
3021091019980,53901.484684,0.264670888049,16.3339,0.117,0.344594,243,16.477,0.442275,193.83058,-20.64799,2
3021091019980,53901.493238,0.289494303433,16.3322,0.117,0.344594,243,16.477,0.442275,193.83058,-20.64799,2
3021091019980,53901.501779,0.314279993268,16.2417,0.114,0.344594,243,16.477,0.442275,193.83058,-20.64799,2
3021091019980,53912.447208,0.0775405259337,16.6394,0.132,0.344594,243,16.477,0.442275,193.83058,-20.64799,2
3021091019980,53912.455780,0.102416176698,16.5886,0.130,0.344594,243,16.477,0.442275,193.83058,-20.64799,2
3021091019980,53912.464301,0.127143827209,16.5156,0.126,0.344594,243,16.477,0.442275,193.83058,-20.64799,2
3021091019980,53912.472781,0.151752497128,16.5027,0.126,0.344594,243,16.477,0.442275,193.83058,-20.64799,2
3021091019980,53818.657304,0.902447517932,16.7213,0.127,0.344594,243,16.477,0.442275,193.83058,-20.64799,2
3021091019980,53818.667591,0.932300040033,16.7006,0.125,0.344594,243,16.477,0.442275,193.83058,-20.64799,2
3021091019980,53818.677962,0.962396327261,16.6686,0.124,0.344594,243,16.477,0.442275,193.83058,-20.64799,2
3021091019980,53818.688418,0.992739281588,16.7264,0.127,0.344594,243,16.477,0.442275,193.83058,-20.64799,2
3021091019980,53871.481903,0.197626772366,16.3902,0.113,0.344594,243,16.477,0.442275,193.83058,-20.64799,2
3021091019980,53871.490432,0.222377638594,16.2633,0.108,0.344594,243,16.477,0.442275,193.83058,-20.64799,2
3021091019980,53871.498953,0.247105289134,16.2883,0.109,0.344594,243,16.477,0.442275,193.83058,-20.64799,2
3021091019980,53871.507457,0.271783606207,16.2252,0.107,0.344594,243,16.477,0.442275,193.83058,-20.64799,2
3021091019980,53880.488160,0.333476496977,16.2478,0.108,0.344594,243,16.477,0.442275,193.83058,-20.64799,2
3021091019980,53880.498581,0.363717882487,16.258,0.108,0.344594,243,16.477,0.442275,193.83058,-20.64799,2
3021091019980,53880.509007,0.393973777827,16.334,0.113,0.344594,243,16.477,0.442275,193.83058,-20.64799,2
3021091019980,53880.519417,0.424183241732,16.2943,0.109,0.344594,243,16.477,0.442275,193.83058,-20.64799,2
3021091019980,54198.619730,0.540409873647,16.3015,0.125,0.344594,243,16.477,0.442275,193.83058,-20.64799,2
3021091019980,54198.629954,0.570079571917,16.2638,0.123,0.344594,243,16.477,0.442275,193.83058,-20.64799,2
3021091019980,54198.640183,0.599763779988,16.2785,0.124,0.344594,243,16.477,0.442275,193.83058,-20.64799,2
3021091019980,54198.650421,0.62947410575,16.438,0.132,0.344594,243,16.477,0.442275,193.83058,-20.64799,2
3021091019980,54203.609991,0.021976586926,16.6662,0.144,0.344594,243,16.477,0.442275,193.83058,-20.64799,2
3021091019980,54203.618470,0.046582354873,16.7085,0.147,0.344594,243,16.477,0.442275,193.83058,-20.64799,2
3021091019980,54203.626932,0.0711387894116,16.6707,0.145,0.344594,243,16.477,0.442275,193.83058,-20.64799,2
3021091019980,54203.635406,0.0957300475275,16.6948,0.148,0.344594,243,16.477,0.442275,193.83058,-20.64799,2
3021091019980,54208.671565,0.710491186706,16.6349,0.145,0.344594,243,16.477,0.442275,193.83058,-20.64799,2
3021091019980,54208.680400,0.736130054487,16.683,0.148,0.344594,243,16.477,0.442275,193.83058,-20.64799,2
3021091019980,54208.689318,0.762009785423,16.6213,0.148,0.344594,243,16.477,0.442275,193.83058,-20.64799,2
3021091019980,54208.698059,0.787375868415,16.5872,0.154,0.344594,243,16.477,0.442275,193.83058,-20.64799,2
3021091019980,54316.356270,0.207821378193,16.3386,0.120,0.344594,243,16.477,0.442275,193.83058,-20.64799,2
3021091019980,54316.361371,0.222624305694,16.4174,0.123,0.344594,243,16.477,0.442275,193.83058,-20.64799,2
3021091019980,54316.366544,0.237636174745,16.356,0.121,0.344594,243,16.477,0.442275,193.83058,-20.64799,2
3021091019980,54316.371658,0.252476827794,16.3452,0.120,0.344594,243,16.477,0.442275,193.83058,-20.64799,2
3021091019980,54463.697121,0.785930689424,16.6196,0.163,0.344594,243,16.477,0.442275,193.83058,-20.64799,2
3021091019980,54463.704270,0.806676842883,16.6992,0.167,0.344594,243,16.477,0.442275,193.83058,-20.64799,2
3021091019980,54463.711628,0.828029507189,16.5997,0.159,0.344594,243,16.477,0.442275,193.83058,-20.64799,2
3021091019980,54463.718804,0.84885401369,16.4765,0.150,0.344594,243,16.477,0.442275,193.83058,-20.64799,2
3021091019980,54153.699725,0.18409200391,16.4293,0.110,0.344594,243,16.477,0.442275,193.83058,-20.64799,2
3021091019980,54153.713538,0.224176857417,16.3512,0.107,0.344594,243,16.477,0.442275,193.83058,-20.64799,2
3021091019980,54153.727283,0.264064377203,16.2997,0.106,0.344594,243,16.477,0.442275,193.83058,-20.64799,2
3021091019980,54153.740989,0.303838720341,16.2369,0.103,0.344594,243,16.477,0.442275,193.83058,-20.64799,2
3021091019980,54267.469945,0.341378549812,16.2067,0.114,0.344594,243,16.477,0.442275,193.83058,-20.64799,2
3021091019980,54267.478761,0.366962280241,16.1709,0.113,0.344594,243,16.477,0.442275,193.83058,-20.64799,2
3021091019980,54267.487549,0.392464755627,16.2307,0.115,0.344594,243,16.477,0.442275,193.83058,-20.64799,2
3021091019980,54267.496366,0.418051387998,16.287,0.118,0.344594,243,16.477,0.442275,193.83058,-20.64799,2
3021091019980,54170.648123,0.367763222806,16.2235,0.119,0.344594,243,16.477,0.442275,193.83058,-20.64799,2
3021091019980,54170.659648,0.401208378549,16.2866,0.122,0.344594,243,16.477,0.442275,193.83058,-20.64799,2
3021091019980,54170.671134,0.434540357615,16.264,0.121,0.344594,243,16.477,0.442275,193.83058,-20.64799,2
3021091019980,54170.682653,0.467968101584,16.359,0.125,0.344594,243,16.477,0.442275,193.83058,-20.64799,2
3021091019980,54186.685083,0.906472544477,16.7095,0.145,0.344594,243,16.477,0.442275,193.83058,-20.64799,2
3021091019980,54186.695564,0.93688804796,16.6849,0.144,0.344594,243,16.477,0.442275,193.83058,-20.64799,2
3021091019980,54186.705980,0.967114923638,16.7967,0.151,0.344594,243,16.477,0.442275,193.83058,-20.64799,2
3021091019980,54186.716362,0.9972431325,16.7006,0.145,0.344594,243,16.477,0.442275,193.83058,-20.64799,2
3021091019980,54227.594423,0.623977782554,16.3394,0.108,0.344594,243,16.477,0.442275,193.83058,-20.64799,2
3021091019980,54227.605300,0.655542464461,16.379,0.110,0.344594,243,16.477,0.442275,193.83058,-20.64799,2
3021091019980,54227.616174,0.687098440481,16.3363,0.109,0.344594,243,16.477,0.442275,193.83058,-20.64799,2
3021091019980,54227.627044,0.718642808642,16.6567,0.123,0.344594,243,16.477,0.442275,193.83058,-20.64799,2
3021091019980,54234.513203,0.702040662349,16.5031,0.134,0.344594,243,16.477,0.442275,193.83058,-20.64799,2
3021091019980,54234.520866,0.724278426205,16.5633,0.138,0.344594,243,16.477,0.442275,193.83058,-20.64799,2
3021091019980,54234.528577,0.7466554844,16.5859,0.139,0.344594,243,16.477,0.442275,193.83058,-20.64799,2
3021091019980,54234.536247,0.768913562031,16.5761,0.139,0.344594,243,16.477,0.442275,193.83058,-20.64799,2
3021091019980,54698.374989,0.813075677463,16.6669,0.127,0.344594,243,16.477,0.442275,193.83058,-20.64799,2
3021091019980,54698.378960,0.824599383632,16.5713,0.126,0.344594,243,16.477,0.442275,193.83058,-20.64799,2
3021091019980,54698.382926,0.836108579941,16.6267,0.128,0.344594,243,16.477,0.442275,193.83058,-20.64799,2
3021091019980,54698.386895,0.847626482195,16.6014,0.126,0.344594,243,16.477,0.442275,193.83058,-20.64799,2
3021091019980,54830.720687,0.875763942488,16.6916,0.133,0.344594,243,16.477,0.442275,193.83058,-20.64799,2
3021091019980,54830.724878,0.887926081137,16.7658,0.137,0.344594,243,16.477,0.442275,193.83058,-20.64799,2
3021091019980,54830.729081,0.900123043335,16.667,0.131,0.344594,243,16.477,0.442275,193.83058,-20.64799,2
3021091019980,54830.733279,0.912305495731,16.6749,0.132,0.344594,243,16.477,0.442275,193.83058,-20.64799,2
3021091019980,54491.646575,0.89429009211,16.644,0.121,0.344594,243,16.477,0.442275,193.83058,-20.64799,2
3021091019980,54491.656637,0.923489671899,16.7723,0.127,0.344594,243,16.477,0.442275,193.83058,-20.64799,2
3021091019980,54491.666664,0.95258768287,16.7258,0.124,0.344594,243,16.477,0.442275,193.83058,-20.64799,2
3021091019980,54491.676705,0.981726321392,16.7742,0.126,0.344594,243,16.477,0.442275,193.83058,-20.64799,2
3021091019980,54624.471694,0.348241698928,16.2372,0.082,0.344594,243,16.477,0.442275,193.83058,-20.64799,2
3021091019980,54624.481667,0.377183003759,16.2314,0.082,0.344594,243,16.477,0.442275,193.83058,-20.64799,2
3021091019980,54624.491565,0.405906661152,16.2306,0.081,0.344594,243,16.477,0.442275,193.83058,-20.64799,2
3021091019980,54624.501583,0.434978554462,16.2347,0.081,0.344594,243,16.477,0.442275,193.83058,-20.64799,2
3021091019980,54644.439772,0.294920979446,16.244,0.090,0.344594,243,16.477,0.442275,193.83058,-20.64799,2
3021091019980,54644.449615,0.323485028755,16.2061,0.090,0.344594,243,16.477,0.442275,193.83058,-20.64799,2
3021091019980,54644.459433,0.351976528909,16.1955,0.089,0.344594,243,16.477,0.442275,193.83058,-20.64799,2
3021091019980,54644.469210,0.380349048442,16.2469,0.090,0.344594,243,16.477,0.442275,193.83058,-20.64799,2
3021091019980,54532.632123,0.832948339201,16.594,0.117,0.344594,243,16.477,0.442275,193.83058,-20.64799,2
3021091019980,54532.645291,0.871161424759,16.6961,0.121,0.344594,243,16.477,0.442275,193.83058,-20.64799,2
3021091019980,54532.658417,0.909252627724,16.6229,0.119,0.344594,243,16.477,0.442275,193.83058,-20.64799,2
3021091019980,54532.671589,0.947477321111,16.6856,0.122,0.344594,243,16.477,0.442275,193.83058,-20.64799,2
3021091019980,54593.526816,0.547264316847,16.3391,0.091,0.344594,243,16.477,0.442275,193.83058,-20.64799,2
3021091019980,54593.538265,0.580488923209,16.3524,0.091,0.344594,243,16.477,0.442275,193.83058,-20.64799,2
3021091019980,54593.549736,0.613777372782,16.3619,0.092,0.344594,243,16.477,0.442275,193.83058,-20.64799,2
3021091019980,54593.561163,0.646938135877,16.4436,0.094,0.344594,243,16.477,0.442275,193.83058,-20.64799,2
3021091019980,54616.564564,0.402020928974,16.2821,0.083,0.344594,243,16.477,0.442275,193.83058,-20.64799,2
3021091019980,54616.577816,0.44047777963,16.2303,0.082,0.344594,243,16.477,0.442275,193.83058,-20.64799,2
3021091019980,54616.591134,0.479126160062,16.2882,0.084,0.344594,243,16.477,0.442275,193.83058,-20.64799,2
3021091019980,54616.604471,0.517829677818,16.2903,0.084,0.344594,243,16.477,0.442275,193.83058,-20.64799,2
3021091019980,54948.571590,0.875052960881,16.766,0.137,0.344594,243,16.477,0.442275,193.83058,-20.64799,2
3021091019980,54948.579975,0.899385944038,16.6449,0.126,0.344594,243,16.477,0.442275,193.83058,-20.64799,2
3021091019980,54948.596936,0.948606185819,16.696,0.128,0.344594,243,16.477,0.442275,193.83058,-20.64799,2
3021091019980,54949.569469,0.77086368305,16.5345,0.106,0.344594,243,16.477,0.442275,193.83058,-20.64799,2
3021091019980,54889.643115,0.866634358099,16.674,0.124,0.344594,243,16.477,0.442275,193.83058,-20.64799,2
3021091019980,54889.653422,0.896544919524,16.7003,0.125,0.344594,243,16.477,0.442275,193.83058,-20.64799,2
3021091019980,54889.663975,0.927169364528,16.673,0.130,0.344594,243,16.477,0.442275,193.83058,-20.64799,2
3021091019980,54889.674085,0.956508238683,16.7709,0.135,0.344594,243,16.477,0.442275,193.83058,-20.64799,2
3021091019980,54862.701695,0.683555140247,16.4698,0.119,0.344594,243,16.477,0.442275,193.83058,-20.64799,2
3021091019980,54862.710291,0.708500438195,16.5455,0.121,0.344594,243,16.477,0.442275,193.83058,-20.64799,2
3021091019980,54862.733364,0.775457494892,16.6096,0.123,0.344594,243,16.477,0.442275,193.83058,-20.64799,2
3021091019980,54862.741955,0.800388283009,16.6449,0.125,0.344594,243,16.477,0.442275,193.83058,-20.64799,2
3021091019980,55031.432316,0.334045282274,16.2794,0.114,0.344594,243,16.477,0.442275,193.83058,-20.64799,2
3021091019980,55031.439915,0.356097320328,16.1518,0.109,0.344594,243,16.477,0.442275,193.83058,-20.64799,2
3021091019980,55031.447511,0.378140652465,16.1948,0.111,0.344594,243,16.477,0.442275,193.83058,-20.64799,2
3021091019980,55031.455120,0.400221710181,16.2428,0.113,0.344594,243,16.477,0.442275,193.83058,-20.64799,2
3021091019980,55001.498928,0.468377278768,16.2425,0.112,0.344594,243,16.477,0.442275,193.83058,-20.64799,2
3021091019980,55001.506956,0.49167426012,16.3268,0.102,0.344594,243,16.477,0.442275,193.83058,-20.64799,2
3021091019980,55001.515029,0.51510182998,16.3482,0.104,0.344594,243,16.477,0.442275,193.83058,-20.64799,2
3021091019980,55001.523343,0.539228773559,16.3342,0.103,0.344594,243,16.477,0.442275,193.83058,-20.64799,2
3021091019980,54907.647602,0.115039727913,16.6115,0.123,0.344594,243,16.477,0.442275,193.83058,-20.64799,2
3021091019980,54907.655228,0.137170119036,16.5041,0.118,0.344594,243,16.477,0.442275,193.83058,-20.64799,2
3021091019980,54907.662818,0.159196039371,16.4467,0.116,0.344594,243,16.477,0.442275,193.83058,-20.64799,2
3021091019980,54907.670399,0.181195842073,16.4527,0.116,0.344594,243,16.477,0.442275,193.83058,-20.64799,2
3021091019980,54918.628299,0.980646790151,16.6476,0.123,0.344594,243,16.477,0.442275,193.83058,-20.64799,2
3021091019980,54918.639061,0.011877745972,16.6989,0.126,0.344594,243,16.477,0.442275,193.83058,-20.64799,2
3021091019980,54918.649795,0.0430274467799,16.6397,0.123,0.344594,243,16.477,0.442275,193.83058,-20.64799,2
3021091019980,54918.660498,0.0740871866583,16.6251,0.122,0.344594,243,16.477,0.442275,193.83058,-20.64799,2
3021091019980,54963.567910,0.393860601151,16.25,0.095,0.344594,243,16.477,0.442275,193.83058,-20.64799,2
3021091019980,54963.578784,0.425416577171,16.2406,0.095,0.344594,243,16.477,0.442275,193.83058,-20.64799,2
3021091019980,54963.589585,0.456760709698,16.3878,0.099,0.344594,243,16.477,0.442275,193.83058,-20.64799,2
3021091019980,54963.600394,0.488128057943,16.288,0.097,0.344594,243,16.477,0.442275,193.83058,-20.64799,2
3021091019980,55247.677971,0.87153868028,16.7363,0.148,0.344594,243,16.477,0.442275,193.83058,-20.64799,2
3021091019980,55216.675347,0.902984381595,16.6698,0.132,0.344594,243,16.477,0.442275,193.83058,-20.64799,2
3021091019980,55216.703033,0.983328206523,16.7271,0.135,0.344594,243,16.477,0.442275,193.83058,-20.64799,2
3021091019980,55363.520554,0.0427517600474,16.5883,0.103,0.344594,243,16.477,0.442275,193.83058,-20.64799,2
3021091019980,55266.696039,0.0613214391342,16.567,0.099,0.344594,243,16.477,0.442275,193.83058,-20.64799,2
3021091019980,55272.613161,0.232607068028,16.4639,0.124,0.344594,243,16.477,0.442275,193.83058,-20.64799,2
3021091019980,55321.535103,0.202409212012,16.4527,0.095,0.344594,243,16.477,0.442275,193.83058,-20.64799,2
3021091019980,55321.577784,0.326268013945,16.2017,0.088,0.344594,243,16.477,0.442275,193.83058,-20.64799,2
3021091019980,55330.541327,0.33816317172,16.2824,0.091,0.344594,243,16.477,0.442275,193.83058,-20.64799,2
3021091019980,55330.584084,0.462242523092,16.2743,0.091,0.344594,243,16.477,0.442275,193.83058,-20.64799,2
3021091019980,55675.560893,0.573141145811,16.3991,0.103,0.344594,243,16.477,0.442275,193.83058,-20.64799,2
3021091019980,55675.596629,0.676845795329,16.6282,0.112,0.344594,243,16.477,0.442275,193.83058,-20.64799,2
3021091019980,55567.707979,0.587674190494,16.4017,0.102,0.344594,243,16.477,0.442275,193.83058,-20.64799,2
3021091019980,55567.734632,0.665020284738,16.4393,0.104,0.344594,243,16.477,0.442275,193.83058,-20.64799,2
3021091019980,55646.656932,0.69483508126,16.5455,0.126,0.344594,243,16.477,0.442275,193.83058,-20.64799,2
3021091019980,55646.688381,0.786099003453,16.576,0.129,0.344594,243,16.477,0.442275,193.83058,-20.64799,2
3021091019980,55690.537314,0.0342025688151,16.7602,0.104,0.344594,243,16.477,0.442275,193.83058,-20.64799,2
3021091019980,55690.588264,0.182057725906,16.4444,0.094,0.344594,243,16.477,0.442275,193.83058,-20.64799,2
3021091019980,54949.584274,0.813827286591,16.519,0.102,0.344594,243,16.477,0.442275,193.83058,-20.64799,2
3021091019980,54949.593091,0.839413918991,16.6558,0.165,0.344594,243,16.477,0.442275,193.83058,-20.64799,2
3021091019980,54949.601921,0.865038276941,16.5946,0.094,0.344594,243,16.477,0.442275,193.83058,-20.64799,2
3021091019980,54949.610771,0.890720674186,16.7607,0.199,0.344594,243,16.477,0.442275,193.83058,-20.64799,2
3021091019980,54949.624576,0.930782311945,16.6382,0.132,0.344594,243,16.477,0.442275,193.83058,-20.64799,2
3021091019980,54949.651059,0.00763507199008,16.5705,0.091,0.344594,243,16.477,0.442275,193.83058,-20.64799,2
3021091019980,54949.569469,0.77086368305,16.5345,0.106,0.344594,243,16.477,0.442275,193.83058,-20.64799,2
3021091019980,54949.584274,0.813827286591,16.519,0.102,0.344594,243,16.477,0.442275,193.83058,-20.64799,2
3021091019980,54949.601921,0.865038276941,16.5946,0.094,0.344594,243,16.477,0.442275,193.83058,-20.64799,2
3021091019980,54949.651059,0.00763507199008,16.5705,0.091,0.344594,243,16.477,0.442275,193.83058,-20.64799,2
3021091019980,55745.439083,0.35725810664,16.2219,0.089,0.344594,243,16.477,0.442275,193.83058,-20.64799,2
3021091019980,55745.453095,0.397920451302,16.2506,0.089,0.344594,243,16.477,0.442275,193.83058,-20.64799,2
3021091019980,55745.467271,0.439058718388,16.2391,0.089,0.344594,243,16.477,0.442275,193.83058,-20.64799,2
3021091019980,55745.481502,0.480356593558,16.2729,0.090,0.344594,243,16.477,0.442275,193.83058,-20.64799,2
3021091019980,55776.383205,0.156041602575,16.6256,0.105,0.344594,243,16.477,0.442275,193.83058,-20.64799,2
3021091019980,55776.388506,0.171424923232,16.517,0.101,0.344594,243,16.477,0.442275,193.83058,-20.64799,2
3021091019980,55776.393828,0.186869185185,16.5288,0.103,0.344594,243,16.477,0.442275,193.83058,-20.64799,2
3021091019980,55776.399171,0.202374388406,16.4354,0.100,0.344594,243,16.477,0.442275,193.83058,-20.64799,2
3021091019980,55929.682421,0.0251223178348,16.8303,0.151,0.344594,243,16.477,0.442275,193.83058,-20.64799,2
3021091019980,55929.693985,0.0586806502542,16.6806,0.138,0.344594,243,16.477,0.442275,193.83058,-20.64799,2
3021091019980,55929.713225,0.114514472109,16.6148,0.132,0.344594,243,16.477,0.442275,193.83058,-20.64799,2
3021091019980,55929.724879,0.148333981429,16.5893,0.131,0.344594,243,16.477,0.442275,193.83058,-20.64799,2
3021091019980,56030.579853,0.826018444903,16.6597,0.094,0.344594,243,16.477,0.442275,193.83058,-20.64799,2
3021091019980,56030.590472,0.856834419654,16.6884,0.095,0.344594,243,16.477,0.442275,193.83058,-20.64799,2
3021091019980,56030.601114,0.887717139587,16.6288,0.094,0.344594,243,16.477,0.442275,193.83058,-20.64799,2
3021091019980,56030.611748,0.918576643831,16.6317,0.093,0.344594,243,16.477,0.442275,193.83058,-20.64799,2
3021091019980,56088.444441,0.7470733675,16.6069,0.094,0.344594,243,16.477,0.442275,193.83058,-20.64799,2
3021091019980,56088.455015,0.777758753771,16.6085,0.094,0.344594,243,16.477,0.442275,193.83058,-20.64799,2
3021091019980,56088.465577,0.808409316465,16.6606,0.096,0.344594,243,16.477,0.442275,193.83058,-20.64799,2
3021091019980,56088.476175,0.839164349949,16.6316,0.095,0.344594,243,16.477,0.442275,193.83058,-20.64799,2
3021091019980,56139.413973,0.658911646751,16.5195,0.092,0.344594,243,16.477,0.442275,193.83058,-20.64799,2
3021091019980,56139.422118,0.682548158133,16.5195,0.093,0.344594,243,16.477,0.442275,193.83058,-20.64799,2
3021091019980,56139.429524,0.704040116776,16.6477,0.096,0.344594,243,16.477,0.442275,193.83058,-20.64799,2
3021091019980,56139.436830,0.725241878827,16.595,0.095,0.344594,243,16.477,0.442275,193.83058,-20.64799,2
3021091019980,56139.413973,0.658911646751,16.4697,0.091,0.344594,243,16.477,0.442275,193.83058,-20.64799,2
3021091019980,56139.422118,0.682548158133,16.4911,0.092,0.344594,243,16.477,0.442275,193.83058,-20.64799,2
3021091019980,56139.429524,0.704040116776,16.5747,0.095,0.344594,243,16.477,0.442275,193.83058,-20.64799,2
3021091019980,56139.436830,0.725241878827,16.5854,0.095,0.344594,243,16.477,0.442275,193.83058,-20.64799,2
3021091019980,56294.692201,0.271017487248,16.3355,0.087,0.344594,243,16.477,0.442275,193.83058,-20.64799,2
3021091019980,56294.704249,0.305980371108,16.4148,0.089,0.344594,243,16.477,0.442275,193.83058,-20.64799,2
3021091019980,56294.716364,0.341137686657,16.2391,0.084,0.344594,243,16.477,0.442275,193.83058,-20.64799,2
3021091019980,56294.728505,0.376370453334,16.3194,0.086,0.344594,243,16.477,0.442275,193.83058,-20.64799,2
3021091019980,56356.755320,0.37606574691,16.237,0.091,0.344594,243,16.477,0.442275,193.83058,-20.64799,2
3021091019980,56356.762969,0.398262883275,16.2336,0.090,0.344594,243,16.477,0.442275,193.83058,-20.64799,2
3021091019980,56356.770148,0.419096095691,16.1612,0.089,0.344594,243,16.477,0.442275,193.83058,-20.64799,2
3021091019980,56356.777418,0.440193386981,16.2554,0.092,0.344594,243,16.477,0.442275,193.83058,-20.64799,2
3021091019980,56410.627752,0.712020522711,16.5247,0.089,0.344594,243,16.477,0.442275,193.83058,-20.64799,2
3021091019980,56410.639497,0.746104110905,16.6624,0.093,0.344594,243,16.477,0.442275,193.83058,-20.64799,2
3021091019980,56410.651150,0.779920718283,16.7003,0.094,0.344594,243,16.477,0.442275,193.83058,-20.64799,2
3021091019980,56410.662594,0.813130814815,16.7266,0.095,0.344594,243,16.477,0.442275,193.83058,-20.64799,2
3021091019980,56416.550178,0.89869817812,16.7279,0.102,0.344594,243,16.477,0.442275,193.83058,-20.64799,2
3021091019980,56416.562334,0.933974474319,16.6487,0.099,0.344594,243,16.477,0.442275,193.83058,-20.64799,2
3021091019980,56416.574402,0.968995397474,16.7349,0.103,0.344594,243,16.477,0.442275,193.83058,-20.64799,2
3021091019980,56426.548867,0.914551617258,16.6608,0.090,0.344594,243,16.477,0.442275,193.83058,-20.64799,2
3021091019980,56447.455492,0.584862185642,16.441,0.096,0.344594,243,16.477,0.442275,193.83058,-20.64799,2
3021091019980,56447.466084,0.615599807294,16.4694,0.091,0.344594,243,16.477,0.442275,193.83058,-20.64799,2
3021091019980,56447.476667,0.646311311284,16.4138,0.088,0.344594,243,16.477,0.442275,193.83058,-20.64799,2
3021091019980,56479.457070,0.452346819715,16.3154,0.090,0.344594,243,16.477,0.442275,193.83058,-20.64799,2
3021091019980,56479.466681,0.480237612937,16.3079,0.090,0.344594,243,16.477,0.442275,193.83058,-20.64799,2
3021091019980,56479.476121,0.507632170018,16.2988,0.090,0.344594,243,16.477,0.442275,193.83058,-20.64799,2
3021091019980,56479.485615,0.53518343324,16.3512,0.091,0.344594,243,16.477,0.442275,193.83058,-20.64799,2
