ID,MjD,Phase,Mag,Mag_err,Period,Npts,V,Amp,ra,dec,Type
3023061051551,54801.667676,0.809479592834,17.3789,0.280,0.310161,96,17.154,0.510265,130.57126,-22.98084,2
3023061051551,54758.760410,0.470790976309,17.2571,0.183,0.310161,96,17.154,0.510265,130.57126,-22.98084,2
3023061051551,54758.752503,0.445297764702,17.0316,0.165,0.310161,96,17.154,0.510265,130.57126,-22.98084,2
3023061051551,54758.764490,0.483945434797,17.1289,0.172,0.310161,96,17.154,0.510265,130.57126,-22.98084,2
3023061051551,54758.756460,0.458055654948,17.0216,0.165,0.310161,96,17.154,0.510265,130.57126,-22.98084,2
3023061051551,54801.658035,0.778395736386,17.3179,0.181,0.310161,96,17.154,0.510265,130.57126,-22.98084,2
3023061051551,55632.536307,0.639606526936,17.7118,0.674,0.310161,96,17.154,0.510265,130.57126,-22.98084,2
3023061051551,55602.545879,0.946508426248,17.2338,0.173,0.310161,96,17.154,0.510265,130.57126,-22.98084,2
3023061051551,55658.466516,0.24202269144,16.9645,0.162,0.310161,96,17.154,0.510265,130.57126,-22.98084,2
3023061051551,55602.576432,0.0450153307465,16.9884,0.154,0.310161,96,17.154,0.510265,130.57126,-22.98084,2
3023061051551,55658.503730,0.362005539035,17.1585,0.148,0.310161,96,17.154,0.510265,130.57126,-22.98084,2
3023061051551,54905.501957,0.584905903699,17.2535,0.136,0.310161,96,17.154,0.510265,130.57126,-22.98084,2
3023061051551,54905.512231,0.618030635698,17.2622,0.137,0.310161,96,17.154,0.510265,130.57126,-22.98084,2
3023061051551,54831.670957,0.544017461885,17.255,0.155,0.310161,96,17.154,0.510265,130.57126,-22.98084,2
3023061051551,54903.490404,0.0993935407605,16.9725,0.123,0.310161,96,17.154,0.510265,130.57126,-22.98084,2
3023061051551,54903.479992,0.0658238785691,16.8962,0.119,0.310161,96,17.154,0.510265,130.57126,-22.98084,2
3023061051551,54831.661301,0.512885243457,17.1994,0.152,0.310161,96,17.154,0.510265,130.57126,-22.98084,2
3023061051551,54801.677348,0.840663397365,17.3747,0.213,0.310161,96,17.154,0.510265,130.57126,-22.98084,2
3023061051551,54801.687234,0.872537166171,17.2787,0.214,0.310161,96,17.154,0.510265,130.57126,-22.98084,2
3023061051551,54831.640273,0.445088196109,17.1684,0.149,0.310161,96,17.154,0.510265,130.57126,-22.98084,2
3023061051551,54831.650306,0.477435912326,17.1197,0.146,0.310161,96,17.154,0.510265,130.57126,-22.98084,2
3023061051551,54905.532557,0.683564342384,17.3776,0.144,0.310161,96,17.154,0.510265,130.57126,-22.98084,2
3023061051551,54919.485934,0.671093399869,17.3238,0.168,0.310161,96,17.154,0.510265,130.57126,-22.98084,2
3023061051551,54919.476243,0.63984833681,17.2032,0.159,0.310161,96,17.154,0.510265,130.57126,-22.98084,2
3023061051551,54919.495580,0.702193376987,17.4809,0.180,0.310161,96,17.154,0.510265,130.57126,-22.98084,2
3023061051551,54905.522388,0.650778144249,17.2927,0.139,0.310161,96,17.154,0.510265,130.57126,-22.98084,2
3023061051551,55326.426352,0.700710276258,17.3252,0.185,0.310161,96,17.154,0.510265,130.57126,-22.98084,2
3023061051551,55518.667323,0.510973333206,17.2624,0.173,0.310161,96,17.154,0.510265,130.57126,-22.98084,2
3023061051551,55518.696359,0.60458922945,17.3612,0.181,0.310161,96,17.154,0.510265,130.57126,-22.98084,2
3023061051551,55567.630001,0.373109449603,17.153,0.134,0.310161,96,17.154,0.510265,130.57126,-22.98084,2
3023061051551,55567.597834,0.26939879611,16.9711,0.124,0.310161,96,17.154,0.510265,130.57126,-22.98084,2
3023061051551,55243.591383,0.629837407003,17.3057,0.127,0.310161,96,17.154,0.510265,130.57126,-22.98084,2
3023061051551,54919.505243,0.733348164329,17.3124,0.167,0.310161,96,17.154,0.510265,130.57126,-22.98084,2
3023061051551,54967.384372,0.101979294617,16.867,0.139,0.310161,96,17.154,0.510265,130.57126,-22.98084,2
3023061051551,54967.368255,0.0500159594521,16.9357,0.143,0.310161,96,17.154,0.510265,130.57126,-22.98084,2
3023061051551,54967.376296,0.0759412047337,16.9461,0.144,0.310161,96,17.154,0.510265,130.57126,-22.98084,2
3023061051551,54967.360199,0.02404235219,17.0144,0.148,0.310161,96,17.154,0.510265,130.57126,-22.98084,2
3023061051551,53761.608481,0.521364710585,17.1091,0.179,0.310161,96,17.154,0.510265,130.57126,-22.98084,2
3023061051551,53761.617381,0.55005948522,17.2637,0.193,0.310161,96,17.154,0.510265,130.57126,-22.98084,2
3023061051551,53761.595582,0.479776632128,17.1681,0.183,0.310161,96,17.154,0.510265,130.57126,-22.98084,2
3023061051551,53837.449984,0.0443801767251,16.973,0.144,0.310161,96,17.154,0.510265,130.57126,-22.98084,2
3023061051551,53837.458972,0.0733586749993,16.8318,0.136,0.310161,96,17.154,0.510265,130.57126,-22.98084,2
3023061051551,53837.441001,0.0154177991208,17.0449,0.148,0.310161,96,17.154,0.510265,130.57126,-22.98084,2
3023061051551,54526.498118,0.626506878674,17.3425,0.184,0.310161,96,17.154,0.510265,130.57126,-22.98084,2
3023061051551,54492.638336,0.458100792806,17.1783,0.181,0.310161,96,17.154,0.510265,130.57126,-22.98084,2
3023061051551,54526.506834,0.654608413024,17.3608,0.185,0.310161,96,17.154,0.510265,130.57126,-22.98084,2
3023061051551,54526.488905,0.59680295072,17.2395,0.175,0.310161,96,17.154,0.510265,130.57126,-22.98084,2
3023061051551,54492.626412,0.41965624303,16.9983,0.173,0.310161,96,17.154,0.510265,130.57126,-22.98084,2
3023061051551,54492.614256,0.380463694659,17.0773,0.173,0.310161,96,17.154,0.510265,130.57126,-22.98084,2
3023061051551,54424.670840,0.321923130221,16.9669,0.164,0.310161,96,17.154,0.510265,130.57126,-22.98084,2
3023061051551,54492.601792,0.34027811361,16.9737,0.165,0.310161,96,17.154,0.510265,130.57126,-22.98084,2
3023061051551,54424.679958,0.351320765651,16.9821,0.164,0.310161,96,17.154,0.510265,130.57126,-22.98084,2
3023061051551,54424.652620,0.263179445494,16.8686,0.210,0.310161,96,17.154,0.510265,130.57126,-22.98084,2
3023061051551,54424.661765,0.292664132488,17.135,0.179,0.310161,96,17.154,0.510265,130.57126,-22.98084,2
3023061051551,54196.476138,0.592086045624,17.3018,0.161,0.310161,96,17.154,0.510265,130.57126,-22.98084,2
3023061051551,54247.359003,0.645158482192,17.4719,0.215,0.310161,96,17.154,0.510265,130.57126,-22.98084,2
3023061051551,54196.465796,0.558742072637,17.1939,0.153,0.310161,96,17.154,0.510265,130.57126,-22.98084,2
3023061051551,53837.467948,0.10229848366,16.8706,0.139,0.310161,96,17.154,0.510265,130.57126,-22.98084,2
3023061051551,54196.455131,0.524356705049,17.185,0.152,0.310161,96,17.154,0.510265,130.57126,-22.98084,2
3023061051551,54196.444851,0.491212628258,17.1429,0.149,0.310161,96,17.154,0.510265,130.57126,-22.98084,2
3023061051551,54536.556205,0.0551068638451,16.9715,0.156,0.310161,96,17.154,0.510265,130.57126,-22.98084,2
3023061051551,54536.564326,0.0812900396704,16.9259,0.153,0.310161,96,17.154,0.510265,130.57126,-22.98084,2
3023061051551,54536.548098,0.028968825849,17.001,0.157,0.310161,96,17.154,0.510265,130.57126,-22.98084,2
3023061051551,54526.515570,0.682774430054,17.3641,0.186,0.310161,96,17.154,0.510265,130.57126,-22.98084,2
3023061051551,54595.456949,0.958879420679,17.1662,0.149,0.310161,96,17.154,0.510265,130.57126,-22.98084,2
3023061051551,54595.473235,0.0113876341493,17.0872,0.145,0.310161,96,17.154,0.510265,130.57126,-22.98084,2
3023061051551,54595.465106,0.985178665287,17.1021,0.146,0.310161,96,17.154,0.510265,130.57126,-22.98084,2
3023061051551,54536.572525,0.107724697824,17.0118,0.159,0.310161,96,17.154,0.510265,130.57126,-22.98084,2
3023061051551,54595.481386,0.0376675339357,16.9545,0.139,0.310161,96,17.154,0.510265,130.57126,-22.98084,2
3023061051551,53761.586547,0.450646599667,17.1111,0.178,0.310161,96,17.154,0.510265,130.57126,-22.98084,2
3023061051551,53731.687351,0.0516925080738,16.9656,0.167,0.310161,96,17.154,0.510265,130.57126,-22.98084,2
3023061051551,53731.677635,0.0203668417234,17.081,0.179,0.310161,96,17.154,0.510265,130.57126,-22.98084,2
3023061051551,53731.667561,0.987886936142,17.1745,0.184,0.310161,96,17.154,0.510265,130.57126,-22.98084,2
3023061051551,53731.657645,0.955916443374,17.2788,0.192,0.310161,96,17.154,0.510265,130.57126,-22.98084,2
3023061051551,56277.635323,0.523976257478,17.2403,0.133,0.310161,96,17.154,0.510265,130.57126,-22.98084,2
3023061051551,56064.403015,0.0348722115159,17.0047,0.109,0.310161,96,17.154,0.510265,130.57126,-22.98084,2
3023061051551,56277.617661,0.467031638371,17.1522,0.125,0.310161,96,17.154,0.510265,130.57126,-22.98084,2
3023061051551,56277.609127,0.439516896062,17.1818,0.127,0.310161,96,17.154,0.510265,130.57126,-22.98084,2
3023061051551,56277.626533,0.495636137348,17.2459,0.130,0.310161,96,17.154,0.510265,130.57126,-22.98084,2
3023061051551,55676.409660,0.0930871386081,17.0098,0.130,0.310161,96,17.154,0.510265,130.57126,-22.98084,2
3023061051551,55922.574602,0.761349750595,17.4706,0.156,0.310161,96,17.154,0.510265,130.57126,-22.98084,2
3023061051551,55922.586484,0.799658886826,17.3641,0.149,0.310161,96,17.154,0.510265,130.57126,-22.98084,2
3023061051551,55676.375006,0.981358068879,17.2062,0.141,0.310161,96,17.154,0.510265,130.57126,-22.98084,2
3023061051551,55922.562808,0.723324338003,17.3586,0.148,0.310161,96,17.154,0.510265,130.57126,-22.98084,2
3023061051551,56064.391076,0.996379299759,17.1406,0.114,0.310161,96,17.154,0.510265,130.57126,-22.98084,2
3023061051551,56064.379110,0.957799336466,17.1555,0.115,0.310161,96,17.154,0.510265,130.57126,-22.98084,2
3023061051551,55922.598531,0.838500004844,17.4169,0.151,0.310161,96,17.154,0.510265,130.57126,-22.98084,2
3023061051551,56064.367203,0.919409596943,17.2063,0.118,0.310161,96,17.154,0.510265,130.57126,-22.98084,2
3023061051551,56416.426989,0.00662559122429,17.089,0.117,0.310161,96,17.154,0.510265,130.57126,-22.98084,2
3023061051551,56416.437248,0.0397019612428,17.0199,0.114,0.310161,96,17.154,0.510265,130.57126,-22.98084,2
3023061051551,56416.416733,0.973558893602,17.1264,0.118,0.310161,96,17.154,0.510265,130.57126,-22.98084,2
3023061051551,56356.567738,0.0124999596737,16.9759,0.116,0.310161,96,17.154,0.510265,130.57126,-22.98084,2
3023061051551,56356.546268,0.943277846003,17.2438,0.128,0.310161,96,17.154,0.510265,130.57126,-22.98084,2
3023061051551,56356.535664,0.90908915046,17.3184,0.131,0.310161,96,17.154,0.510265,130.57126,-22.98084,2
3023061051551,56416.406603,0.940898436616,17.178,0.122,0.310161,96,17.154,0.510265,130.57126,-22.98084,2
3023061051551,56356.557110,0.978233884962,17.1681,0.123,0.310161,96,17.154,0.510265,130.57126,-22.98084,2
