ID,MjD,Phase,Mag,Mag_err,Period,Npts,V,Amp,ra,dec,Type
3023063003036,54832.686570,0.19988519678,17.2199,0.134,0.282222,193,17.324,0.427179,135.69133,-24.12557,2
3023063003036,54883.571312,0.500294094731,17.7178,0.173,0.282222,193,17.324,0.427179,135.69133,-24.12557,2
3023063003036,54832.674331,0.15651862722,17.3593,0.142,0.282222,193,17.324,0.427179,135.69133,-24.12557,2
3023063003036,54864.641760,0.427025533107,17.7097,0.173,0.282222,193,17.324,0.427179,135.69133,-24.12557,2
3023063003036,54864.654604,0.472535805166,17.6501,0.168,0.282222,193,17.324,0.427179,135.69133,-24.12557,2
3023063003036,54864.680413,0.563985089771,17.9716,0.353,0.282222,193,17.324,0.427179,135.69133,-24.12557,2
3023063003036,54864.667485,0.518177179678,17.6226,0.167,0.282222,193,17.324,0.427179,135.69133,-24.12557,2
3023063003036,55326.430124,0.68629660341,17.4186,0.205,0.282222,193,17.324,0.427179,135.69133,-24.12557,2
3023063003036,55128.755361,0.263356506621,17.0591,0.215,0.282222,193,17.324,0.427179,135.69133,-24.12557,2
3023063003036,55243.601661,0.199385590095,17.0793,0.122,0.282222,193,17.324,0.427179,135.69133,-24.12557,2
3023063003036,55266.528685,0.436936170823,17.4764,0.146,0.282222,193,17.324,0.427179,135.69133,-24.12557,2
3023063003036,55299.494202,0.243978144892,17.4514,0.145,0.282222,193,17.324,0.427179,135.69133,-24.12557,2
3023063003036,55326.457224,0.782320301048,17.5798,0.225,0.282222,193,17.324,0.427179,135.69133,-24.12557,2
3023063003036,55518.671082,0.855581776064,17.1826,0.178,0.282222,193,17.324,0.427179,135.69133,-24.12557,2
3023063003036,55298.551080,0.902204647427,17.2497,0.135,0.282222,193,17.324,0.427179,135.69133,-24.12557,2
3023063003036,54832.662023,0.112907569215,17.0902,0.128,0.282222,193,17.324,0.427179,135.69133,-24.12557,2
3023063003036,54758.759068,0.25183720619,17.2971,0.197,0.282222,193,17.324,0.427179,135.69133,-24.12557,2
3023063003036,54801.690625,0.371647143067,17.3635,0.226,0.282222,193,17.324,0.427179,135.69133,-24.12557,2
3023063003036,54801.671017,0.302169923001,17.6909,0.334,0.282222,193,17.324,0.427179,135.69133,-24.12557,2
3023063003036,54801.680806,0.336855383357,17.3773,0.213,0.282222,193,17.324,0.427179,135.69133,-24.12557,2
3023063003036,54832.649277,0.0677445415349,17.2553,0.316,0.282222,193,17.324,0.427179,135.69133,-24.12557,2
3023063003036,54758.767144,0.280452976731,17.1153,0.179,0.282222,193,17.324,0.427179,135.69133,-24.12557,2
3023063003036,54758.763083,0.266063595336,17.2726,0.194,0.282222,193,17.324,0.427179,135.69133,-24.12557,2
3023063003036,54801.661356,0.267938006262,17.2875,0.189,0.282222,193,17.324,0.427179,135.69133,-24.12557,2
3023063003036,54942.452696,0.135283571115,16.9368,0.123,0.282222,193,17.324,0.427179,135.69133,-24.12557,2
3023063003036,54967.405652,0.55133901682,17.7549,0.222,0.282222,193,17.324,0.427179,135.69133,-24.12557,2
3023063003036,54942.444684,0.106894572382,17.0296,0.127,0.282222,193,17.324,0.427179,135.69133,-24.12557,2
3023063003036,54967.413256,0.578282345115,17.4378,0.191,0.282222,193,17.324,0.427179,135.69133,-24.12557,2
3023063003036,54942.460726,0.163736349408,17.146,0.134,0.282222,193,17.324,0.427179,135.69133,-24.12557,2
3023063003036,54942.468754,0.192182041123,17.129,0.133,0.282222,193,17.324,0.427179,135.69133,-24.12557,2
3023063003036,54967.420936,0.605494964984,17.692,0.216,0.282222,193,17.324,0.427179,135.69133,-24.12557,2
3023063003036,54895.614403,0.172697380098,17.2561,0.142,0.282222,193,17.324,0.427179,135.69133,-24.12557,2
3023063003036,54895.601580,0.127261517569,17.0793,0.132,0.282222,193,17.324,0.427179,135.69133,-24.12557,2
3023063003036,54895.588752,0.0818079384626,17.1389,0.135,0.282222,193,17.324,0.427179,135.69133,-24.12557,2
3023063003036,54895.575962,0.0364890051424,17.137,0.137,0.282222,193,17.324,0.427179,135.69133,-24.12557,2
3023063003036,54903.484350,0.0583583136904,17.2354,0.143,0.282222,193,17.324,0.427179,135.69133,-24.12557,2
3023063003036,54883.579979,0.531003961456,17.7507,0.177,0.282222,193,17.324,0.427179,135.69133,-24.12557,2
3023063003036,54905.516489,0.25885650306,17.6543,0.172,0.282222,193,17.324,0.427179,135.69133,-24.12557,2
3023063003036,54919.489263,0.76872462107,17.3369,0.178,0.282222,193,17.324,0.427179,135.69133,-24.12557,2
3023063003036,54919.498910,0.802906931436,17.3224,0.177,0.282222,193,17.324,0.427179,135.69133,-24.12557,2
3023063003036,54905.536807,0.330849473103,17.2492,0.143,0.282222,193,17.324,0.427179,135.69133,-24.12557,2
3023063003036,54919.508578,0.837163651333,17.062,0.157,0.282222,193,17.324,0.427179,135.69133,-24.12557,2
3023063003036,54905.526647,0.294849444792,17.3343,0.148,0.282222,193,17.324,0.427179,135.69133,-24.12557,2
3023063003036,54919.479559,0.734340342024,17.4911,0.192,0.282222,193,17.324,0.427179,135.69133,-24.12557,2
3023063003036,54905.506242,0.222548206773,17.2626,0.144,0.282222,193,17.324,0.427179,135.69133,-24.12557,2
3023063003036,54967.428518,0.632360340474,17.5576,0.202,0.282222,193,17.324,0.427179,135.69133,-24.12557,2
3023063003036,54998.375684,0.287759281724,17.2775,0.151,0.282222,193,17.324,0.427179,135.69133,-24.12557,2
3023063003036,54998.366986,0.256939572428,17.2867,0.151,0.282222,193,17.324,0.427179,135.69133,-24.12557,2
3023063003036,54998.349787,0.195998185838,17.0935,0.138,0.282222,193,17.324,0.427179,135.69133,-24.12557,2
3023063003036,55128.742006,0.216035603196,17.2254,0.230,0.282222,193,17.324,0.427179,135.69133,-24.12557,2
3023063003036,55128.735356,0.19247259252,17.2336,0.186,0.282222,193,17.324,0.427179,135.69133,-24.12557,2
3023063003036,54998.358325,0.226250965585,17.2098,0.145,0.282222,193,17.324,0.427179,135.69133,-24.12557,2
3023063003036,56277.666303,0.210844654212,17.0724,0.128,0.282222,193,17.324,0.427179,135.69133,-24.12557,2
3023063003036,56277.677182,0.249392322381,17.0355,0.126,0.282222,193,17.324,0.427179,135.69133,-24.12557,2
3023063003036,56356.578425,0.820945922023,17.4413,0.148,0.282222,193,17.324,0.427179,135.69133,-24.12557,2
3023063003036,56356.596410,0.884672350163,17.2886,0.138,0.282222,193,17.324,0.427179,135.69133,-24.12557,2
3023063003036,56277.645706,0.13786310071,17.1354,0.130,0.282222,193,17.324,0.427179,135.69133,-24.12557,2
3023063003036,56356.587427,0.852842797525,17.1633,0.133,0.282222,193,17.324,0.427179,135.69133,-24.12557,2
3023063003036,56277.655482,0.172502498055,17.2779,0.140,0.282222,193,17.324,0.427179,135.69133,-24.12557,2
3023063003036,55696.423329,0.6868741629,17.699,0.181,0.282222,193,17.324,0.427179,135.69133,-24.12557,2
3023063003036,55658.469972,0.206369453837,17.8174,0.255,0.282222,193,17.324,0.427179,135.69133,-24.12557,2
3023063003036,55696.398515,0.598950471642,17.9776,0.206,0.282222,193,17.324,0.427179,135.69133,-24.12557,2
3023063003036,55696.386169,0.555204767879,17.6915,0.179,0.282222,193,17.324,0.427179,135.69133,-24.12557,2
3023063003036,55922.579356,0.0277582895942,17.0943,0.139,0.282222,193,17.324,0.427179,135.69133,-24.12557,2
3023063003036,55676.414988,0.791121882794,17.0912,0.139,0.282222,193,17.324,0.427179,135.69133,-24.12557,2
3023063003036,55922.567503,0.985759437608,17.2126,0.147,0.282222,193,17.324,0.427179,135.69133,-24.12557,2
3023063003036,55676.380289,0.66817257338,17.31,0.154,0.282222,193,17.324,0.427179,135.69133,-24.12557,2
3023063003036,55922.603411,0.112992608658,17.0538,0.137,0.282222,193,17.324,0.427179,135.69133,-24.12557,2
3023063003036,56064.395297,0.52558269733,17.4506,0.136,0.282222,193,17.324,0.427179,135.69133,-24.12557,2
3023063003036,55922.591314,0.0701291890873,17.2317,0.147,0.282222,193,17.324,0.427179,135.69133,-24.12557,2
3023063003036,56064.407239,0.567896903871,17.6182,0.146,0.282222,193,17.324,0.427179,135.69133,-24.12557,2
3023063003036,56064.371388,0.440865701501,17.4595,0.137,0.282222,193,17.324,0.427179,135.69133,-24.12557,2
3023063003036,56064.383330,0.483179908013,17.747,0.155,0.282222,193,17.324,0.427179,135.69133,-24.12557,2
3023063003036,56416.447494,0.955609413882,17.2258,0.131,0.282222,193,17.324,0.427179,135.69133,-24.12557,2
3023063003036,56416.469037,0.0319429385709,16.9746,0.119,0.282222,193,17.324,0.427179,135.69133,-24.12557,2
3023063003036,56356.605419,0.916594028822,17.0887,0.127,0.282222,193,17.324,0.427179,135.69133,-24.12557,2
3023063003036,56416.458184,0.993487396481,17.3471,0.194,0.282222,193,17.324,0.427179,135.69133,-24.12557,2
3023063003036,56416.480070,0.0710362764075,17.0113,0.130,0.282222,193,17.324,0.427179,135.69133,-24.12557,2
3023063003036,55567.608870,0.257329336484,17.2949,0.150,0.282222,193,17.324,0.427179,135.69133,-24.12557,2
3023063003036,55649.562196,0.643358774309,17.4813,0.146,0.282222,193,17.324,0.427179,135.69133,-24.12557,2
3023063003036,55649.536799,0.553369333385,17.6889,0.159,0.282222,193,17.324,0.427179,135.69133,-24.12557,2
3023063003036,55518.705194,0.976451162598,16.9322,0.158,0.282222,193,17.324,0.427179,135.69133,-24.12557,2
3023063003036,55593.525406,0.0876473131357,16.7448,0.250,0.282222,193,17.324,0.427179,135.69133,-24.12557,2
3023063003036,55602.552164,0.0722480883996,17.082,0.172,0.282222,193,17.324,0.427179,135.69133,-24.12557,2
3023063003036,55602.582648,0.180262346694,17.2535,0.183,0.282222,193,17.324,0.427179,135.69133,-24.12557,2
3023063003036,53731.666644,0.945107043401,17.3432,0.210,0.282222,193,17.324,0.427179,135.69133,-24.12557,2
3023063003036,53712.732547,0.8557341384,17.2326,0.158,0.282222,193,17.324,0.427179,135.69133,-24.12557,2
3023063003036,53731.676696,0.980724394292,17.4466,0.377,0.282222,193,17.324,0.427179,135.69133,-24.12557,2
3023063003036,53712.714240,0.790866764495,17.2279,0.158,0.282222,193,17.324,0.427179,135.69133,-24.12557,2
3023063003036,53731.686509,0.0154948941199,17.0593,0.182,0.282222,193,17.324,0.427179,135.69133,-24.12557,2
3023063003036,53712.723371,0.823220726976,17.2147,0.157,0.282222,193,17.324,0.427179,135.69133,-24.12557,2
3023063003036,53731.656651,0.909698747797,17.3885,0.214,0.282222,193,17.324,0.427179,135.69133,-24.12557,2
3023063003036,53712.705058,0.758332093188,17.3086,0.164,0.282222,193,17.324,0.427179,135.69133,-24.12557,2
3023063003036,53885.369497,0.561944143294,17.7057,0.175,0.282222,193,17.324,0.427179,135.69133,-24.12557,2
3023063003036,53861.485285,0.932779868366,17.2604,0.144,0.282222,193,17.324,0.427179,135.69133,-24.12557,2
3023063003036,53861.465827,0.86383414478,17.2321,0.142,0.282222,193,17.324,0.427179,135.69133,-24.12557,2
3023063003036,53849.457033,0.312955758243,17.3653,0.148,0.282222,193,17.324,0.427179,135.69133,-24.12557,2
3023063003036,53861.456104,0.829382542841,17.1699,0.137,0.282222,193,17.324,0.427179,135.69133,-24.12557,2
3023063003036,53849.444471,0.268444699585,17.2153,0.138,0.282222,193,17.324,0.427179,135.69133,-24.12557,2
3023063003036,53861.475561,0.898324723094,17.2335,0.142,0.282222,193,17.324,0.427179,135.69133,-24.12557,2
3023063003036,53885.359162,0.525324035698,17.573,0.165,0.282222,193,17.324,0.427179,135.69133,-24.12557,2
3023063003036,53823.562646,0.561118552083,17.5131,0.140,0.282222,193,17.324,0.427179,135.69133,-24.12557,2
3023063003036,53823.571965,0.59413865683,17.4429,0.136,0.282222,193,17.324,0.427179,135.69133,-24.12557,2
3023063003036,53761.619933,0.0788917944301,17.1263,0.190,0.282222,193,17.324,0.427179,135.69133,-24.12557,2
3023063003036,53823.553336,0.52813033713,17.6104,0.146,0.282222,193,17.324,0.427179,135.69133,-24.12557,2
3023063003036,53849.419287,0.179209983646,17.1567,0.135,0.282222,193,17.324,0.427179,135.69133,-24.12557,2
3023063003036,53849.431857,0.223749388795,17.1068,0.133,0.282222,193,17.324,0.427179,135.69133,-24.12557,2
3023063003036,53823.544019,0.49511731902,17.3859,0.133,0.282222,193,17.324,0.427179,135.69133,-24.12557,2
3023063003036,53904.368991,0.88303888432,16.8731,0.147,0.282222,193,17.324,0.427179,135.69133,-24.12557,2
3023063003036,54011.765213,0.421133008786,17.5649,0.229,0.282222,193,17.324,0.427179,135.69133,-24.12557,2
3023063003036,54011.758747,0.398221967131,17.5987,0.233,0.282222,193,17.324,0.427179,135.69133,-24.12557,2
3023063003036,53904.376126,0.908320400282,17.0003,0.187,0.282222,193,17.324,0.427179,135.69133,-24.12557,2
3023063003036,53885.379822,0.598528817762,17.6197,0.169,0.282222,193,17.324,0.427179,135.69133,-24.12557,2
3023063003036,53885.390143,0.635099318984,17.4524,0.157,0.282222,193,17.324,0.427179,135.69133,-24.12557,2
3023063003036,53904.361865,0.857789258123,17.124,0.145,0.282222,193,17.324,0.427179,135.69133,-24.12557,2
3023063003036,53904.383274,0.933647979255,17.2471,0.157,0.282222,193,17.324,0.427179,135.69133,-24.12557,2
3023063003036,54011.778349,0.467677927314,16.8915,0.164,0.282222,193,17.324,0.427179,135.69133,-24.12557,2
3023063003036,54061.721077,0.430239315174,17.4653,0.183,0.282222,193,17.324,0.427179,135.69133,-24.12557,2
3023063003036,54061.711637,0.396790469938,17.4676,0.184,0.282222,193,17.324,0.427179,135.69133,-24.12557,2
3023063003036,54137.688287,0.605604807584,17.5362,0.243,0.282222,193,17.324,0.427179,135.69133,-24.12557,2
3023063003036,54061.740185,0.497944880306,17.5237,0.188,0.282222,193,17.324,0.427179,135.69133,-24.12557,2
3023063003036,54011.771813,0.444518853968,17.4066,0.211,0.282222,193,17.324,0.427179,135.69133,-24.12557,2
3023063003036,54137.679738,0.575313051435,17.8387,0.287,0.282222,193,17.324,0.427179,135.69133,-24.12557,2
3023063003036,54061.730610,0.464017688209,17.5562,0.192,0.282222,193,17.324,0.427179,135.69133,-24.12557,2
3023063003036,53761.602033,0.0154665476293,17.4063,0.217,0.282222,193,17.324,0.427179,135.69133,-24.12557,2
3023063003036,53742.750521,0.218717888783,17.3367,0.133,0.282222,193,17.324,0.427179,135.69133,-24.12557,2
3023063003036,53742.706023,0.0610476858856,17.0944,0.120,0.282222,193,17.324,0.427179,135.69133,-24.12557,2
3023063003036,53761.611067,0.0474768090353,17.0325,0.181,0.282222,193,17.324,0.427179,135.69133,-24.12557,2
3023063003036,53742.720825,0.113495758676,17.3021,0.131,0.282222,193,17.324,0.427179,135.69133,-24.12557,2
3023063003036,53761.589288,0.970307063253,16.9328,0.173,0.282222,193,17.324,0.427179,135.69133,-24.12557,2
3023063003036,53742.735633,0.165965091321,17.2505,0.128,0.282222,193,17.324,0.427179,135.69133,-24.12557,2
3023063003036,54181.582769,0.137356407387,17.3073,0.172,0.282222,193,17.324,0.427179,135.69133,-24.12557,2
3023063003036,54173.548951,0.67104974098,17.3797,0.172,0.282222,193,17.324,0.427179,135.69133,-24.12557,2
3023063003036,54173.557140,0.700065905578,17.3777,0.173,0.282222,193,17.324,0.427179,135.69133,-24.12557,2
3023063003036,54173.565315,0.729032463831,17.3709,0.173,0.282222,193,17.324,0.427179,135.69133,-24.12557,2
3023063003036,54173.540755,0.642008773255,17.1792,0.158,0.282222,193,17.324,0.427179,135.69133,-24.12557,2
3023063003036,54181.572977,0.10266031709,17.2923,0.170,0.282222,193,17.324,0.427179,135.69133,-24.12557,2
3023063003036,54137.696832,0.635882390488,17.6417,0.257,0.282222,193,17.324,0.427179,135.69133,-24.12557,2
3023063003036,54526.501364,0.290820701455,17.5414,0.214,0.282222,193,17.324,0.427179,135.69133,-24.12557,2
3023063003036,54492.605361,0.186778493546,17.1977,0.193,0.282222,193,17.324,0.427179,135.69133,-24.12557,2
3023063003036,54492.629934,0.273848247132,17.1367,0.192,0.282222,193,17.324,0.427179,135.69133,-24.12557,2
3023063003036,54526.509987,0.321374662512,17.2425,0.185,0.282222,193,17.324,0.427179,135.69133,-24.12557,2
3023063003036,54492.617741,0.23064466982,17.2052,0.195,0.282222,193,17.324,0.427179,135.69133,-24.12557,2
3023063003036,54526.492182,0.258286030177,17.2332,0.185,0.282222,193,17.324,0.427179,135.69133,-24.12557,2
3023063003036,54492.641726,0.315630957222,17.3774,0.210,0.282222,193,17.324,0.427179,135.69133,-24.12557,2
3023063003036,54463.664309,0.639663102105,17.715,0.289,0.282222,193,17.324,0.427179,135.69133,-24.12557,2
3023063003036,54615.420922,0.360368787689,17.242,0.136,0.282222,193,17.324,0.427179,135.69133,-24.12557,2
3023063003036,54615.407703,0.31352977443,17.1298,0.129,0.282222,193,17.324,0.427179,135.69133,-24.12557,2
3023063003036,54615.401104,0.290147472551,17.3995,0.144,0.282222,193,17.324,0.427179,135.69133,-24.12557,2
3023063003036,54595.479609,0.702117481997,17.6179,0.195,0.282222,193,17.324,0.427179,135.69133,-24.12557,2
3023063003036,54758.755083,0.23771711631,17.1349,0.183,0.282222,193,17.324,0.427179,135.69133,-24.12557,2
3023063003036,54595.487774,0.731048607151,17.4178,0.178,0.282222,193,17.324,0.427179,135.69133,-24.12557,2
3023063003036,54615.414314,0.336954596045,17.4126,0.145,0.282222,193,17.324,0.427179,135.69133,-24.12557,2
3023063003036,54463.632890,0.528335849114,17.5079,0.224,0.282222,193,17.324,0.427179,135.69133,-24.12557,2
3023063003036,54424.664298,0.450538937468,17.4729,0.223,0.282222,193,17.324,0.427179,135.69133,-24.12557,2
3023063003036,54424.673375,0.48270156121,17.3721,0.210,0.282222,193,17.324,0.427179,135.69133,-24.12557,2
3023063003036,54463.642633,0.562858317251,17.3721,0.242,0.282222,193,17.324,0.427179,135.69133,-24.12557,2
3023063003036,54392.748874,0.364301861671,17.2771,0.208,0.282222,193,17.324,0.427179,135.69133,-24.12557,2
3023063003036,54424.682510,0.515069696907,17.4481,0.218,0.282222,193,17.324,0.427179,135.69133,-24.12557,2
3023063003036,54424.655146,0.418110565457,17.5443,0.319,0.282222,193,17.324,0.427179,135.69133,-24.12557,2
3023063003036,54463.652955,0.599432361778,17.4328,0.249,0.282222,193,17.324,0.427179,135.69133,-24.12557,2
3023063003036,54241.426805,0.183320223121,17.307,0.169,0.282222,193,17.324,0.427179,135.69133,-24.12557,2
3023063003036,54208.508602,0.54392641256,17.5781,0.242,0.282222,193,17.324,0.427179,135.69133,-24.12557,2
3023063003036,54241.437691,0.221892694419,17.337,0.173,0.282222,193,17.324,0.427179,135.69133,-24.12557,2
3023063003036,54208.500093,0.513776388834,17.6765,0.254,0.282222,193,17.324,0.427179,135.69133,-24.12557,2
3023063003036,54226.424323,0.0248775786604,17.3221,0.169,0.282222,193,17.324,0.427179,135.69133,-24.12557,2
3023063003036,54226.453743,0.129121755221,17.2925,0.168,0.282222,193,17.324,0.427179,135.69133,-24.12557,2
3023063003036,54226.443949,0.0944185783155,17.4577,0.180,0.282222,193,17.324,0.427179,135.69133,-24.12557,2
3023063003036,54226.434135,0.0596445351839,17.1487,0.157,0.282222,193,17.324,0.427179,135.69133,-24.12557,2
3023063003036,54595.463326,0.644421767269,17.5418,0.186,0.282222,193,17.324,0.427179,135.69133,-24.12557,2
3023063003036,54526.518664,0.352119962336,17.1791,0.180,0.282222,193,17.324,0.427179,135.69133,-24.12557,2
3023063003036,54595.471469,0.673274939589,17.398,0.175,0.282222,193,17.324,0.427179,135.69133,-24.12557,2
3023063003036,54536.575912,0.988066132355,17.1366,0.177,0.282222,193,17.324,0.427179,135.69133,-24.12557,2
3023063003036,54536.567743,0.959120833984,17.0698,0.171,0.282222,193,17.324,0.427179,135.69133,-24.12557,2
3023063003036,54536.559593,0.930242858478,17.1815,0.180,0.282222,193,17.324,0.427179,135.69133,-24.12557,2
3023063003036,54536.551480,0.901495985454,17.0748,0.171,0.282222,193,17.324,0.427179,135.69133,-24.12557,2
3023063003036,54196.445922,0.80211323002,17.581,0.191,0.282222,193,17.324,0.427179,135.69133,-24.12557,2
3023063003036,54208.491558,0.483534239029,17.6954,0.257,0.282222,193,17.324,0.427179,135.69133,-24.12557,2
3023063003036,54196.477203,0.912951506296,17.3049,0.170,0.282222,193,17.324,0.427179,135.69133,-24.12557,2
3023063003036,54181.602385,0.206861973915,17.0628,0.157,0.282222,193,17.324,0.427179,135.69133,-24.12557,2
3023063003036,54196.456349,0.839059322112,17.5734,0.191,0.282222,193,17.324,0.427179,135.69133,-24.12557,2
3023063003036,54196.466863,0.876313682151,17.4018,0.177,0.282222,193,17.324,0.427179,135.69133,-24.12557,2
3023063003036,54181.592564,0.172063127626,17.2529,0.168,0.282222,193,17.324,0.427179,135.69133,-24.12557,2
3023063003036,54208.482998,0.453203506477,17.5792,0.240,0.282222,193,17.324,0.427179,135.69133,-24.12557,2
3023063003036,54392.740274,0.333829396754,17.3581,0.218,0.282222,193,17.324,0.427179,135.69133,-24.12557,2
3023063003036,54392.731717,0.303509294143,17.3246,0.215,0.282222,193,17.324,0.427179,135.69133,-24.12557,2
3023063003036,54247.372670,0.251362402661,17.3277,0.211,0.282222,193,17.324,0.427179,135.69133,-24.12557,2
3023063003036,54247.362394,0.214951350383,17.1007,0.189,0.282222,193,17.324,0.427179,135.69133,-24.12557,2
3023063003036,54241.448583,0.260486425599,17.3225,0.172,0.282222,193,17.324,0.427179,135.69133,-24.12557,2
3023063003036,54247.382924,0.287695502135,17.2203,0.201,0.282222,193,17.324,0.427179,135.69133,-24.12557,2
3023063003036,54247.393202,0.324113641051,17.4245,0.224,0.282222,193,17.324,0.427179,135.69133,-24.12557,2
3023063003036,54241.459489,0.299129763123,17.2204,0.165,0.282222,193,17.324,0.427179,135.69133,-24.12557,2
3023063003036,54392.723159,0.273185648199,17.2513,0.210,0.282222,193,17.324,0.427179,135.69133,-24.12557,2
