ID,MjD,Phase,Mag,Mag_err,Period,Npts,V,Amp,ra,dec,Type
3021090021508,53591.378503,0.374647905526,17.2803,0.166,0.154788,248,17.215,0.264552,192.2518,-20.63466,9
3021090021508,53591.388130,0.436842649302,17.2753,0.166,0.154788,248,17.215,0.264552,192.2518,-20.63466,9
3021090021508,53591.397875,0.499799726065,17.3838,0.176,0.154788,248,17.215,0.264552,192.2518,-20.63466,9
3021090021508,53591.407273,0.560515026969,17.4288,0.181,0.154788,248,17.215,0.264552,192.2518,-20.63466,9
3021090021508,53733.677263,0.688548207865,17.3248,0.193,0.154788,248,17.215,0.264552,192.2518,-20.63466,9
3021090021508,53733.685000,0.73853270273,17.3579,0.195,0.154788,248,17.215,0.264552,192.2518,-20.63466,9
3021090021508,53733.692755,0.788633485732,17.1751,0.178,0.154788,248,17.215,0.264552,192.2518,-20.63466,9
3021090021508,53733.700512,0.838747189729,17.2226,0.181,0.154788,248,17.215,0.264552,192.2518,-20.63466,9
3021090021508,53568.458751,0.302756027551,17.6006,0.221,0.154788,248,17.215,0.264552,192.2518,-20.63466,9
3021090021508,53568.465366,0.345491898537,17.3076,0.193,0.154788,248,17.215,0.264552,192.2518,-20.63466,9
3021090021508,53568.471839,0.387310385762,17.34,0.197,0.154788,248,17.215,0.264552,192.2518,-20.63466,9
3021090021508,53568.478312,0.429128872987,17.8405,0.255,0.154788,248,17.215,0.264552,192.2518,-20.63466,9
3021090021508,53833.651974,0.570082952152,17.3037,0.117,0.154788,248,17.215,0.264552,192.2518,-20.63466,9
3021090021508,53833.669157,0.681092849525,17.4154,0.122,0.154788,248,17.215,0.264552,192.2518,-20.63466,9
3021090021508,53833.686335,0.792070444732,17.3594,0.120,0.154788,248,17.215,0.264552,192.2518,-20.63466,9
3021090021508,53833.703516,0.903067421226,17.1672,0.112,0.154788,248,17.215,0.264552,192.2518,-20.63466,9
3021090021508,53846.617724,0.334651264944,17.4695,0.173,0.154788,248,17.215,0.264552,192.2518,-20.63466,9
3021090021508,53846.629322,0.409579553932,17.2067,0.153,0.154788,248,17.215,0.264552,192.2518,-20.63466,9
3021090021508,53846.640883,0.484268806351,17.3944,0.167,0.154788,248,17.215,0.264552,192.2518,-20.63466,9
3021090021508,53846.652639,0.560217846301,17.4333,0.171,0.154788,248,17.215,0.264552,192.2518,-20.63466,9
3021090021508,53854.550647,0.584896761982,17.3672,0.166,0.154788,248,17.215,0.264552,192.2518,-20.63466,9
3021090021508,53854.560312,0.647337002854,17.4183,0.170,0.154788,248,17.215,0.264552,192.2518,-20.63466,9
3021090021508,53854.570086,0.710481432674,17.3839,0.168,0.154788,248,17.215,0.264552,192.2518,-20.63466,9
3021090021508,53854.579796,0.773212393688,17.2022,0.155,0.154788,248,17.215,0.264552,192.2518,-20.63466,9
3021090021508,53963.374508,0.635914928804,17.3174,0.151,0.154788,248,17.215,0.264552,192.2518,-20.63466,9
3021090021508,53963.385963,0.709919373563,17.3055,0.151,0.154788,248,17.215,0.264552,192.2518,-20.63466,9
3021090021508,53963.397387,0.783723544446,17.4274,0.161,0.154788,248,17.215,0.264552,192.2518,-20.63466,9
3021090021508,53963.408870,0.857908881793,17.159,0.145,0.154788,248,17.215,0.264552,192.2518,-20.63466,9
3021090021508,54097.682624,0.326666149835,17.1318,0.186,0.154788,248,17.215,0.264552,192.2518,-20.63466,9
3021090021508,54097.691051,0.381108354661,17.1468,0.187,0.154788,248,17.215,0.264552,192.2518,-20.63466,9
3021090021508,54097.699468,0.435485954979,17.2548,0.196,0.154788,248,17.215,0.264552,192.2518,-20.63466,9
3021090021508,54097.707897,0.489941080683,17.2615,0.194,0.154788,248,17.215,0.264552,192.2518,-20.63466,9
3021090021508,53767.672120,0.310592552414,17.2627,0.134,0.154788,248,17.215,0.264552,192.2518,-20.63466,9
3021090021508,53767.689358,0.421957774495,17.4157,0.142,0.154788,248,17.215,0.264552,192.2518,-20.63466,9
3021090021508,53767.706558,0.533077499538,17.4296,0.142,0.154788,248,17.215,0.264552,192.2518,-20.63466,9
3021090021508,53767.723847,0.64477220457,17.3525,0.138,0.154788,248,17.215,0.264552,192.2518,-20.63466,9
3021090021508,53935.374873,0.74569734087,17.4038,0.152,0.154788,248,17.215,0.264552,192.2518,-20.63466,9
3021090021508,53935.384802,0.809843140305,17.1977,0.140,0.154788,248,17.215,0.264552,192.2518,-20.63466,9
3021090021508,53935.394617,0.873252448451,17.2112,0.141,0.154788,248,17.215,0.264552,192.2518,-20.63466,9
3021090021508,53935.404487,0.937017081422,17.1844,0.139,0.154788,248,17.215,0.264552,192.2518,-20.63466,9
3021090021508,53901.475727,0.741989043017,17.301,0.173,0.154788,248,17.215,0.264552,192.2518,-20.63466,9
3021090021508,53901.484255,0.797083753278,17.1166,0.160,0.154788,248,17.215,0.264552,192.2518,-20.63466,9
3021090021508,53901.492812,0.852365816419,17.2219,0.168,0.154788,248,17.215,0.264552,192.2518,-20.63466,9
3021090021508,53901.501350,0.90752513113,17.3056,0.175,0.154788,248,17.215,0.264552,192.2518,-20.63466,9
3021090021508,53818.656039,0.689607721521,17.2066,0.153,0.154788,248,17.215,0.264552,192.2518,-20.63466,9
3021090021508,53818.666327,0.756072822143,17.3058,0.160,0.154788,248,17.215,0.264552,192.2518,-20.63466,9
3021090021508,53818.676674,0.822919089347,17.2267,0.155,0.154788,248,17.215,0.264552,192.2518,-20.63466,9
3021090021508,53818.687115,0.890372638707,17.3248,0.162,0.154788,248,17.215,0.264552,192.2518,-20.63466,9
3021090021508,53871.481483,0.965701475565,17.2131,0.156,0.154788,248,17.215,0.264552,192.2518,-20.63466,9
3021090021508,53871.490010,0.0207897252985,17.2149,0.156,0.154788,248,17.215,0.264552,192.2518,-20.63466,9
3021090021508,53871.498536,0.0758715145639,17.2635,0.159,0.154788,248,17.215,0.264552,192.2518,-20.63466,9
3021090021508,53871.507034,0.130772411299,17.2374,0.158,0.154788,248,17.215,0.264552,192.2518,-20.63466,9
3021090021508,53880.487733,0.15012145642,17.242,0.158,0.154788,248,17.215,0.264552,192.2518,-20.63466,9
3021090021508,53880.498159,0.217478099046,17.0834,0.148,0.154788,248,17.215,0.264552,192.2518,-20.63466,9
3021090021508,53880.508584,0.284828281263,17.2674,0.165,0.154788,248,17.215,0.264552,192.2518,-20.63466,9
3021090021508,53880.518993,0.35207509622,17.2111,0.156,0.154788,248,17.215,0.264552,192.2518,-20.63466,9
3021090021508,54198.620159,0.42847636767,17.2336,0.185,0.154788,248,17.215,0.264552,192.2518,-20.63466,9
3021090021508,54198.630382,0.494521539134,17.5253,0.214,0.154788,248,17.215,0.264552,192.2518,-20.63466,9
3021090021508,54198.640600,0.560534408316,17.2926,0.190,0.154788,248,17.215,0.264552,192.2518,-20.63466,9
3021090021508,54198.650839,0.626682946982,17.4457,0.205,0.154788,248,17.215,0.264552,192.2518,-20.63466,9
3021090021508,54203.569035,0.400438018434,17.2885,0.189,0.154788,248,17.215,0.264552,192.2518,-20.63466,9
3021090021508,54203.577586,0.455681318941,17.2604,0.186,0.154788,248,17.215,0.264552,192.2518,-20.63466,9
3021090021508,54203.586148,0.510995684424,17.2538,0.186,0.154788,248,17.215,0.264552,192.2518,-20.63466,9
3021090021508,54203.594763,0.566652453679,17.2726,0.188,0.154788,248,17.215,0.264552,192.2518,-20.63466,9
3021090021508,54208.632562,0.113096622459,17.0853,0.172,0.154788,248,17.215,0.264552,192.2518,-20.63466,9
3021090021508,54208.641075,0.168094425928,16.9999,0.166,0.154788,248,17.215,0.264552,192.2518,-20.63466,9
3021090021508,54208.649606,0.223208517418,17.2368,0.185,0.154788,248,17.215,0.264552,192.2518,-20.63466,9
3021090021508,54208.658231,0.278929891181,17.0949,0.174,0.154788,248,17.215,0.264552,192.2518,-20.63466,9
3021090021508,54316.356688,0.0593327647657,17.2393,0.173,0.154788,248,17.215,0.264552,192.2518,-20.63466,9
3021090021508,54316.361797,0.0923391993856,17.1264,0.165,0.154788,248,17.215,0.264552,192.2518,-20.63466,9
3021090021508,54316.366963,0.125713879592,17.1834,0.169,0.154788,248,17.215,0.264552,192.2518,-20.63466,9
3021090021508,54316.372078,0.158759076905,17.2053,0.171,0.154788,248,17.215,0.264552,192.2518,-20.63466,9
3021090021508,54463.694995,0.930970101035,17.3212,0.224,0.154788,248,17.215,0.264552,192.2518,-20.63466,9
3021090021508,54463.702096,0.976845750294,17.282,0.218,0.154788,248,17.215,0.264552,192.2518,-20.63466,9
3021090021508,54463.709318,0.0235031139455,17.4499,0.236,0.154788,248,17.215,0.264552,192.2518,-20.63466,9
3021090021508,54463.716607,0.0705933276331,16.9199,0.181,0.154788,248,17.215,0.264552,192.2518,-20.63466,9
3021090021508,54153.694619,0.189310540853,17.1875,0.147,0.154788,248,17.215,0.264552,192.2518,-20.63466,9
3021090021508,54153.708614,0.279724526452,17.1531,0.145,0.154788,248,17.215,0.264552,192.2518,-20.63466,9
3021090021508,54153.722356,0.368504018348,17.277,0.153,0.154788,248,17.215,0.264552,192.2518,-20.63466,9
3021090021508,54153.736078,0.457154301344,17.253,0.152,0.154788,248,17.215,0.264552,192.2518,-20.63466,9
3021090021508,54267.467737,0.214751789521,17.0307,0.158,0.154788,248,17.215,0.264552,192.2518,-20.63466,9
3021090021508,54267.476564,0.271778173978,17.0204,0.158,0.154788,248,17.215,0.264552,192.2518,-20.63466,9
3021090021508,54267.485348,0.328526759171,17.1503,0.167,0.154788,248,17.215,0.264552,192.2518,-20.63466,9
3021090021508,54267.494167,0.385501459998,17.2592,0.176,0.154788,248,17.215,0.264552,192.2518,-20.63466,9
3021090021508,54170.647706,0.713866708043,17.2972,0.187,0.154788,248,17.215,0.264552,192.2518,-20.63466,9
3021090021508,54170.659219,0.788245858857,17.1055,0.171,0.154788,248,17.215,0.264552,192.2518,-20.63466,9
3021090021508,54170.670716,0.86252164247,17.0764,0.168,0.154788,248,17.215,0.264552,192.2518,-20.63466,9
3021090021508,54170.682218,0.936829728365,17.1337,0.173,0.154788,248,17.215,0.264552,192.2518,-20.63466,9
3021090021508,54186.684666,0.319830994646,17.1808,0.177,0.154788,248,17.215,0.264552,192.2518,-20.63466,9
3021090021508,54186.695138,0.38748481794,17.3077,0.188,0.154788,248,17.215,0.264552,192.2518,-20.63466,9
3021090021508,54186.705562,0.454828539689,17.2938,0.187,0.154788,248,17.215,0.264552,192.2518,-20.63466,9
3021090021508,54186.715944,0.521900922526,17.414,0.199,0.154788,248,17.215,0.264552,192.2518,-20.63466,9
3021090021508,54227.590619,0.590659482637,17.3548,0.163,0.154788,248,17.215,0.264552,192.2518,-20.63466,9
3021090021508,54227.601512,0.661033154989,17.3956,0.165,0.154788,248,17.215,0.264552,192.2518,-20.63466,9
3021090021508,54227.612392,0.731322841544,17.4589,0.169,0.154788,248,17.215,0.264552,192.2518,-20.63466,9
3021090021508,54227.623242,0.801418714633,17.3001,0.158,0.154788,248,17.215,0.264552,192.2518,-20.63466,9
3021090021508,54234.512778,0.310915574781,17.2713,0.187,0.154788,248,17.215,0.264552,192.2518,-20.63466,9
3021090021508,54234.520448,0.360467219667,17.1954,0.180,0.154788,248,17.215,0.264552,192.2518,-20.63466,9
3021090021508,54234.528160,0.410290203348,17.2254,0.183,0.154788,248,17.215,0.264552,192.2518,-20.63466,9
3021090021508,54234.535823,0.459796625015,17.3025,0.190,0.154788,248,17.215,0.264552,192.2518,-20.63466,9
3021090021508,54830.690583,0.887297464942,17.2055,0.150,0.154788,248,17.215,0.264552,192.2518,-20.63466,9
3021090021508,54830.699264,0.943380623823,17.1856,0.148,0.154788,248,17.215,0.264552,192.2518,-20.63466,9
3021090021508,54830.707903,0.999192443851,17.1884,0.147,0.154788,248,17.215,0.264552,192.2518,-20.63466,9
3021090021508,54830.716582,0.0552626818535,17.1642,0.145,0.154788,248,17.215,0.264552,192.2518,-20.63466,9
3021090021508,54491.643227,0.489101222309,17.2784,0.155,0.154788,248,17.215,0.264552,192.2518,-20.63466,9
3021090021508,54491.653275,0.554015815142,17.3622,0.161,0.154788,248,17.215,0.264552,192.2518,-20.63466,9
3021090021508,54491.663322,0.618923947564,17.3154,0.157,0.154788,248,17.215,0.264552,192.2518,-20.63466,9
3021090021508,54491.673350,0.683709331439,17.5211,0.172,0.154788,248,17.215,0.264552,192.2518,-20.63466,9
3021090021508,54624.471045,0.616462516424,17.3712,0.116,0.154788,248,17.215,0.264552,192.2518,-20.63466,9
3021090021508,54624.481018,0.680892575649,17.448,0.119,0.154788,248,17.215,0.264552,192.2518,-20.63466,9
3021090021508,54624.490917,0.744844561617,17.3682,0.115,0.154788,248,17.215,0.264552,192.2518,-20.63466,9
3021090021508,54624.500932,0.809545959637,17.2987,0.112,0.154788,248,17.215,0.264552,192.2518,-20.63466,9
3021090021508,54644.434906,0.591970953799,17.392,0.134,0.154788,248,17.215,0.264552,192.2518,-20.63466,9
3021090021508,54644.444747,0.655548233713,17.4318,0.136,0.154788,248,17.215,0.264552,192.2518,-20.63466,9
3021090021508,54644.454568,0.718996304611,17.1799,0.124,0.154788,248,17.215,0.264552,192.2518,-20.63466,9
3021090021508,54644.464322,0.782011525414,17.2463,0.128,0.154788,248,17.215,0.264552,192.2518,-20.63466,9
3021090021508,54532.629415,0.278283846274,17.1907,0.147,0.154788,248,17.215,0.264552,192.2518,-20.63466,9
3021090021508,54532.642594,0.363426105352,17.2673,0.152,0.154788,248,17.215,0.264552,192.2518,-20.63466,9
3021090021508,54532.655725,0.448258262884,17.3166,0.156,0.154788,248,17.215,0.264552,192.2518,-20.63466,9
3021090021508,54532.668901,0.533381140616,17.4008,0.162,0.154788,248,17.215,0.264552,192.2518,-20.63466,9
3021090021508,54593.526285,0.699414683273,17.3468,0.127,0.154788,248,17.215,0.264552,192.2518,-20.63466,9
3021090021508,54593.537727,0.773335142236,17.2958,0.124,0.154788,248,17.215,0.264552,192.2518,-20.63466,9
3021090021508,54593.549199,0.847449414665,17.1698,0.119,0.154788,248,17.215,0.264552,192.2518,-20.63466,9
3021090021508,54593.560630,0.921298808651,17.2069,0.121,0.154788,248,17.215,0.264552,192.2518,-20.63466,9
3021090021508,54616.560547,0.511092591158,17.2225,0.110,0.154788,248,17.215,0.264552,192.2518,-20.63466,9
3021090021508,54616.573805,0.596745225717,17.4456,0.120,0.154788,248,17.215,0.264552,192.2518,-20.63466,9
3021090021508,54616.587136,0.682869473065,17.4032,0.119,0.154788,248,17.215,0.264552,192.2518,-20.63466,9
3021090021508,54616.600473,0.769032483106,17.212,0.112,0.154788,248,17.215,0.264552,192.2518,-20.63466,9
3021090021508,54948.571174,0.44885908463,17.2309,0.156,0.154788,248,17.215,0.264552,192.2518,-20.63466,9
3021090021508,54948.579561,0.50304287154,17.1853,0.162,0.154788,248,17.215,0.264552,192.2518,-20.63466,9
3021090021508,54948.596525,0.61263793055,17.374,0.169,0.154788,248,17.215,0.264552,192.2518,-20.63466,9
3021090021508,54949.568557,0.892401219695,16.7161,0.116,0.154788,248,17.215,0.264552,192.2518,-20.63466,9
3021090021508,54889.640934,0.733041321044,17.3178,0.161,0.154788,248,17.215,0.264552,192.2518,-20.63466,9
3021090021508,54889.651077,0.798569656559,17.2848,0.158,0.154788,248,17.215,0.264552,192.2518,-20.63466,9
3021090021508,54889.661630,0.866746776213,17.1786,0.164,0.154788,248,17.215,0.264552,192.2518,-20.63466,9
3021090021508,54889.671951,0.933425071649,17.1212,0.149,0.154788,248,17.215,0.264552,192.2518,-20.63466,9
3021090021508,54862.701239,0.690512184403,17.3958,0.173,0.154788,248,17.215,0.264552,192.2518,-20.63466,9
3021090021508,54862.709852,0.746156032721,17.322,0.166,0.154788,248,17.215,0.264552,192.2518,-20.63466,9
3021090021508,54862.732920,0.895185673318,17.175,0.154,0.154788,248,17.215,0.264552,192.2518,-20.63466,9
3021090021508,54862.741488,0.950538801437,17.1916,0.155,0.154788,248,17.215,0.264552,192.2518,-20.63466,9
3021090021508,55031.427735,0.739456546959,17.278,0.170,0.154788,248,17.215,0.264552,192.2518,-20.63466,9
3021090021508,55031.435324,0.788484895427,17.3225,0.174,0.154788,248,17.215,0.264552,192.2518,-20.63466,9
3021090021508,55031.442908,0.837480941613,17.1283,0.160,0.154788,248,17.215,0.264552,192.2518,-20.63466,9
3021090021508,55031.450506,0.88656743418,17.2166,0.168,0.154788,248,17.215,0.264552,192.2518,-20.63466,9
3021090021508,55001.494148,0.355040442373,17.2306,0.154,0.154788,248,17.215,0.264552,192.2518,-20.63466,9
3021090021508,55001.502168,0.406853244407,17.3297,0.149,0.154788,248,17.215,0.264552,192.2518,-20.63466,9
3021090021508,55001.510245,0.459034292027,17.3189,0.153,0.154788,248,17.215,0.264552,192.2518,-20.63466,9
3021090021508,55001.518550,0.512688322051,17.4009,0.162,0.154788,248,17.215,0.264552,192.2518,-20.63466,9
3021090021508,54907.647193,0.0615616197465,17.2323,0.158,0.154788,248,17.215,0.264552,192.2518,-20.63466,9
3021090021508,54907.654817,0.110816083907,17.2236,0.157,0.154788,248,17.215,0.264552,192.2518,-20.63466,9
3021090021508,54907.662394,0.159766906989,17.2132,0.157,0.154788,248,17.215,0.264552,192.2518,-20.63466,9
3021090021508,54907.669988,0.208827557683,17.0839,0.148,0.154788,248,17.215,0.264552,192.2518,-20.63466,9
3021090021508,54918.627430,0.998824198265,17.1096,0.147,0.154788,248,17.215,0.264552,192.2518,-20.63466,9
3021090021508,54918.638219,0.0685259838938,17.0697,0.145,0.154788,248,17.215,0.264552,192.2518,-20.63466,9
3021090021508,54918.648937,0.137769077672,17.0539,0.145,0.154788,248,17.215,0.264552,192.2518,-20.63466,9
3021090021508,54918.659637,0.20689588337,17.0417,0.144,0.154788,248,17.215,0.264552,192.2518,-20.63466,9
3021090021508,54963.567384,0.331110938801,17.2066,0.133,0.154788,248,17.215,0.264552,192.2518,-20.63466,9
3021090021508,54963.578250,0.401310179033,17.1383,0.129,0.154788,248,17.215,0.264552,192.2518,-20.63466,9
3021090021508,54963.589051,0.471089490165,17.2791,0.137,0.154788,248,17.215,0.264552,192.2518,-20.63466,9
3021090021508,54963.599868,0.540972168325,17.3333,0.141,0.154788,248,17.215,0.264552,192.2518,-20.63466,9
3021090021508,55411.386707,0.445066800981,17.1887,0.138,0.154788,248,17.215,0.264552,192.2518,-20.63466,9
3021090021508,55411.419414,0.656368710741,17.3685,0.151,0.154788,248,17.215,0.264552,192.2518,-20.63466,9
3021090021508,55247.676717,0.805004263879,17.1614,0.176,0.154788,248,17.215,0.264552,192.2518,-20.63466,9
3021090021508,55216.673278,0.508863736177,17.1189,0.159,0.154788,248,17.215,0.264552,192.2518,-20.63466,9
3021090021508,55216.700956,0.687676047208,17.3771,0.178,0.154788,248,17.215,0.264552,192.2518,-20.63466,9
3021090021508,55361.497917,0.141076827655,17.1181,0.115,0.154788,248,17.215,0.264552,192.2518,-20.63466,9
3021090021508,55266.692515,0.655599917285,17.2281,0.126,0.154788,248,17.215,0.264552,192.2518,-20.63466,9
3021090021508,55272.611723,0.896342093707,17.2805,0.175,0.154788,248,17.215,0.264552,192.2518,-20.63466,9
3021090021508,55321.530186,0.931583843718,17.2688,0.125,0.154788,248,17.215,0.264552,192.2518,-20.63466,9
3021090021508,55321.572841,0.207154301344,17.1351,0.119,0.154788,248,17.215,0.264552,192.2518,-20.63466,9
3021090021508,55330.536437,0.116010285041,17.1505,0.121,0.154788,248,17.215,0.264552,192.2518,-20.63466,9
3021090021508,55330.579066,0.391412770958,16.9821,0.115,0.154788,248,17.215,0.264552,192.2518,-20.63466,9
3021090021508,55675.560313,0.125209964579,17.0515,0.130,0.154788,248,17.215,0.264552,192.2518,-20.63466,9
3021090021508,55675.596030,0.355957826192,17.2378,0.139,0.154788,248,17.215,0.264552,192.2518,-20.63466,9
3021090021508,55567.703874,0.324172416411,17.1157,0.131,0.154788,248,17.215,0.264552,192.2518,-20.63466,9
3021090021508,55567.730424,0.49569734087,17.3674,0.147,0.154788,248,17.215,0.264552,192.2518,-20.63466,9
3021090021508,55715.458425,0.884932940477,17.1428,0.118,0.154788,248,17.215,0.264552,192.2518,-20.63466,9
3021090021508,55715.474686,0.989986303844,17.1221,0.117,0.154788,248,17.215,0.264552,192.2518,-20.63466,9
3021090021508,55715.491072,0.0958472232451,17.0226,0.114,0.154788,248,17.215,0.264552,192.2518,-20.63466,9
3021090021508,55715.507459,0.201714603172,17.0432,0.118,0.154788,248,17.215,0.264552,192.2518,-20.63466,9
3021090021508,55646.654605,0.381353851699,17.1142,0.158,0.154788,248,17.215,0.264552,192.2518,-20.63466,9
3021090021508,55646.685997,0.58416027081,17.2183,0.166,0.154788,248,17.215,0.264552,192.2518,-20.63466,9
3021090021508,55686.507723,0.850395379472,17.241,0.119,0.154788,248,17.215,0.264552,192.2518,-20.63466,9
3021090021508,55686.552630,0.140514768544,17.1662,0.116,0.154788,248,17.215,0.264552,192.2518,-20.63466,9
3021090021508,54949.583400,0.98829366616,17.0334,0.105,0.154788,248,17.215,0.264552,192.2518,-20.63466,9
3021090021508,54949.592210,0.0452102230047,17.0843,0.178,0.154788,248,17.215,0.264552,192.2518,-20.63466,9
3021090021508,54949.601041,0.102262449276,17.0729,0.111,0.154788,248,17.215,0.264552,192.2518,-20.63466,9
3021090021508,54949.609896,0.159469726321,17.5594,0.444,0.154788,248,17.215,0.264552,192.2518,-20.63466,9
3021090021508,54949.623666,0.248430110863,16.779,0.124,0.154788,248,17.215,0.264552,192.2518,-20.63466,9
3021090021508,54949.650175,0.419690156879,17.0555,0.106,0.154788,248,17.215,0.264552,192.2518,-20.63466,9
3021090021508,54949.568557,0.892401219695,16.7161,0.116,0.154788,248,17.215,0.264552,192.2518,-20.63466,9
3021090021508,54949.583400,0.98829366616,17.0334,0.105,0.154788,248,17.215,0.264552,192.2518,-20.63466,9
3021090021508,54949.601041,0.102262449276,17.0729,0.111,0.154788,248,17.215,0.264552,192.2518,-20.63466,9
3021090021508,54949.650175,0.419690156879,17.0555,0.106,0.154788,248,17.215,0.264552,192.2518,-20.63466,9
3021090021508,55745.438389,0.568965294457,17.2685,0.126,0.154788,248,17.215,0.264552,192.2518,-20.63466,9
3021090021508,55745.452397,0.659463265853,17.2877,0.126,0.154788,248,17.215,0.264552,192.2518,-20.63466,9
3021090021508,55745.466571,0.751033671841,17.4024,0.132,0.154788,248,17.215,0.264552,192.2518,-20.63466,9
3021090021508,55745.480782,0.842843114398,17.2067,0.123,0.154788,248,17.215,0.264552,192.2518,-20.63466,9
3021090021508,55776.380294,0.467568545369,17.3977,0.139,0.154788,248,17.215,0.264552,192.2518,-20.63466,9
3021090021508,55776.385550,0.501524665975,17.2539,0.131,0.154788,248,17.215,0.264552,192.2518,-20.63466,9
3021090021508,55776.390826,0.535609995597,17.2634,0.133,0.154788,248,17.215,0.264552,192.2518,-20.63466,9
3021090021508,55776.396227,0.57050288131,17.31,0.137,0.154788,248,17.215,0.264552,192.2518,-20.63466,9
3021090021508,55929.679075,0.846544951783,17.429,0.196,0.154788,248,17.215,0.264552,192.2518,-20.63466,9
3021090021508,55929.690609,0.921059772023,16.9608,0.153,0.154788,248,17.215,0.264552,192.2518,-20.63466,9
3021090021508,55929.709762,0.0447967542568,17.2265,0.170,0.154788,248,17.215,0.264552,192.2518,-20.63466,9
3021090021508,55929.721459,0.120364627743,17.2732,0.173,0.154788,248,17.215,0.264552,192.2518,-20.63466,9
3021090021508,56030.574945,0.679180556617,17.2974,0.116,0.154788,248,17.215,0.264552,192.2518,-20.63466,9
3021090021508,56030.585516,0.747473964351,17.2139,0.113,0.154788,248,17.215,0.264552,192.2518,-20.63466,9
3021090021508,56030.596160,0.816238984931,17.2562,0.115,0.154788,248,17.215,0.264552,192.2518,-20.63466,9
3021090021508,56030.606788,0.884900638252,17.2065,0.113,0.154788,248,17.215,0.264552,192.2518,-20.63466,9
3021090021508,56088.438143,0.501427759242,17.2714,0.118,0.154788,248,17.215,0.264552,192.2518,-20.63466,9
3021090021508,56088.448688,0.569553195324,17.3731,0.123,0.154788,248,17.215,0.264552,192.2518,-20.63466,9
3021090021508,56088.459266,0.63789182622,17.2769,0.118,0.154788,248,17.215,0.264552,192.2518,-20.63466,9
3021090021508,56088.469816,0.706049564527,17.3061,0.120,0.154788,248,17.215,0.264552,192.2518,-20.63466,9
3021090021508,56150.391247,0.746304623084,17.2897,0.128,0.154788,248,17.215,0.264552,192.2518,-20.63466,9
3021090021508,56150.398382,0.792399927625,17.2886,0.129,0.154788,248,17.215,0.264552,192.2518,-20.63466,9
3021090021508,56150.405689,0.839606429392,17.2653,0.129,0.154788,248,17.215,0.264552,192.2518,-20.63466,9
3021090021508,56150.412995,0.886806470749,17.1424,0.123,0.154788,248,17.215,0.264552,192.2518,-20.63466,9
3021090021508,56294.688688,0.972581853857,17.0414,0.109,0.154788,248,17.215,0.264552,192.2518,-20.63466,9
3021090021508,56294.700688,0.0501072434126,16.8912,0.103,0.154788,248,17.215,0.264552,192.2518,-20.63466,9
3021090021508,56294.712795,0.128323901037,17.2155,0.114,0.154788,248,17.215,0.264552,192.2518,-20.63466,9
3021090021508,56294.724942,0.206798976636,17.0445,0.107,0.154788,248,17.215,0.264552,192.2518,-20.63466,9
3021090021508,56356.753548,0.939452670747,17.2173,0.126,0.154788,248,17.215,0.264552,192.2518,-20.63466,9
3021090021508,56356.761151,0.988571465481,17.1379,0.123,0.154788,248,17.215,0.264552,192.2518,-20.63466,9
3021090021508,56356.768376,0.0352482104208,17.2825,0.131,0.154788,248,17.215,0.264552,192.2518,-20.63466,9
3021090021508,56356.775597,0.0818991136039,17.0619,0.119,0.154788,248,17.215,0.264552,192.2518,-20.63466,9
3021090021508,56383.653358,0.724306793825,17.2699,0.124,0.154788,248,17.215,0.264552,192.2518,-20.63466,9
3021090021508,56383.665257,0.801179678005,17.2314,0.122,0.154788,248,17.215,0.264552,192.2518,-20.63466,9
3021090021508,56383.677081,0.877568028518,17.1371,0.118,0.154788,248,17.215,0.264552,192.2518,-20.63466,9
3021090021508,56383.688956,0.954285861924,17.1746,0.120,0.154788,248,17.215,0.264552,192.2518,-20.63466,9
3021090021508,56394.533142,0.012597875786,17.1922,0.119,0.154788,248,17.215,0.264552,192.2518,-20.63466,9
3021090021508,56410.625636,0.977336744429,17.1779,0.110,0.154788,248,17.215,0.264552,192.2518,-20.63466,9
3021090021508,56410.637377,0.0531888776459,17.1933,0.111,0.154788,248,17.215,0.264552,192.2518,-20.63466,9
3021090021508,56410.649009,0.128336821974,17.056,0.106,0.154788,248,17.215,0.264552,192.2518,-20.63466,9
3021090021508,56410.660452,0.202263741347,17.0978,0.107,0.154788,248,17.215,0.264552,192.2518,-20.63466,9
3021090021508,56416.535235,0.156000465155,16.9858,0.115,0.154788,248,17.215,0.264552,192.2518,-20.63466,9
3021090021508,56416.547193,0.233254515799,17.1431,0.117,0.154788,248,17.215,0.264552,192.2518,-20.63466,9
3021090021508,56416.559155,0.310534408374,17.1647,0.119,0.154788,248,17.215,0.264552,192.2518,-20.63466,9
3021090021508,56416.571356,0.389358348155,17.2429,0.122,0.154788,248,17.215,0.264552,192.2518,-20.63466,9
3021090021508,56426.535501,0.762210248853,17.2387,0.109,0.154788,248,17.215,0.264552,192.2518,-20.63466,9
3021090021508,56447.410817,0.626127348398,17.3088,0.131,0.154788,248,17.215,0.264552,192.2518,-20.63466,9
3021090021508,56447.419983,0.685343825084,17.3658,0.136,0.154788,248,17.215,0.264552,192.2518,-20.63466,9
3021090021508,56447.428957,0.743319895584,17.3627,0.139,0.154788,248,17.215,0.264552,192.2518,-20.63466,9
3021090021508,56447.437814,0.800540093507,17.2306,0.127,0.154788,248,17.215,0.264552,192.2518,-20.63466,9
3021090021508,56479.456492,0.655580535938,17.2694,0.124,0.154788,248,17.215,0.264552,192.2518,-20.63466,9
3021090021508,56479.466088,0.71757500578,17.231,0.122,0.154788,248,17.215,0.264552,192.2518,-20.63466,9
3021090021508,56479.475537,0.778619789635,17.3967,0.131,0.154788,248,17.215,0.264552,192.2518,-20.63466,9
3021090021508,56479.485033,0.839968214568,17.2044,0.121,0.154788,248,17.215,0.264552,192.2518,-20.63466,9
