ID,MjD,Phase,Mag,Mag_err,Period,Npts,V,Amp,ra,dec,Type
3023095022149,53600.3653148149,0.253455071303,13.382891,0.060,0.156962,241,13.540999999999999,0.271284,205.42861000000002,-23.036270000000002,9
3023095022149,53600.372427581,0.29877028201,13.432013,0.060,0.156962,241,13.540999999999999,0.271284,205.42861000000002,-23.036270000000002,9
3023095022149,53600.379575764,0.34431113262,13.447584,0.060,0.156962,241,13.540999999999999,0.271284,205.42861000000002,-23.036270000000002,9
3023095022149,53600.3866945488,0.389664688264,13.494346,0.061,0.156962,241,13.540999999999999,0.271284,205.42861000000002,-23.036270000000002,9
3023095022149,53578.4005666669,0.316730590246,13.443379,0.058,0.156962,241,13.540999999999999,0.271284,205.42861000000002,-23.036270000000002,9
3023095022149,53578.4120568056,0.38993390504,13.497634,0.059,0.156962,241,13.540999999999999,0.271284,205.42861000000002,-23.036270000000002,9
3023095022149,53578.4235112267,0.462909664144,13.599307,0.059,0.156962,241,13.540999999999999,0.271284,205.42861000000002,-23.036270000000002,9
3023095022149,53578.4377869442,0.553859814536,13.630008,0.059,0.156962,241,13.540999999999999,0.271284,205.42861000000002,-23.036270000000002,9
3023095022149,53834.5456783795,0.209237774136,13.388617,0.053,0.156962,241,13.540999999999999,0.271284,205.42861000000002,-23.036270000000002,9
3023095022149,53834.5612379168,0.30836710037,13.483525,0.053,0.156962,241,13.540999999999999,0.271284,205.42861000000002,-23.036270000000002,9
3023095022149,53834.576809919,0.407575840072,13.562246,0.053,0.156962,241,13.540999999999999,0.271284,205.42861000000002,-23.036270000000002,9
3023095022149,53834.5921441899,0.505270001013,13.624888,0.053,0.156962,241,13.540999999999999,0.271284,205.42861000000002,-23.036270000000002,9
3023095022149,53846.6690096182,0.446602478332,13.590649,0.059,0.156962,241,13.540999999999999,0.271284,205.42861000000002,-23.036270000000002,9
3023095022149,53846.6794253124,0.512960540829,13.605506,0.059,0.156962,241,13.540999999999999,0.271284,205.42861000000002,-23.036270000000002,9
3023095022149,53846.6899002317,0.579695924534,13.607231,0.059,0.156962,241,13.540999999999999,0.271284,205.42861000000002,-23.036270000000002,9
3023095022149,53846.7003325463,0.646159875032,13.59879,0.059,0.156962,241,13.540999999999999,0.271284,205.42861000000002,-23.036270000000002,9
3023095022149,53854.6428529859,0.247709546878,13.428038,0.058,0.156962,241,13.540999999999999,0.271284,205.42861000000002,-23.036270000000002,9
3023095022149,53854.6542208681,0.320133969362,13.460223,0.058,0.156962,241,13.540999999999999,0.271284,205.42861000000002,-23.036270000000002,9
3023095022149,53854.6655436113,0.392270812707,13.527733,0.059,0.156962,241,13.540999999999999,0.271284,205.42861000000002,-23.036270000000002,9
3023095022149,53854.6768586688,0.46435869066,13.62031,0.060,0.156962,241,13.540999999999999,0.271284,205.42861000000002,-23.036270000000002,9
3023095022149,53963.4160596412,0.238412107399,13.449304,0.057,0.156962,241,13.540999999999999,0.271284,205.42861000000002,-23.036270000000002,9
3023095022149,53963.4285470257,0.317968844087,13.449679,0.057,0.156962,241,13.540999999999999,0.271284,205.42861000000002,-23.036270000000002,9
3023095022149,53963.4410145138,0.397398821427,13.510378,0.058,0.156962,241,13.540999999999999,0.271284,205.42861000000002,-23.036270000000002,9
3023095022149,53963.4535058448,0.476980701089,13.612367,0.058,0.156962,241,13.540999999999999,0.271284,205.42861000000002,-23.036270000000002,9
3023095022149,54096.7282343285,0.566113635781,13.654264,0.063,0.156962,241,13.540999999999999,0.271284,205.42861000000002,-23.036270000000002,9
3023095022149,54096.7299840508,0.577261061931,13.667071,0.063,0.156962,241,13.540999999999999,0.271284,205.42861000000002,-23.036270000000002,9
3023095022149,54096.7317488195,0.588504348183,13.675574,0.063,0.156962,241,13.540999999999999,0.271284,205.42861000000002,-23.036270000000002,9
3023095022149,54096.7335531597,0.599999743281,13.655088,0.063,0.156962,241,13.540999999999999,0.271284,205.42861000000002,-23.036270000000002,9
3023095022149,53772.6491702545,0.868517567986,13.446407,0.061,0.156962,241,13.540999999999999,0.271284,205.42861000000002,-23.036270000000002,9
3023095022149,53772.6616716549,0.948163599533,13.409774,0.060,0.156962,241,13.540999999999999,0.271284,205.42861000000002,-23.036270000000002,9
3023095022149,53772.6738462152,0.0257273429306,13.388636,0.060,0.156962,241,13.540999999999999,0.271284,205.42861000000002,-23.036270000000002,9
3023095022149,53772.6858582061,0.102255361853,13.378151,0.060,0.156962,241,13.540999999999999,0.271284,205.42861000000002,-23.036270000000002,9
3023095022149,53737.7038432752,0.232930742495,13.418879,0.061,0.156962,241,13.540999999999999,0.271284,205.42861000000002,-23.036270000000002,9
3023095022149,53737.7097922686,0.270831593662,13.454874,0.061,0.156962,241,13.540999999999999,0.271284,205.42861000000002,-23.036270000000002,9
3023095022149,53737.7157987153,0.309098477999,13.486285,0.062,0.156962,241,13.540999999999999,0.271284,205.42861000000002,-23.036270000000002,9
3023095022149,53737.7217576966,0.34706296178,13.468607,0.061,0.156962,241,13.540999999999999,0.271284,205.42861000000002,-23.036270000000002,9
3023095022149,53938.4362958797,0.0931173131103,13.368539,0.059,0.156962,241,13.540999999999999,0.271284,205.42861000000002,-23.036270000000002,9
3023095022149,53938.4452038544,0.149869741697,13.368904,0.059,0.156962,241,13.540999999999999,0.271284,205.42861000000002,-23.036270000000002,9
3023095022149,53938.454130347,0.206740147318,13.380985,0.060,0.156962,241,13.540999999999999,0.271284,205.42861000000002,-23.036270000000002,9
3023095022149,53938.4630781367,0.263746236044,13.392368,0.060,0.156962,241,13.540999999999999,0.271284,205.42861000000002,-23.036270000000002,9
3023095022149,53914.4717658331,0.415844810253,13.556367,0.060,0.156962,241,13.540999999999999,0.271284,205.42861000000002,-23.036270000000002,9
3023095022149,53914.4802725233,0.47004066786,13.595337,0.061,0.156962,241,13.540999999999999,0.271284,205.42861000000002,-23.036270000000002,9
3023095022149,53914.488780162,0.524242568295,13.627622,0.061,0.156962,241,13.540999999999999,0.271284,205.42861000000002,-23.036270000000002,9
3023095022149,53914.4972905206,0.578461797151,13.62402,0.061,0.156962,241,13.540999999999999,0.271284,205.42861000000002,-23.036270000000002,9
3023095022149,53805.6740386227,0.268922558986,13.424448,0.058,0.156962,241,13.540999999999999,0.271284,205.42861000000002,-23.036270000000002,9
3023095022149,53805.6825753242,0.323309617641,13.453516,0.058,0.156962,241,13.540999999999999,0.271284,205.42861000000002,-23.036270000000002,9
3023095022149,53805.6910952429,0.377589753596,13.515563,0.059,0.156962,241,13.540999999999999,0.271284,205.42861000000002,-23.036270000000002,9
3023095022149,53805.6996037845,0.431797406403,13.588225,0.059,0.156962,241,13.540999999999999,0.271284,205.42861000000002,-23.036270000000002,9
3023095022149,53821.639864016,0.98669751914,13.376802,0.058,0.156962,241,13.540999999999999,0.271284,205.42861000000002,-23.036270000000002,9
3023095022149,53821.6484487268,0.04139044357,13.367721,0.058,0.156962,241,13.540999999999999,0.271284,205.42861000000002,-23.036270000000002,9
3023095022149,53821.6569567245,0.095594631217,13.360785,0.058,0.156962,241,13.540999999999999,0.271284,205.42861000000002,-23.036270000000002,9
3023095022149,53821.665484572,0.149925281294,13.366059,0.058,0.156962,241,13.540999999999999,0.271284,205.42861000000002,-23.036270000000002,9
3023095022149,53871.5218518634,0.78328425606,13.465959,0.059,0.156962,241,13.540999999999999,0.271284,205.42861000000002,-23.036270000000002,9
3023095022149,53871.5303640973,0.837515432446,13.450123,0.058,0.156962,241,13.540999999999999,0.271284,205.42861000000002,-23.036270000000002,9
3023095022149,53871.5388865393,0.891811644251,13.422915,0.058,0.156962,241,13.540999999999999,0.271284,205.42861000000002,-23.036270000000002,9
3023095022149,53871.5474403702,0.946307833772,13.389696,0.058,0.156962,241,13.540999999999999,0.271284,205.42861000000002,-23.036270000000002,9
3023095022149,54201.6306372224,0.896046319511,13.417982,0.057,0.156962,241,13.540999999999999,0.271284,205.42861000000002,-23.036270000000002,9
3023095022149,54201.6437266087,0.979438390874,13.379023,0.057,0.156962,241,13.540999999999999,0.271284,205.42861000000002,-23.036270000000002,9
3023095022149,54201.6568318517,0.0629314847174,13.378099,0.057,0.156962,241,13.540999999999999,0.271284,205.42861000000002,-23.036270000000002,9
3023095022149,54201.6699465858,0.146485046076,13.363756,0.057,0.156962,241,13.540999999999999,0.271284,205.42861000000002,-23.036270000000002,9
3023095022149,54206.6007673262,0.560589991219,13.651774,0.062,0.156962,241,13.540999999999999,0.271284,205.42861000000002,-23.036270000000002,9
3023095022149,54206.6110867012,0.626334407076,13.649543,0.062,0.156962,241,13.540999999999999,0.271284,205.42861000000002,-23.036270000000002,9
3023095022149,54206.6214938077,0.692637757573,13.634702,0.062,0.156962,241,13.540999999999999,0.271284,205.42861000000002,-23.036270000000002,9
3023095022149,54206.6318217476,0.758436740143,13.554882,0.061,0.156962,241,13.540999999999999,0.271284,205.42861000000002,-23.036270000000002,9
3023095022149,54325.410961574,0.496627043525,13.571658,0.058,0.156962,241,13.540999999999999,0.271284,205.42861000000002,-23.036270000000002,9
3023095022149,54463.7270410184,0.704049505002,13.672726,0.066,0.156962,241,13.540999999999999,0.271284,205.42861000000002,-23.036270000000002,9
3023095022149,54463.7324178472,0.738305113337,13.660961,0.066,0.156962,241,13.540999999999999,0.271284,205.42861000000002,-23.036270000000002,9
3023095022149,54463.7377528936,0.772294527327,13.63332,0.065,0.156962,241,13.540999999999999,0.271284,205.42861000000002,-23.036270000000002,9
3023095022149,54463.743157847,0.806729316653,13.61893,0.065,0.156962,241,13.540999999999999,0.271284,205.42861000000002,-23.036270000000002,9
3023095022149,54154.7042803587,0.92969227396,13.434212,0.058,0.156962,241,13.540999999999999,0.271284,205.42861000000002,-23.036270000000002,9
3023095022149,54154.7194250347,0.0261785317562,13.385634,0.057,0.156962,241,13.540999999999999,0.271284,205.42861000000002,-23.036270000000002,9
3023095022149,54154.7332592476,0.114315870102,13.387921,0.057,0.156962,241,13.540999999999999,0.271284,205.42861000000002,-23.036270000000002,9
3023095022149,54154.7470765626,0.202345552447,13.409991,0.057,0.156962,241,13.540999999999999,0.271284,205.42861000000002,-23.036270000000002,9
3023095022149,54300.4194716206,0.276625046798,13.440158,0.057,0.156962,241,13.540999999999999,0.271284,205.42861000000002,-23.036270000000002,9
3023095022149,54300.4261064814,0.318895537755,13.454517,0.057,0.156962,241,13.540999999999999,0.271284,205.42861000000002,-23.036270000000002,9
3023095022149,54300.4420768865,0.420642489917,13.539459,0.058,0.156962,241,13.540999999999999,0.271284,205.42861000000002,-23.036270000000002,9
3023095022149,54300.4486326967,0.462409351952,13.547786,0.058,0.156962,241,13.540999999999999,0.271284,205.42861000000002,-23.036270000000002,9
3023095022149,54266.4947226389,0.143108770892,13.36005,0.059,0.156962,241,13.540999999999999,0.271284,205.42861000000002,-23.036270000000002,9
3023095022149,54266.504143831,0.203130891547,13.365751,0.059,0.156962,241,13.540999999999999,0.271284,205.42861000000002,-23.036270000000002,9
3023095022149,54266.5134997453,0.262737129407,13.412087,0.059,0.156962,241,13.540999999999999,0.271284,205.42861000000002,-23.036270000000002,9
3023095022149,54266.5230179282,0.323377175373,13.416196,0.060,0.156962,241,13.540999999999999,0.271284,205.42861000000002,-23.036270000000002,9
3023095022149,54160.6754036459,0.971532255586,13.403568,0.061,0.156962,241,13.540999999999999,0.271284,205.42861000000002,-23.036270000000002,9
3023095022149,54160.6854240626,0.0353720174171,13.397927,0.060,0.156962,241,13.540999999999999,0.271284,205.42861000000002,-23.036270000000002,9
3023095022149,54160.6954328936,0.0991379671614,13.395544,0.060,0.156962,241,13.540999999999999,0.271284,205.42861000000002,-23.036270000000002,9
3023095022149,54160.7050496877,0.160406262032,13.382466,0.060,0.156962,241,13.540999999999999,0.271284,205.42861000000002,-23.036270000000002,9
3023095022149,54170.7311135993,0.0361463239533,13.392111,0.060,0.156962,241,13.540999999999999,0.271284,205.42861000000002,-23.036270000000002,9
3023095022149,54170.7541298728,0.182782283635,13.364467,0.060,0.156962,241,13.540999999999999,0.271284,205.42861000000002,-23.036270000000002,9
3023095022149,54170.7710835302,0.290793505439,13.415417,0.060,0.156962,241,13.540999999999999,0.271284,205.42861000000002,-23.036270000000002,9
3023095022149,54170.781984294,0.360241931165,13.472171,0.061,0.156962,241,13.540999999999999,0.271284,205.42861000000002,-23.036270000000002,9
3023095022149,54187.5103278008,0.935995978711,13.400428,0.060,0.156962,241,13.540999999999999,0.271284,205.42861000000002,-23.036270000000002,9
3023095022149,54187.5197197107,0.995831543289,13.363931,0.060,0.156962,241,13.540999999999999,0.271284,205.42861000000002,-23.036270000000002,9
3023095022149,54187.5290955325,0.0555646112189,13.355072,0.060,0.156962,241,13.540999999999999,0.271284,205.42861000000002,-23.036270000000002,9
3023095022149,54187.5384739006,0.11531390145,13.354977,0.060,0.156962,241,13.540999999999999,0.271284,205.42861000000002,-23.036270000000002,9
3023095022149,54233.5722882293,0.395307331055,13.566539,0.062,0.156962,241,13.540999999999999,0.271284,205.42861000000002,-23.036270000000002,9
3023095022149,54233.5816592939,0.455010091013,13.610065,0.062,0.156962,241,13.540999999999999,0.271284,205.42861000000002,-23.036270000000002,9
3023095022149,54233.5910909145,0.515098651289,13.663622,0.063,0.156962,241,13.540999999999999,0.271284,205.42861000000002,-23.036270000000002,9
3023095022149,54233.6005830557,0.575572786387,13.637933,0.063,0.156962,241,13.540999999999999,0.271284,205.42861000000002,-23.036270000000002,9
3023095022149,54503.7251836342,0.53096694866,13.672399,0.062,0.156962,241,13.540999999999999,0.271284,205.42861000000002,-23.036270000000002,9
3023095022149,54503.7345250809,0.590481013933,13.686053,0.062,0.156962,241,13.540999999999999,0.271284,205.42861000000002,-23.036270000000002,9
3023095022149,54503.7452876504,0.6590490081,13.685672,0.063,0.156962,241,13.540999999999999,0.271284,205.42861000000002,-23.036270000000002,9
3023095022149,54503.7544191318,0.717225390894,13.680732,0.062,0.156962,241,13.540999999999999,0.271284,205.42861000000002,-23.036270000000002,9
3023095022149,54525.7332740044,0.743823373807,13.653719,0.061,0.156962,241,13.540999999999999,0.271284,205.42861000000002,-23.036270000000002,9
3023095022149,54525.7448000233,0.817255280272,13.587601,0.060,0.156962,241,13.540999999999999,0.271284,205.42861000000002,-23.036270000000002,9
3023095022149,54525.7562574074,0.890249916585,13.520502,0.060,0.156962,241,13.540999999999999,0.271284,205.42861000000002,-23.036270000000002,9
3023095022149,54525.767567338,0.962305131194,13.483929,0.059,0.156962,241,13.540999999999999,0.271284,205.42861000000002,-23.036270000000002,9
3023095022149,54673.4035558567,0.5465772397,13.63308,0.059,0.156962,241,13.540999999999999,0.271284,205.42861000000002,-23.036270000000002,9
3023095022149,54673.4112887962,0.595843555755,13.672082,0.060,0.156962,241,13.540999999999999,0.271284,205.42861000000002,-23.036270000000002,9
3023095022149,54673.4190207987,0.645103902207,13.70619,0.060,0.156962,241,13.540999999999999,0.271284,205.42861000000002,-23.036270000000002,9
3023095022149,54673.4267696991,0.694471904717,13.655019,0.059,0.156962,241,13.540999999999999,0.271284,205.42861000000002,-23.036270000000002,9
3023095022149,54623.5264814352,0.781293785782,13.600427,0.056,0.156962,241,13.540999999999999,0.271284,205.42861000000002,-23.036270000000002,9
3023095022149,54623.5329378243,0.822427239094,13.57887,0.056,0.156962,241,13.540999999999999,0.271284,205.42861000000002,-23.036270000000002,9
3023095022149,54623.5393912038,0.863541518338,13.516117,0.056,0.156962,241,13.540999999999999,0.271284,205.42861000000002,-23.036270000000002,9
3023095022149,54623.5458553354,0.90472429886,13.510211,0.056,0.156962,241,13.540999999999999,0.271284,205.42861000000002,-23.036270000000002,9
3023095022149,54643.4442059952,0.67649491725,13.63547,0.056,0.156962,241,13.540999999999999,0.271284,205.42861000000002,-23.036270000000002,9
3023095022149,54643.4550545602,0.745610786078,13.644713,0.056,0.156962,241,13.540999999999999,0.271284,205.42861000000002,-23.036270000000002,9
3023095022149,54643.4658438657,0.814349114429,13.585413,0.056,0.156962,241,13.540999999999999,0.271284,205.42861000000002,-23.036270000000002,9
3023095022149,54643.4766527317,0.883212062181,13.506654,0.056,0.156962,241,13.540999999999999,0.271284,205.42861000000002,-23.036270000000002,9
3023095022149,54536.7212731248,0.748022609332,13.642788,0.061,0.156962,241,13.540999999999999,0.271284,205.42861000000002,-23.036270000000002,9
3023095022149,54536.7316155323,0.81391376449,13.569405,0.060,0.156962,241,13.540999999999999,0.271284,205.42861000000002,-23.036270000000002,9
3023095022149,54536.742020324,0.880202367494,13.507496,0.060,0.156962,241,13.540999999999999,0.271284,205.42861000000002,-23.036270000000002,9
3023095022149,54536.7524071873,0.94637674914,13.471225,0.060,0.156962,241,13.540999999999999,0.271284,205.42861000000002,-23.036270000000002,9
3023095022149,54593.6018274655,0.132257906371,13.408001,0.055,0.156962,241,13.540999999999999,0.271284,205.42861000000002,-23.036270000000002,9
3023095022149,54593.6138945948,0.209137210273,13.394933,0.055,0.156962,241,13.540999999999999,0.271284,205.42861000000002,-23.036270000000002,9
3023095022149,54593.6259432058,0.285898534697,13.453864,0.055,0.156962,241,13.540999999999999,0.271284,205.42861000000002,-23.036270000000002,9
3023095022149,54593.6378970137,0.362055871519,13.478746,0.055,0.156962,241,13.540999999999999,0.271284,205.42861000000002,-23.036270000000002,9
3023095022149,54600.5112538887,0.151997863839,13.401046,0.055,0.156962,241,13.540999999999999,0.271284,205.42861000000002,-23.036270000000002,9
3023095022149,54600.522336713,0.222606191353,13.421475,0.055,0.156962,241,13.540999999999999,0.271284,205.42861000000002,-23.036270000000002,9
3023095022149,54600.5334457061,0.293381239462,13.464418,0.056,0.156962,241,13.540999999999999,0.271284,205.42861000000002,-23.036270000000002,9
3023095022149,54600.5444616322,0.363563360588,13.48358,0.056,0.156962,241,13.540999999999999,0.271284,205.42861000000002,-23.036270000000002,9
3023095022149,54936.685372743,0.906810202461,13.54725,0.059,0.156962,241,13.540999999999999,0.271284,205.42861000000002,-23.036270000000002,9
3023095022149,54936.6955513774,0.971657964401,13.500674,0.058,0.156962,241,13.540999999999999,0.271284,205.42861000000002,-23.036270000000002,9
3023095022149,54936.7057282754,0.0364946637419,13.473824,0.058,0.156962,241,13.540999999999999,0.271284,205.42861000000002,-23.036270000000002,9
3023095022149,54936.7160101507,0.102000170154,13.433137,0.058,0.156962,241,13.540999999999999,0.271284,205.42861000000002,-23.036270000000002,9
3023095022149,54951.6553724883,0.280211059377,13.488643,0.056,0.156962,241,13.540999999999999,0.271284,205.42861000000002,-23.036270000000002,9
3023095022149,54951.6634878358,0.331913684902,13.503213,0.056,0.156962,241,13.540999999999999,0.271284,205.42861000000002,-23.036270000000002,9
3023095022149,54951.6715905787,0.38353600679,13.575423,0.060,0.156962,241,13.540999999999999,0.271284,205.42861000000002,-23.036270000000002,9
3023095022149,54951.6797473729,0.435502687935,13.577523,0.058,0.156962,241,13.540999999999999,0.271284,205.42861000000002,-23.036270000000002,9
3023095022149,54869.6139493748,0.596866597014,13.711612,0.066,0.156962,241,13.540999999999999,0.271284,205.42861000000002,-23.036270000000002,9
3023095022149,54869.625780486,0.672242237022,13.711082,0.066,0.156962,241,13.540999999999999,0.271284,205.42861000000002,-23.036270000000002,9
3023095022149,54869.6377031715,0.748201293987,13.694595,0.065,0.156962,241,13.540999999999999,0.271284,205.42861000000002,-23.036270000000002,9
3023095022149,54869.6497737733,0.82510272105,13.619341,0.065,0.156962,241,13.540999999999999,0.271284,205.42861000000002,-23.036270000000002,9
3023095022149,54890.6754469328,0.779009778169,13.703462,0.060,0.156962,241,13.540999999999999,0.271284,205.42861000000002,-23.036270000000002,9
3023095022149,54890.6830461804,0.827424347284,13.67978,0.060,0.156962,241,13.540999999999999,0.271284,205.42861000000002,-23.036270000000002,9
3023095022149,54890.6905992475,0.875544701936,13.587668,0.059,0.156962,241,13.540999999999999,0.271284,205.42861000000002,-23.036270000000002,9
3023095022149,54890.6982144678,0.924061032594,13.55841,0.059,0.156962,241,13.540999999999999,0.271284,205.42861000000002,-23.036270000000002,9
3023095022149,54845.6910485765,0.184812734951,13.450012,0.056,0.156962,241,13.540999999999999,0.271284,205.42861000000002,-23.036270000000002,9
3023095022149,54845.7023065393,0.256536864385,13.458939,0.056,0.156962,241,13.540999999999999,0.271284,205.42861000000002,-23.036270000000002,9
3023095022149,54845.7136464352,0.328782986966,13.483008,0.056,0.156962,241,13.540999999999999,0.271284,205.42861000000002,-23.036270000000002,9
3023095022149,54845.7249478009,0.400783634919,13.527944,0.056,0.156962,241,13.540999999999999,0.271284,205.42861000000002,-23.036270000000002,9
3023095022149,55030.4759708333,0.443781509588,13.571726,0.061,0.156962,241,13.540999999999999,0.271284,205.42861000000002,-23.036270000000002,9
3023095022149,55030.4835980904,0.492374526337,13.631473,0.061,0.156962,241,13.540999999999999,0.271284,205.42861000000002,-23.036270000000002,9
3023095022149,55030.4911842706,0.540705843479,13.681553,0.062,0.156962,241,13.540999999999999,0.271284,205.42861000000002,-23.036270000000002,9
3023095022149,55030.4988137266,0.589312869357,13.720648,0.062,0.156962,241,13.540999999999999,0.271284,205.42861000000002,-23.036270000000002,9
3023095022149,54998.5431296411,0.000647552253213,13.478697,0.057,0.156962,241,13.540999999999999,0.271284,205.42861000000002,-23.036270000000002,9
3023095022149,54998.5539203356,0.0693947299733,13.444248,0.056,0.156962,241,13.540999999999999,0.271284,205.42861000000002,-23.036270000000002,9
3023095022149,54998.5646235184,0.137584373355,13.413219,0.056,0.156962,241,13.540999999999999,0.271284,205.42861000000002,-23.036270000000002,9
3023095022149,54998.5753647918,0.206016690703,13.432054,0.057,0.156962,241,13.540999999999999,0.271284,205.42861000000002,-23.036270000000002,9
3023095022149,54905.7809147569,0.0154735343531,13.483586,0.063,0.156962,241,13.540999999999999,0.271284,205.42861000000002,-23.036270000000002,9
3023095022149,54905.7896876619,0.0713654381107,13.467802,0.063,0.156962,241,13.540999999999999,0.271284,205.42861000000002,-23.036270000000002,9
3023095022149,54905.7985251504,0.127668801404,13.448319,0.062,0.156962,241,13.540999999999999,0.271284,205.42861000000002,-23.036270000000002,9
3023095022149,54905.8071901738,0.182873394864,13.467708,0.062,0.156962,241,13.540999999999999,0.271284,205.42861000000002,-23.036270000000002,9
3023095022149,54917.7156000117,0.0509805666516,13.452541,0.055,0.156962,241,13.540999999999999,0.271284,205.42861000000002,-23.036270000000002,9
3023095022149,54917.7207813425,0.0839906633482,13.443528,0.055,0.156962,241,13.540999999999999,0.271284,205.42861000000002,-23.036270000000002,9
3023095022149,54917.7259843171,0.117138652015,13.475764,0.055,0.156962,241,13.540999999999999,0.271284,205.42861000000002,-23.036270000000002,9
3023095022149,54917.7312177316,0.150480572367,13.443238,0.055,0.156962,241,13.540999999999999,0.271284,205.42861000000002,-23.036270000000002,9
3023095022149,54964.5264724076,0.281586674508,13.490176,0.059,0.156962,241,13.540999999999999,0.271284,205.42861000000002,-23.036270000000002,9
3023095022149,54964.5367651621,0.347161491984,13.508254,0.059,0.156962,241,13.540999999999999,0.271284,205.42861000000002,-23.036270000000002,9
3023095022149,54964.5472747108,0.414117498498,13.566298,0.060,0.156962,241,13.540999999999999,0.271284,205.42861000000002,-23.036270000000002,9
3023095022149,54964.5576415394,0.480164239765,13.609696,0.060,0.156962,241,13.540999999999999,0.271284,205.42861000000002,-23.036270000000002,9
3023095022149,54976.4847987035,0.467710041325,13.620149,0.060,0.156962,241,13.540999999999999,0.271284,205.42861000000002,-23.036270000000002,9
3023095022149,54976.4899431133,0.500484915508,13.685079,0.061,0.156962,241,13.540999999999999,0.271284,205.42861000000002,-23.036270000000002,9
3023095022149,54976.4949942363,0.53266546235,13.701072,0.060,0.156962,241,13.540999999999999,0.271284,205.42861000000002,-23.036270000000002,9
3023095022149,54976.5001124886,0.565273687884,13.694606,0.060,0.156962,241,13.540999999999999,0.271284,205.42861000000002,-23.036270000000002,9
3023095022149,55307.5493492939,0.669622544956,13.748567,0.057,0.156962,241,13.540999999999999,0.271284,205.42861000000002,-23.036270000000002,9
3023095022149,55248.702074595,0.755473267462,13.714037,0.061,0.156962,241,13.540999999999999,0.271284,205.42861000000002,-23.036270000000002,9
3023095022149,55218.6880125,0.536821014015,13.64233,0.061,0.156962,241,13.540999999999999,0.271284,205.42861000000002,-23.036270000000002,9
3023095022149,55218.7380284375,0.855470989831,13.659747,0.061,0.156962,241,13.540999999999999,0.271284,205.42861000000002,-23.036270000000002,9
3023095022149,55400.4340009953,0.434837701498,13.561636,0.056,0.156962,241,13.540999999999999,0.271284,205.42861000000002,-23.036270000000002,9
3023095022149,55400.466356736,0.640975115006,13.728463,0.057,0.156962,241,13.540999999999999,0.271284,205.42861000000002,-23.036270000000002,9
3023095022149,55359.5152359838,0.742663726269,13.754573,0.055,0.156962,241,13.540999999999999,0.271284,205.42861000000002,-23.036270000000002,9
3023095022149,55359.5631936225,0.048200344725,13.499658,0.054,0.156962,241,13.540999999999999,0.271284,205.42861000000002,-23.036270000000002,9
3023095022149,55270.722097558,0.0443518686225,13.502958,0.057,0.156962,241,13.540999999999999,0.271284,205.42861000000002,-23.036270000000002,9
3023095022149,55325.5575811691,0.39950541599,13.572053,0.057,0.156962,241,13.540999999999999,0.271284,205.42861000000002,-23.036270000000002,9
3023095022149,55325.5972642941,0.652325366042,13.693325,0.058,0.156962,241,13.540999999999999,0.271284,205.42861000000002,-23.036270000000002,9
3023095022149,55657.641890706,0.0982703202171,13.535352,0.057,0.156962,241,13.540999999999999,0.271284,205.42861000000002,-23.036270000000002,9
3023095022149,55657.6812715163,0.349164232786,13.580925,0.058,0.156962,241,13.540999999999999,0.271284,205.42861000000002,-23.036270000000002,9
3023095022149,55676.5959068056,0.853714947589,13.684169,0.056,0.156962,241,13.540999999999999,0.271284,205.42861000000002,-23.036270000000002,9
3023095022149,55676.6437288889,0.15838794678,13.501752,0.055,0.156962,241,13.540999999999999,0.271284,205.42861000000002,-23.036270000000002,9
3023095022149,55686.5715820141,0.408430155716,13.572906,0.055,0.156962,241,13.540999999999999,0.271284,205.42861000000002,-23.036270000000002,9
3023095022149,54325.4154976273,0.525526097394,13.580301,0.061,0.156962,241,13.540999999999999,0.271284,205.42861000000002,-23.036270000000002,9
3023095022149,54325.4242082524,0.58102121792,13.628909,0.061,0.156962,241,13.540999999999999,0.271284,205.42861000000002,-23.036270000000002,9
3023095022149,54325.4327567245,0.635483266669,13.629273,0.061,0.156962,241,13.540999999999999,0.271284,205.42861000000002,-23.036270000000002,9
3023095022149,54325.4414663195,0.690971824399,13.62253,0.061,0.156962,241,13.540999999999999,0.271284,205.42861000000002,-23.036270000000002,9
3023095022149,55732.4711982985,0.833452036197,13.64058,0.081,0.156962,241,13.540999999999999,0.271284,205.42861000000002,-23.036270000000002,9
3023095022149,55732.4818441896,0.901276675868,13.588933,0.058,0.156962,241,13.540999999999999,0.271284,205.42861000000002,-23.036270000000002,9
3023095022149,55732.4924668172,0.968953104632,13.549799,0.057,0.156962,241,13.540999999999999,0.271284,205.42861000000002,-23.036270000000002,9
3023095022149,55732.5030850461,0.0366015092586,13.506252,0.057,0.156962,241,13.540999999999999,0.271284,205.42861000000002,-23.036270000000002,9
3023095022149,55762.3716549538,0.328327581228,13.501269,0.057,0.156962,241,13.540999999999999,0.271284,205.42861000000002,-23.036270000000002,9
3023095022149,55762.3804631713,0.384444459807,13.569553,0.065,0.156962,241,13.540999999999999,0.271284,205.42861000000002,-23.036270000000002,9
3023095022149,55762.3893293636,0.440930694051,13.545936,0.057,0.156962,241,13.540999999999999,0.271284,205.42861000000002,-23.036270000000002,9
3023095022149,55762.3981549423,0.49715818034,13.590537,0.058,0.156962,241,13.540999999999999,0.271284,205.42861000000002,-23.036270000000002,9
3023095022149,55795.3741460187,0.586167471774,13.676914,0.057,0.156962,241,13.540999999999999,0.271284,205.42861000000002,-23.036270000000002,9
3023095022149,55795.3811769676,0.63096142764,13.710341,0.057,0.156962,241,13.540999999999999,0.271284,205.42861000000002,-23.036270000000002,9
3023095022149,55795.388250845,0.676028879592,13.713945,0.057,0.156962,241,13.540999999999999,0.271284,205.42861000000002,-23.036270000000002,9
3023095022149,55795.3952819095,0.720823571959,13.741496,0.057,0.156962,241,13.540999999999999,0.271284,205.42861000000002,-23.036270000000002,9
3023095022149,56096.4340154979,0.62919367681,13.719104,0.058,0.156962,241,13.540999999999999,0.271284,205.42861000000002,-23.036270000000002,9
3023095022149,56096.4447095486,0.697325139889,13.657206,0.063,0.156962,241,13.540999999999999,0.271284,205.42861000000002,-23.036270000000002,9
3023095022149,56096.455279861,0.764668270072,13.693175,0.056,0.156962,241,13.540999999999999,0.271284,205.42861000000002,-23.036270000000002,9
3023095022149,56096.4658704282,0.832140442915,13.634524,0.056,0.156962,241,13.540999999999999,0.271284,205.42861000000002,-23.036270000000002,9
3023095022149,56132.3944571065,0.732044103032,13.702299,0.057,0.156962,241,13.540999999999999,0.271284,205.42861000000002,-23.036270000000002,9
3023095022149,56132.4052225812,0.800630606129,13.714707,0.057,0.156962,241,13.540999999999999,0.271284,205.42861000000002,-23.036270000000002,9
3023095022149,56132.4160125926,0.869373431779,13.641963,0.057,0.156962,241,13.540999999999999,0.271284,205.42861000000002,-23.036270000000002,9
3023095022149,56132.4269969445,0.939354394737,13.573579,0.057,0.156962,241,13.540999999999999,0.271284,205.42861000000002,-23.036270000000002,9
3023095022149,56362.7134292941,0.0870229361462,13.490521,0.056,0.156962,241,13.540999999999999,0.271284,205.42861000000002,-23.036270000000002,9
3023095022149,56362.7240615394,0.154760638892,13.47808,0.056,0.156962,241,13.540999999999999,0.271284,205.42861000000002,-23.036270000000002,9
3023095022149,56362.7347424999,0.222808704711,13.503167,0.056,0.156962,241,13.540999999999999,0.271284,205.42861000000002,-23.036270000000002,9
3023095022149,56362.7455618982,0.291738753323,13.499994,0.056,0.156962,241,13.540999999999999,0.271284,205.42861000000002,-23.036270000000002,9
3023095022149,56367.7294238657,0.0437676998554,13.496979,0.053,0.156962,241,13.540999999999999,0.271284,205.42861000000002,-23.036270000000002,9
3023095022149,56367.7445036229,0.139840362011,13.463455,0.053,0.156962,241,13.540999999999999,0.271284,205.42861000000002,-23.036270000000002,9
3023095022149,56367.75966103,0.236407729273,13.492299,0.053,0.156962,241,13.540999999999999,0.271284,205.42861000000002,-23.036270000000002,9
3023095022149,56367.774784653,0.332759859099,13.547498,0.053,0.156962,241,13.540999999999999,0.271284,205.42861000000002,-23.036270000000002,9
3023095022149,56386.7124358219,0.983944024076,13.532184,0.055,0.156962,241,13.540999999999999,0.271284,205.42861000000002,-23.036270000000002,9
3023095022149,56386.7223175693,0.0469003281323,13.4881,0.054,0.156962,241,13.540999999999999,0.271284,205.42861000000002,-23.036270000000002,9
3023095022149,56386.7323464238,0.11079384695,13.470114,0.054,0.156962,241,13.540999999999999,0.271284,205.42861000000002,-23.036270000000002,9
3023095022149,56386.742363484,0.174612224626,13.470527,0.054,0.156962,241,13.540999999999999,0.271284,205.42861000000002,-23.036270000000002,9
3023095022149,56398.5417360881,0.348046585161,13.5331,0.054,0.156962,241,13.540999999999999,0.271284,205.42861000000002,-23.036270000000002,9
3023095022149,56398.5534354978,0.422583159001,13.580016,0.054,0.156962,241,13.540999999999999,0.271284,205.42861000000002,-23.036270000000002,9
3023095022149,56398.5649946182,0.496225954092,13.646129,0.055,0.156962,241,13.540999999999999,0.271284,205.42861000000002,-23.036270000000002,9
3023095022149,56398.5764462267,0.569183794199,13.720054,0.055,0.156962,241,13.540999999999999,0.271284,205.42861000000002,-23.036270000000002,9
3023095022149,56411.5482933566,0.212416741648,13.522076,0.054,0.156962,241,13.540999999999999,0.271284,205.42861000000002,-23.036270000000002,9
3023095022149,56411.5589791782,0.280495777319,13.530049,0.055,0.156962,241,13.540999999999999,0.271284,205.42861000000002,-23.036270000000002,9
3023095022149,56411.5689673148,0.344129883684,13.572059,0.055,0.156962,241,13.540999999999999,0.271284,205.42861000000002,-23.036270000000002,9
3023095022149,56411.5789544907,0.407757869456,13.60145,0.055,0.156962,241,13.540999999999999,0.271284,205.42861000000002,-23.036270000000002,9
3023095022149,56443.4527746528,0.474870687176,13.654882,0.056,0.156962,241,13.540999999999999,0.271284,205.42861000000002,-23.036270000000002,9
3023095022149,56443.4627321065,0.538309313706,13.719962,0.057,0.156962,241,13.540999999999999,0.271284,205.42861000000002,-23.036270000000002,9
3023095022149,56443.4725123379,0.600618862547,13.748317,0.057,0.156962,241,13.540999999999999,0.271284,205.42861000000002,-23.036270000000002,9
3023095022149,56443.4826318286,0.665089821734,13.753077,0.057,0.156962,241,13.540999999999999,0.271284,205.42861000000002,-23.036270000000002,9
3023095022149,56475.4224066202,0.152397524274,13.46493,0.054,0.156962,241,13.540999999999999,0.271284,205.42861000000002,-23.036270000000002,9
3023095022149,56475.4336344561,0.223929716158,13.472097,0.054,0.156962,241,13.540999999999999,0.271284,205.42861000000002,-23.036270000000002,9
3023095022149,56475.4449030905,0.295721834002,13.50501,0.054,0.156962,241,13.540999999999999,0.271284,205.42861000000002,-23.036270000000002,9
3023095022149,56475.4562186923,0.367813179619,13.529977,0.054,0.156962,241,13.540999999999999,0.271284,205.42861000000002,-23.036270000000002,9
