ID,MjD,Phase,Mag,Mag_err,Period,Npts,V,Amp,ra,dec,Type
3027023013859,53594.7180409953,0.586497467593,16.353289,0.110,0.12091099999999999,198,16.419,0.25090500000000004,50.21353,-26.98965,9
3027023013859,53594.7345292708,0.722864510259,16.451481,0.113,0.12091099999999999,198,16.419,0.25090500000000004,50.21353,-26.98965,9
3027023013859,53594.7513750233,0.862188083003,16.598287,0.119,0.12091099999999999,198,16.419,0.25090500000000004,50.21353,-26.98965,9
3027023013859,53594.7688919907,0.00706296949647,16.500266,0.114,0.12091099999999999,198,16.419,0.25090500000000004,50.21353,-26.98965,9
3027023013859,53708.5364322222,0.926749610924,16.521622,0.128,0.12091099999999999,198,16.419,0.25090500000000004,50.21353,-26.98965,9
3027023013859,53708.5454005787,0.000922816863749,16.527524,0.128,0.12091099999999999,198,16.419,0.25090500000000004,50.21353,-26.98965,9
3027023013859,53708.5542591784,0.0741882740986,16.489238,0.126,0.12091099999999999,198,16.419,0.25090500000000004,50.21353,-26.98965,9
3027023013859,53708.5631167476,0.147445208509,16.411716,0.122,0.12091099999999999,198,16.419,0.25090500000000004,50.21353,-26.98965,9
3027023013859,53731.5412125924,0.188846278703,16.406477,0.124,0.12091099999999999,198,16.419,0.25090500000000004,50.21353,-26.98965,9
3027023013859,53731.5501642015,0.262880974449,16.368651,0.123,0.12091099999999999,198,16.419,0.25090500000000004,50.21353,-26.98965,9
3027023013859,53731.5591063194,0.336837172857,16.180491,0.130,0.12091099999999999,198,16.419,0.25090500000000004,50.21353,-26.98965,9
3027023013859,53731.5680373266,0.410701479646,16.294795,0.163,0.12091099999999999,198,16.419,0.25090500000000004,50.21353,-26.98965,9
3027023013859,53554.8051793982,0.48533547984,16.255893,0.114,0.12091099999999999,198,16.419,0.25090500000000004,50.21353,-26.98965,9
3027023013859,53554.812220405,0.543568451249,16.245016,0.113,0.12091099999999999,198,16.419,0.25090500000000004,50.21353,-26.98965,9
3027023013859,53554.8190825811,0.600322395039,16.339514,0.117,0.12091099999999999,198,16.419,0.25090500000000004,50.21353,-26.98965,9
3027023013859,53554.8260962615,0.658329362166,16.369276,0.118,0.12091099999999999,198,16.419,0.25090500000000004,50.21353,-26.98965,9
3027023013859,53693.642567442,0.746354277187,16.371932,0.121,0.12091099999999999,198,16.419,0.25090500000000004,50.21353,-26.98965,9
3027023013859,53693.6515712963,0.820821069239,16.510689,0.128,0.12091099999999999,198,16.419,0.25090500000000004,50.21353,-26.98965,9
3027023013859,53693.6605836923,0.895358505833,16.539358,0.130,0.12091099999999999,198,16.419,0.25090500000000004,50.21353,-26.98965,9
3027023013859,53693.6695653355,0.969641600037,16.366607,0.122,0.12091099999999999,198,16.419,0.25090500000000004,50.21353,-26.98965,9
3027023013859,53655.543886065,0.64945344103,16.420442,0.109,0.12091099999999999,198,16.419,0.25090500000000004,50.21353,-26.98965,9
3027023013859,53655.5531895603,0.726398427796,16.455633,0.110,0.12091099999999999,198,16.419,0.25090500000000004,50.21353,-26.98965,9
3027023013859,53655.5625138655,0.803515523847,16.475491,0.111,0.12091099999999999,198,16.419,0.25090500000000004,50.21353,-26.98965,9
3027023013859,53655.5718646757,0.880851830705,16.407232,0.108,0.12091099999999999,198,16.419,0.25090500000000004,50.21353,-26.98965,9
3027023013859,54076.5779273726,0.830903496011,16.579477,0.139,0.12091099999999999,198,16.419,0.25090500000000004,50.21353,-26.98965,9
3027023013859,54076.5864349885,0.901266125555,16.657946,0.143,0.12091099999999999,198,16.419,0.25090500000000004,50.21353,-26.98965,9
3027023013859,54076.5949560303,0.971739794593,16.576871,0.138,0.12091099999999999,198,16.419,0.25090500000000004,50.21353,-26.98965,9
3027023013859,54076.6034965163,0.0423742777784,16.374107,0.127,0.12091099999999999,198,16.419,0.25090500000000004,50.21353,-26.98965,9
3027023013859,54090.5511226735,0.396859454515,16.271794,0.122,0.12091099999999999,198,16.419,0.25090500000000004,50.21353,-26.98965,9
3027023013859,54090.5601455785,0.471483806323,16.22627,0.130,0.12091099999999999,198,16.419,0.25090500000000004,50.21353,-26.98965,9
3027023013859,54090.5691813428,0.546214511502,16.404575,0.127,0.12091099999999999,198,16.419,0.25090500000000004,50.21353,-26.98965,9
3027023013859,54090.5782092243,0.620880021714,16.418922,0.128,0.12091099999999999,198,16.419,0.25090500000000004,50.21353,-26.98965,9
3027023013859,53767.489410081,0.500070969574,16.367607,0.107,0.12091099999999999,198,16.419,0.25090500000000004,50.21353,-26.98965,9
3027023013859,53767.5030561225,0.612931184936,16.399967,0.110,0.12091099999999999,198,16.419,0.25090500000000004,50.21353,-26.98965,9
3027023013859,53767.5162835186,0.722328974225,16.519854,0.113,0.12091099999999999,198,16.419,0.25090500000000004,50.21353,-26.98965,9
3027023013859,53767.5298133451,0.834228028078,15.503872,0.131,0.12091099999999999,198,16.419,0.25090500000000004,50.21353,-26.98965,9
3027023013859,53942.7728196179,0.189590838738,16.391241,0.118,0.12091099999999999,198,16.419,0.25090500000000004,50.21353,-26.98965,9
3027023013859,53942.7843487614,0.284943151637,16.370521,0.117,0.12091099999999999,198,16.419,0.25090500000000004,50.21353,-26.98965,9
3027023013859,53942.7951363196,0.374162149034,16.404184,0.118,0.12091099999999999,198,16.419,0.25090500000000004,50.21353,-26.98965,9
3027023013859,53942.8062455325,0.4660414065,16.363864,0.116,0.12091099999999999,198,16.419,0.25090500000000004,50.21353,-26.98965,9
3027023013859,54058.5163988659,0.452199269726,16.32922,0.120,0.12091099999999999,198,16.419,0.25090500000000004,50.21353,-26.98965,9
3027023013859,54058.5252847454,0.52569034585,16.407532,0.123,0.12091099999999999,198,16.419,0.25090500000000004,50.21353,-26.98965,9
3027023013859,54058.5348067825,0.604442792712,16.402331,0.123,0.12091099999999999,198,16.419,0.25090500000000004,50.21353,-26.98965,9
3027023013859,54058.5450991897,0.689566620975,16.461738,0.126,0.12091099999999999,198,16.419,0.25090500000000004,50.21353,-26.98965,9
3027023013859,54058.5551642824,0.772810434166,16.493943,0.127,0.12091099999999999,198,16.419,0.25090500000000004,50.21353,-26.98965,9
3027023013859,54011.7070484838,0.313308828801,16.36156,0.116,0.12091099999999999,198,16.419,0.25090500000000004,50.21353,-26.98965,9
3027023013859,54011.7178713541,0.402819876617,16.254138,0.112,0.12091099999999999,198,16.419,0.25090500000000004,50.21353,-26.98965,9
3027023013859,54011.7285444445,0.491092162847,16.358729,0.116,0.12091099999999999,198,16.419,0.25090500000000004,50.21353,-26.98965,9
3027023013859,54011.7391840854,0.57908780349,16.36396,0.117,0.12091099999999999,198,16.419,0.25090500000000004,50.21353,-26.98965,9
3027023013859,54019.6850193517,0.295484709437,16.384459,0.118,0.12091099999999999,198,16.419,0.25090500000000004,50.21353,-26.98965,9
3027023013859,54019.6953367593,0.380815304699,16.307625,0.115,0.12091099999999999,198,16.419,0.25090500000000004,50.21353,-26.98965,9
3027023013859,54019.7056578702,0.466176528251,16.334109,0.116,0.12091099999999999,198,16.419,0.25090500000000004,50.21353,-26.98965,9
3027023013859,54019.71614669,0.552924795949,16.379592,0.118,0.12091099999999999,198,16.419,0.25090500000000004,50.21353,-26.98965,9
3027023013859,54030.5957057524,0.532819614455,16.347662,0.116,0.12091099999999999,198,16.419,0.25090500000000004,50.21353,-26.98965,9
3027023013859,54030.6050527544,0.610124425439,16.439644,0.120,0.12091099999999999,198,16.419,0.25090500000000004,50.21353,-26.98965,9
3027023013859,54030.614726273,0.690129707044,16.548402,0.125,0.12091099999999999,198,16.419,0.25090500000000004,50.21353,-26.98965,9
3027023013859,54030.6246453935,0.772166250448,16.544735,0.125,0.12091099999999999,198,16.419,0.25090500000000004,50.21353,-26.98965,9
3027023013859,54039.5422223147,0.525397314632,16.250984,0.117,0.12091099999999999,198,16.419,0.25090500000000004,50.21353,-26.98965,9
3027023013859,54039.5507322454,0.595779088791,16.363086,0.122,0.12091099999999999,198,16.419,0.25090500000000004,50.21353,-26.98965,9
3027023013859,54039.5593384837,0.666957379435,16.547212,0.131,0.12091099999999999,198,16.419,0.25090500000000004,50.21353,-26.98965,9
3027023013859,54039.568002118,0.738610366359,16.540049,0.130,0.12091099999999999,198,16.419,0.25090500000000004,50.21353,-26.98965,9
3027023013859,54001.6908574306,0.473938935262,16.275609,0.116,0.12091099999999999,198,16.419,0.25090500000000004,50.21353,-26.98965,9
3027023013859,54001.6984202197,0.536487331206,16.355026,0.119,0.12091099999999999,198,16.419,0.25090500000000004,50.21353,-26.98965,9
3027023013859,54001.7056944446,0.596649143612,16.322566,0.118,0.12091099999999999,198,16.419,0.25090500000000004,50.21353,-26.98965,9
3027023013859,54001.7126377664,0.654074206715,16.389746,0.121,0.12091099999999999,198,16.419,0.25090500000000004,50.21353,-26.98965,9
3027023013859,54444.5243306944,0.948596028553,16.508422,0.125,0.12091099999999999,198,16.419,0.25090500000000004,50.21353,-26.98965,9
3027023013859,54444.5335914699,0.0251876992988,16.515063,0.126,0.12091099999999999,198,16.419,0.25090500000000004,50.21353,-26.98965,9
3027023013859,54444.5429208681,0.102346917207,16.460752,0.123,0.12091099999999999,198,16.419,0.25090500000000004,50.21353,-26.98965,9
3027023013859,54444.5519664699,0.177158983948,16.404629,0.121,0.12091099999999999,198,16.419,0.25090500000000004,50.21353,-26.98965,9
3027023013859,54109.5343353241,0.398394886346,16.27429,0.103,0.12091099999999999,198,16.419,0.25090500000000004,50.21353,-26.98965,9
3027023013859,54109.5452278704,0.488482192741,16.340487,0.106,0.12091099999999999,198,16.419,0.25090500000000004,50.21353,-26.98965,9
3027023013859,54109.5561406827,0.578737109958,16.356251,0.107,0.12091099999999999,198,16.419,0.25090500000000004,50.21353,-26.98965,9
3027023013859,54109.5670345025,0.668834948854,16.378252,0.108,0.12091099999999999,198,16.419,0.25090500000000004,50.21353,-26.98965,9
3027023013859,54306.7207795951,0.23797334492,16.31654,0.117,0.12091099999999999,198,16.419,0.25090500000000004,50.21353,-26.98965,9
3027023013859,54306.7302971991,0.316689127591,16.21505,0.113,0.12091099999999999,198,16.419,0.25090500000000004,50.21353,-26.98965,9
3027023013859,54306.7397402662,0.394788449397,16.307143,0.116,0.12091099999999999,198,16.419,0.25090500000000004,50.21353,-26.98965,9
3027023013859,54306.7493622686,0.474367663846,16.289478,0.115,0.12091099999999999,198,16.419,0.25090500000000004,50.21353,-26.98965,9
3027023013859,54170.4259388192,0.00520894874353,16.649237,0.346,0.12091099999999999,198,16.419,0.25090500000000004,50.21353,-26.98965,9
3027023013859,54170.4312659955,0.0492676059948,16.551715,0.137,0.12091099999999999,198,16.419,0.25090500000000004,50.21353,-26.98965,9
3027023013859,54170.4365972222,0.0933597621624,16.467732,0.136,0.12091099999999999,198,16.419,0.25090500000000004,50.21353,-26.98965,9
3027023013859,54170.4419495023,0.137626041542,16.381676,0.128,0.12091099999999999,198,16.419,0.25090500000000004,50.21353,-26.98965,9
3027023013859,54393.5950303936,0.735469838139,16.538677,0.130,0.12091099999999999,198,16.419,0.25090500000000004,50.21353,-26.98965,9
3027023013859,54393.6041427661,0.810834135045,16.536456,0.130,0.12091099999999999,198,16.419,0.25090500000000004,50.21353,-26.98965,9
3027023013859,54393.6136396529,0.889378575142,16.610562,0.134,0.12091099999999999,198,16.419,0.25090500000000004,50.21353,-26.98965,9
3027023013859,54393.6244628706,0.978892496147,16.502568,0.128,0.12091099999999999,198,16.419,0.25090500000000004,50.21353,-26.98965,9
3027023013859,54357.6878595138,0.763557606842,16.457523,0.102,0.12091099999999999,198,16.419,0.25090500000000004,50.21353,-26.98965,9
3027023013859,54357.7072464698,0.923898320296,16.553033,0.105,0.12091099999999999,198,16.419,0.25090500000000004,50.21353,-26.98965,9
3027023013859,54357.7258612961,0.077853099443,16.458353,0.102,0.12091099999999999,198,16.419,0.25090500000000004,50.21353,-26.98965,9
3027023013859,54357.7436444908,0.224929831107,16.358403,0.099,0.12091099999999999,198,16.419,0.25090500000000004,50.21353,-26.98965,9
3027023013859,54703.7949253471,0.258002556453,16.326323,0.104,0.12091099999999999,198,16.419,0.25090500000000004,50.21353,-26.98965,9
3027023013859,54703.8015973611,0.313183755905,16.315268,0.103,0.12091099999999999,198,16.419,0.25090500000000004,50.21353,-26.98965,9
3027023013859,54703.8083109261,0.368708604714,16.319568,0.104,0.12091099999999999,198,16.419,0.25090500000000004,50.21353,-26.98965,9
3027023013859,54703.8149601274,0.42370113061,16.356597,0.104,0.12091099999999999,198,16.419,0.25090500000000004,50.21353,-26.98965,9
3027023013859,54830.5495435071,0.587915963843,16.327693,0.110,0.12091099999999999,198,16.419,0.25090500000000004,50.21353,-26.98965,9
3027023013859,54830.5588232639,0.664664620301,16.352636,0.111,0.12091099999999999,198,16.419,0.25090500000000004,50.21353,-26.98965,9
3027023013859,54830.5680976852,0.74136914924,16.457935,0.116,0.12091099999999999,198,16.419,0.25090500000000004,50.21353,-26.98965,9
3027023013859,54830.5773520951,0.817908172961,16.439351,0.116,0.12091099999999999,198,16.419,0.25090500000000004,50.21353,-26.98965,9
3027023013859,54512.4570820951,0.789548470406,16.425845,0.119,0.12091099999999999,198,16.419,0.25090500000000004,50.21353,-26.98965,9
3027023013859,54512.4631433217,0.839678124466,16.542129,0.125,0.12091099999999999,198,16.419,0.25090500000000004,50.21353,-26.98965,9
3027023013859,54512.4692194793,0.889931266021,16.592289,0.127,0.12091099999999999,198,16.419,0.25090500000000004,50.21353,-26.98965,9
3027023013859,54512.4753421643,0.940569214639,16.656108,0.131,0.12091099999999999,198,16.419,0.25090500000000004,50.21353,-26.98965,9
3027023013859,54512.4813952893,0.990631863999,16.62705,0.129,0.12091099999999999,198,16.419,0.25090500000000004,50.21353,-26.98965,9
3027023013859,54471.5416409839,0.396506388206,16.347928,0.103,0.12091099999999999,198,16.419,0.25090500000000004,50.21353,-26.98965,9
3027023013859,54471.551347604,0.476785437262,16.306506,0.101,0.12091099999999999,198,16.419,0.25090500000000004,50.21353,-26.98965,9
3027023013859,54471.5600709724,0.548932457808,16.327811,0.102,0.12091099999999999,198,16.419,0.25090500000000004,50.21353,-26.98965,9
3027023013859,54471.5687747803,0.620917702327,16.374505,0.104,0.12091099999999999,198,16.419,0.25090500000000004,50.21353,-26.98965,9
3027023013859,54529.4128183681,0.022747046256,16.55103,0.109,0.12091099999999999,198,16.419,0.25090500000000004,50.21353,-26.98965,9
3027023013859,54529.4193453589,0.0767288245843,16.52519,0.108,0.12091099999999999,198,16.419,0.25090500000000004,50.21353,-26.98965,9
3027023013859,54529.4258751157,0.130733479222,16.381836,0.104,0.12091099999999999,198,16.419,0.25090500000000004,50.21353,-26.98965,9
3027023013859,54529.4324118286,0.184795664623,16.49585,0.108,0.12091099999999999,198,16.419,0.25090500000000004,50.21353,-26.98965,9
3027023013859,54536.4250443519,0.0176853379817,16.541753,0.125,0.12091099999999999,198,16.419,0.25090500000000004,50.21353,-26.98965,9
3027023013859,54536.4290402314,0.0507334436406,16.564446,0.127,0.12091099999999999,198,16.419,0.25090500000000004,50.21353,-26.98965,9
3027023013859,54536.4330435071,0.0838427199051,16.489972,0.123,0.12091099999999999,198,16.419,0.25090500000000004,50.21353,-26.98965,9
3027023013859,54536.4370503702,0.116981665895,16.50668,0.125,0.12091099999999999,198,16.419,0.25090500000000004,50.21353,-26.98965,9
3027023013859,54774.624328183,0.0558442408801,16.428928,0.132,0.12091099999999999,198,16.419,0.25090500000000004,50.21353,-26.98965,9
3027023013859,54774.6356441202,0.149433221144,15.7798,0.642,0.12091099999999999,198,16.419,0.25090500000000004,50.21353,-26.98965,9
3027023013859,54774.6469582175,0.24300698447,16.303508,0.104,0.12091099999999999,198,16.419,0.25090500000000004,50.21353,-26.98965,9
3027023013859,54774.6582107293,0.336071402126,16.330494,0.096,0.12091099999999999,198,16.419,0.25090500000000004,50.21353,-26.98965,9
3027023013859,54740.6722407062,0.253539431491,16.345248,0.093,0.12091099999999999,198,16.419,0.25090500000000004,50.21353,-26.98965,9
3027023013859,54740.6879002201,0.383052163234,16.27239,0.091,0.12091099999999999,198,16.419,0.25090500000000004,50.21353,-26.98965,9
3027023013859,54740.702757963,0.50593381084,16.308679,0.092,0.12091099999999999,198,16.419,0.25090500000000004,50.21353,-26.98965,9
3027023013859,54740.7169314236,0.623156070244,16.323002,0.093,0.12091099999999999,198,16.419,0.25090500000000004,50.21353,-26.98965,9
3027023013859,54766.5702663194,0.444354272215,16.309716,0.095,0.12091099999999999,198,16.419,0.25090500000000004,50.21353,-26.98965,9
3027023013859,54766.5835191435,0.553962364967,16.353615,0.102,0.12091099999999999,198,16.419,0.25090500000000004,50.21353,-26.98965,9
3027023013859,54766.5968381711,0.664117996756,16.403827,0.101,0.12091099999999999,198,16.419,0.25090500000000004,50.21353,-26.98965,9
3027023013859,54766.6096586688,0.770150514029,16.506605,0.101,0.12091099999999999,198,16.419,0.25090500000000004,50.21353,-26.98965,9
3027023013859,54718.6439939584,0.0679091100465,16.46322,0.095,0.12091099999999999,198,16.419,0.25090500000000004,50.21353,-26.98965,9
3027023013859,54718.658977523,0.191831371863,16.393625,0.093,0.12091099999999999,198,16.419,0.25090500000000004,50.21353,-26.98965,9
3027023013859,54718.6745189698,0.32036762411,16.363381,0.091,0.12091099999999999,198,16.419,0.25090500000000004,50.21353,-26.98965,9
3027023013859,54718.6904159836,0.451844609692,16.276275,0.089,0.12091099999999999,198,16.419,0.25090500000000004,50.21353,-26.98965,9
3027023013859,55177.6135402895,0.996702446486,16.533193,0.099,0.12091099999999999,198,16.419,0.25090500000000004,50.21353,-26.98965,9
3027023013859,55177.6214879281,0.0624337579357,16.46743,0.096,0.12091099999999999,198,16.419,0.25090500000000004,50.21353,-26.98965,9
3027023013859,55177.6295931018,0.129467970692,16.544649,0.108,0.12091099999999999,198,16.419,0.25090500000000004,50.21353,-26.98965,9
3027023013859,55177.6375825233,0.195544849557,16.379307,0.094,0.12091099999999999,198,16.419,0.25090500000000004,50.21353,-26.98965,9
3027023013859,54883.4160034377,0.822410183551,16.505907,0.100,0.12091099999999999,198,16.419,0.25090500000000004,50.21353,-26.98965,9
3027023013859,54883.4224435068,0.875673072005,16.519303,0.101,0.12091099999999999,198,16.419,0.25090500000000004,50.21353,-26.98965,9
3027023013859,54883.4288666667,0.928796112014,16.521162,0.101,0.12091099999999999,198,16.419,0.25090500000000004,50.21353,-26.98965,9
3027023013859,54883.4352834607,0.981866502669,16.53515,0.102,0.12091099999999999,198,16.419,0.25090500000000004,50.21353,-26.98965,9
3027023013859,54854.5254775346,0.881983728555,16.555855,0.104,0.12091099999999999,198,16.419,0.25090500000000004,50.21353,-26.98965,9
3027023013859,54854.5307985763,0.925991649274,16.594952,0.105,0.12091099999999999,198,16.419,0.25090500000000004,50.21353,-26.98965,9
3027023013859,54854.5361204282,0.9700062708,16.547807,0.104,0.12091099999999999,198,16.419,0.25090500000000004,50.21353,-26.98965,9
3027023013859,54854.5414357986,0.0139672867372,16.563712,0.107,0.12091099999999999,198,16.419,0.25090500000000004,50.21353,-26.98965,9
3027023013859,54862.5271475,0.0601640876266,16.483543,0.120,0.12091099999999999,198,16.419,0.25090500000000004,50.21353,-26.98965,9
3027023013859,54862.5326890393,0.105995643942,16.428952,0.117,0.12091099999999999,198,16.419,0.25090500000000004,50.21353,-26.98965,9
3027023013859,55036.7287861804,0.802848213993,16.494479,0.120,0.12091099999999999,198,16.419,0.25090500000000004,50.21353,-26.98965,9
3027023013859,55036.7364574188,0.866293544881,16.500092,0.120,0.12091099999999999,198,16.419,0.25090500000000004,50.21353,-26.98965,9
3027023013859,55036.7441793635,0.930158244562,16.578824,0.124,0.12091099999999999,198,16.419,0.25090500000000004,50.21353,-26.98965,9
3027023013859,55036.7519119444,0.994110911328,16.478655,0.119,0.12091099999999999,198,16.419,0.25090500000000004,50.21353,-26.98965,9
3027023013859,54906.4116874884,0.00927532155765,16.658913,0.121,0.12091099999999999,198,16.419,0.25090500000000004,50.21353,-26.98965,9
3027023013859,54906.4154774422,0.0406203091843,16.631714,0.122,0.12091099999999999,198,16.419,0.25090500000000004,50.21353,-26.98965,9
3027023013859,54906.4192573379,0.0718821108458,16.553332,0.118,0.12091099999999999,198,16.419,0.25090500000000004,50.21353,-26.98965,9
3027023013859,54906.4230389583,0.10315817676,16.550795,0.118,0.12091099999999999,198,16.419,0.25090500000000004,50.21353,-26.98965,9
3027023013859,55146.6411536572,0.838150848169,16.537496,0.090,0.12091099999999999,198,16.419,0.25090500000000004,50.21353,-26.98965,9
3027023013859,55146.654176493,0.945856812061,16.521223,0.089,0.12091099999999999,198,16.419,0.25090500000000004,50.21353,-26.98965,9
3027023013859,55146.6671382178,0.0530573546421,16.454503,0.087,0.12091099999999999,198,16.419,0.25090500000000004,50.21353,-26.98965,9
3027023013859,55146.6801087385,0.16033064411,16.440668,0.087,0.12091099999999999,198,16.419,0.25090500000000004,50.21353,-26.98965,9
3027023013859,55122.6134964004,0.116303730872,16.451964,0.094,0.12091099999999999,198,16.419,0.25090500000000004,50.21353,-26.98965,9
3027023013859,55122.6223419909,0.189461594913,16.393864,0.092,0.12091099999999999,198,16.419,0.25090500000000004,50.21353,-26.98965,9
3027023013859,55122.631471273,0.264965743467,16.316793,0.090,0.12091099999999999,198,16.419,0.25090500000000004,50.21353,-26.98965,9
3027023013859,55122.6397271529,0.333246378752,16.288523,0.089,0.12091099999999999,198,16.419,0.25090500000000004,50.21353,-26.98965,9
3027023013859,55438.6672163076,0.0531656144303,16.488617,0.120,0.12091099999999999,198,16.419,0.25090500000000004,50.21353,-26.98965,9
3027023013859,55438.7003018401,0.326801036368,16.335018,0.112,0.12091099999999999,198,16.419,0.25090500000000004,50.21353,-26.98965,9
3027023013859,55213.4418358216,0.316272478143,16.316697,0.094,0.12091099999999999,198,16.419,0.25090500000000004,50.21353,-26.98965,9
3027023013859,55213.4736927315,0.579746520205,16.247542,0.092,0.12091099999999999,198,16.419,0.25090500000000004,50.21353,-26.98965,9
3027023013859,55588.5002448841,0.254136382136,16.418701,0.091,0.12091099999999999,198,16.419,0.25090500000000004,50.21353,-26.98965,9
3027023013859,55588.517212442,0.394467352016,16.293456,0.088,0.12091099999999999,198,16.419,0.25090500000000004,50.21353,-26.98965,9
3027023013859,54774.6774170141,0.494917866075,16.27778,0.087,0.12091099999999999,198,16.419,0.25090500000000004,50.21353,-26.98965,9
3027023013859,54774.6911021414,0.608101342339,16.389322,0.087,0.12091099999999999,198,16.419,0.25090500000000004,50.21353,-26.98965,9
3027023013859,54774.7048563774,0.721856385295,16.547135,0.092,0.12091099999999999,198,16.419,0.25090500000000004,50.21353,-26.98965,9
3027023013859,54774.7186289005,0.835762672534,16.486826,0.090,0.12091099999999999,198,16.419,0.25090500000000004,50.21353,-26.98965,9
3027023013859,55807.7182881829,0.30707034847,16.335681,0.112,0.12091099999999999,198,16.419,0.25090500000000004,50.21353,-26.98965,9
3027023013859,55807.7270787965,0.379773523542,16.273511,0.113,0.12091099999999999,198,16.419,0.25090500000000004,50.21353,-26.98965,9
3027023013859,55807.7358558682,0.45236469974,16.362442,0.112,0.12091099999999999,198,16.419,0.25090500000000004,50.21353,-26.98965,9
3027023013859,55807.7465127545,0.540502969176,16.294834,0.117,0.12091099999999999,198,16.419,0.25090500000000004,50.21353,-26.98965,9
3027023013859,55922.4837359954,0.479997646296,16.31307,0.095,0.12091099999999999,198,16.419,0.25090500000000004,50.21353,-26.98965,9
3027023013859,55922.4926886689,0.554041145195,16.267412,0.094,0.12091099999999999,198,16.419,0.25090500000000004,50.21353,-26.98965,9
3027023013859,55922.5016391436,0.628066458856,16.374457,0.097,0.12091099999999999,198,16.419,0.25090500000000004,50.21353,-26.98965,9
3027023013859,55922.5105113657,0.701444580744,16.298939,0.095,0.12091099999999999,198,16.419,0.25090500000000004,50.21353,-26.98965,9
3027023013859,55978.4356337036,0.232747257105,16.345322,0.092,0.12091099999999999,198,16.419,0.25090500000000004,50.21353,-26.98965,9
3027023013859,55978.4438805441,0.300953131693,16.419849,0.095,0.12091099999999999,198,16.419,0.25090500000000004,50.21353,-26.98965,9
3027023013859,55978.4522607289,0.37026183639,16.368456,0.103,0.12091099999999999,198,16.419,0.25090500000000004,50.21353,-26.98965,9
3027023013859,55978.4606442824,0.439598402183,16.358968,0.104,0.12091099999999999,198,16.419,0.25090500000000004,50.21353,-26.98965,9
3027023013859,56180.7450733332,0.44229502033,16.249426,0.080,0.12091099999999999,198,16.419,0.25090500000000004,50.21353,-26.98965,9
3027023013859,56180.75726397,0.543118244037,16.284305,0.081,0.12091099999999999,198,16.419,0.25090500000000004,50.21353,-26.98965,9
3027023013859,56180.7694642016,0.644020821957,16.386587,0.083,0.12091099999999999,198,16.419,0.25090500000000004,50.21353,-26.98965,9
3027023013859,56180.7816673381,0.744947425032,16.355731,0.083,0.12091099999999999,198,16.419,0.25090500000000004,50.21353,-26.98965,9
3027023013859,56216.6770460646,0.619332108763,16.367513,0.084,0.12091099999999999,198,16.419,0.25090500000000004,50.21353,-26.98965,9
3027023013859,56216.6919541781,0.742630348832,16.502764,0.087,0.12091099999999999,198,16.419,0.25090500000000004,50.21353,-26.98965,9
3027023013859,56216.7068496643,0.865824154112,16.576294,0.089,0.12091099999999999,198,16.419,0.25090500000000004,50.21353,-26.98965,9
3027023013859,56216.7220665741,0.991676308215,16.543799,0.088,0.12091099999999999,198,16.419,0.25090500000000004,50.21353,-26.98965,9
3027023013859,56303.5304862382,0.944713369419,16.553612,0.097,0.12091099999999999,198,16.419,0.25090500000000004,50.21353,-26.98965,9
3027023013859,56303.5387727893,0.0132476722938,16.538973,0.097,0.12091099999999999,198,16.419,0.25090500000000004,50.21353,-26.98965,9
3027023013859,56303.547243611,0.0833059936995,16.557771,0.098,0.12091099999999999,198,16.419,0.25090500000000004,50.21353,-26.98965,9
3027023013859,56303.5559047107,0.154938018124,16.448099,0.094,0.12091099999999999,198,16.419,0.25090500000000004,50.21353,-26.98965,9
3027023013859,56366.4118514583,0.00794351473451,16.568585,0.102,0.12091099999999999,198,16.419,0.25090500000000004,50.21353,-26.98965,9
3027023013859,56366.417171007,0.0519390874542,16.483374,0.100,0.12091099999999999,198,16.419,0.25090500000000004,50.21353,-26.98965,9
3027023013859,56366.4225665974,0.0965635666507,16.598403,0.104,0.12091099999999999,198,16.419,0.25090500000000004,50.21353,-26.98965,9
3027023013859,56366.4278609143,0.14035045862,16.5098,0.101,0.12091099999999999,198,16.419,0.25090500000000004,50.21353,-26.98965,9
