ID,MjD,Phase,Mag,Mag_err,Period,Npts,V,Amp,ra,dec,Type
3027077016862,53724.7119994909,0.545011381502,14.288658,0.063,0.16833499999999998,298,14.220999999999998,0.21089000000000002,170.57822,-27.391379999999998,9
3027077016862,53724.7207474304,0.596978824411,14.287876,0.063,0.16833499999999998,298,14.220999999999998,0.21089000000000002,170.57822,-27.391379999999998,9
3027077016862,53724.7295470024,0.649252991949,14.282048,0.063,0.16833499999999998,298,14.220999999999998,0.21089000000000002,170.57822,-27.391379999999998,9
3027077016862,53724.7384819905,0.702331603679,14.267402,0.063,0.16833499999999998,298,14.220999999999998,0.21089000000000002,170.57822,-27.391379999999998,9
3027077016862,53704.7021685878,0.675905710668,14.382667,0.074,0.16833499999999998,298,14.220999999999998,0.21089000000000002,170.57822,-27.391379999999998,9
3027077016862,53704.7081564122,0.711476592522,14.336795,0.071,0.16833499999999998,298,14.220999999999998,0.21089000000000002,170.57822,-27.391379999999998,9
3027077016862,53704.7142381483,0.747605360171,14.369719,0.090,0.16833499999999998,298,14.220999999999998,0.21089000000000002,170.57822,-27.391379999999998,9
3027077016862,53704.7202292128,0.783195489959,14.300077,0.075,0.16833499999999998,298,14.220999999999998,0.21089000000000002,170.57822,-27.391379999999998,9
3027077016862,53851.4603043981,0.497783575032,14.381233,0.061,0.16833499999999998,298,14.220999999999998,0.21089000000000002,170.57822,-27.391379999999998,9
3027077016862,53851.4741711109,0.580159271136,14.370072,0.061,0.16833499999999998,298,14.220999999999998,0.21089000000000002,170.57822,-27.391379999999998,9
3027077016862,53851.487632616,0.660127816605,14.369029,0.061,0.16833499999999998,298,14.220999999999998,0.21089000000000002,170.57822,-27.391379999999998,9
3027077016862,53851.5008983682,0.73893348506,14.268079,0.060,0.16833499999999998,298,14.220999999999998,0.21089000000000002,170.57822,-27.391379999999998,9
3027077016862,54084.7121999419,0.138889368856,14.118172,0.067,0.16833499999999998,298,14.220999999999998,0.21089000000000002,170.57822,-27.391379999999998,9
3027077016862,54084.7200032525,0.185245210479,14.141659,0.067,0.16833499999999998,298,14.220999999999998,0.21089000000000002,170.57822,-27.391379999999998,9
3027077016862,54084.7278197568,0.231679429766,14.133033,0.067,0.16833499999999998,298,14.220999999999998,0.21089000000000002,170.57822,-27.391379999999998,9
3027077016862,54084.7356322107,0.27808958746,14.161727,0.067,0.16833499999999998,298,14.220999999999998,0.21089000000000002,170.57822,-27.391379999999998,9
3027077016862,53760.6934520716,0.294098503597,14.213945,0.068,0.16833499999999998,298,14.220999999999998,0.21089000000000002,170.57822,-27.391379999999998,9
3027077016862,53760.7033780093,0.353063886287,14.231401,0.068,0.16833499999999998,298,14.220999999999998,0.21089000000000002,170.57822,-27.391379999999998,9
3027077016862,53760.7130820716,0.410711210396,14.2954,0.069,0.16833499999999998,298,14.220999999999998,0.21089000000000002,170.57822,-27.391379999999998,9
3027077016862,53760.7226798727,0.467727286101,14.300429,0.069,0.16833499999999998,298,14.220999999999998,0.21089000000000002,170.57822,-27.391379999999998,9
3027077016862,53763.7530955787,0.470018586202,14.292193,0.081,0.16833499999999998,298,14.220999999999998,0.21089000000000002,170.57822,-27.391379999999998,9
3027077016862,53763.7551119675,0.481997014896,14.286812,0.081,0.16833499999999998,298,14.220999999999998,0.21089000000000002,170.57822,-27.391379999999998,9
3027077016862,53763.7571045257,0.493833877088,14.33198,0.082,0.16833499999999998,298,14.220999999999998,0.21089000000000002,170.57822,-27.391379999999998,9
3027077016862,53763.7590853817,0.505601221987,14.345408,0.082,0.16833499999999998,298,14.220999999999998,0.21089000000000002,170.57822,-27.391379999999998,9
3027077016862,53763.7610795487,0.517447641352,14.302108,0.081,0.16833499999999998,298,14.220999999999998,0.21089000000000002,170.57822,-27.391379999999998,9
3027077016862,53764.6855177201,0.00910517777083,14.145894,0.066,0.16833499999999998,298,14.220999999999998,0.21089000000000002,170.57822,-27.391379999999998,9
3027077016862,53764.69922375,0.0905263314489,14.145132,0.066,0.16833499999999998,298,14.220999999999998,0.21089000000000002,170.57822,-27.391379999999998,9
3027077016862,53764.7123221063,0.168337578652,14.151803,0.066,0.16833499999999998,298,14.220999999999998,0.21089000000000002,170.57822,-27.391379999999998,9
3027077016862,53764.724811007,0.242528333387,14.180294,0.067,0.16833499999999998,298,14.220999999999998,0.21089000000000002,170.57822,-27.391379999999998,9
3027077016862,53903.4507509605,0.348863638006,14.254591,0.062,0.16833499999999998,298,14.220999999999998,0.21089000000000002,170.57822,-27.391379999999998,9
3027077016862,53903.4616649654,0.413698668766,14.288821,0.062,0.16833499999999998,298,14.220999999999998,0.21089000000000002,170.57822,-27.391379999999998,9
3027077016862,53903.4727492128,0.479545031092,14.343455,0.063,0.16833499999999998,298,14.220999999999998,0.21089000000000002,170.57822,-27.391379999999998,9
3027077016862,53903.4850139469,0.552404116199,14.356952,0.063,0.16833499999999998,298,14.220999999999998,0.21089000000000002,170.57822,-27.391379999999998,9
3027077016862,53813.6400939468,0.825490520743,14.215366,0.060,0.16833499999999998,298,14.220999999999998,0.21089000000000002,170.57822,-27.391379999999998,9
3027077016862,53813.6509679398,0.890087859356,14.132116,0.060,0.16833499999999998,298,14.220999999999998,0.21089000000000002,170.57822,-27.391379999999998,9
3027077016862,53813.6618477777,0.954719919828,14.177929,0.060,0.16833499999999998,298,14.220999999999998,0.21089000000000002,170.57822,-27.391379999999998,9
3027077016862,53813.6727677896,0.0195906353765,14.159796,0.060,0.16833499999999998,298,14.220999999999998,0.21089000000000002,170.57822,-27.391379999999998,9
3027077016862,53821.4837829398,0.421201412682,14.297016,0.065,0.16833499999999998,298,14.220999999999998,0.21089000000000002,170.57822,-27.391379999999998,9
3027077016862,53821.492454433,0.472714723612,14.314344,0.065,0.16833499999999998,298,14.220999999999998,0.21089000000000002,170.57822,-27.391379999999998,9
3027077016862,53821.5017358565,0.527851347055,14.331393,0.065,0.16833499999999998,298,14.220999999999998,0.21089000000000002,170.57822,-27.391379999999998,9
3027077016862,53821.5114538196,0.585581249325,14.333272,0.065,0.16833499999999998,298,14.220999999999998,0.21089000000000002,170.57822,-27.391379999999998,9
3027077016862,53858.4832680325,0.217946550052,14.181842,0.064,0.16833499999999998,298,14.220999999999998,0.21089000000000002,170.57822,-27.391379999999998,9
3027077016862,53858.4935296529,0.278906067717,14.201237,0.064,0.16833499999999998,298,14.220999999999998,0.21089000000000002,170.57822,-27.391379999999998,9
3027077016862,53858.5037785416,0.33978995221,14.247171,0.064,0.16833499999999998,298,14.220999999999998,0.21089000000000002,170.57822,-27.391379999999998,9
3027077016862,53858.5140457178,0.400782474258,14.270003,0.065,0.16833499999999998,298,14.220999999999998,0.21089000000000002,170.57822,-27.391379999999998,9
3027077016862,53873.4822117595,0.319700356456,14.213484,0.064,0.16833499999999998,298,14.220999999999998,0.21089000000000002,170.57822,-27.391379999999998,9
3027077016862,53873.4907740044,0.370564674027,14.238749,0.065,0.16833499999999998,298,14.220999999999998,0.21089000000000002,170.57822,-27.391379999999998,9
3027077016862,53873.4993107525,0.421277526999,14.252003,0.065,0.16833499999999998,298,14.220999999999998,0.21089000000000002,170.57822,-27.391379999999998,9
3027077016862,53873.507801308,0.471715971129,14.328145,0.073,0.16833499999999998,298,14.220999999999998,0.21089000000000002,170.57822,-27.391379999999998,9
3027077016862,53878.4716118287,0.959407305112,14.144004,0.063,0.16833499999999998,298,14.220999999999998,0.21089000000000002,170.57822,-27.391379999999998,9
3027077016862,53878.4801505438,0.010131843097,14.157026,0.063,0.16833499999999998,298,14.220999999999998,0.21089000000000002,170.57822,-27.391379999999998,9
3027077016862,53878.4886618403,0.0606934999232,14.148492,0.063,0.16833499999999998,298,14.220999999999998,0.21089000000000002,170.57822,-27.391379999999998,9
3027077016862,53878.4972283451,0.111583123566,14.136212,0.063,0.16833499999999998,298,14.220999999999998,0.21089000000000002,170.57822,-27.391379999999998,9
3027077016862,53886.4416045025,0.305429664091,14.241995,0.061,0.16833499999999998,298,14.220999999999998,0.21089000000000002,170.57822,-27.391379999999998,9
3027077016862,53886.452163565,0.368156147015,14.260708,0.061,0.16833499999999998,298,14.220999999999998,0.21089000000000002,170.57822,-27.391379999999998,9
3027077016862,53886.4627378127,0.430972838076,14.302253,0.061,0.16833499999999998,298,14.220999999999998,0.21089000000000002,170.57822,-27.391379999999998,9
3027077016862,53886.4733208795,0.493841919408,14.352251,0.062,0.16833499999999998,298,14.220999999999998,0.21089000000000002,170.57822,-27.391379999999998,9
3027077016862,54196.5796509955,0.691424810677,14.238539,0.069,0.16833499999999998,298,14.220999999999998,0.21089000000000002,170.57822,-27.391379999999998,9
3027077016862,54196.5911006249,0.759441737668,14.228407,0.069,0.16833499999999998,298,14.220999999999998,0.21089000000000002,170.57822,-27.391379999999998,9
3027077016862,54196.602574676,0.827603742538,14.157125,0.068,0.16833499999999998,298,14.220999999999998,0.21089000000000002,170.57822,-27.391379999999998,9
3027077016862,54196.6140598382,0.895831753383,14.144893,0.068,0.16833499999999998,298,14.220999999999998,0.21089000000000002,170.57822,-27.391379999999998,9
3027077016862,54207.5184148147,0.673536785005,14.235067,0.068,0.16833499999999998,298,14.220999999999998,0.21089000000000002,170.57822,-27.391379999999998,9
3027077016862,54207.5269085301,0.72399400064,14.226716,0.068,0.16833499999999998,298,14.220999999999998,0.21089000000000002,170.57822,-27.391379999999998,9
3027077016862,54207.5354296874,0.77461423591,14.212037,0.068,0.16833499999999998,298,14.220999999999998,0.21089000000000002,170.57822,-27.391379999999998,9
3027077016862,54207.5439514235,0.825237909565,14.160568,0.067,0.16833499999999998,298,14.220999999999998,0.21089000000000002,170.57822,-27.391379999999998,9
3027077016862,54448.6466300349,0.104197195498,14.094316,0.067,0.16833499999999998,298,14.220999999999998,0.21089000000000002,170.57822,-27.391379999999998,9
3027077016862,54448.655420764,0.156418831553,14.111389,0.067,0.16833499999999998,298,14.220999999999998,0.21089000000000002,170.57822,-27.391379999999998,9
3027077016862,54448.6645053589,0.210386187711,14.099045,0.067,0.16833499999999998,298,14.220999999999998,0.21089000000000002,170.57822,-27.391379999999998,9
3027077016862,54448.673473993,0.263664674654,14.136861,0.067,0.16833499999999998,298,14.220999999999998,0.21089000000000002,170.57822,-27.391379999999998,9
3027077016862,54138.7322319678,0.0467934048502,14.11875,0.067,0.16833499999999998,298,14.220999999999998,0.21089000000000002,170.57822,-27.391379999999998,9
3027077016862,54138.7407479283,0.0973827682901,14.125439,0.067,0.16833499999999998,298,14.220999999999998,0.21089000000000002,170.57822,-27.391379999999998,9
3027077016862,54138.7493035762,0.148207896214,14.146808,0.067,0.16833499999999998,298,14.220999999999998,0.21089000000000002,170.57822,-27.391379999999998,9
3027077016862,54138.7578099306,0.198740194261,14.1393,0.067,0.16833499999999998,298,14.220999999999998,0.21089000000000002,170.57822,-27.391379999999998,9
3027077016862,54151.6891241317,0.0176679341821,14.101412,0.067,0.16833499999999998,298,14.220999999999998,0.21089000000000002,170.57822,-27.391379999999998,9
3027077016862,54151.6960822685,0.0590029910672,14.109422,0.067,0.16833499999999998,298,14.220999999999998,0.21089000000000002,170.57822,-27.391379999999998,9
3027077016862,54151.7030224653,0.100231474789,14.116636,0.067,0.16833499999999998,298,14.220999999999998,0.21089000000000002,170.57822,-27.391379999999998,9
3027077016862,54151.7098893865,0.141024662124,14.095789,0.068,0.16833499999999998,298,14.220999999999998,0.21089000000000002,170.57822,-27.391379999999998,9
3027077016862,54287.4101501736,0.273206247075,14.196233,0.062,0.16833499999999998,298,14.220999999999998,0.21089000000000002,170.57822,-27.391379999999998,9
3027077016862,54287.4199956828,0.331693841494,14.224132,0.062,0.16833499999999998,298,14.220999999999998,0.21089000000000002,170.57822,-27.391379999999998,9
3027077016862,54287.4299737155,0.390968696389,14.256215,0.063,0.16833499999999998,298,14.220999999999998,0.21089000000000002,170.57822,-27.391379999999998,9
3027077016862,54287.4399399539,0.450173486839,14.29914,0.063,0.16833499999999998,298,14.220999999999998,0.21089000000000002,170.57822,-27.391379999999998,9
3027077016862,54169.6165976852,0.516456382815,14.344369,0.069,0.16833499999999998,298,14.220999999999998,0.21089000000000002,170.57822,-27.391379999999998,9
3027077016862,54169.6251018286,0.566975546419,14.363659,0.069,0.16833499999999998,298,14.220999999999998,0.21089000000000002,170.57822,-27.391379999999998,9
3027077016862,54169.6336284258,0.617628097592,14.300389,0.068,0.16833499999999998,298,14.220999999999998,0.21089000000000002,170.57822,-27.391379999999998,9
3027077016862,54169.6421887154,0.66848079965,14.281401,0.068,0.16833499999999998,298,14.220999999999998,0.21089000000000002,170.57822,-27.391379999999998,9
3027077016862,54186.5993159839,0.402892945043,14.271306,0.068,0.16833499999999998,298,14.220999999999998,0.21089000000000002,170.57822,-27.391379999999998,9
3027077016862,54186.6100470719,0.466641351522,14.302091,0.069,0.16833499999999998,298,14.220999999999998,0.21089000000000002,170.57822,-27.391379999999998,9
3027077016862,54186.6207663428,0.530319558049,14.287238,0.069,0.16833499999999998,298,14.220999999999998,0.21089000000000002,170.57822,-27.391379999999998,9
3027077016862,54186.6314800579,0.593964760192,14.313861,0.069,0.16833499999999998,298,14.220999999999998,0.21089000000000002,170.57822,-27.391379999999998,9
3027077016862,54232.3997429169,0.481943249528,14.300087,0.081,0.16833499999999998,298,14.220999999999998,0.21089000000000002,170.57822,-27.391379999999998,9
3027077016862,54232.4067331135,0.523468758736,14.289995,0.087,0.16833499999999998,298,14.220999999999998,0.21089000000000002,170.57822,-27.391379999999998,9
3027077016862,54232.4135057062,0.563701584353,14.334135,0.108,0.16833499999999998,298,14.220999999999998,0.21089000000000002,170.57822,-27.391379999999998,9
3027077016862,54232.4200131252,0.602359136275,14.336299,0.135,0.16833499999999998,298,14.220999999999998,0.21089000000000002,170.57822,-27.391379999999998,9
3027077016862,54233.4582100694,0.769804671698,14.209601,0.068,0.16833499999999998,298,14.220999999999998,0.21089000000000002,170.57822,-27.391379999999998,9
3027077016862,54233.4670458219,0.822293770791,14.18965,0.068,0.16833499999999998,298,14.220999999999998,0.21089000000000002,170.57822,-27.391379999999998,9
3027077016862,54233.4758534489,0.874615789391,14.160175,0.067,0.16833499999999998,298,14.220999999999998,0.21089000000000002,170.57822,-27.391379999999998,9
3027077016862,54233.4846432523,0.926831926219,14.145545,0.067,0.16833499999999998,298,14.220999999999998,0.21089000000000002,170.57822,-27.391379999999998,9
3027077016862,54243.4748429051,0.273965040571,14.21686,0.064,0.16833499999999998,298,14.220999999999998,0.21089000000000002,170.57822,-27.391379999999998,9
3027077016862,54243.4869476506,0.345873707789,14.246086,0.064,0.16833499999999998,298,14.220999999999998,0.21089000000000002,170.57822,-27.391379999999998,9
3027077016862,54243.4986901041,0.415630166652,14.289978,0.065,0.16833499999999998,298,14.220999999999998,0.21089000000000002,170.57822,-27.391379999999998,9
3027077016862,54243.5106002777,0.486382972682,14.292639,0.065,0.16833499999999998,298,14.220999999999998,0.21089000000000002,170.57822,-27.391379999999998,9
3027077016862,54244.4410766433,0.0139106145944,14.126367,0.062,0.16833499999999998,298,14.220999999999998,0.21089000000000002,170.57822,-27.391379999999998,9
3027077016862,54244.4553557755,0.0987363026361,14.123345,0.062,0.16833499999999998,298,14.220999999999998,0.21089000000000002,170.57822,-27.391379999999998,9
3027077016862,54244.4695991436,0.183349532832,14.144393,0.063,0.16833499999999998,298,14.220999999999998,0.21089000000000002,170.57822,-27.391379999999998,9
3027077016862,54244.4838200463,0.267829306482,14.190248,0.063,0.16833499999999998,298,14.220999999999998,0.21089000000000002,170.57822,-27.391379999999998,9
3027077016862,54426.7194710185,0.845136296703,14.148869,0.067,0.16833499999999998,298,14.220999999999998,0.21089000000000002,170.57822,-27.391379999999998,9
3027077016862,54426.7265775345,0.887352805468,14.158423,0.068,0.16833499999999998,298,14.220999999999998,0.21089000000000002,170.57822,-27.391379999999998,9
3027077016862,54426.7336590511,0.929420804372,14.167997,0.067,0.16833499999999998,298,14.220999999999998,0.21089000000000002,170.57822,-27.391379999999998,9
3027077016862,54426.74075272,0.971560994454,14.191769,0.068,0.16833499999999998,298,14.220999999999998,0.21089000000000002,170.57822,-27.391379999999998,9
3027077016862,54808.6817914002,0.905761726375,14.129092,0.065,0.16833499999999998,298,14.220999999999998,0.21089000000000002,170.57822,-27.391379999999998,9
3027077016862,54808.6892385647,0.950001869525,14.099138,0.064,0.16833499999999998,298,14.220999999999998,0.21089000000000002,170.57822,-27.391379999999998,9
3027077016862,54808.696583287,0.993633451173,14.067893,0.064,0.16833499999999998,298,14.220999999999998,0.21089000000000002,170.57822,-27.391379999999998,9
3027077016862,54808.7039745372,0.0375414334703,14.088352,0.064,0.16833499999999998,298,14.220999999999998,0.21089000000000002,170.57822,-27.391379999999998,9
3027077016862,54511.7303931364,0.855515112169,14.160356,0.061,0.16833499999999998,298,14.220999999999998,0.21089000000000002,170.57822,-27.391379999999998,9
3027077016862,54511.7414006251,0.920905486681,14.130516,0.061,0.16833499999999998,298,14.220999999999998,0.21089000000000002,170.57822,-27.391379999999998,9
3027077016862,54511.7525203819,0.986962793861,14.112206,0.061,0.16833499999999998,298,14.220999999999998,0.21089000000000002,170.57822,-27.391379999999998,9
3027077016862,54511.7635110766,0.0522534030606,14.112266,0.061,0.16833499999999998,298,14.220999999999998,0.21089000000000002,170.57822,-27.391379999999998,9
3027077016862,54521.6504856595,0.786174351757,14.203838,0.062,0.16833499999999998,298,14.220999999999998,0.21089000000000002,170.57822,-27.391379999999998,9
3027077016862,54521.6616608566,0.852561003936,14.177658,0.062,0.16833499999999998,298,14.220999999999998,0.21089000000000002,170.57822,-27.391379999999998,9
3027077016862,54521.6728407987,0.918975844048,14.135639,0.062,0.16833499999999998,298,14.220999999999998,0.21089000000000002,170.57822,-27.391379999999998,9
3027077016862,54525.5899184026,0.188513396541,14.160259,0.067,0.16833499999999998,298,14.220999999999998,0.21089000000000002,170.57822,-27.391379999999998,9
3027077016862,54525.5999267708,0.24796846055,14.184843,0.067,0.16833499999999998,298,14.220999999999998,0.21089000000000002,170.57822,-27.391379999999998,9
3027077016862,54525.6089958681,0.301843752619,14.216929,0.067,0.16833499999999998,298,14.220999999999998,0.21089000000000002,170.57822,-27.391379999999998,9
3027077016862,54525.6179922686,0.35528718686,14.263914,0.068,0.16833499999999998,298,14.220999999999998,0.21089000000000002,170.57822,-27.391379999999998,9
3027077016862,54478.6812512266,0.52592287166,14.289501,0.068,0.16833499999999998,298,14.220999999999998,0.21089000000000002,170.57822,-27.391379999999998,9
3027077016862,54478.6929360416,0.595336926985,14.307661,0.068,0.16833499999999998,298,14.220999999999998,0.21089000000000002,170.57822,-27.391379999999998,9
3027077016862,54478.7052242478,0.668335449009,14.220666,0.068,0.16833499999999998,298,14.220999999999998,0.21089000000000002,170.57822,-27.391379999999998,9
3027077016862,54478.7186902661,0.748330805276,14.208113,0.067,0.16833499999999998,298,14.220999999999998,0.21089000000000002,170.57822,-27.391379999999998,9
3027077016862,54493.6741871067,0.591986851825,14.29204,0.069,0.16833499999999998,298,14.220999999999998,0.21089000000000002,170.57822,-27.391379999999998,9
3027077016862,54493.6851240971,0.656958428735,14.261942,0.068,0.16833499999999998,298,14.220999999999998,0.21089000000000002,170.57822,-27.391379999999998,9
3027077016862,54493.6958873609,0.720897976658,14.236393,0.068,0.16833499999999998,298,14.220999999999998,0.21089000000000002,170.57822,-27.391379999999998,9
3027077016862,54493.7067081483,0.785179245577,14.192259,0.067,0.16833499999999998,298,14.220999999999998,0.21089000000000002,170.57822,-27.391379999999998,9
3027077016862,54660.363401053,0.815136798657,14.158296,0.059,0.16833499999999998,298,14.220999999999998,0.21089000000000002,170.57822,-27.391379999999998,9
3027077016862,54660.3720722105,0.866648115392,14.121537,0.059,0.16833499999999998,298,14.220999999999998,0.21089000000000002,170.57822,-27.391379999999998,9
3027077016862,54660.3807642129,0.918283261999,14.116,0.059,0.16833499999999998,298,14.220999999999998,0.21089000000000002,170.57822,-27.391379999999998,9
3027077016862,54660.391602234,0.982666908239,14.069845,0.059,0.16833499999999998,298,14.220999999999998,0.21089000000000002,170.57822,-27.391379999999998,9
3027077016862,54632.44038375,0.937468440912,14.126587,0.059,0.16833499999999998,298,14.220999999999998,0.21089000000000002,170.57822,-27.391379999999998,9
3027077016862,54632.4503260301,0.996530906239,14.095615,0.059,0.16833499999999998,298,14.220999999999998,0.21089000000000002,170.57822,-27.391379999999998,9
3027077016862,54632.4603774538,0.0562417429755,14.105789,0.059,0.16833499999999998,298,14.220999999999998,0.21089000000000002,170.57822,-27.391379999999998,9
3027077016862,54632.4704515627,0.116087341972,14.129928,0.059,0.16833499999999998,298,14.220999999999998,0.21089000000000002,170.57822,-27.391379999999998,9
3027077016862,54535.6098803474,0.712450455409,14.253155,0.067,0.16833499999999998,298,14.220999999999998,0.21089000000000002,170.57822,-27.391379999999998,9
3027077016862,54535.6184508104,0.763363592851,14.23124,0.067,0.16833499999999998,298,14.220999999999998,0.21089000000000002,170.57822,-27.391379999999998,9
3027077016862,54535.6270078473,0.814196972176,14.167353,0.066,0.16833499999999998,298,14.220999999999998,0.21089000000000002,170.57822,-27.391379999999998,9
3027077016862,54535.635614433,0.865324697806,14.162896,0.066,0.16833499999999998,298,14.220999999999998,0.21089000000000002,170.57822,-27.391379999999998,9
3027077016862,54588.5288692014,0.0795687254868,14.104316,0.059,0.16833499999999998,298,14.220999999999998,0.21089000000000002,170.57822,-27.391379999999998,9
3027077016862,54588.5386861344,0.137886561977,14.125811,0.059,0.16833499999999998,298,14.220999999999998,0.21089000000000002,170.57822,-27.391379999999998,9
3027077016862,54588.548502604,0.196201645536,14.147722,0.059,0.16833499999999998,298,14.220999999999998,0.21089000000000002,170.57822,-27.391379999999998,9
3027077016862,54588.5583395604,0.25463843171,14.176513,0.060,0.16833499999999998,298,14.220999999999998,0.21089000000000002,170.57822,-27.391379999999998,9
3027077016862,54598.4691019097,0.129871445068,14.123491,0.062,0.16833499999999998,298,14.220999999999998,0.21089000000000002,170.57822,-27.391379999999998,9
3027077016862,54598.4781873265,0.183843683742,14.138977,0.062,0.16833499999999998,298,14.220999999999998,0.21089000000000002,170.57822,-27.391379999999998,9
3027077016862,54598.4871542246,0.237111857918,14.169178,0.062,0.16833499999999998,298,14.220999999999998,0.21089000000000002,170.57822,-27.391379999999998,9
3027077016862,54598.4961262151,0.290410283662,14.190003,0.063,0.16833499999999998,298,14.220999999999998,0.21089000000000002,170.57822,-27.391379999999998,9
3027077016862,54616.4790610997,0.118668724317,14.12238,0.059,0.16833499999999998,298,14.220999999999998,0.21089000000000002,170.57822,-27.391379999999998,9
3027077016862,54616.488953854,0.177436979895,14.159145,0.059,0.16833499999999998,298,14.220999999999998,0.21089000000000002,170.57822,-27.391379999999998,9
3027077016862,54616.4987601275,0.235691493202,14.157616,0.059,0.16833499999999998,298,14.220999999999998,0.21089000000000002,170.57822,-27.391379999999998,9
3027077016862,54616.5085837729,0.294049204851,14.198948,0.059,0.16833499999999998,298,14.220999999999998,0.21089000000000002,170.57822,-27.391379999999998,9
3027077016862,54936.5472604979,0.49508716492,14.267347,0.064,0.16833499999999998,298,14.220999999999998,0.21089000000000002,170.57822,-27.391379999999998,9
3027077016862,54936.5573290625,0.554899827752,14.263491,0.064,0.16833499999999998,298,14.220999999999998,0.21089000000000002,170.57822,-27.391379999999998,9
3027077016862,54936.5675013193,0.615328477812,14.230414,0.064,0.16833499999999998,298,14.220999999999998,0.21089000000000002,170.57822,-27.391379999999998,9
3027077016862,54936.5776227779,0.675455359276,14.215994,0.064,0.16833499999999998,298,14.220999999999998,0.21089000000000002,170.57822,-27.391379999999998,9
3027077016862,54944.5213210415,0.865274847834,14.112418,0.059,0.16833499999999998,298,14.220999999999998,0.21089000000000002,170.57822,-27.391379999999998,9
3027077016862,54944.532036609,0.928931054194,14.089733,0.059,0.16833499999999998,298,14.220999999999998,0.21089000000000002,170.57822,-27.391379999999998,9
3027077016862,54944.54274581,0.992549440125,14.075112,0.059,0.16833499999999998,298,14.220999999999998,0.21089000000000002,170.57822,-27.391379999999998,9
3027077016862,54944.5534577891,0.0561843295,14.072731,0.059,0.16833499999999998,298,14.220999999999998,0.21089000000000002,170.57822,-27.391379999999998,9
3027077016862,54866.5759743521,0.82819587196,14.126639,0.058,0.16833499999999998,298,14.220999999999998,0.21089000000000002,170.57822,-27.391379999999998,9
3027077016862,54866.5812141433,0.859323036217,14.112887,0.058,0.16833499999999998,298,14.220999999999998,0.21089000000000002,170.57822,-27.391379999999998,9
3027077016862,54866.586475347,0.890577402257,14.138213,0.058,0.16833499999999998,298,14.220999999999998,0.21089000000000002,170.57822,-27.391379999999998,9
3027077016862,54866.5918143288,0.922293811745,14.088823,0.057,0.16833499999999998,298,14.220999999999998,0.21089000000000002,170.57822,-27.391379999999998,9
3027077016862,54881.658913403,0.428926860157,14.268872,0.064,0.16833499999999998,298,14.220999999999998,0.21089000000000002,170.57822,-27.391379999999998,9
3027077016862,54881.667394051,0.479306448484,14.29063,0.091,0.16833499999999998,298,14.220999999999998,0.21089000000000002,170.57822,-27.391379999999998,9
3027077016862,54881.6758847685,0.529745855019,14.364188,0.091,0.16833499999999998,298,14.220999999999998,0.21089000000000002,170.57822,-27.391379999999998,9
3027077016862,54881.6843117128,0.579806414607,14.314276,0.069,0.16833499999999998,298,14.220999999999998,0.21089000000000002,170.57822,-27.391379999999998,9
3027077016862,54839.7351629629,0.379409884452,14.255618,0.064,0.16833499999999998,298,14.220999999999998,0.21089000000000002,170.57822,-27.391379999999998,9
3027077016862,54839.7408065858,0.412936025241,14.282368,0.064,0.16833499999999998,298,14.220999999999998,0.21089000000000002,170.57822,-27.391379999999998,9
3027077016862,54839.7462247337,0.445122723759,14.302962,0.064,0.16833499999999998,298,14.220999999999998,0.21089000000000002,170.57822,-27.391379999999998,9
3027077016862,54839.7514883682,0.476391530014,14.317088,0.064,0.16833499999999998,298,14.220999999999998,0.21089000000000002,170.57822,-27.391379999999998,9
3027077016862,55032.4045204052,0.938517867413,14.100593,0.064,0.16833499999999998,298,14.220999999999998,0.21089000000000002,170.57822,-27.391379999999998,9
3027077016862,55032.4091395602,0.965958120476,14.076631,0.064,0.16833499999999998,298,14.220999999999998,0.21089000000000002,170.57822,-27.391379999999998,9
3027077016862,55032.4137610301,0.993412125215,14.069904,0.064,0.16833499999999998,298,14.220999999999998,0.21089000000000002,170.57822,-27.391379999999998,9
3027077016862,55032.4183810071,0.0208572614356,14.092323,0.064,0.16833499999999998,298,14.220999999999998,0.21089000000000002,170.57822,-27.391379999999998,9
3027077016862,54895.632160984,0.43749656342,14.302986,0.061,0.16833499999999998,298,14.220999999999998,0.21089000000000002,170.57822,-27.391379999999998,9
3027077016862,54895.6375372224,0.46943429712,14.316702,0.061,0.16833499999999998,298,14.220999999999998,0.21089000000000002,170.57822,-27.391379999999998,9
3027077016862,54895.6429456482,0.501563241181,14.297446,0.061,0.16833499999999998,298,14.220999999999998,0.21089000000000002,170.57822,-27.391379999999998,9
3027077016862,54895.648307662,0.533416473132,14.31228,0.061,0.16833499999999998,298,14.220999999999998,0.21089000000000002,170.57822,-27.391379999999998,9
3027077016862,54905.6454999419,0.922089535161,14.096097,0.069,0.16833499999999998,298,14.220999999999998,0.21089000000000002,170.57822,-27.391379999999998,9
3027077016862,54905.6562789469,0.986122594273,14.092377,0.069,0.16833499999999998,298,14.220999999999998,0.21089000000000002,170.57822,-27.391379999999998,9
3027077016862,54905.6670721877,0.050240221608,14.102896,0.069,0.16833499999999998,298,14.220999999999998,0.21089000000000002,170.57822,-27.391379999999998,9
3027077016862,54905.6778459721,0.114242267562,14.111068,0.069,0.16833499999999998,298,14.220999999999998,0.21089000000000002,170.57822,-27.391379999999998,9
3027077016862,54914.5789323378,0.991459517041,14.10871,0.059,0.16833499999999998,298,14.220999999999998,0.21089000000000002,170.57822,-27.391379999999998,9
3027077016862,54914.5893292593,0.0532227956573,14.095466,0.060,0.16833499999999998,298,14.220999999999998,0.21089000000000002,170.57822,-27.391379999999998,9
3027077016862,54914.5997241087,0.114973764867,14.121076,0.061,0.16833499999999998,298,14.220999999999998,0.21089000000000002,170.57822,-27.391379999999998,9
3027077016862,54914.6101373493,0.176833987643,14.184143,0.064,0.16833499999999998,298,14.220999999999998,0.21089000000000002,170.57822,-27.391379999999998,9
3027077016862,54919.5952608564,0.791135868349,14.126582,0.063,0.16833499999999998,298,14.220999999999998,0.21089000000000002,170.57822,-27.391379999999998,9
3027077016862,54919.6038794794,0.842335102032,14.098511,0.063,0.16833499999999998,298,14.220999999999998,0.21089000000000002,170.57822,-27.391379999999998,9
3027077016862,54919.6125502895,0.893844355014,14.095035,0.063,0.16833499999999998,298,14.220999999999998,0.21089000000000002,170.57822,-27.391379999999998,9
3027077016862,54919.6211464467,0.944910129823,14.082944,0.062,0.16833499999999998,298,14.220999999999998,0.21089000000000002,170.57822,-27.391379999999998,9
3027077016862,54963.4712951044,0.438263607735,14.298666,0.061,0.16833499999999998,298,14.220999999999998,0.21089000000000002,170.57822,-27.391379999999998,9
3027077016862,54963.4820325463,0.502049759729,14.31328,0.061,0.16833499999999998,298,14.220999999999998,0.21089000000000002,170.57822,-27.391379999999998,9
3027077016862,54963.4927243865,0.565565013268,14.313944,0.062,0.16833499999999998,298,14.220999999999998,0.21089000000000002,170.57822,-27.391379999999998,9
3027077016862,54963.5034216666,0.629112582712,14.273018,0.061,0.16833499999999998,298,14.220999999999998,0.21089000000000002,170.57822,-27.391379999999998,9
3027077016862,54979.4370396876,0.283331972547,14.173741,0.059,0.16833499999999998,298,14.220999999999998,0.21089000000000002,170.57822,-27.391379999999998,9
3027077016862,54979.4508588541,0.365425218188,14.211103,0.058,0.16833499999999998,298,14.220999999999998,0.21089000000000002,170.57822,-27.391379999999998,9
3027077016862,54979.4645613426,0.446825333987,14.279702,0.059,0.16833499999999998,298,14.220999999999998,0.21089000000000002,170.57822,-27.391379999999998,9
3027077016862,54979.4783695022,0.528853192751,14.198018,0.134,0.16833499999999998,298,14.220999999999998,0.21089000000000002,170.57822,-27.391379999999998,9
3027077016862,55301.5731173265,0.944053978717,14.14857,0.061,0.16833499999999998,298,14.220999999999998,0.21089000000000002,170.57822,-27.391379999999998,9
3027077016862,55237.6117949886,0.979564491077,14.144448,0.061,0.16833499999999998,298,14.220999999999998,0.21089000000000002,170.57822,-27.391379999999998,9
3027077016862,55213.6348744212,0.543822860403,14.360177,0.057,0.16833499999999998,298,14.220999999999998,0.21089000000000002,170.57822,-27.391379999999998,9
3027077016862,55213.7047412615,0.958869287453,14.119572,0.055,0.16833499999999998,298,14.220999999999998,0.21089000000000002,170.57822,-27.391379999999998,9
3027077016862,55392.3633780903,0.286797696841,14.234125,0.062,0.16833499999999998,298,14.220999999999998,0.21089000000000002,170.57822,-27.391379999999998,9
3027077016862,55392.3905396992,0.448152191762,14.361527,0.063,0.16833499999999998,298,14.220999999999998,0.21089000000000002,170.57822,-27.391379999999998,9
3027077016862,55350.3963346412,0.980097075517,14.134289,0.068,0.16833499999999998,298,14.220999999999998,0.21089000000000002,170.57822,-27.391379999999998,9
3027077016862,55350.4316442246,0.189854900062,14.1878,0.067,0.16833499999999998,298,14.220999999999998,0.21089000000000002,170.57822,-27.391379999999998,9
3027077016862,55351.4485174075,0.230625880009,14.205537,0.069,0.16833499999999998,298,14.220999999999998,0.21089000000000002,170.57822,-27.391379999999998,9
3027077016862,55351.4786899883,0.409867159557,14.31797,0.069,0.16833499999999998,298,14.220999999999998,0.21089000000000002,170.57822,-27.391379999999998,9
3027077016862,55362.4592347802,0.640180474671,14.315818,0.062,0.16833499999999998,298,14.220999999999998,0.21089000000000002,170.57822,-27.391379999999998,9
3027077016862,55362.480936632,0.769101090089,14.248246,0.062,0.16833499999999998,298,14.220999999999998,0.21089000000000002,170.57822,-27.391379999999998,9
3027077016862,55267.6554659143,0.455050431017,14.361158,0.060,0.16833499999999998,298,14.220999999999998,0.21089000000000002,170.57822,-27.391379999999998,9
3027077016862,55325.5041655786,0.107289503678,14.168064,0.061,0.16833499999999998,298,14.220999999999998,0.21089000000000002,170.57822,-27.391379999999998,9
3027077016862,55325.541574074,0.329515988997,14.280254,0.062,0.16833499999999998,298,14.220999999999998,0.21089000000000002,170.57822,-27.391379999999998,9
3027077016862,55337.4269077432,0.934759516502,14.143549,0.059,0.16833499999999998,298,14.220999999999998,0.21089000000000002,170.57822,-27.391379999999998,9
3027077016862,55337.4606973495,0.135487863561,14.151008,0.059,0.16833499999999998,298,14.220999999999998,0.21089000000000002,170.57822,-27.391379999999998,9
3027077016862,55676.5307106598,0.392851515149,14.438697,0.068,0.16833499999999998,298,14.220999999999998,0.21089000000000002,170.57822,-27.391379999999998,9
3027077016862,55676.5802490277,0.687135935528,14.311263,0.060,0.16833499999999998,298,14.220999999999998,0.21089000000000002,170.57822,-27.391379999999998,9
3027077016862,55603.561018426,0.913823185954,14.181536,0.061,0.16833499999999998,298,14.220999999999998,0.21089000000000002,170.57822,-27.391379999999998,9
3027077016862,55603.600148947,0.146279425011,14.359389,0.088,0.16833499999999998,298,14.220999999999998,0.21089000000000002,170.57822,-27.391379999999998,9
3027077016862,55718.4462413079,0.393538526783,14.335304,0.060,0.16833499999999998,298,14.220999999999998,0.21089000000000002,170.57822,-27.391379999999998,9
3027077016862,55718.4568388195,0.456493417907,14.349037,0.060,0.16833499999999998,298,14.220999999999998,0.21089000000000002,170.57822,-27.391379999999998,9
3027077016862,55718.4674636459,0.519610573596,14.366859,0.060,0.16833499999999998,298,14.220999999999998,0.21089000000000002,170.57822,-27.391379999999998,9
3027077016862,55718.4780557178,0.582533150038,14.331376,0.060,0.16833499999999998,298,14.220999999999998,0.21089000000000002,170.57822,-27.391379999999998,9
3027077016862,55649.5846975233,0.319110840326,14.269406,0.058,0.16833499999999998,298,14.220999999999998,0.21089000000000002,170.57822,-27.391379999999998,9
3027077016862,55690.4660919792,0.176475356915,14.221437,0.058,0.16833499999999998,298,14.220999999999998,0.21089000000000002,170.57822,-27.391379999999998,9
3027077016862,55690.5171856017,0.479998821975,14.354525,0.059,0.16833499999999998,298,14.220999999999998,0.21089000000000002,170.57822,-27.391379999999998,9
3027077016862,54426.7194710185,0.845136296703,14.196314,0.067,0.16833499999999998,298,14.220999999999998,0.21089000000000002,170.57822,-27.391379999999998,9
3027077016862,54426.7265775345,0.887352805468,14.180605,0.067,0.16833499999999998,298,14.220999999999998,0.21089000000000002,170.57822,-27.391379999999998,9
3027077016862,54426.7336590511,0.929420804372,14.167997,0.067,0.16833499999999998,298,14.220999999999998,0.21089000000000002,170.57822,-27.391379999999998,9
3027077016862,54426.74075272,0.971560994454,14.191769,0.068,0.16833499999999998,298,14.220999999999998,0.21089000000000002,170.57822,-27.391379999999998,9
3027077016862,54881.6933175001,0.633305611496,14.702505,0.306,0.16833499999999998,298,14.220999999999998,0.21089000000000002,170.57822,-27.391379999999998,9
3027077016862,54881.7049447914,0.702377945243,14.236116,0.064,0.16833499999999998,298,14.220999999999998,0.21089000000000002,170.57822,-27.391379999999998,9
3027077016862,54881.7135444215,0.753464350884,14.289837,0.087,0.16833499999999998,298,14.220999999999998,0.21089000000000002,170.57822,-27.391379999999998,9
3027077016862,54881.7220119905,0.803766242985,14.168894,0.073,0.16833499999999998,298,14.220999999999998,0.21089000000000002,170.57822,-27.391379999999998,9
3027077016862,54979.4978313659,0.644467079954,14.332098,0.064,0.16833499999999998,298,14.220999999999998,0.21089000000000002,170.57822,-27.391379999999998,9
3027077016862,54979.5190260418,0.770374799089,14.188168,0.058,0.16833499999999998,298,14.220999999999998,0.21089000000000002,170.57822,-27.391379999999998,9
3027077016862,54979.5327573496,0.851946117007,14.155953,0.058,0.16833499999999998,298,14.220999999999998,0.21089000000000002,170.57822,-27.391379999999998,9
3027077016862,54979.5468303355,0.935547185712,14.151893,0.059,0.16833499999999998,298,14.220999999999998,0.21089000000000002,170.57822,-27.391379999999998,9
3027077016862,54881.7310110649,0.857225561573,14.099167,0.071,0.16833499999999998,298,14.220999999999998,0.21089000000000002,170.57822,-27.391379999999998,9
3027077016862,54881.7395507406,0.907955806062,14.11717,0.066,0.16833499999999998,298,14.220999999999998,0.21089000000000002,170.57822,-27.391379999999998,9
3027077016862,54881.7480724768,0.958579480241,14.1314,0.065,0.16833499999999998,298,14.220999999999998,0.21089000000000002,170.57822,-27.391379999999998,9
3027077016862,54881.7565980322,0.00922584254295,14.104799,0.064,0.16833499999999998,298,14.220999999999998,0.21089000000000002,170.57822,-27.391379999999998,9
3027077016862,55655.5415961226,0.70627690386,14.28692,0.062,0.16833499999999998,298,14.220999999999998,0.21089000000000002,170.57822,-27.391379999999998,9
3027077016862,55655.6610931135,0.416152989608,14.239257,0.063,0.16833499999999998,298,14.220999999999998,0.21089000000000002,170.57822,-27.391379999999998,9
3027077016862,54881.658913403,0.428926860157,14.268872,0.064,0.16833499999999998,298,14.220999999999998,0.21089000000000002,170.57822,-27.391379999999998,9
3027077016862,54881.6843117128,0.579806414607,14.314276,0.069,0.16833499999999998,298,14.220999999999998,0.21089000000000002,170.57822,-27.391379999999998,9
3027077016862,54881.7049447914,0.702377945243,14.236116,0.064,0.16833499999999998,298,14.220999999999998,0.21089000000000002,170.57822,-27.391379999999998,9
3027077016862,54881.7480724768,0.958579480241,14.1314,0.065,0.16833499999999998,298,14.220999999999998,0.21089000000000002,170.57822,-27.391379999999998,9
3027077016862,55743.3850486226,0.543402278796,14.376945,0.060,0.16833499999999998,298,14.220999999999998,0.21089000000000002,170.57822,-27.391379999999998,9
3027077016862,55743.3965491781,0.611721734051,14.368115,0.060,0.16833499999999998,298,14.220999999999998,0.21089000000000002,170.57822,-27.391379999999998,9
3027077016862,55743.407856088,0.678890830837,14.326023,0.060,0.16833499999999998,298,14.220999999999998,0.21089000000000002,170.57822,-27.391379999999998,9
3027077016862,55743.4192431018,0.746535787592,14.260225,0.060,0.16833499999999998,298,14.220999999999998,0.21089000000000002,170.57822,-27.391379999999998,9
3027077016862,55980.6963159259,0.299349071225,14.331107,0.058,0.16833499999999998,298,14.220999999999998,0.21089000000000002,170.57822,-27.391379999999998,9
3027077016862,55980.7097582289,0.379203545919,14.372358,0.059,0.16833499999999998,298,14.220999999999998,0.21089000000000002,170.57822,-27.391379999999998,9
3027077016862,55980.7233889698,0.460177442641,14.419082,0.059,0.16833499999999998,298,14.220999999999998,0.21089000000000002,170.57822,-27.391379999999998,9
3027077016862,55980.7369923842,0.540989005298,14.415371,0.059,0.16833499999999998,298,14.220999999999998,0.21089000000000002,170.57822,-27.391379999999998,9
3027077016862,56064.52741044,0.300920426555,14.284704,0.059,0.16833499999999998,298,14.220999999999998,0.21089000000000002,170.57822,-27.391379999999998,9
3027077016862,56064.5393185419,0.371660925564,14.305927,0.059,0.16833499999999998,298,14.220999999999998,0.21089000000000002,170.57822,-27.391379999999998,9
3027077016862,56064.5513928471,0.443388761138,14.356756,0.059,0.16833499999999998,298,14.220999999999998,0.21089000000000002,170.57822,-27.391379999999998,9
3027077016862,56064.5634687732,0.515126225713,14.375815,0.060,0.16833499999999998,298,14.220999999999998,0.21089000000000002,170.57822,-27.391379999999998,9
3027077016862,56092.3884973493,0.810689097969,14.271054,0.061,0.16833499999999998,298,14.220999999999998,0.21089000000000002,170.57822,-27.391379999999998,9
3027077016862,56092.3990629166,0.873454222863,14.239862,0.061,0.16833499999999998,298,14.220999999999998,0.21089000000000002,170.57822,-27.391379999999998,9
3027077016862,56092.4097042941,0.936669700895,14.235104,0.061,0.16833499999999998,298,14.220999999999998,0.21089000000000002,170.57822,-27.391379999999998,9
3027077016862,56092.4203716088,3.92598449253e-05,14.198349,0.061,0.16833499999999998,298,14.220999999999998,0.21089000000000002,170.57822,-27.391379999999998,9
3027077016862,56279.7260776158,0.696186864341,14.299339,0.061,0.16833499999999998,298,14.220999999999998,0.21089000000000002,170.57822,-27.391379999999998,9
3027077016862,56279.7284657871,0.710373880109,14.310415,0.061,0.16833499999999998,298,14.220999999999998,0.21089000000000002,170.57822,-27.391379999999998,9
3027077016862,56279.7310544327,0.725751820486,14.281816,0.060,0.16833499999999998,298,14.220999999999998,0.21089000000000002,170.57822,-27.391379999999998,9
3027077016862,56279.7334027896,0.739702317456,14.283424,0.060,0.16833499999999998,298,14.220999999999998,0.21089000000000002,170.57822,-27.391379999999998,9
3027077016862,56357.7088504285,0.955597044609,14.17371,0.060,0.16833499999999998,298,14.220999999999998,0.21089000000000002,170.57822,-27.391379999999998,9
3027077016862,56357.7206405904,0.0256369168637,14.173149,0.060,0.16833499999999998,298,14.220999999999998,0.21089000000000002,170.57822,-27.391379999999998,9
3027077016862,56357.7326047109,0.096710196347,14.199725,0.060,0.16833499999999998,298,14.220999999999998,0.21089000000000002,170.57822,-27.391379999999998,9
3027077016862,56357.7447005557,0.168565988657,14.281076,0.065,0.16833499999999998,298,14.220999999999998,0.21089000000000002,170.57822,-27.391379999999998,9
3027077016862,56368.6007396295,0.659248697571,14.259857,0.055,0.16833499999999998,298,14.220999999999998,0.21089000000000002,170.57822,-27.391379999999998,9
3027077016862,56368.619485382,0.770608500927,14.219684,0.055,0.16833499999999998,298,14.220999999999998,0.21089000000000002,170.57822,-27.391379999999998,9
3027077016862,56368.6383378357,0.882602166559,14.132831,0.055,0.16833499999999998,298,14.220999999999998,0.21089000000000002,170.57822,-27.391379999999998,9
3027077016862,56368.6571785994,0.994526387309,14.13081,0.055,0.16833499999999998,298,14.220999999999998,0.21089000000000002,170.57822,-27.391379999999998,9
3027077016862,56387.5178743173,0.0371539923945,14.183098,0.059,0.16833499999999998,298,14.220999999999998,0.21089000000000002,170.57822,-27.391379999999998,9
3027077016862,56387.5311274882,0.115884921164,14.19079,0.060,0.16833499999999998,298,14.220999999999998,0.21089000000000002,170.57822,-27.391379999999998,9
3027077016862,56387.5447272104,0.196674550185,14.243559,0.062,0.16833499999999998,298,14.220999999999998,0.21089000000000002,170.57822,-27.391379999999998,9
3027077016862,56387.5577402082,0.273978722224,14.261404,0.061,0.16833499999999998,298,14.220999999999998,0.21089000000000002,170.57822,-27.391379999999998,9
3027077016862,56406.5069269909,0.842290616361,14.133545,0.057,0.16833499999999998,298,14.220999999999998,0.21089000000000002,170.57822,-27.391379999999998,9
3027077016862,56406.5175248495,0.905247568851,14.106477,0.057,0.16833499999999998,298,14.220999999999998,0.21089000000000002,170.57822,-27.391379999999998,9
3027077016862,56406.5281418058,0.968317971914,14.101253,0.057,0.16833499999999998,298,14.220999999999998,0.21089000000000002,170.57822,-27.391379999999998,9
3027077016862,56406.5387671067,0.0314379463671,14.127422,0.057,0.16833499999999998,298,14.220999999999998,0.21089000000000002,170.57822,-27.391379999999998,9
3027077016862,56419.416859699,0.534200843598,14.366692,0.060,0.16833499999999998,298,14.220999999999998,0.21089000000000002,170.57822,-27.391379999999998,9
3027077016862,56419.4241196993,0.577329131251,14.345609,0.060,0.16833499999999998,298,14.220999999999998,0.21089000000000002,170.57822,-27.391379999999998,9
3027077016862,56419.4311109493,0.618860898248,14.318997,0.060,0.16833499999999998,298,14.220999999999998,0.21089000000000002,170.57822,-27.391379999999998,9
3027077016862,56419.4385387846,0.662986215611,14.281589,0.060,0.16833499999999998,298,14.220999999999998,0.21089000000000002,170.57822,-27.391379999999998,9
3027077016862,56464.4282134723,0.925734234159,14.163098,0.057,0.16833499999999998,298,14.220999999999998,0.21089000000000002,170.57822,-27.391379999999998,9
3027077016862,56464.437332685,0.979907238565,14.182582,0.058,0.16833499999999998,298,14.220999999999998,0.21089000000000002,170.57822,-27.391379999999998,9
3027077016862,56464.4464840855,0.0342714557773,14.164717,0.058,0.16833499999999998,298,14.220999999999998,0.21089000000000002,170.57822,-27.391379999999998,9
3027077016862,56464.455655625,0.0887553094071,14.203171,0.058,0.16833499999999998,298,14.220999999999998,0.21089000000000002,170.57822,-27.391379999999998,9
