ID,MjD,Phase,Mag,Mag_err,Period,Npts,V,Amp,ra,dec,Type
3027074035226,53708.6846767363,0.382563152467,11.136706,0.051,0.166364,275,11.104000000000001,0.19766199999999998,164.71213999999998,-26.325640000000003,9
3027074035226,53708.6932111575,0.433862839884,11.111753,0.051,0.166364,275,11.104000000000001,0.19766199999999998,164.71213999999998,-26.325640000000003,9
3027074035226,53708.701846007,0.485766193422,11.074475,0.051,0.166364,275,11.104000000000001,0.19766199999999998,164.71213999999998,-26.325640000000003,9
3027074035226,53708.7106904748,0.538929544855,11.036695,0.051,0.166364,275,11.104000000000001,0.19766199999999998,164.71213999999998,-26.325640000000003,9
3027074035226,53724.6581321526,0.397659064445,11.167925,0.051,0.166364,275,11.104000000000001,0.19766199999999998,164.71213999999998,-26.325640000000003,9
3027074035226,53724.6702204165,0.470320601191,11.12261,0.050,0.166364,275,11.104000000000001,0.19766199999999998,164.71213999999998,-26.325640000000003,9
3027074035226,53724.6823016089,0.542939631734,11.048127,0.050,0.166364,275,11.104000000000001,0.19766199999999998,164.71213999999998,-26.325640000000003,9
3027074035226,53724.6944304975,0.615845360153,11.012793,0.050,0.166364,275,11.104000000000001,0.19766199999999998,164.71213999999998,-26.325640000000003,9
3027074035226,53693.7162515974,0.408619637601,11.19985,0.051,0.166364,275,11.104000000000001,0.19766199999999998,164.71213999999998,-26.325640000000003,9
3027074035226,53693.7227133565,0.44746072765,11.180441,0.051,0.166364,275,11.104000000000001,0.19766199999999998,164.71213999999998,-26.325640000000003,9
3027074035226,53693.7291637037,0.486233221716,11.14499,0.051,0.166364,275,11.104000000000001,0.19766199999999998,164.71213999999998,-26.325640000000003,9
3027074035226,53693.7356637732,0.525304592331,11.113238,0.051,0.166364,275,11.104000000000001,0.19766199999999998,164.71213999999998,-26.325640000000003,9
3027074035226,53850.4905908681,0.765976221417,11.053226,0.049,0.166364,275,11.104000000000001,0.19766199999999998,164.71213999999998,-26.325640000000003,9
3027074035226,53850.5012441669,0.830012303719,11.077024,0.050,0.166364,275,11.104000000000001,0.19766199999999998,164.71213999999998,-26.325640000000003,9
3027074035226,53850.5119058914,0.894099032215,11.12505,0.049,0.166364,275,11.104000000000001,0.19766199999999998,164.71213999999998,-26.325640000000003,9
3027074035226,53850.5227134605,0.959062420356,11.14273,0.049,0.166364,275,11.104000000000001,0.19766199999999998,164.71213999999998,-26.325640000000003,9
3027074035226,54084.6371541321,0.201258277579,11.194307,0.051,0.166364,275,11.104000000000001,0.19766199999999998,164.71213999999998,-26.325640000000003,9
3027074035226,54084.6454996993,0.251422779518,11.168777,0.051,0.166364,275,11.104000000000001,0.19766199999999998,164.71213999999998,-26.325640000000003,9
3027074035226,54084.6538544213,0.301642310224,11.167163,0.051,0.166364,275,11.104000000000001,0.19766199999999998,164.71213999999998,-26.325640000000003,9
3027074035226,54084.6622156249,0.351900801237,12.154332,0.062,0.166364,275,11.104000000000001,0.19766199999999998,164.71213999999998,-26.325640000000003,9
3027074035226,53741.6456231714,0.508037624706,11.054929,0.050,0.166364,275,11.104000000000001,0.19766199999999998,164.71213999999998,-26.325640000000003,9
3027074035226,53741.6612064817,0.601707591151,10.967417,0.050,0.166364,275,11.104000000000001,0.19766199999999998,164.71213999999998,-26.325640000000003,9
3027074035226,53741.6769935071,0.696602071926,11.011448,0.050,0.166364,275,11.104000000000001,0.19766199999999998,164.71213999999998,-26.325640000000003,9
3027074035226,53741.6931670138,0.793819659273,10.98694,0.053,0.166364,275,11.104000000000001,0.19766199999999998,164.71213999999998,-26.325640000000003,9
3027074035226,53758.6561931713,0.75714199763,11.030969,0.051,0.166364,275,11.104000000000001,0.19766199999999998,164.71213999999998,-26.325640000000003,9
3027074035226,53758.6690579631,0.834471178241,11.070386,0.051,0.166364,275,11.104000000000001,0.19766199999999998,164.71213999999998,-26.325640000000003,9
3027074035226,53758.6810944678,0.906821594806,11.10434,0.051,0.166364,275,11.104000000000001,0.19766199999999998,164.71213999999998,-26.325640000000003,9
3027074035226,53758.6931004861,0.978988760209,11.127738,0.051,0.166364,275,11.104000000000001,0.19766199999999998,164.71213999999998,-26.325640000000003,9
3027074035226,53764.6407581249,0.729858171835,11.018004,0.051,0.166364,275,11.104000000000001,0.19766199999999998,164.71213999999998,-26.325640000000003,9
3027074035226,53764.65332772,0.805412949878,11.064501,0.052,0.166364,275,11.104000000000001,0.19766199999999998,164.71213999999998,-26.325640000000003,9
3027074035226,53764.665396713,0.877958650875,11.094405,0.052,0.166364,275,11.104000000000001,0.19766199999999998,164.71213999999998,-26.325640000000003,9
3027074035226,53764.6774447456,0.950378360692,11.150592,0.052,0.166364,275,11.104000000000001,0.19766199999999998,164.71213999999998,-26.325640000000003,9
3027074035226,53923.4048452084,0.0474213676061,11.145099,0.050,0.166364,275,11.104000000000001,0.19766199999999998,164.71213999999998,-26.325640000000003,9
3027074035226,53923.411385023,0.0867316426593,11.143806,0.050,0.166364,275,11.104000000000001,0.19766199999999998,164.71213999999998,-26.325640000000003,9
3027074035226,53923.4179335763,0.126094445295,11.16493,0.050,0.166364,275,11.104000000000001,0.19766199999999998,164.71213999999998,-26.325640000000003,9
3027074035226,53923.4244731828,0.165403469466,11.188523,0.050,0.166364,275,11.104000000000001,0.19766199999999998,164.71213999999998,-26.325640000000003,9
3027074035226,53892.4194869792,0.797041302139,11.072044,0.051,0.166364,275,11.104000000000001,0.19766199999999998,164.71213999999998,-26.325640000000003,9
3027074035226,53892.4294271298,0.856790710706,11.10471,0.051,0.166364,275,11.104000000000001,0.19766199999999998,164.71213999999998,-26.325640000000003,9
3027074035226,53892.4393029396,0.916153372091,11.129769,0.051,0.166364,275,11.104000000000001,0.19766199999999998,164.71213999999998,-26.325640000000003,9
3027074035226,53892.4491572107,0.975386566191,11.16626,0.051,0.166364,275,11.104000000000001,0.19766199999999998,164.71213999999998,-26.325640000000003,9
3027074035226,53812.6964899539,0.588817015057,11.024714,0.050,0.166364,275,11.104000000000001,0.19766199999999998,164.71213999999998,-26.325640000000003,9
3027074035226,53812.7051742822,0.641017781454,11.037197,0.050,0.166364,275,11.104000000000001,0.19766199999999998,164.71213999999998,-26.325640000000003,9
3027074035226,53812.7138773725,0.69333132467,11.048474,0.050,0.166364,275,11.104000000000001,0.19766199999999998,164.71213999999998,-26.325640000000003,9
3027074035226,53812.7225421411,0.745414519333,11.090628,0.050,0.166364,275,11.104000000000001,0.19766199999999998,164.71213999999998,-26.325640000000003,9
3027074035226,53821.5970120604,0.0891061791917,11.17096,0.051,0.166364,275,11.104000000000001,0.19766199999999998,164.71213999999998,-26.325640000000003,9
3027074035226,53821.6055247687,0.140275352227,11.171612,0.051,0.166364,275,11.104000000000001,0.19766199999999998,164.71213999999998,-26.325640000000003,9
3027074035226,53821.6140236805,0.191361595644,11.202393,0.051,0.166364,275,11.104000000000001,0.19766199999999998,164.71213999999998,-26.325640000000003,9
3027074035226,53821.6224967248,0.242292351671,11.188158,0.051,0.166364,275,11.104000000000001,0.19766199999999998,164.71213999999998,-26.325640000000003,9
3027074035226,53858.4845363658,0.816909702786,11.067734,0.051,0.166364,275,11.104000000000001,0.19766199999999998,164.71213999999998,-26.325640000000003,9
3027074035226,53858.4947996067,0.878601179924,11.097702,0.051,0.166364,275,11.104000000000001,0.19766199999999998,164.71213999999998,-26.325640000000003,9
3027074035226,53858.5050379631,0.940143078391,11.124163,0.051,0.166364,275,11.104000000000001,0.19766199999999998,164.71213999999998,-26.325640000000003,9
3027074035226,53858.5153074536,0.00187212135643,11.129759,0.051,0.166364,275,11.104000000000001,0.19766199999999998,164.71213999999998,-26.325640000000003,9
3027074035226,53874.4031987266,0.502649170463,11.087956,0.053,0.166364,275,11.104000000000001,0.19766199999999998,164.71213999999998,-26.325640000000003,9
3027074035226,53874.408330185,0.533493934956,11.070428,0.052,0.166364,275,11.104000000000001,0.19766199999999998,164.71213999999998,-26.325640000000003,9
3027074035226,53874.4134608104,0.564333692368,10.994199,0.052,0.166364,275,11.104000000000001,0.19766199999999998,164.71213999999998,-26.325640000000003,9
3027074035226,53874.4186007987,0.59522972937,10.99365,0.052,0.166364,275,11.104000000000001,0.19766199999999998,164.71213999999998,-26.325640000000003,9
3027074035226,53879.4252950694,0.690047542681,11.007431,0.050,0.166364,275,11.104000000000001,0.19766199999999998,164.71213999999998,-26.325640000000003,9
3027074035226,53879.4361096411,0.755053022876,11.046665,0.050,0.166364,275,11.104000000000001,0.19766199999999998,164.71213999999998,-26.325640000000003,9
3027074035226,53879.4469587961,0.820266380324,11.070593,0.050,0.166364,275,11.104000000000001,0.19766199999999998,164.71213999999998,-26.325640000000003,9
3027074035226,53879.4578349073,0.885641769215,11.108123,0.050,0.166364,275,11.104000000000001,0.19766199999999998,164.71213999999998,-26.325640000000003,9
3027074035226,53886.4020552891,0.626765941561,10.956728,0.050,0.166364,275,11.104000000000001,0.19766199999999998,164.71213999999998,-26.325640000000003,9
3027074035226,53886.4129588544,0.6923063547,10.969697,0.050,0.166364,275,11.104000000000001,0.19766199999999998,164.71213999999998,-26.325640000000003,9
3027074035226,53886.4238318983,0.757663306314,10.998789,0.050,0.166364,275,11.104000000000001,0.19766199999999998,164.71213999999998,-26.325640000000003,9
3027074035226,53886.4347107289,0.823055041314,11.043424,0.050,0.166364,275,11.104000000000001,0.19766199999999998,164.71213999999998,-26.325640000000003,9
3027074035226,54196.5344217361,0.806314684043,11.078431,0.051,0.166364,275,11.104000000000001,0.19766199999999998,164.71213999999998,-26.325640000000003,9
3027074035226,54196.5445915625,0.867444654461,11.11332,0.051,0.166364,275,11.104000000000001,0.19766199999999998,164.71213999999998,-26.325640000000003,9
3027074035226,54196.5547472687,0.928489749553,11.144502,0.051,0.166364,275,11.104000000000001,0.19766199999999998,164.71213999999998,-26.325640000000003,9
3027074035226,54196.564957963,0.989865373471,11.167918,0.051,0.166364,275,11.104000000000001,0.19766199999999998,164.71213999999998,-26.325640000000003,9
3027074035226,54207.5171413772,0.822517955792,11.079454,0.051,0.166364,275,11.104000000000001,0.19766199999999998,164.71213999999998,-26.325640000000003,9
3027074035226,54207.5256500348,0.873662780388,11.099005,0.051,0.166364,275,11.104000000000001,0.19766199999999998,164.71213999999998,-26.325640000000003,9
3027074035226,54207.5341689933,0.924869522802,11.126982,0.051,0.166364,275,11.104000000000001,0.19766199999999998,164.71213999999998,-26.325640000000003,9
3027074035226,54207.5426915392,0.976097828825,11.140701,0.051,0.166364,275,11.104000000000001,0.19766199999999998,164.71213999999998,-26.325640000000003,9
3027074035226,54448.6419287037,0.203317446634,11.160494,0.051,0.166364,275,11.104000000000001,0.19766199999999998,164.71213999999998,-26.325640000000003,9
3027074035226,54448.6505268288,0.255000052857,12.81658,0.140,0.166364,275,11.104000000000001,0.19766199999999998,164.71213999999998,-26.325640000000003,9
3027074035226,54448.6597444212,0.310406224919,11.157586,0.051,0.166364,275,11.104000000000001,0.19766199999999998,164.71213999999998,-26.325640000000003,9
3027074035226,54448.6685931368,0.363595109491,11.147315,0.051,0.166364,275,11.104000000000001,0.19766199999999998,164.71213999999998,-26.325640000000003,9
3027074035226,54138.7334925581,0.369794896105,11.169974,0.051,0.166364,275,11.104000000000001,0.19766199999999998,164.71213999999998,-26.325640000000003,9
3027074035226,54138.7420177662,0.421039204346,11.126082,0.051,0.166364,275,11.104000000000001,0.19766199999999998,164.71213999999998,-26.325640000000003,9
3027074035226,54138.7505702895,0.472447702021,11.088413,0.051,0.166364,275,11.104000000000001,0.19766199999999998,164.71213999999998,-26.325640000000003,9
3027074035226,54138.7590787268,0.523591202393,11.050664,0.051,0.166364,275,11.104000000000001,0.19766199999999998,164.71213999999998,-26.325640000000003,9
3027074035226,54153.5846489118,0.63884561439,10.98127,0.050,0.166364,275,11.104000000000001,0.19766199999999998,164.71213999999998,-26.325640000000003,9
3027074035226,54153.5988689005,0.724320769485,11.00705,0.050,0.166364,275,11.104000000000001,0.19766199999999998,164.71213999999998,-26.325640000000003,9
3027074035226,54153.6128176968,0.808165809896,11.061613,0.050,0.166364,275,11.104000000000001,0.19766199999999998,164.71213999999998,-26.325640000000003,9
3027074035226,54153.6266099075,0.891069627425,11.116458,0.050,0.166364,275,11.104000000000001,0.19766199999999998,164.71213999999998,-26.325640000000003,9
3027074035226,54131.6220286341,0.62338386965,10.989159,0.051,0.166364,275,11.104000000000001,0.19766199999999998,164.71213999999998,-26.325640000000003,9
3027074035226,54131.6320240392,0.683465408394,11.007321,0.051,0.166364,275,11.104000000000001,0.19766199999999998,164.71213999999998,-26.325640000000003,9
3027074035226,54131.6418189701,0.742341913516,11.011702,0.051,0.166364,275,11.104000000000001,0.19766199999999998,164.71213999999998,-26.325640000000003,9
3027074035226,54131.6514425927,0.800188698864,11.061451,0.051,0.166364,275,11.104000000000001,0.19766199999999998,164.71213999999998,-26.325640000000003,9
3027074035226,54291.3901034954,0.975833085307,11.130044,0.051,0.166364,275,11.104000000000001,0.19766199999999998,164.71213999999998,-26.325640000000003,9
3027074035226,54291.3952160763,0.0065643786802,11.134387,0.051,0.166364,275,11.104000000000001,0.19766199999999998,164.71213999999998,-26.325640000000003,9
3027074035226,54291.4003110646,0.0371899245074,11.15346,0.051,0.166364,275,11.104000000000001,0.19766199999999998,164.71213999999998,-26.325640000000003,9
3027074035226,54291.4053979397,0.0677667025011,11.183933,0.051,0.166364,275,11.104000000000001,0.19766199999999998,164.71213999999998,-26.325640000000003,9
3027074035226,54169.6153247223,0.997888499289,11.132203,0.051,0.166364,275,11.104000000000001,0.19766199999999998,164.71213999999998,-26.325640000000003,9
3027074035226,54169.6238403243,0.0490750660538,11.151384,0.051,0.166364,275,11.104000000000001,0.19766199999999998,164.71213999999998,-26.325640000000003,9
3027074035226,54169.6323611342,0.100292937132,11.152949,0.051,0.166364,275,11.104000000000001,0.19766199999999998,164.71213999999998,-26.325640000000003,9
3027074035226,54169.6409180674,0.151727942342,11.167577,0.051,0.166364,275,11.104000000000001,0.19766199999999998,164.71213999999998,-26.325640000000003,9
3027074035226,54186.5543969215,0.817225610663,11.057408,0.051,0.166364,275,11.104000000000001,0.19766199999999998,164.71213999999998,-26.325640000000003,9
3027074035226,54186.5650223262,0.881094023935,11.096701,0.051,0.166364,275,11.104000000000001,0.19766199999999998,164.71213999999998,-26.325640000000003,9
3027074035226,54186.5756993519,0.945272726647,11.106646,0.051,0.166364,275,11.104000000000001,0.19766199999999998,164.71213999999998,-26.325640000000003,9
3027074035226,54186.5863343633,0.00919888494536,11.129569,0.051,0.166364,275,11.104000000000001,0.19766199999999998,164.71213999999998,-26.325640000000003,9
3027074035226,54228.4432554976,0.607628438855,10.967896,0.051,0.166364,275,11.104000000000001,0.19766199999999998,164.71213999999998,-26.325640000000003,9
3027074035226,54228.451489294,0.657121095865,10.98987,0.051,0.166364,275,11.104000000000001,0.19766199999999998,164.71213999999998,-26.325640000000003,9
3027074035226,54228.4596970254,0.706457078399,10.984567,0.051,0.166364,275,11.104000000000001,0.19766199999999998,164.71213999999998,-26.325640000000003,9
3027074035226,54228.4679128705,0.755841831735,11.035411,0.051,0.166364,275,11.104000000000001,0.19766199999999998,164.71213999999998,-26.325640000000003,9
3027074035226,54236.5165738079,0.135665215435,11.181307,0.051,0.166364,275,11.104000000000001,0.19766199999999998,164.71213999999998,-26.325640000000003,9
3027074035226,54236.5208875115,0.16159452463,11.186548,0.051,0.166364,275,11.104000000000001,0.19766199999999998,164.71213999999998,-26.325640000000003,9
3027074035226,54236.525191609,0.187466092408,11.184731,0.051,0.166364,275,11.104000000000001,0.19766199999999998,164.71213999999998,-26.325640000000003,9
3027074035226,54236.5294803126,0.213245128747,11.173636,0.051,0.166364,275,11.104000000000001,0.19766199999999998,164.71213999999998,-26.325640000000003,9
3027074035226,54247.4608060649,0.920524061075,11.130703,0.051,0.166364,275,11.104000000000001,0.19766199999999998,164.71213999999998,-26.325640000000003,9
3027074035226,54247.473616956,0.997529249056,11.155891,0.051,0.166364,275,11.104000000000001,0.19766199999999998,164.71213999999998,-26.325640000000003,9
3027074035226,54247.4864727777,0.0748045111541,11.174398,0.051,0.166364,275,11.104000000000001,0.19766199999999998,164.71213999999998,-26.325640000000003,9
3027074035226,54247.499449074,0.152803935925,11.204453,0.051,0.166364,275,11.104000000000001,0.19766199999999998,164.71213999999998,-26.325640000000003,9
3027074035226,54424.6975066435,0.275412009156,11.192835,0.051,0.166364,275,11.104000000000001,0.19766199999999998,164.71213999999998,-26.325640000000003,9
3027074035226,54424.7066060646,0.330107863469,11.175111,0.051,0.166364,275,11.104000000000001,0.19766199999999998,164.71213999999998,-26.325640000000003,9
3027074035226,54424.7157906831,0.3853158321,11.159224,0.051,0.166364,275,11.104000000000001,0.19766199999999998,164.71213999999998,-26.325640000000003,9
3027074035226,54424.7324420024,0.485405510815,11.105177,0.051,0.166364,275,11.104000000000001,0.19766199999999998,164.71213999999998,-26.325640000000003,9
3027074035226,54809.6609875347,0.258490627166,11.196117,0.051,0.166364,275,11.104000000000001,0.19766199999999998,164.71213999999998,-26.325640000000003,9
3027074035226,54809.6685584259,0.303998616873,11.17002,0.051,0.166364,275,11.104000000000001,0.19766199999999998,164.71213999999998,-26.325640000000003,9
3027074035226,54809.6761235303,0.349471822614,11.150134,0.051,0.166364,275,11.104000000000001,0.19766199999999998,164.71213999999998,-26.325640000000003,9
3027074035226,54809.6836944215,0.394979812321,11.128215,0.051,0.166364,275,11.104000000000001,0.19766199999999998,164.71213999999998,-26.325640000000003,9
3027074035226,54501.6598099419,0.889338690438,11.100616,0.051,0.166364,275,11.104000000000001,0.19766199999999998,164.71213999999998,-26.325640000000003,9
3027074035226,54501.6717576273,0.961155221681,11.119141,0.051,0.166364,275,11.104000000000001,0.19766199999999998,164.71213999999998,-26.325640000000003,9
3027074035226,54501.682611065,0.0263943220489,11.148577,0.052,0.166364,275,11.104000000000001,0.19766199999999998,164.71213999999998,-26.325640000000003,9
3027074035226,54511.6623478125,0.0137518483098,11.132989,0.050,0.166364,275,11.104000000000001,0.19766199999999998,164.71213999999998,-26.325640000000003,9
3027074035226,54511.6772887845,0.103560773365,11.164662,0.050,0.166364,275,11.104000000000001,0.19766199999999998,164.71213999999998,-26.325640000000003,9
3027074035226,54511.69222419,0.193336238619,11.173563,0.050,0.166364,275,11.104000000000001,0.19766199999999998,164.71213999999998,-26.325640000000003,9
3027074035226,54511.7071079862,0.282801484689,11.158688,0.050,0.166364,275,11.104000000000001,0.19766199999999998,164.71213999999998,-26.325640000000003,9
3027074035226,54521.6437791437,0.0112953745411,11.158825,0.050,0.166364,275,11.104000000000001,0.19766199999999998,164.71213999999998,-26.325640000000003,9
3027074035226,54521.6549589699,0.0784963687765,11.17815,0.050,0.166364,275,11.104000000000001,0.19766199999999998,164.71213999999998,-26.325640000000003,9
3027074035226,54521.6661320832,0.145657012297,11.191443,0.051,0.166364,275,11.104000000000001,0.19766199999999998,164.71213999999998,-26.325640000000003,9
3027074035226,54521.6773139932,0.212870532065,11.193939,0.051,0.166364,275,11.104000000000001,0.19766199999999998,164.71213999999998,-26.325640000000003,9
3027074035226,54525.5839417825,0.695281325839,10.971532,0.051,0.166364,275,11.104000000000001,0.19766199999999998,164.71213999999998,-26.325640000000003,9
3027074035226,54525.5946528354,0.759664563229,11.013054,0.051,0.166364,275,11.104000000000001,0.19766199999999998,164.71213999999998,-26.325640000000003,9
3027074035226,54525.6040648959,0.816239666601,11.050138,0.051,0.166364,275,11.104000000000001,0.19766199999999998,164.71213999999998,-26.325640000000003,9
3027074035226,54525.6132120021,0.871222152025,11.072063,0.051,0.166364,275,11.104000000000001,0.19766199999999998,164.71213999999998,-26.325640000000003,9
3027074035226,54472.7030178239,0.832498761127,11.051903,0.050,0.166364,275,11.104000000000001,0.19766199999999998,164.71213999999998,-26.325640000000003,9
3027074035226,54472.7137286575,0.896880680288,11.08785,0.050,0.166364,275,11.104000000000001,0.19766199999999998,164.71213999999998,-26.325640000000003,9
3027074035226,54472.7244058102,0.961060146394,11.073888,0.051,0.166364,275,11.104000000000001,0.19766199999999998,164.71213999999998,-26.325640000000003,9
3027074035226,54472.7344927662,0.0216919897939,11.134631,0.051,0.166364,275,11.104000000000001,0.19766199999999998,164.71213999999998,-26.325640000000003,9
3027074035226,54535.6050763425,0.931477618346,11.129156,0.051,0.166364,275,11.104000000000001,0.19766199999999998,164.71213999999998,-26.325640000000003,9
3027074035226,54535.613781308,0.983802433184,11.145863,0.051,0.166364,275,11.104000000000001,0.19766199999999998,164.71213999999998,-26.325640000000003,9
3027074035226,54535.6223521178,0.0353208494489,11.147716,0.051,0.166364,275,11.104000000000001,0.19766199999999998,164.71213999999998,-26.325640000000003,9
3027074035226,54535.6309298726,0.0868810114916,11.145892,0.051,0.166364,275,11.104000000000001,0.19766199999999998,164.71213999999998,-26.325640000000003,9
3027074035226,54588.5250979862,0.0292730770889,11.149137,0.050,0.166364,275,11.104000000000001,0.19766199999999998,164.71213999999998,-26.325640000000003,9
3027074035226,54588.5349185071,0.0883034015424,11.170376,0.050,0.166364,275,11.104000000000001,0.19766199999999998,164.71213999999998,-26.325640000000003,9
3027074035226,54588.5447426159,0.147355292575,11.168284,0.050,0.166364,275,11.104000000000001,0.19766199999999998,164.71213999999998,-26.325640000000003,9
3027074035226,54588.5545182293,0.206115681853,11.167266,0.050,0.166364,275,11.104000000000001,0.19766199999999998,164.71213999999998,-26.325640000000003,9
3027074035226,54598.4320408797,0.579072874505,10.953145,0.050,0.166364,275,11.104000000000001,0.19766199999999998,164.71213999999998,-26.325640000000003,9
3027074035226,54598.4411993401,0.634123609052,10.948932,0.050,0.166364,275,11.104000000000001,0.19766199999999998,164.71213999999998,-26.325640000000003,9
3027074035226,54598.4503442479,0.689092880057,10.967276,0.050,0.166364,275,11.104000000000001,0.19766199999999998,164.71213999999998,-26.325640000000003,9
3027074035226,54598.4594332522,0.743726119807,10.995463,0.050,0.166364,275,11.104000000000001,0.19766199999999998,164.71213999999998,-26.325640000000003,9
3027074035226,54617.4693029975,0.0104529676028,11.124444,0.050,0.166364,275,11.104000000000001,0.19766199999999998,164.71213999999998,-26.325640000000003,9
3027074035226,54617.4758629743,0.0498844358954,11.143265,0.050,0.166364,275,11.104000000000001,0.19766199999999998,164.71213999999998,-26.325640000000003,9
3027074035226,54617.4823442479,0.0888428259641,11.134935,0.050,0.166364,275,11.104000000000001,0.19766199999999998,164.71213999999998,-26.325640000000003,9
3027074035226,54617.4888714701,0.128077409172,11.139244,0.050,0.166364,275,11.104000000000001,0.19766199999999998,164.71213999999998,-26.325640000000003,9
3027074035226,54936.5426812732,0.933671186038,11.116231,0.051,0.166364,275,11.104000000000001,0.19766199999999998,164.71213999999998,-26.325640000000003,9
3027074035226,54936.5527384837,0.994124231744,11.143009,0.051,0.166364,275,11.104000000000001,0.19766199999999998,164.71213999999998,-26.325640000000003,9
3027074035226,54936.5628878355,0.0551311310846,11.158615,0.051,0.166364,275,11.104000000000001,0.19766199999999998,164.71213999999998,-26.325640000000003,9
3027074035226,54936.5730151969,0.116005847987,11.168074,0.051,0.166364,275,11.104000000000001,0.19766199999999998,164.71213999999998,-26.325640000000003,9
3027074035226,54947.4691419906,0.611706803145,10.974296,0.051,0.166364,275,11.104000000000001,0.19766199999999998,164.71213999999998,-26.325640000000003,9
3027074035226,54947.4801626621,0.677951131831,10.989936,0.051,0.166364,275,11.104000000000001,0.19766199999999998,164.71213999999998,-26.325640000000003,9
3027074035226,54947.4912589236,0.744649825618,11.040143,0.051,0.166364,275,11.104000000000001,0.19766199999999998,164.71213999999998,-26.325640000000003,9
3027074035226,54948.4855370025,0.721171662735,10.974029,0.050,0.166364,275,11.104000000000001,0.19766199999999998,164.71213999999998,-26.325640000000003,9
3027074035226,54948.491455625,0.756748004351,10.999377,0.050,0.166364,275,11.104000000000001,0.19766199999999998,164.71213999999998,-26.325640000000003,9
3027074035226,54948.497391273,0.792426684813,11.088706,0.052,0.166364,275,11.104000000000001,0.19766199999999998,164.71213999999998,-26.325640000000003,9
3027074035226,54948.5033093287,0.827999619476,11.05589,0.051,0.166364,275,11.104000000000001,0.19766199999999998,164.71213999999998,-26.325640000000003,9
3027074035226,54866.542334259,0.167477693467,11.174687,0.050,0.166364,275,11.104000000000001,0.19766199999999998,164.71213999999998,-26.325640000000003,9
3027074035226,54866.5509569445,0.219307930151,11.175546,0.050,0.166364,275,11.104000000000001,0.19766199999999998,164.71213999999998,-26.325640000000003,9
3027074035226,54866.5598078705,0.27251010132,11.17615,0.050,0.166364,275,11.104000000000001,0.19766199999999998,164.71213999999998,-26.325640000000003,9
3027074035226,54866.5685164235,0.324856480351,11.146281,0.050,0.166364,275,11.104000000000001,0.19766199999999998,164.71213999999998,-26.325640000000003,9
3027074035226,54883.7038964699,0.324183536693,11.137858,0.050,0.166364,275,11.104000000000001,0.19766199999999998,164.71213999999998,-26.325640000000003,9
3027074035226,54883.7167959376,0.401721151196,11.108518,0.050,0.166364,275,11.104000000000001,0.19766199999999998,164.71213999999998,-26.325640000000003,9
3027074035226,54883.7296966668,0.47926634847,11.026776,0.050,0.166364,275,11.104000000000001,0.19766199999999998,164.71213999999998,-26.325640000000003,9
3027074035226,54883.7426276039,0.556993122853,10.940653,0.050,0.166364,275,11.104000000000001,0.19766199999999998,164.71213999999998,-26.325640000000003,9
3027074035226,55032.3890596295,0.0581834380864,11.154173,0.051,0.166364,275,11.104000000000001,0.19766199999999998,164.71213999999998,-26.325640000000003,9
3027074035226,55032.3928293285,0.0808427814627,11.160049,0.051,0.166364,275,11.104000000000001,0.19766199999999998,164.71213999999998,-26.325640000000003,9
3027074035226,55032.3965989236,0.103501500329,11.171047,0.051,0.166364,275,11.104000000000001,0.19766199999999998,164.71213999999998,-26.325640000000003,9
3027074035226,55032.4003664238,0.126147626841,11.183719,0.051,0.166364,275,11.104000000000001,0.19766199999999998,164.71213999999998,-26.325640000000003,9
3027074035226,54999.4448816553,0.0335027727997,11.148954,0.050,0.166364,275,11.104000000000001,0.19766199999999998,164.71213999999998,-26.325640000000003,9
3027074035226,54999.4578812267,0.111642102245,11.170237,0.050,0.166364,275,11.104000000000001,0.19766199999999998,164.71213999999998,-26.325640000000003,9
3027074035226,54999.4708486344,0.189588098379,11.2001,0.051,0.166364,275,11.104000000000001,0.19766199999999998,164.71213999999998,-26.325640000000003,9
3027074035226,54999.4837349998,0.267046956054,11.215149,0.051,0.166364,275,11.104000000000001,0.19766199999999998,164.71213999999998,-26.325640000000003,9
3027074035226,54894.7129753935,0.498830236669,11.044829,0.050,0.166364,275,11.104000000000001,0.19766199999999998,164.71213999999998,-26.325640000000003,9
3027074035226,54894.723693403,0.563255289569,10.921768,0.050,0.166364,275,11.104000000000001,0.19766199999999998,164.71213999999998,-26.325640000000003,9
3027074035226,54894.734438715,0.627844455536,10.941014,0.050,0.166364,275,11.104000000000001,0.19766199999999998,164.71213999999998,-26.325640000000003,9
3027074035226,54894.7452269793,0.692691804084,10.952761,0.050,0.166364,275,11.104000000000001,0.19766199999999998,164.71213999999998,-26.325640000000003,9
3027074035226,54905.6396123264,0.177925070282,11.17067,0.052,0.166364,275,11.104000000000001,0.19766199999999998,164.71213999999998,-26.325640000000003,9
3027074035226,54905.6503958451,0.242743893468,11.173634,0.052,0.166364,275,11.104000000000001,0.19766199999999998,164.71213999999998,-26.325640000000003,9
3027074035226,54905.6611827198,0.307582889276,11.176059,0.052,0.166364,275,11.104000000000001,0.19766199999999998,164.71213999999998,-26.325640000000003,9
3027074035226,54905.6719528125,0.372321009927,11.153159,0.052,0.166364,275,11.104000000000001,0.19766199999999998,164.71213999999998,-26.325640000000003,9
3027074035226,54914.5717952548,0.868524769787,11.10159,0.050,0.166364,275,11.104000000000001,0.19766199999999998,164.71213999999998,-26.325640000000003,9
3027074035226,54914.5822127893,0.931143692695,11.119595,0.050,0.166364,275,11.104000000000001,0.19766199999999998,164.71213999999998,-26.325640000000003,9
3027074035226,54914.5926115623,0.993649841868,11.115345,0.050,0.166364,275,11.104000000000001,0.19766199999999998,164.71213999999998,-26.325640000000003,9
3027074035226,54914.6030057174,0.0561282332637,11.148716,0.050,0.166364,275,11.104000000000001,0.19766199999999998,164.71213999999998,-26.325640000000003,9
3027074035226,54919.5645013542,0.879260862886,11.084763,0.051,0.166364,275,11.104000000000001,0.19766199999999998,164.71213999999998,-26.325640000000003,9
3027074035226,54919.5729376736,0.929970868689,11.112292,0.051,0.166364,275,11.104000000000001,0.19766199999999998,164.71213999999998,-26.325640000000003,9
3027074035226,54919.5813625233,0.980611931009,11.131622,0.051,0.166364,275,11.104000000000001,0.19766199999999998,164.71213999999998,-26.325640000000003,9
3027074035226,54919.5898096065,0.0313866371289,11.136463,0.051,0.166364,275,11.104000000000001,0.19766199999999998,164.71213999999998,-26.325640000000003,9
3027074035226,54963.4295416549,0.548325688811,11.009778,0.050,0.166364,275,11.104000000000001,0.19766199999999998,164.71213999999998,-26.325640000000003,9
3027074035226,54963.4403410303,0.613239825296,10.960866,0.050,0.166364,275,11.104000000000001,0.19766199999999998,164.71213999999998,-26.325640000000003,9
3027074035226,54963.4510317128,0.677500617923,10.963251,0.050,0.166364,275,11.104000000000001,0.19766199999999998,164.71213999999998,-26.325640000000003,9
3027074035226,54963.4618506483,0.74253232847,10.99959,0.050,0.166364,275,11.104000000000001,0.19766199999999998,164.71213999999998,-26.325640000000003,9
3027074035226,54978.4478634374,0.822193728178,10.938866,0.051,0.166364,275,11.104000000000001,0.19766199999999998,164.71213999999998,-26.325640000000003,9
3027074035226,54978.4565277776,0.874274347792,11.055161,0.051,0.166364,275,11.104000000000001,0.19766199999999998,164.71213999999998,-26.325640000000003,9
3027074035226,54978.5179736341,0.243620218884,11.167435,0.051,0.166364,275,11.104000000000001,0.19766199999999998,164.71213999999998,-26.325640000000003,9
3027074035226,54978.5266113427,0.295540758176,11.17638,0.051,0.166364,275,11.104000000000001,0.19766199999999998,164.71213999999998,-26.325640000000003,9
3027074035226,55294.577809317,0.0526875826181,11.14276,0.050,0.166364,275,11.104000000000001,0.19766199999999998,164.71213999999998,-26.325640000000003,9
3027074035226,55302.5715506595,0.102393904293,11.150714,0.050,0.166364,275,11.104000000000001,0.19766199999999998,164.71213999999998,-26.325640000000003,9
3027074035226,55246.6648247685,0.0517706264509,11.151892,0.050,0.166364,275,11.104000000000001,0.19766199999999998,164.71213999999998,-26.325640000000003,9
3027074035226,55253.6046342012,0.766380954999,11.078271,0.050,0.166364,275,11.104000000000001,0.19766199999999998,164.71213999999998,-26.325640000000003,9
3027074035226,55208.7166342363,0.948391697078,11.101195,0.050,0.166364,275,11.104000000000001,0.19766199999999998,164.71213999999998,-26.325640000000003,9
3027074035226,55208.7418456599,0.0999354420928,11.173915,0.050,0.166364,275,11.104000000000001,0.19766199999999998,164.71213999999998,-26.325640000000003,9
3027074035226,55380.404501956,0.949712413712,11.116522,0.050,0.166364,275,11.104000000000001,0.19766199999999998,164.71213999999998,-26.325640000000003,9
3027074035226,55380.4224677198,0.0577031075954,11.19165,0.051,0.166364,275,11.104000000000001,0.19766199999999998,164.71213999999998,-26.325640000000003,9
3027074035226,55391.3584341318,0.79287665477,10.987049,0.050,0.166364,275,11.104000000000001,0.19766199999999998,164.71213999999998,-26.325640000000003,9
3027074035226,55391.380205058,0.923739859543,11.077932,0.050,0.166364,275,11.104000000000001,0.19766199999999998,164.71213999999998,-26.325640000000003,9
3027074035226,55350.3910693866,0.541495675687,11.032482,0.051,0.166364,275,11.104000000000001,0.19766199999999998,164.71213999999998,-26.325640000000003,9
3027074035226,55350.4263641667,0.753649627906,11.058522,0.052,0.166364,275,11.104000000000001,0.19766199999999998,164.71213999999998,-26.325640000000003,9
3027074035226,55266.6372334257,0.104237850115,11.152874,0.050,0.166364,275,11.104000000000001,0.19766199999999998,164.71213999999998,-26.325640000000003,9
3027074035226,55325.4977135882,0.909629416186,11.131013,0.050,0.166364,275,11.104000000000001,0.19766199999999998,164.71213999999998,-26.325640000000003,9
3027074035226,55603.5545214121,0.285695295257,11.187671,0.050,0.166364,275,11.104000000000001,0.19766199999999998,164.71213999999998,-26.325640000000003,9
3027074035226,55603.5936283101,0.520763567183,11.034263,0.050,0.166364,275,11.104000000000001,0.19766199999999998,164.71213999999998,-26.325640000000003,9
3027074035226,55564.6711250115,0.560872613627,11.009369,0.050,0.166364,275,11.104000000000001,0.19766199999999998,164.71213999999998,-26.325640000000003,9
3027074035226,55564.7086211229,0.786258582957,11.021706,0.050,0.166364,275,11.104000000000001,0.19766199999999998,164.71213999999998,-26.325640000000003,9
3027074035226,55648.6057517825,0.0848487803596,11.166269,0.050,0.166364,275,11.104000000000001,0.19766199999999998,164.71213999999998,-26.325640000000003,9
3027074035226,55682.4352443752,0.43108109443,11.109516,0.050,0.166364,275,11.104000000000001,0.19766199999999998,164.71213999999998,-26.325640000000003,9
3027074035226,55682.4639659606,0.603724126588,10.993074,0.050,0.166364,275,11.104000000000001,0.19766199999999998,164.71213999999998,-26.325640000000003,9
3027074035226,55708.3956512849,0.476901763002,11.101658,0.050,0.166364,275,11.104000000000001,0.19766199999999998,164.71213999999998,-26.325640000000003,9
3027074035226,55708.4061864236,0.540227594902,11.042467,0.050,0.166364,275,11.104000000000001,0.19766199999999998,164.71213999999998,-26.325640000000003,9
3027074035226,55708.416912176,0.604699189716,10.998093,0.050,0.166364,275,11.104000000000001,0.19766199999999998,164.71213999999998,-26.325640000000003,9
3027074035226,55708.4274879399,0.668269216258,10.986684,0.050,0.166364,275,11.104000000000001,0.19766199999999998,164.71213999999998,-26.325640000000003,9
3027074035226,55391.3942669327,0.00826460472308,11.124477,0.050,0.166364,275,11.104000000000001,0.19766199999999998,164.71213999999998,-26.325640000000003,9
3027074035226,55391.4162378125,0.1403297137,11.160988,0.050,0.166364,275,11.104000000000001,0.19766199999999998,164.71213999999998,-26.325640000000003,9
3027074035226,55655.5334031019,0.726377713319,11.022582,0.050,0.166364,275,11.104000000000001,0.19766199999999998,164.71213999999998,-26.325640000000003,9
3027074035226,55655.6534994212,0.448266579246,10.839048,0.050,0.166364,275,11.104000000000001,0.19766199999999998,164.71213999999998,-26.325640000000003,9
3027074035226,55741.4087250809,0.915709413704,11.100643,0.050,0.166364,275,11.104000000000001,0.19766199999999998,164.71213999999998,-26.325640000000003,9
3027074035226,55741.4192148264,0.978762390849,11.130505,0.050,0.166364,275,11.104000000000001,0.19766199999999998,164.71213999999998,-26.325640000000003,9
3027074035226,55741.4298455555,0.0426628086716,11.164347,0.050,0.166364,275,11.104000000000001,0.19766199999999998,164.71213999999998,-26.325640000000003,9
3027074035226,55741.4404151736,0.106195893313,11.171401,0.050,0.166364,275,11.104000000000001,0.19766199999999998,164.71213999999998,-26.325640000000003,9
3027074035226,56061.4442859492,0.622526202758,11.006789,0.049,0.166364,275,11.104000000000001,0.19766199999999998,164.71213999999998,-26.325640000000003,9
3027074035226,56061.4574057753,0.70138837304,10.987837,0.049,0.166364,275,11.104000000000001,0.19766199999999998,164.71213999999998,-26.325640000000003,9
3027074035226,56061.4704947109,0.780064863153,11.017578,0.049,0.166364,275,11.104000000000001,0.19766199999999998,164.71213999999998,-26.325640000000003,9
3027074035226,56061.4836327085,0.859036260808,11.053687,0.049,0.166364,275,11.104000000000001,0.19766199999999998,164.71213999999998,-26.325640000000003,9
3027074035226,56266.6729011689,0.234456786886,11.186237,0.050,0.166364,275,11.104000000000001,0.19766199999999998,164.71213999999998,-26.325640000000003,9
3027074035226,56266.6840093285,0.301226999203,11.202839,0.050,0.166364,275,11.104000000000001,0.19766199999999998,164.71213999999998,-26.325640000000003,9
3027074035226,56266.6936580208,0.359224476444,11.195158,0.050,0.166364,275,11.104000000000001,0.19766199999999998,164.71213999999998,-26.325640000000003,9
3027074035226,56266.7033424536,0.417436786753,11.180342,0.050,0.166364,275,11.104000000000001,0.19766199999999998,164.71213999999998,-26.325640000000003,9
3027074035226,56297.7130177544,0.813984722656,11.015791,0.050,0.166364,275,11.104000000000001,0.19766199999999998,164.71213999999998,-26.325640000000003,9
3027074035226,56297.721614618,0.86565974605,11.054097,0.050,0.166364,275,11.104000000000001,0.19766199999999998,164.71213999999998,-26.325640000000003,9
3027074035226,56297.7304943518,0.919035078492,11.08624,0.050,0.166364,275,11.104000000000001,0.19766199999999998,164.71213999999998,-26.325640000000003,9
3027074035226,56297.7386394559,0.967994613573,11.112728,0.051,0.166364,275,11.104000000000001,0.19766199999999998,164.71213999999998,-26.325640000000003,9
3027074035226,56357.6485175118,0.0812285818974,11.13618,0.050,0.166364,275,11.104000000000001,0.19766199999999998,164.71213999999998,-26.325640000000003,9
3027074035226,56357.6605942594,0.153820895124,11.156985,0.050,0.166364,275,11.104000000000001,0.19766199999999998,164.71213999999998,-26.325640000000003,9
3027074035226,56357.6726177661,0.226093181758,11.162269,0.050,0.166364,275,11.104000000000001,0.19766199999999998,164.71213999999998,-26.325640000000003,9
3027074035226,56357.6845189235,0.297630037123,11.155381,0.050,0.166364,275,11.104000000000001,0.19766199999999998,164.71213999999998,-26.325640000000003,9
3027074035226,56384.5676371642,0.889790845336,11.073519,0.050,0.166364,275,11.104000000000001,0.19766199999999998,164.71213999999998,-26.325640000000003,9
3027074035226,56384.5818218635,0.97505387885,11.110022,0.050,0.166364,275,11.104000000000001,0.19766199999999998,164.71213999999998,-26.325640000000003,9
3027074035226,56384.5961771645,0.0613423847826,11.137038,0.050,0.166364,275,11.104000000000001,0.19766199999999998,164.71213999999998,-26.325640000000003,9
3027074035226,56384.6108831712,0.1497389531,11.159819,0.050,0.166364,275,11.104000000000001,0.19766199999999998,164.71213999999998,-26.325640000000003,9
3027074035226,56400.5037248147,0.680272262602,10.989197,0.050,0.166364,275,11.104000000000001,0.19766199999999998,164.71213999999998,-26.325640000000003,9
3027074035226,56400.5180892594,0.766615730536,11.041765,0.050,0.166364,275,11.104000000000001,0.19766199999999998,164.71213999999998,-26.325640000000003,9
3027074035226,56400.532362257,0.852409517684,11.099197,0.050,0.166364,275,11.104000000000001,0.19766199999999998,164.71213999999998,-26.325640000000003,9
3027074035226,56400.546584919,0.937900741701,11.134316,0.050,0.166364,275,11.104000000000001,0.19766199999999998,164.71213999999998,-26.325640000000003,9
3027074035226,56402.5659637846,0.0762171178358,11.173906,0.050,0.166364,275,11.104000000000001,0.19766199999999998,164.71213999999998,-26.325640000000003,9
3027074035226,56402.5766366435,0.140370774316,11.167848,0.050,0.166364,275,11.104000000000001,0.19766199999999998,164.71213999999998,-26.325640000000003,9
3027074035226,56402.5873549998,0.204797911807,11.168333,0.050,0.166364,275,11.104000000000001,0.19766199999999998,164.71213999999998,-26.325640000000003,9
3027074035226,56402.5981881827,0.269915262295,11.174989,0.050,0.166364,275,11.104000000000001,0.19766199999999998,164.71213999999998,-26.325640000000003,9
3027074035226,56418.4893325693,0.790246503428,11.058024,0.049,0.166364,275,11.104000000000001,0.19766199999999998,164.71213999999998,-26.325640000000003,9
3027074035226,56418.4986795718,0.846430548641,11.079609,0.049,0.166364,275,11.104000000000001,0.19766199999999998,164.71213999999998,-26.325640000000003,9
3027074035226,56418.5080254167,0.902607635595,11.096783,0.049,0.166364,275,11.104000000000001,0.19766199999999998,164.71213999999998,-26.325640000000003,9
3027074035226,56418.5174064585,0.958996288246,11.103851,0.049,0.166364,275,11.104000000000001,0.19766199999999998,164.71213999999998,-26.325640000000003,9
3027074035226,56464.3767636803,0.61573225155,11.03679,0.050,0.166364,275,11.104000000000001,0.19766199999999998,164.71213999999998,-26.325640000000003,9
3027074035226,56464.3886843984,0.687386684585,11.011361,0.050,0.166364,275,11.104000000000001,0.19766199999999998,164.71213999999998,-26.325640000000003,9
3027074035226,56464.3999701271,0.75522424985,11.021936,0.050,0.166364,275,11.104000000000001,0.19766199999999998,164.71213999999998,-26.325640000000003,9
3027074035226,56464.4112865393,0.823246250977,11.043477,0.050,0.166364,275,11.104000000000001,0.19766199999999998,164.71213999999998,-26.325640000000003,9
