ID,MjD,Phase,Mag,Mag_err,Period,Npts,V,Amp,ra,dec,Type
3029009009865,53950.774670,0.229357085133,16.2708,0.114,0.128664,211,16.145,0.5970989999999999,20.12075,-29.43627,9
3029009009865,54020.617689,0.061998694262,16.2896,0.114,0.128664,211,16.145,0.5970989999999999,20.12075,-29.43627,9
3029009009865,54010.643107,0.537733942678,16.0052,0.104,0.128664,211,16.145,0.5970989999999999,20.12075,-29.43627,9
3029009009865,54001.647742,0.624121743487,16.123,0.110,0.128664,211,16.145,0.5970989999999999,20.12075,-29.43627,9
3029009009865,53950.765616,0.158987750998,16.3467,0.118,0.128664,211,16.145,0.5970989999999999,20.12075,-29.43627,9
3029009009865,53994.713669,0.731245725299,16.1969,0.112,0.128664,211,16.145,0.5970989999999999,20.12075,-29.43627,9
3029009009865,53994.702989,0.648238823575,16.1433,0.110,0.128664,211,16.145,0.5970989999999999,20.12075,-29.43627,9
3029009009865,53903.810493,0.215235030744,16.3283,0.098,0.128664,211,16.145,0.5970989999999999,20.12075,-29.43627,9
3029009009865,53994.681731,0.483017782739,15.9472,0.101,0.128664,211,16.145,0.5970989999999999,20.12075,-29.43627,9
3029009009865,53903.820722,0.294736678479,16.2779,0.096,0.128664,211,16.145,0.5970989999999999,20.12075,-29.43627,9
3029009009865,53994.692362,0.565643847571,16.0593,0.105,0.128664,211,16.145,0.5970989999999999,20.12075,-29.43627,9
3029009009865,54020.599297,0.919052726473,16.3151,0.115,0.128664,211,16.145,0.5970989999999999,20.12075,-29.43627,9
3029009009865,53903.800429,0.137015793065,16.3314,0.098,0.128664,211,16.145,0.5970989999999999,20.12075,-29.43627,9
3029009009865,54001.667032,0.774047130486,16.1633,0.111,0.128664,211,16.145,0.5970989999999999,20.12075,-29.43627,9
3029009009865,54010.653372,0.617515388934,16.1182,0.108,0.128664,211,16.145,0.5970989999999999,20.12075,-29.43627,9
3029009009865,54010.673901,0.77707050927,16.2749,0.114,0.128664,211,16.145,0.5970989999999999,20.12075,-29.43627,9
3029009009865,53950.756626,0.0891158365994,16.3543,0.116,0.128664,211,16.145,0.5970989999999999,20.12075,-29.43627,9
3029009009865,54001.660620,0.724211900786,16.0686,0.108,0.128664,211,16.145,0.5970989999999999,20.12075,-29.43627,9
3029009009865,54020.608593,0.991302928538,16.3527,0.116,0.128664,211,16.145,0.5970989999999999,20.12075,-29.43627,9
3029009009865,54010.663617,0.697141391516,16.184,0.111,0.128664,211,16.145,0.5970989999999999,20.12075,-29.43627,9
3029009009865,53950.747037,0.0145883852383,16.3047,0.114,0.128664,211,16.145,0.5970989999999999,20.12075,-29.43627,9
3029009009865,54020.626639,0.131559721485,16.3252,0.116,0.128664,211,16.145,0.5970989999999999,20.12075,-29.43627,9
3029009009865,54037.669417,0.591128831671,16.0493,0.106,0.128664,211,16.145,0.5970989999999999,20.12075,-29.43627,9
3029009009865,53761.469856,0.91792576015,16.1742,0.120,0.128664,211,16.145,0.5970989999999999,20.12075,-29.43627,9
3029009009865,53737.533108,0.877168438747,16.2585,0.123,0.128664,211,16.145,0.5970989999999999,20.12075,-29.43627,9
3029009009865,54001.654198,0.67429894919,16.1539,0.111,0.128664,211,16.145,0.5970989999999999,20.12075,-29.43627,9
3029009009865,53903.788497,0.0442781197489,16.302,0.097,0.128664,211,16.145,0.5970989999999999,20.12075,-29.43627,9
3029009009865,54037.679608,0.67033513647,16.1183,0.109,0.128664,211,16.145,0.5970989999999999,20.12075,-29.43627,9
3029009009865,54037.659242,0.512046881835,15.8853,0.100,0.128664,211,16.145,0.5970989999999999,20.12075,-29.43627,9
3029009009865,53761.463405,0.867787415278,16.1834,0.120,0.128664,211,16.145,0.5970989999999999,20.12075,-29.43627,9
3029009009865,53737.527147,0.830838462978,16.1763,0.119,0.128664,211,16.145,0.5970989999999999,20.12075,-29.43627,9
3029009009865,53761.456961,0.817703475768,16.168,0.118,0.128664,211,16.145,0.5970989999999999,20.12075,-29.43627,9
3029009009865,53761.450527,0.767697257979,16.0934,0.115,0.128664,211,16.145,0.5970989999999999,20.12075,-29.43627,9
3029009009865,54857.430839,0.925938879547,16.1951,0.090,0.128664,211,16.145,0.5970989999999999,20.12075,-29.43627,9
3029009009865,54740.592419,0.836496611359,16.2215,0.082,0.128664,211,16.145,0.5970989999999999,20.12075,-29.43627,9
3029009009865,54799.544614,0.023674065771,16.2659,0.076,0.128664,211,16.145,0.5970989999999999,20.12075,-29.43627,9
3029009009865,54799.555207,0.106004787667,16.2887,0.076,0.128664,211,16.145,0.5970989999999999,20.12075,-29.43627,9
3029009009865,54704.722759,0.0509777404368,16.2726,0.089,0.128664,211,16.145,0.5970989999999999,20.12075,-29.43627,9
3029009009865,54704.736621,0.158715724654,16.3294,0.090,0.128664,211,16.145,0.5970989999999999,20.12075,-29.43627,9
3029009009865,54740.571361,0.672830006864,16.1167,0.080,0.128664,211,16.145,0.5970989999999999,20.12075,-29.43627,9
3029009009865,54763.691145,0.363994590531,16.0782,0.090,0.128664,211,16.145,0.5970989999999999,20.12075,-29.43627,9
3029009009865,54857.437229,0.975603121333,16.1958,0.090,0.128664,211,16.145,0.5970989999999999,20.12075,-29.43627,9
3029009009865,54740.578221,0.726147174079,16.1829,0.082,0.128664,211,16.145,0.5970989999999999,20.12075,-29.43627,9
3029009009865,54829.473731,0.638212709047,15.9534,0.079,0.128664,211,16.145,0.5970989999999999,20.12075,-29.43627,9
3029009009865,54799.565809,0.188405459165,16.3271,0.077,0.128664,211,16.145,0.5970989999999999,20.12075,-29.43627,9
3029009009865,54792.484698,0.152723372506,16.4036,0.102,0.128664,211,16.145,0.5970989999999999,20.12075,-29.43627,9
3029009009865,54763.678060,0.262295591587,16.2874,0.095,0.128664,211,16.145,0.5970989999999999,20.12075,-29.43627,9
3029009009865,54829.447594,0.435071193147,15.9079,0.078,0.128664,211,16.145,0.5970989999999999,20.12075,-29.43627,9
3029009009865,54763.651951,0.0593716968433,16.3351,0.096,0.128664,211,16.145,0.5970989999999999,20.12075,-29.43627,9
3029009009865,54829.460577,0.535977429594,15.7837,0.076,0.128664,211,16.145,0.5970989999999999,20.12075,-29.43627,9
3029009009865,54763.665017,0.16092302429,16.3583,0.097,0.128664,211,16.145,0.5970989999999999,20.12075,-29.43627,9
3029009009865,54719.653693,0.0969113349565,16.3959,0.092,0.128664,211,16.145,0.5970989999999999,20.12075,-29.43627,9
3029009009865,54740.585409,0.782013616874,16.2102,0.082,0.128664,211,16.145,0.5970989999999999,20.12075,-29.43627,9
3029009009865,54829.486959,0.741023130016,16.0906,0.082,0.128664,211,16.145,0.5970989999999999,20.12075,-29.43627,9
3029009009865,54704.750272,0.264813778515,16.2727,0.089,0.128664,211,16.145,0.5970989999999999,20.12075,-29.43627,9
3029009009865,54719.666005,0.192602437339,16.3541,0.091,0.128664,211,16.145,0.5970989999999999,20.12075,-29.43627,9
3029009009865,54719.628639,0.902187091997,16.2353,0.088,0.128664,211,16.145,0.5970989999999999,20.12075,-29.43627,9
3029009009865,54799.576411,0.27080613072,16.2934,0.077,0.128664,211,16.145,0.5970989999999999,20.12075,-29.43627,9
3029009009865,54719.640857,0.997147609247,16.3296,0.090,0.128664,211,16.145,0.5970989999999999,20.12075,-29.43627,9
3029009009865,56213.598504,0.307591867226,16.2547,0.087,0.128664,211,16.145,0.5970989999999999,20.12075,-29.43627,9
3029009009865,55768.808218,0.316623142455,16.3098,0.096,0.128664,211,16.145,0.5970989999999999,20.12075,-29.43627,9
3029009009865,55768.829584,0.482683578914,15.7344,0.081,0.128664,211,16.145,0.5970989999999999,20.12075,-29.43627,9
3029009009865,55833.678297,0.498670956877,15.8704,0.083,0.128664,211,16.145,0.5970989999999999,20.12075,-29.43627,9
3029009009865,55428.786627,0.606999626965,15.9677,0.086,0.128664,211,16.145,0.5970989999999999,20.12075,-29.43627,9
3029009009865,55768.818902,0.399661132891,16.0302,0.088,0.128664,211,16.145,0.5970989999999999,20.12075,-29.43627,9
3029009009865,56166.631115,0.268505564833,16.2933,0.082,0.128664,211,16.145,0.5970989999999999,20.12075,-29.43627,9
3029009009865,55833.666344,0.405770067766,15.8055,0.082,0.128664,211,16.145,0.5970989999999999,20.12075,-29.43627,9
3029009009865,55560.509202,0.378800596925,16.1938,0.095,0.128664,211,16.145,0.5970989999999999,20.12075,-29.43627,9
3029009009865,56166.648436,0.403127525991,15.7526,0.072,0.128664,211,16.145,0.5970989999999999,20.12075,-29.43627,9
3029009009865,55475.642873,0.782262326684,16.1389,0.084,0.128664,211,16.145,0.5970989999999999,20.12075,-29.43627,9
3029009009865,56166.639794,0.335960330791,16.2155,0.080,0.128664,211,16.145,0.5970989999999999,20.12075,-29.43627,9
3029009009865,56213.610556,0.4012622023,15.7435,0.077,0.128664,211,16.145,0.5970989999999999,20.12075,-29.43627,9
3029009009865,55428.801192,0.72020145494,16.1018,0.090,0.128664,211,16.145,0.5970989999999999,20.12075,-29.43627,9
3029009009865,55475.611131,0.535557731753,15.8309,0.077,0.128664,211,16.145,0.5970989999999999,20.12075,-29.43627,9
3029009009865,55833.690192,0.591121059493,16.0354,0.086,0.128664,211,16.145,0.5970989999999999,20.12075,-29.43627,9
3029009009865,55833.702166,0.684185164457,16.1631,0.090,0.128664,211,16.145,0.5970989999999999,20.12075,-29.43627,9
3029009009865,55560.530319,0.542925760092,15.8554,0.086,0.128664,211,16.145,0.5970989999999999,20.12075,-29.43627,9
3029009009865,55214.478449,0.964877510443,16.2525,0.095,0.128664,211,16.145,0.5970989999999999,20.12075,-29.43627,9
3029009009865,56213.622740,0.495958465443,15.8717,0.079,0.128664,211,16.145,0.5970989999999999,20.12075,-29.43627,9
3029009009865,55146.623682,0.58529192314,15.932,0.078,0.128664,211,16.145,0.5970989999999999,20.12075,-29.43627,9
3029009009865,55768.797459,0.233002238383,16.3471,0.097,0.128664,211,16.145,0.5970989999999999,20.12075,-29.43627,9
3029009009865,56166.657355,0.472447615524,15.8038,0.072,0.128664,211,16.145,0.5970989999999999,20.12075,-29.43627,9
3029009009865,56213.634993,0.591191009153,15.9948,0.082,0.128664,211,16.145,0.5970989999999999,20.12075,-29.43627,9
3029009009865,55214.492773,0.0762062426074,16.2414,0.095,0.128664,211,16.145,0.5970989999999999,20.12075,-29.43627,9
3029009009865,55063.727326,0.299741963565,16.3232,0.092,0.128664,211,16.145,0.5970989999999999,20.12075,-29.43627,9
3029009009865,55121.600062,0.0971678169444,16.3085,0.089,0.128664,211,16.145,0.5970989999999999,20.12075,-29.43627,9
3029009009865,55121.610738,0.180143629957,16.3259,0.090,0.128664,211,16.145,0.5970989999999999,20.12075,-29.43627,9
3029009009865,54857.443606,0.0251663246891,16.2535,0.092,0.128664,211,16.145,0.5970989999999999,20.12075,-29.43627,9
3029009009865,55063.700864,0.0940744885593,16.3402,0.093,0.128664,211,16.145,0.5970989999999999,20.12075,-29.43627,9
3029009009865,55031.698303,0.36435211089,16.2741,0.109,0.128664,211,16.145,0.5970989999999999,20.12075,-29.43627,9
3029009009865,55031.682821,0.244023192208,16.2917,0.110,0.128664,211,16.145,0.5970989999999999,20.12075,-29.43627,9
3029009009865,55063.687061,0.986795063072,16.2709,0.091,0.128664,211,16.145,0.5970989999999999,20.12075,-29.43627,9
3029009009865,55031.706001,0.424182366463,15.9933,0.099,0.128664,211,16.145,0.5970989999999999,20.12075,-29.43627,9
3029009009865,55146.613317,0.504733258742,15.7818,0.075,0.128664,211,16.145,0.5970989999999999,20.12075,-29.43627,9
3029009009865,55128.657614,0.949745072459,16.2102,0.092,0.128664,211,16.145,0.5970989999999999,20.12075,-29.43627,9
3029009009865,55128.624052,0.688895106607,16.1481,0.087,0.128664,211,16.145,0.5970989999999999,20.12075,-29.43627,9
3029009009865,54861.456964,0.217714356724,16.2595,0.110,0.128664,211,16.145,0.5970989999999999,20.12075,-29.43627,9
3029009009865,55146.618495,0.544977616111,15.8373,0.077,0.128664,211,16.145,0.5970989999999999,20.12075,-29.43627,9
3029009009865,55121.605405,0.13869458437,16.3352,0.090,0.128664,211,16.145,0.5970989999999999,20.12075,-29.43627,9
3029009009865,54861.453194,0.188413231401,16.2857,0.110,0.128664,211,16.145,0.5970989999999999,20.12075,-29.43627,9
3029009009865,55146.608134,0.464450040425,15.7157,0.073,0.128664,211,16.145,0.5970989999999999,20.12075,-29.43627,9
3029009009865,55031.690541,0.304024435754,16.33,0.111,0.128664,211,16.145,0.5970989999999999,20.12075,-29.43627,9
3029009009865,54861.464509,0.276355468493,16.1588,0.107,0.128664,211,16.145,0.5970989999999999,20.12075,-29.43627,9
3029009009865,55063.714144,0.197289062955,16.3759,0.093,0.128664,211,16.145,0.5970989999999999,20.12075,-29.43627,9
3029009009865,55090.603038,0.182661816827,16.3237,0.094,0.128664,211,16.145,0.5970989999999999,20.12075,-29.43627,9
3029009009865,55128.635222,0.775710377377,16.199,0.089,0.128664,211,16.145,0.5970989999999999,20.12075,-29.43627,9
3029009009865,54861.460734,0.247015482164,16.3087,0.112,0.128664,211,16.145,0.5970989999999999,20.12075,-29.43627,9
3029009009865,55128.646438,0.862883168564,16.1946,0.096,0.128664,211,16.145,0.5970989999999999,20.12075,-29.43627,9
3029009009865,55121.594762,0.0559752534027,16.3496,0.090,0.128664,211,16.145,0.5970989999999999,20.12075,-29.43627,9
3029009009865,54355.709269,0.454680407885,15.857,0.098,0.128664,211,16.145,0.5970989999999999,20.12075,-29.43627,9
3029009009865,54050.579804,0.93300379283,16.3644,0.123,0.128664,211,16.145,0.5970989999999999,20.12075,-29.43627,9
3029009009865,54113.430045,0.416503450833,15.8332,0.126,0.128664,211,16.145,0.5970989999999999,20.12075,-29.43627,9
3029009009865,54355.649074,0.98683392402,16.4226,0.119,0.128664,211,16.145,0.5970989999999999,20.12075,-29.43627,9
3029009009865,54355.659243,0.065869240847,16.3976,0.118,0.128664,211,16.145,0.5970989999999999,20.12075,-29.43627,9
3029009009865,54057.541021,0.0368479139288,16.383,0.120,0.128664,211,16.145,0.5970989999999999,20.12075,-29.43627,9
3029009009865,54050.605762,0.134754088183,16.3007,0.132,0.128664,211,16.145,0.5970989999999999,20.12075,-29.43627,9
3029009009865,54057.524675,0.909803830145,16.3171,0.117,0.128664,211,16.145,0.5970989999999999,20.12075,-29.43627,9
3029009009865,54355.668960,0.141391531448,16.3203,0.115,0.128664,211,16.145,0.5970989999999999,20.12075,-29.43627,9
3029009009865,54037.689793,0.749494808144,16.2433,0.115,0.128664,211,16.145,0.5970989999999999,20.12075,-29.43627,9
3029009009865,54113.444545,0.52920008701,16.042,0.136,0.128664,211,16.145,0.5970989999999999,20.12075,-29.43627,9
3029009009865,54355.678397,0.214737611182,16.3196,0.115,0.128664,211,16.145,0.5970989999999999,20.12075,-29.43627,9
3029009009865,54323.723602,0.856261269655,16.2656,0.095,0.128664,211,16.145,0.5970989999999999,20.12075,-29.43627,9
3029009009865,54353.705477,0.880844680767,16.271,0.141,0.128664,211,16.145,0.5970989999999999,20.12075,-29.43627,9
3029009009865,54297.773693,0.168850649789,16.3291,0.097,0.128664,211,16.145,0.5970989999999999,20.12075,-29.43627,9
3029009009865,54057.549184,0.100292234041,16.3992,0.121,0.128664,211,16.145,0.5970989999999999,20.12075,-29.43627,9
3029009009865,54323.699154,0.666246968845,16.1433,0.092,0.128664,211,16.145,0.5970989999999999,20.12075,-29.43627,9
3029009009865,54050.566827,0.83214418951,16.2854,0.120,0.128664,211,16.145,0.5970989999999999,20.12075,-29.43627,9
3029009009865,54297.785677,0.261992476531,16.3197,0.097,0.128664,211,16.145,0.5970989999999999,20.12075,-29.43627,9
3029009009865,54353.698660,0.827861717378,16.1331,0.436,0.128664,211,16.145,0.5970989999999999,20.12075,-29.43627,9
3029009009865,54113.451823,0.585766026285,15.9988,0.133,0.128664,211,16.145,0.5970989999999999,20.12075,-29.43627,9
3029009009865,54057.532792,0.972890629841,16.3235,0.117,0.128664,211,16.145,0.5970989999999999,20.12075,-29.43627,9
3029009009865,54323.739288,0.978175713448,16.3156,0.097,0.128664,211,16.145,0.5970989999999999,20.12075,-29.43627,9
3029009009865,54355.700201,0.38420226326,15.7489,0.095,0.128664,211,16.145,0.5970989999999999,20.12075,-29.43627,9
3029009009865,54297.798053,0.358180998533,15.9773,0.087,0.128664,211,16.145,0.5970989999999999,20.12075,-29.43627,9
3029009009865,54323.754780,0.0985823540832,16.3353,0.097,0.128664,211,16.145,0.5970989999999999,20.12075,-29.43627,9
3029009009865,54355.690953,0.312325125909,16.1487,0.108,0.128664,211,16.145,0.5970989999999999,20.12075,-29.43627,9
3029009009865,54353.691865,0.775049741962,16.4007,0.161,0.128664,211,16.145,0.5970989999999999,20.12075,-29.43627,9
3029009009865,54050.592767,0.0337545856019,16.315,0.176,0.128664,211,16.145,0.5970989999999999,20.12075,-29.43627,9
3029009009865,54297.810617,0.4558306908,15.8154,0.084,0.128664,211,16.145,0.5970989999999999,20.12075,-29.43627,9
3029009009865,54113.437284,0.472766274936,16.0239,0.147,0.128664,211,16.145,0.5970989999999999,20.12075,-29.43627,9
3029009009865,53619.600660,0.284741652664,16.2053,0.105,0.128664,211,16.145,0.5970989999999999,20.12075,-29.43627,9
3029009009865,53642.608570,0.106401168916,16.3726,0.136,0.128664,211,16.145,0.5970989999999999,20.12075,-29.43627,9
3029009009865,53724.553413,0.996619100915,16.2231,0.117,0.128664,211,16.145,0.5970989999999999,20.12075,-29.43627,9
3029009009865,53619.586559,0.17514611705,16.3661,0.112,0.128664,211,16.145,0.5970989999999999,20.12075,-29.43627,9
3029009009865,53670.579016,0.497792700364,15.9035,0.110,0.128664,211,16.145,0.5970989999999999,20.12075,-29.43627,9
3029009009865,53693.577489,0.246106136939,16.3858,0.123,0.128664,211,16.145,0.5970989999999999,20.12075,-29.43627,9
3029009009865,53670.552898,0.294798855961,16.1801,0.122,0.128664,211,16.145,0.5970989999999999,20.12075,-29.43627,9
3029009009865,53724.535964,0.861002300575,16.1266,0.112,0.128664,211,16.145,0.5970989999999999,20.12075,-29.43627,9
3029009009865,53590.757697,0.111989367637,16.1805,0.120,0.128664,211,16.145,0.5970989999999999,20.12075,-29.43627,9
3029009009865,53654.436462,0.0349281850504,16.2983,0.114,0.128664,211,16.145,0.5970989999999999,20.12075,-29.43627,9
3029009009865,53590.745852,0.0199278741493,16.3006,0.126,0.128664,211,16.145,0.5970989999999999,20.12075,-29.43627,9
3029009009865,53590.733928,0.927252378315,16.2686,0.124,0.128664,211,16.145,0.5970989999999999,20.12075,-29.43627,9
3029009009865,53737.521148,0.784213144332,16.1356,0.116,0.128664,211,16.145,0.5970989999999999,20.12075,-29.43627,9
3029009009865,53670.570316,0.430174718611,15.7607,0.105,0.128664,211,16.145,0.5970989999999999,20.12075,-29.43627,9
3029009009865,53642.599399,0.0351224895567,16.3222,0.133,0.128664,211,16.145,0.5970989999999999,20.12075,-29.43627,9
3029009009865,53619.614655,0.393513337069,15.5957,0.087,0.128664,211,16.145,0.5970989999999999,20.12075,-29.43627,9
3029009009865,53568.688784,0.588385251467,16.0708,0.116,0.128664,211,16.145,0.5970989999999999,20.12075,-29.43627,9
3029009009865,53642.589644,0.959304856078,16.2425,0.129,0.128664,211,16.145,0.5970989999999999,20.12075,-29.43627,9
3029009009865,53642.580245,0.886254119221,16.2391,0.128,0.128664,211,16.145,0.5970989999999999,20.12075,-29.43627,9
3029009009865,53654.426518,0.957641609129,16.354,0.117,0.128664,211,16.145,0.5970989999999999,20.12075,-29.43627,9
3029009009865,53724.562027,0.0635686750175,16.2506,0.118,0.128664,211,16.145,0.5970989999999999,20.12075,-29.43627,9
3029009009865,53654.441443,0.0736414226703,16.3725,0.117,0.128664,211,16.145,0.5970989999999999,20.12075,-29.43627,9
3029009009865,53693.585183,0.305905303743,16.2444,0.117,0.128664,211,16.145,0.5970989999999999,20.12075,-29.43627,9
3029009009865,53568.708872,0.74451283965,16.237,0.127,0.128664,211,16.145,0.5970989999999999,20.12075,-29.43627,9
3029009009865,53693.600504,0.424982901197,15.6969,0.097,0.128664,211,16.145,0.5970989999999999,20.12075,-29.43627,9
3029009009865,53670.561602,0.362447926367,15.8413,0.108,0.128664,211,16.145,0.5970989999999999,20.12075,-29.43627,9
3029009009865,53568.695497,0.640559908003,16.0997,0.118,0.128664,211,16.145,0.5970989999999999,20.12075,-29.43627,9
3029009009865,53568.702221,0.692820058437,16.1228,0.120,0.128664,211,16.145,0.5970989999999999,20.12075,-29.43627,9
3029009009865,53693.592847,0.365471305093,15.9248,0.104,0.128664,211,16.145,0.5970989999999999,20.12075,-29.43627,9
3029009009865,53654.431479,0.996199403075,16.3106,0.114,0.128664,211,16.145,0.5970989999999999,20.12075,-29.43627,9
3029009009865,53619.628932,0.504476776696,15.8783,0.094,0.128664,211,16.145,0.5970989999999999,20.12075,-29.43627,9
3029009009865,53724.544636,0.928402661171,16.2195,0.116,0.128664,211,16.145,0.5970989999999999,20.12075,-29.43627,9
3029009009865,53590.721479,0.830496486975,16.2131,0.122,0.128664,211,16.145,0.5970989999999999,20.12075,-29.43627,9
3029009009865,53737.515114,0.737315799284,16.1677,0.117,0.128664,211,16.145,0.5970989999999999,20.12075,-29.43627,9
3029009009865,56243.529418,0.936097121157,16.2497,0.089,0.128664,211,16.145,0.5970989999999999,20.12075,-29.43627,9
3029009009865,56243.541320,0.0286016290192,16.2681,0.089,0.128664,211,16.145,0.5970989999999999,20.12075,-29.43627,9
3029009009865,56243.553375,0.122295280744,16.3071,0.091,0.128664,211,16.145,0.5970989999999999,20.12075,-29.43627,9
3029009009865,56243.565540,0.216843872447,16.299,0.090,0.128664,211,16.145,0.5970989999999999,20.12075,-29.43627,9
3029009009865,54413.575382,0.200631101208,16.3265,0.118,0.128664,211,16.145,0.5970989999999999,20.12075,-29.43627,9
3029009009865,54379.693937,0.867880681413,16.2154,0.118,0.128664,211,16.145,0.5970989999999999,20.12075,-29.43627,9
3029009009865,54422.523980,0.750761673786,16.2673,0.132,0.128664,211,16.145,0.5970989999999999,20.12075,-29.43627,9
3029009009865,54395.584773,0.374347136763,15.8112,0.109,0.128664,211,16.145,0.5970989999999999,20.12075,-29.43627,9
3029009009865,54422.539428,0.87082633836,16.2176,0.130,0.128664,211,16.145,0.5970989999999999,20.12075,-29.43627,9
3029009009865,54472.471726,0.953724429535,16.3174,0.119,0.128664,211,16.145,0.5970989999999999,20.12075,-29.43627,9
3029009009865,54395.602866,0.514969222189,15.9844,0.116,0.128664,211,16.145,0.5970989999999999,20.12075,-29.43627,9
3029009009865,54378.678195,0.973349188571,16.3207,0.117,0.128664,211,16.145,0.5970989999999999,20.12075,-29.43627,9
3029009009865,54704.708629,0.941156811547,16.2929,0.089,0.128664,211,16.145,0.5970989999999999,20.12075,-29.43627,9
3029009009865,54413.583932,0.267083255632,16.2516,0.114,0.128664,211,16.145,0.5970989999999999,20.12075,-29.43627,9
3029009009865,54472.480725,0.0236662935931,16.1935,0.114,0.128664,211,16.145,0.5970989999999999,20.12075,-29.43627,9
3029009009865,54389.459381,0.766686874325,16.1941,0.079,0.128664,211,16.145,0.5970989999999999,20.12075,-29.43627,9
3029009009865,54472.462715,0.883689299284,16.2294,0.115,0.128664,211,16.145,0.5970989999999999,20.12075,-29.43627,9
3029009009865,54413.566854,0.134349934699,16.3895,0.120,0.128664,211,16.145,0.5970989999999999,20.12075,-29.43627,9
3029009009865,54389.488522,0.993176024349,16.2848,0.080,0.128664,211,16.145,0.5970989999999999,20.12075,-29.43627,9
3029009009865,54431.539956,0.824566312251,16.2332,0.130,0.128664,211,16.145,0.5970989999999999,20.12075,-29.43627,9
3029009009865,54379.685443,0.801863769186,16.2368,0.121,0.128664,211,16.145,0.5970989999999999,20.12075,-29.43627,9
3029009009865,54379.702413,0.933757694438,16.2691,0.119,0.128664,211,16.145,0.5970989999999999,20.12075,-29.43627,9
3029009009865,54472.453700,0.813623080263,16.2189,0.114,0.128664,211,16.145,0.5970989999999999,20.12075,-29.43627,9
3029009009865,54389.444890,0.65406018775,16.1623,0.079,0.128664,211,16.145,0.5970989999999999,20.12075,-29.43627,9
3029009009865,54378.700459,0.146389044356,16.3364,0.118,0.128664,211,16.145,0.5970989999999999,20.12075,-29.43627,9
3029009009865,54378.689305,0.0596981284325,16.3372,0.118,0.128664,211,16.145,0.5970989999999999,20.12075,-29.43627,9
3029009009865,54395.611887,0.58508207422,16.1296,0.122,0.128664,211,16.145,0.5970989999999999,20.12075,-29.43627,9
3029009009865,54413.592467,0.333418827329,16.0741,0.108,0.128664,211,16.145,0.5970989999999999,20.12075,-29.43627,9
3029009009865,54379.710889,0.999634707463,16.2946,0.122,0.128664,211,16.145,0.5970989999999999,20.12075,-29.43627,9
3029009009865,54431.546810,0.877836846339,16.281,0.133,0.128664,211,16.145,0.5970989999999999,20.12075,-29.43627,9
3029009009865,54389.473914,0.879639992549,16.2298,0.079,0.128664,211,16.145,0.5970989999999999,20.12075,-29.43627,9
3029009009865,54431.555195,0.943006590824,16.1625,0.127,0.128664,211,16.145,0.5970989999999999,20.12075,-29.43627,9
3029009009865,54422.531705,0.81080177828,16.1321,0.127,0.128664,211,16.145,0.5970989999999999,20.12075,-29.43627,9
3029009009865,54422.547137,0.930742087949,16.2067,0.130,0.128664,211,16.145,0.5970989999999999,20.12075,-29.43627,9
3029009009865,54378.667073,0.886906982516,16.2831,0.115,0.128664,211,16.145,0.5970989999999999,20.12075,-29.43627,9
3029009009865,54431.529668,0.744606105844,16.1926,0.128,0.128664,211,16.145,0.5970989999999999,20.12075,-29.43627,9
3029009009865,54395.593814,0.444615432469,15.8079,0.109,0.128664,211,16.145,0.5970989999999999,20.12075,-29.43627,9
