ID,MjD,Phase,Mag,Mag_err,Period,Npts,V,Amp,ra,dec,Type
3035058029475,53722.693970,0.856841826462,16.6037,0.142,0.256737,93,15.939,1.1208799999999999,140.47361999999998,-35.75208,9
3035058029475,53774.594825,0.0125692829606,16.3047,0.128,0.256737,93,15.939,1.1208799999999999,140.47361999999998,-35.75208,9
3035058029475,53774.603780,0.0474493353104,16.2759,0.127,0.256737,93,15.939,1.1208799999999999,140.47361999999998,-35.75208,9
3035058029475,53774.617870,0.102330400376,15.9365,0.112,0.256737,93,15.939,1.1208799999999999,140.47361999999998,-35.75208,9
3035058029475,53774.626663,0.136579456826,15.7576,0.105,0.256737,93,15.939,1.1208799999999999,140.47361999999998,-35.75208,9
3035058029475,53901.386979,0.872643989773,16.5348,0.132,0.256737,93,15.939,1.1208799999999999,140.47361999999998,-35.75208,9
3035058029475,53901.395465,0.905697269976,16.3502,0.124,0.256737,93,15.939,1.1208799999999999,140.47361999999998,-35.75208,9
3035058029475,53818.561002,0.262435877987,15.0471,0.077,0.256737,93,15.939,1.1208799999999999,140.47361999999998,-35.75208,9
3035058029475,53818.569496,0.295520318439,14.9431,0.076,0.256737,93,15.939,1.1208799999999999,140.47361999999998,-35.75208,9
3035058029475,53818.578012,0.328690449765,15.5266,0.088,0.256737,93,15.939,1.1208799999999999,140.47361999999998,-35.75208,9
3035058029475,53818.586522,0.361837210832,15.5299,0.088,0.256737,93,15.939,1.1208799999999999,140.47361999999998,-35.75208,9
3035058029475,53859.464524,0.583149292885,16.2034,0.109,0.256737,93,15.939,1.1208799999999999,140.47361999999998,-35.75208,9
3035058029475,53859.474789,0.623131843109,16.2785,0.113,0.256737,93,15.939,1.1208799999999999,140.47361999999998,-35.75208,9
3035058029475,53859.485058,0.663129973487,16.3718,0.117,0.256737,93,15.939,1.1208799999999999,140.47361999999998,-35.75208,9
3035058029475,53859.495351,0.703221584728,16.343,0.116,0.256737,93,15.939,1.1208799999999999,140.47361999999998,-35.75208,9
3035058029475,53877.395392,0.424535614264,15.4454,0.086,0.256737,93,15.939,1.1208799999999999,140.47361999999998,-35.75208,9
3035058029475,53877.405742,0.46484924262,15.6582,0.091,0.256737,93,15.939,1.1208799999999999,140.47361999999998,-35.75208,9
3035058029475,53877.416217,0.505649750528,15.945,0.100,0.256737,93,15.939,1.1208799999999999,140.47361999999998,-35.75208,9
3035058029475,53877.426522,0.54578810223,15.9569,0.100,0.256737,93,15.939,1.1208799999999999,140.47361999999998,-35.75208,9
3035058029475,54038.728029,0.82105423059,16.3706,0.138,0.256737,93,15.939,1.1208799999999999,140.47361999999998,-35.75208,9
3035058029475,54038.736530,0.854165936355,16.3904,0.144,0.256737,93,15.939,1.1208799999999999,140.47361999999998,-35.75208,9
3035058029475,54038.745028,0.88726595699,16.3956,0.138,0.256737,93,15.939,1.1208799999999999,140.47361999999998,-35.75208,9
3035058029475,54038.753534,0.920397137932,16.3362,0.136,0.256737,93,15.939,1.1208799999999999,140.47361999999998,-35.75208,9
3035058029475,54197.463184,0.100285506196,15.9703,0.115,0.256737,93,15.939,1.1208799999999999,140.47361999999998,-35.75208,9
3035058029475,54197.472591,0.136926115054,15.7238,0.105,0.256737,93,15.939,1.1208799999999999,140.47361999999998,-35.75208,9
3035058029475,54197.481949,0.173375867133,15.6187,0.102,0.256737,93,15.939,1.1208799999999999,140.47361999999998,-35.75208,9
3035058029475,54197.491285,0.209739928396,15.5377,0.099,0.256737,93,15.939,1.1208799999999999,140.47361999999998,-35.75208,9
3035058029475,54245.384707,0.756369358511,16.3746,0.134,0.256737,93,15.939,1.1208799999999999,140.47361999999998,-35.75208,9
3035058029475,54245.393848,0.791973887681,16.3854,0.135,0.256737,93,15.939,1.1208799999999999,140.47361999999998,-35.75208,9
3035058029475,54245.411940,0.862442889018,16.3832,0.135,0.256737,93,15.939,1.1208799999999999,140.47361999999998,-35.75208,9
3035058029475,54393.735005,0.586203001527,16.3849,0.138,0.256737,93,15.939,1.1208799999999999,140.47361999999998,-35.75208,9
3035058029475,54393.740453,0.607423160662,16.1731,0.126,0.256737,93,15.939,1.1208799999999999,140.47361999999998,-35.75208,9
3035058029475,54393.745913,0.628690060257,16.2638,0.130,0.256737,93,15.939,1.1208799999999999,140.47361999999998,-35.75208,9
3035058029475,54477.569860,0.126027802791,15.81,0.108,0.256737,93,15.939,1.1208799999999999,140.47361999999998,-35.75208,9
3035058029475,54477.580847,0.168822569394,15.6495,0.101,0.256737,93,15.939,1.1208799999999999,140.47361999999998,-35.75208,9
3035058029475,54477.591945,0.212049685098,15.5892,0.099,0.256737,93,15.939,1.1208799999999999,140.47361999999998,-35.75208,9
3035058029475,54477.603144,0.255670199462,15.5322,0.099,0.256737,93,15.939,1.1208799999999999,140.47361999999998,-35.75208,9
3035058029475,54526.551636,0.911835847568,16.4984,0.132,0.256737,93,15.939,1.1208799999999999,140.47361999999998,-35.75208,9
3035058029475,54526.560438,0.94611995935,16.3848,0.125,0.256737,93,15.939,1.1208799999999999,140.47361999999998,-35.75208,9
3035058029475,54534.505775,0.893498015474,15.3052,0.083,0.256737,93,15.939,1.1208799999999999,140.47361999999998,-35.75208,9
3035058029475,54599.404276,0.67553176987,16.3616,0.088,0.256737,93,15.939,1.1208799999999999,140.47361999999998,-35.75208,9
3035058029475,54599.410312,0.69904221053,16.4653,0.090,0.256737,93,15.939,1.1208799999999999,140.47361999999998,-35.75208,9
3035058029475,54599.422204,0.745361985231,16.3281,0.087,0.256737,93,15.939,1.1208799999999999,140.47361999999998,-35.75208,9
3035058029475,54761.730465,0.9419717454,16.1816,0.116,0.256737,93,15.939,1.1208799999999999,140.47361999999998,-35.75208,9
3035058029475,54761.737559,0.969603134727,16.3877,0.133,0.256737,93,15.939,1.1208799999999999,140.47361999999998,-35.75208,9
3035058029475,54923.472702,0.933897334617,16.3128,0.113,0.256737,93,15.939,1.1208799999999999,140.47361999999998,-35.75208,9
3035058029475,54859.563735,0.00613468259689,16.1942,0.109,0.256737,93,15.939,1.1208799999999999,140.47361999999998,-35.75208,9
3035058029475,54859.571060,0.0346658253402,16.0765,0.105,0.256737,93,15.939,1.1208799999999999,140.47361999999998,-35.75208,9
3035058029475,54859.578434,0.0633878249209,15.9959,0.103,0.256737,93,15.939,1.1208799999999999,140.47361999999998,-35.75208,9
3035058029475,54859.585771,0.0919657080958,15.792,0.096,0.256737,93,15.939,1.1208799999999999,140.47361999999998,-35.75208,9
3035058029475,54908.520910,0.696120933106,16.5363,0.125,0.256737,93,15.939,1.1208799999999999,140.47361999999998,-35.75208,9
3035058029475,54908.528890,0.727203324815,16.4134,0.119,0.256737,93,15.939,1.1208799999999999,140.47361999999998,-35.75208,9
3035058029475,54908.536891,0.758367512288,16.3552,0.116,0.256737,93,15.939,1.1208799999999999,140.47361999999998,-35.75208,9
3035058029475,54967.443302,0.200991676305,15.5468,0.091,0.256737,93,15.939,1.1208799999999999,140.47361999999998,-35.75208,9
3035058029475,54977.418604,0.05515761266,15.8972,0.102,0.256737,93,15.939,1.1208799999999999,140.47361999999998,-35.75208,9
3035058029475,54977.424888,0.0796340223751,16.0152,0.107,0.256737,93,15.939,1.1208799999999999,140.47361999999998,-35.75208,9
3035058029475,54977.431171,0.104106537037,15.9855,0.106,0.256737,93,15.939,1.1208799999999999,140.47361999999998,-35.75208,9
3035058029475,54977.437457,0.128590736829,15.642,0.096,0.256737,93,15.939,1.1208799999999999,140.47361999999998,-35.75208,9
3035058029475,55160.669498,0.824088464084,16.5403,0.126,0.256737,93,15.939,1.1208799999999999,140.47361999999998,-35.75208,9
3035058029475,55160.694369,0.920961918222,16.2868,0.115,0.256737,93,15.939,1.1208799999999999,140.47361999999998,-35.75208,9
3035058029475,55247.579000,0.339775723784,15.3994,0.091,0.256737,93,15.939,1.1208799999999999,140.47361999999998,-35.75208,9
3035058029475,55334.366595,0.380630762229,15.5514,0.095,0.256737,93,15.939,1.1208799999999999,140.47361999999998,-35.75208,9
3035058029475,55334.389476,0.469753093639,15.8515,0.105,0.256737,93,15.939,1.1208799999999999,140.47361999999998,-35.75208,9
3035058029475,55657.461092,0.845507270074,16.4011,0.096,0.256737,93,15.939,1.1208799999999999,140.47361999999998,-35.75208,9
3035058029475,55657.503447,0.0104815433733,16.0905,0.088,0.256737,93,15.939,1.1208799999999999,140.47361999999998,-35.75208,9
3035058029475,55675.455839,0.935704631614,16.1883,0.091,0.256737,93,15.939,1.1208799999999999,140.47361999999998,-35.75208,9
3035058029475,55675.487561,0.0592629812018,15.9633,0.085,0.256737,93,15.939,1.1208799999999999,140.47361999999998,-35.75208,9
3035058029475,55602.593002,0.132291021553,15.6166,0.094,0.256737,93,15.939,1.1208799999999999,140.47361999999998,-35.75208,9
3035058029475,55602.616040,0.222024873714,15.3262,0.086,0.256737,93,15.939,1.1208799999999999,140.47361999999998,-35.75208,9
3035058029475,55567.679105,0.141385931929,15.6342,0.083,0.256737,93,15.939,1.1208799999999999,140.47361999999998,-35.75208,9
3035058029475,55567.695081,0.203613035905,15.3296,0.077,0.256737,93,15.939,1.1208799999999999,140.47361999999998,-35.75208,9
3035058029475,55592.643164,0.37730829604,15.4817,0.074,0.256737,93,15.939,1.1208799999999999,140.47361999999998,-35.75208,9
3035058029475,55592.681383,0.526172698155,15.9247,0.083,0.256737,93,15.939,1.1208799999999999,140.47361999999998,-35.75208,9
3035058029475,55644.487852,0.314263234352,15.422,0.078,0.256737,93,15.939,1.1208799999999999,140.47361999999998,-35.75208,9
3035058029475,55644.544102,0.533359040593,16.0748,0.094,0.256737,93,15.939,1.1208799999999999,140.47361999999998,-35.75208,9
3035058029475,54534.516662,0.935903278471,16.4216,0.129,0.256737,93,15.939,1.1208799999999999,140.47361999999998,-35.75208,9
3035058029475,54534.526083,0.972598417837,16.131,0.116,0.256737,93,15.939,1.1208799999999999,140.47361999999998,-35.75208,9
3035058029475,54534.535408,0.00891963372123,16.2145,0.119,0.256737,93,15.939,1.1208799999999999,140.47361999999998,-35.75208,9
3035058029475,54534.544738,0.0452603247541,15.8747,0.106,0.256737,93,15.939,1.1208799999999999,140.47361999999998,-35.75208,9
3035058029475,56063.431738,0.116013663792,15.6943,0.083,0.256737,93,15.939,1.1208799999999999,140.47361999999998,-35.75208,9
3035058029475,56063.444986,0.167615108076,15.6469,0.082,0.256737,93,15.939,1.1208799999999999,140.47361999999998,-35.75208,9
3035058029475,56063.456900,0.214020573592,15.4159,0.078,0.256737,93,15.939,1.1208799999999999,140.47361999999998,-35.75208,9
3035058029475,56063.468914,0.260815542744,15.343,0.077,0.256737,93,15.939,1.1208799999999999,140.47361999999998,-35.75208,9
3035058029475,56279.656257,0.318419238378,14.9967,0.069,0.256737,93,15.939,1.1208799999999999,140.47361999999998,-35.75208,9
3035058029475,56279.666548,0.358503059571,15.3615,0.074,0.256737,93,15.939,1.1208799999999999,140.47361999999998,-35.75208,9
3035058029475,56279.676559,0.397496270511,15.5219,0.077,0.256737,93,15.939,1.1208799999999999,140.47361999999998,-35.75208,9
3035058029475,56358.541442,0.579098454851,16.2126,0.106,0.256737,93,15.939,1.1208799999999999,140.47361999999998,-35.75208,9
3035058029475,56358.551334,0.617628156469,16.4552,0.116,0.256737,93,15.939,1.1208799999999999,140.47361999999998,-35.75208,9
3035058029475,56358.560993,0.655250314536,16.5323,0.119,0.256737,93,15.939,1.1208799999999999,140.47361999999998,-35.75208,9
3035058029475,56358.570859,0.693678745185,16.3956,0.113,0.256737,93,15.939,1.1208799999999999,140.47361999999998,-35.75208,9
3035058029475,56383.489100,0.751138324442,16.3046,0.092,0.256737,93,15.939,1.1208799999999999,140.47361999999998,-35.75208,9
3035058029475,56383.512922,0.843925885245,16.3206,0.093,0.256737,93,15.939,1.1208799999999999,140.47361999999998,-35.75208,9
3035058029475,56383.526886,0.898316175706,16.3806,0.096,0.256737,93,15.939,1.1208799999999999,140.47361999999998,-35.75208,9
