ID,MjD,Phase,Mag,Mag_err,Period,Npts,V,Amp,ra,dec,Type
3037059064035,53722.720995,0.616278891277,18.3656,0.331,0.13031600000000002,203,18.096,0.516269,145.59573,-36.904579999999996,9
3037059064035,53722.726785,0.660709352582,18.2623,0.313,0.13031600000000002,203,18.096,0.516269,145.59573,-36.904579999999996,9
3037059064035,53722.732335,0.703298136767,18.1615,0.297,0.13031600000000002,203,18.096,0.516269,145.59573,-36.904579999999996,9
3037059064035,53722.737772,0.745019797992,18.495,0.356,0.13031600000000002,203,18.096,0.516269,145.59573,-36.904579999999996,9
3037059064035,53704.690055,0.253069461847,17.8695,0.279,0.13031600000000002,203,18.096,0.516269,145.59573,-36.904579999999996,9
3037059064035,53704.696934,0.30585653329,18.0867,0.411,0.13031600000000002,203,18.096,0.516269,145.59573,-36.904579999999996,9
3037059064035,53848.473109,0.594593142741,18.0238,0.164,0.13031600000000002,203,18.096,0.516269,145.59573,-36.904579999999996,9
3037059064035,53848.489076,0.71711838909,18.2364,0.181,0.13031600000000002,203,18.096,0.516269,145.59573,-36.904579999999996,9
3037059064035,53848.505053,0.839720371994,18.8545,0.247,0.13031600000000002,203,18.096,0.516269,145.59573,-36.904579999999996,9
3037059064035,53848.520989,0.962007734983,19.3664,0.330,0.13031600000000002,203,18.096,0.516269,145.59573,-36.904579999999996,9
3037059064035,54081.723253,0.475682187825,17.8048,0.205,0.13031600000000002,203,18.096,0.516269,145.59573,-36.904579999999996,9
3037059064035,54081.727668,0.509561373852,17.6326,0.189,0.13031600000000002,203,18.096,0.516269,145.59573,-36.904579999999996,9
3037059064035,54081.732291,0.545036680007,17.8272,0.207,0.13031600000000002,203,18.096,0.516269,145.59573,-36.904579999999996,9
3037059064035,54081.736914,0.58051198622,18.2346,0.254,0.13031600000000002,203,18.096,0.516269,145.59573,-36.904579999999996,9
3037059064035,53763.590773,0.236847355613,17.9161,0.211,0.13031600000000002,203,18.096,0.516269,145.59573,-36.904579999999996,9
3037059064035,53763.600841,0.314105712227,17.9343,0.213,0.13031600000000002,203,18.096,0.516269,145.59573,-36.904579999999996,9
3037059064035,53763.610881,0.391149206494,18.079,0.228,0.13031600000000002,203,18.096,0.516269,145.59573,-36.904579999999996,9
3037059064035,53763.621043,0.469128886645,17.9945,0.219,0.13031600000000002,203,18.096,0.516269,145.59573,-36.904579999999996,9
3037059064035,53763.631481,0.549226495496,18.0837,0.230,0.13031600000000002,203,18.096,0.516269,145.59573,-36.904579999999996,9
3037059064035,53921.353766,0.855597163783,18.4116,0.261,0.13031600000000002,203,18.096,0.516269,145.59573,-36.904579999999996,9
3037059064035,53921.360305,0.905775192601,18.4714,0.269,0.13031600000000002,203,18.096,0.516269,145.59573,-36.904579999999996,9
3037059064035,53921.366841,0.955930200405,18.2368,0.239,0.13031600000000002,203,18.096,0.516269,145.59573,-36.904579999999996,9
3037059064035,53921.373381,0.00611590279732,18.0869,0.223,0.13031600000000002,203,18.096,0.516269,145.59573,-36.904579999999996,9
3037059064035,53890.371827,0.110891985591,18.1075,0.205,0.13031600000000002,203,18.096,0.516269,145.59573,-36.904579999999996,9
3037059064035,53890.382079,0.18956229469,18.1278,0.208,0.13031600000000002,203,18.096,0.516269,145.59573,-36.904579999999996,9
3037059064035,53890.392319,0.268140519911,17.9695,0.193,0.13031600000000002,203,18.096,0.516269,145.59573,-36.904579999999996,9
3037059064035,53890.402540,0.346572945709,18.1139,0.206,0.13031600000000002,203,18.096,0.516269,145.59573,-36.904579999999996,9
3037059064035,53813.516526,0.349841922638,18.0441,0.193,0.13031600000000002,203,18.096,0.516269,145.59573,-36.904579999999996,9
3037059064035,53813.530813,0.459475428914,18.2548,0.213,0.13031600000000002,203,18.096,0.516269,145.59573,-36.904579999999996,9
3037059064035,53813.545062,0.568817336229,17.8693,0.177,0.13031600000000002,203,18.096,0.516269,145.59573,-36.904579999999996,9
3037059064035,53813.559284,0.677952055004,18.2797,0.216,0.13031600000000002,203,18.096,0.516269,145.59573,-36.904579999999996,9
3037059064035,53825.472553,0.0962659995421,18.0531,0.195,0.13031600000000002,203,18.096,0.516269,145.59573,-36.904579999999996,9
3037059064035,53825.482151,0.169917738356,17.9903,0.189,0.13031600000000002,203,18.096,0.516269,145.59573,-36.904579999999996,9
3037059064035,53825.491601,0.242433776322,17.9989,0.190,0.13031600000000002,203,18.096,0.516269,145.59573,-36.904579999999996,9
3037059064035,53825.501770,0.320467172074,17.8716,0.181,0.13031600000000002,203,18.096,0.516269,145.59573,-36.904579999999996,9
3037059064035,53877.396674,0.544046778581,17.8162,0.214,0.13031600000000002,203,18.096,0.516269,145.59573,-36.904579999999996,9
3037059064035,53877.407125,0.624244144943,18.0331,0.239,0.13031600000000002,203,18.096,0.516269,145.59573,-36.904579999999996,9
3037059064035,53877.417480,0.703704840445,18.2081,0.262,0.13031600000000002,203,18.096,0.516269,145.59573,-36.904579999999996,9
3037059064035,53877.427799,0.782889284426,18.2351,0.266,0.13031600000000002,203,18.096,0.516269,145.59573,-36.904579999999996,9
3037059064035,54062.643543,0.0645738051389,18.2422,0.250,0.13031600000000002,203,18.096,0.516269,145.59573,-36.904579999999996,9
3037059064035,54062.657743,0.173539703479,18.1132,0.233,0.13031600000000002,203,18.096,0.516269,145.59573,-36.904579999999996,9
3037059064035,54062.671939,0.282474907115,17.9018,0.208,0.13031600000000002,203,18.096,0.516269,145.59573,-36.904579999999996,9
3037059064035,54062.686119,0.391287332284,17.8843,0.205,0.13031600000000002,203,18.096,0.516269,145.59573,-36.904579999999996,9
3037059064035,54038.730968,0.567727677291,17.8672,0.281,0.13031600000000002,203,18.096,0.516269,145.59573,-36.904579999999996,9
3037059064035,54038.739480,0.63304582698,17.9863,0.314,0.13031600000000002,203,18.096,0.516269,145.59573,-36.904579999999996,9
3037059064035,54038.747970,0.698195156292,18.1986,0.333,0.13031600000000002,203,18.096,0.516269,145.59573,-36.904579999999996,9
3037059064035,54038.756484,0.763528653362,18.3614,0.357,0.13031600000000002,203,18.096,0.516269,145.59573,-36.904579999999996,9
3037059064035,54197.464895,0.637089843105,18.2744,0.332,0.13031600000000002,203,18.096,0.516269,145.59573,-36.904579999999996,9
3037059064035,54197.474280,0.709107093513,18.4453,0.365,0.13031600000000002,203,18.096,0.516269,145.59573,-36.904579999999996,9
3037059064035,54197.483631,0.780863439606,18.7431,0.434,0.13031600000000002,203,18.096,0.516269,145.59573,-36.904579999999996,9
3037059064035,54197.492965,0.852489333542,18.1728,0.317,0.13031600000000002,203,18.096,0.516269,145.59573,-36.904579999999996,9
3037059064035,54212.410475,0.324311673117,18.0464,0.229,0.13031600000000002,203,18.096,0.516269,145.59573,-36.904579999999996,9
3037059064035,54212.421257,0.407049019297,18.1094,0.237,0.13031600000000002,203,18.096,0.516269,145.59573,-36.904579999999996,9
3037059064035,54212.431853,0.48835906561,18.0445,0.229,0.13031600000000002,203,18.096,0.516269,145.59573,-36.904579999999996,9
3037059064035,54212.442448,0.56966143829,17.8788,0.211,0.13031600000000002,203,18.096,0.516269,145.59573,-36.904579999999996,9
3037059064035,54113.680133,0.701748058549,18.9311,0.572,0.13031600000000002,203,18.096,0.516269,145.59573,-36.904579999999996,9
3037059064035,54113.685324,0.741582000628,18.7859,0.516,0.13031600000000002,203,18.096,0.516269,145.59573,-36.904579999999996,9
3037059064035,54113.690508,0.781362227164,18.725,0.488,0.13031600000000002,203,18.096,0.516269,145.59573,-36.904579999999996,9
3037059064035,54130.642696,0.866601184767,18.4928,0.359,0.13031600000000002,203,18.096,0.516269,145.59573,-36.904579999999996,9
3037059064035,54130.653074,0.946238374396,18.696,0.403,0.13031600000000002,203,18.096,0.516269,145.59573,-36.904579999999996,9
3037059064035,54130.663424,0.0256607016199,18.1944,0.306,0.13031600000000002,203,18.096,0.516269,145.59573,-36.904579999999996,9
3037059064035,54130.673701,0.104522852111,18.5112,0.364,0.13031600000000002,203,18.096,0.516269,145.59573,-36.904579999999996,9
3037059064035,54298.355945,0.840180791274,18.075,0.225,0.13031600000000002,203,18.096,0.516269,145.59573,-36.904579999999996,9
3037059064035,54298.362498,0.890466251236,18.2772,0.250,0.13031600000000002,203,18.096,0.516269,145.59573,-36.904579999999996,9
3037059064035,54298.369085,0.941012615454,18.5778,0.296,0.13031600000000002,203,18.096,0.516269,145.59573,-36.904579999999996,9
3037059064035,54298.375653,0.991413180251,18.1615,0.238,0.13031600000000002,203,18.096,0.516269,145.59573,-36.904579999999996,9
3037059064035,54167.553482,0.107231652248,17.0299,0.249,0.13031600000000002,203,18.096,0.516269,145.59573,-36.904579999999996,9
3037059064035,54167.584047,0.34177691146,17.62,0.243,0.13031600000000002,203,18.096,0.516269,145.59573,-36.904579999999996,9
3037059064035,54167.590890,0.394287731324,17.8742,0.275,0.13031600000000002,203,18.096,0.516269,145.59573,-36.904579999999996,9
3037059064035,54167.597719,0.446691119985,17.7337,0.258,0.13031600000000002,203,18.096,0.516269,145.59573,-36.904579999999996,9
3037059064035,54184.398740,0.371926701162,18.1188,0.245,0.13031600000000002,203,18.096,0.516269,145.59573,-36.904579999999996,9
3037059064035,54184.403888,0.411430676177,17.8354,0.210,0.13031600000000002,203,18.096,0.516269,145.59573,-36.904579999999996,9
3037059064035,54184.408897,0.449868013093,18.205,0.269,0.13031600000000002,203,18.096,0.516269,145.59573,-36.904579999999996,9
3037059064035,54184.413962,0.488735074701,17.7926,0.204,0.13031600000000002,203,18.096,0.516269,145.59573,-36.904579999999996,9
3037059064035,54245.433894,0.734629669401,18.3926,0.357,0.13031600000000002,203,18.096,0.516269,145.59573,-36.904579999999996,9
3037059064035,54245.442422,0.800070597557,18.4281,0.366,0.13031600000000002,203,18.096,0.516269,145.59573,-36.904579999999996,9
3037059064035,54245.459504,0.931151969009,18.3209,0.347,0.13031600000000002,203,18.096,0.516269,145.59573,-36.904579999999996,9
3037059064035,54508.580911,0.0340019643772,18.0771,0.220,0.13031600000000002,203,18.096,0.516269,145.59573,-36.904579999999996,9
3037059064035,54508.587741,0.0864130267873,18.0736,0.220,0.13031600000000002,203,18.096,0.516269,145.59573,-36.904579999999996,9
3037059064035,54508.594518,0.138417385344,17.8176,0.193,0.13031600000000002,203,18.096,0.516269,145.59573,-36.904579999999996,9
3037059064035,54508.601233,0.189945977414,18.0788,0.219,0.13031600000000002,203,18.096,0.516269,145.59573,-36.904579999999996,9
3037059064035,54473.703006,0.392998557305,17.9031,0.209,0.13031600000000002,203,18.096,0.516269,145.59573,-36.904579999999996,9
3037059064035,54473.713792,0.475766598072,17.9922,0.219,0.13031600000000002,203,18.096,0.516269,145.59573,-36.904579999999996,9
3037059064035,54473.724229,0.55585653329,17.8425,0.204,0.13031600000000002,203,18.096,0.516269,145.59573,-36.904579999999996,9
3037059064035,54473.734691,0.636138309899,18.0686,0.228,0.13031600000000002,203,18.096,0.516269,145.59573,-36.904579999999996,9
3037059064035,54528.649886,0.0363884710241,18.1536,0.178,0.13031600000000002,203,18.096,0.516269,145.59573,-36.904579999999996,9
3037059064035,54528.659248,0.108229227422,18.0058,0.166,0.13031600000000002,203,18.096,0.516269,145.59573,-36.904579999999996,9
3037059064035,54528.668674,0.180561097572,17.9572,0.163,0.13031600000000002,203,18.096,0.516269,145.59573,-36.904579999999996,9
3037059064035,54528.678111,0.252977378026,17.8365,0.155,0.13031600000000002,203,18.096,0.516269,145.59573,-36.904579999999996,9
3037059064035,54534.557154,0.366723963234,17.9181,0.256,0.13031600000000002,203,18.096,0.516269,145.59573,-36.904579999999996,9
3037059064035,54534.566030,0.434835323307,18.0256,0.271,0.13031600000000002,203,18.096,0.516269,145.59573,-36.904579999999996,9
3037059064035,54534.574867,0.502647410904,18.0535,0.274,0.13031600000000002,203,18.096,0.516269,145.59573,-36.904579999999996,9
3037059064035,54534.583668,0.570183246804,18.1834,0.295,0.13031600000000002,203,18.096,0.516269,145.59573,-36.904579999999996,9
3037059064035,54594.477391,0.173938733467,17.9246,0.213,0.13031600000000002,203,18.096,0.516269,145.59573,-36.904579999999996,9
3037059064035,54594.488055,0.255770588352,18.0096,0.223,0.13031600000000002,203,18.096,0.516269,145.59573,-36.904579999999996,9
3037059064035,54594.498719,0.337602443236,17.8797,0.210,0.13031600000000002,203,18.096,0.516269,145.59573,-36.904579999999996,9
3037059064035,54594.509374,0.419365235255,17.8094,0.203,0.13031600000000002,203,18.096,0.516269,145.59573,-36.904579999999996,9
3037059064035,54602.465586,0.472589704965,17.1894,0.129,0.13031600000000002,203,18.096,0.516269,145.59573,-36.904579999999996,9
3037059064035,54602.472248,0.523711593298,17.5722,0.152,0.13031600000000002,203,18.096,0.516269,145.59573,-36.904579999999996,9
3037059064035,54602.478901,0.574764418765,17.8671,0.174,0.13031600000000002,203,18.096,0.516269,145.59573,-36.904579999999996,9
3037059064035,54602.485549,0.625778875896,18.4688,0.234,0.13031600000000002,203,18.096,0.516269,145.59573,-36.904579999999996,9
3037059064035,54938.455761,0.745211639325,18.3035,0.215,0.13031600000000002,203,18.096,0.516269,145.59573,-36.904579999999996,9
3037059064035,54938.466509,0.82768808119,18.3018,0.215,0.13031600000000002,203,18.096,0.516269,145.59573,-36.904579999999996,9
3037059064035,54938.477193,0.909673409187,18.3096,0.214,0.13031600000000002,203,18.096,0.516269,145.59573,-36.904579999999996,9
3037059064035,54938.487884,0.991712452786,18.2624,0.211,0.13031600000000002,203,18.096,0.516269,145.59573,-36.904579999999996,9
3037059064035,54869.582020,0.231897848251,17.7699,0.278,0.13031600000000002,203,18.096,0.516269,145.59573,-36.904579999999996,9
3037059064035,54869.586536,0.266552073415,17.63,0.258,0.13031600000000002,203,18.096,0.516269,145.59573,-36.904579999999996,9
3037059064035,54869.591289,0.303024954686,17.8718,0.292,0.13031600000000002,203,18.096,0.516269,145.59573,-36.904579999999996,9
3037059064035,54869.595954,0.338822554331,18.13,0.335,0.13031600000000002,203,18.096,0.516269,145.59573,-36.904579999999996,9
3037059064035,54888.530602,0.636775223247,17.7762,0.215,0.13031600000000002,203,18.096,0.516269,145.59573,-36.904579999999996,9
3037059064035,54888.539489,0.704970993567,17.968,0.235,0.13031600000000002,203,18.096,0.516269,145.59573,-36.904579999999996,9
3037059064035,54888.548441,0.773665551387,18.2645,0.272,0.13031600000000002,203,18.096,0.516269,145.59573,-36.904579999999996,9
3037059064035,54888.557416,0.842536603333,18.427,0.298,0.13031600000000002,203,18.096,0.516269,145.59573,-36.904579999999996,9
3037059064035,54837.661199,0.282536296349,16.9233,0.384,0.13031600000000002,203,18.096,0.516269,145.59573,-36.904579999999996,9
3037059064035,54839.596358,0.132278461533,18.2772,0.215,0.13031600000000002,203,18.096,0.516269,145.59573,-36.904579999999996,9
3037059064035,54839.609729,0.234882900026,18.1923,0.207,0.13031600000000002,203,18.096,0.516269,145.59573,-36.904579999999996,9
3037059064035,54839.623165,0.33798612596,17.8827,0.177,0.13031600000000002,203,18.096,0.516269,145.59573,-36.904579999999996,9
3037059064035,54839.636743,0.442179011006,18.0555,0.192,0.13031600000000002,203,18.096,0.516269,145.59573,-36.904579999999996,9
3037059064035,54857.721470,0.218131311529,18.0776,0.200,0.13031600000000002,203,18.096,0.516269,145.59573,-36.904579999999996,9
3037059064035,54857.732200,0.300469627604,18.0348,0.196,0.13031600000000002,203,18.096,0.516269,145.59573,-36.904579999999996,9
3037059064035,54857.742934,0.382838638325,17.9046,0.185,0.13031600000000002,203,18.096,0.516269,145.59573,-36.904579999999996,9
3037059064035,54857.753827,0.466427760141,17.8553,0.182,0.13031600000000002,203,18.096,0.516269,145.59573,-36.904579999999996,9
3037059064035,54999.391640,0.346112526429,17.9655,0.201,0.13031600000000002,203,18.096,0.516269,145.59573,-36.904579999999996,9
3037059064035,54999.398218,0.396589827782,17.895,0.195,0.13031600000000002,203,18.096,0.516269,145.59573,-36.904579999999996,9
3037059064035,54999.404648,0.44593142817,18.0179,0.208,0.13031600000000002,203,18.096,0.516269,145.59573,-36.904579999999996,9
3037059064035,54999.411145,0.49578716344,17.8621,0.193,0.13031600000000002,203,18.096,0.516269,145.59573,-36.904579999999996,9
3037059064035,54908.551714,0.27187758981,18.023,0.242,0.13031600000000002,203,18.096,0.516269,145.59573,-36.904579999999996,9
3037059064035,54908.560115,0.336343963863,18.0169,0.241,0.13031600000000002,203,18.096,0.516269,145.59573,-36.904579999999996,9
3037059064035,54908.568533,0.400940790016,17.9879,0.237,0.13031600000000002,203,18.096,0.516269,145.59573,-36.904579999999996,9
3037059064035,54908.576996,0.465882930672,18.0464,0.244,0.13031600000000002,203,18.096,0.516269,145.59573,-36.904579999999996,9
3037059064035,54966.438107,0.472075570142,18.0075,0.239,0.13031600000000002,203,18.096,0.516269,145.59573,-36.904579999999996,9
3037059064035,54966.448212,0.549617851968,17.8131,0.218,0.13031600000000002,203,18.096,0.516269,145.59573,-36.904579999999996,9
3037059064035,54966.458390,0.627720310586,17.9749,0.237,0.13031600000000002,203,18.096,0.516269,145.59573,-36.904579999999996,9
3037059064035,54966.468477,0.705124466622,18.1632,0.322,0.13031600000000002,203,18.096,0.516269,145.59573,-36.904579999999996,9
3037059064035,54977.473165,0.151301451842,18.0353,0.258,0.13031600000000002,203,18.096,0.516269,145.59573,-36.904579999999996,9
3037059064035,55160.673192,0.965069523256,18.6052,0.334,0.13031600000000002,203,18.096,0.516269,145.59573,-36.904579999999996,9
3037059064035,55160.681489,0.0287378372159,18.1482,0.262,0.13031600000000002,203,18.096,0.516269,145.59573,-36.904579999999996,9
3037059064035,55160.689795,0.0924752140418,18.215,0.273,0.13031600000000002,203,18.096,0.516269,145.59573,-36.904579999999996,9
3037059064035,55160.698074,0.156005402212,18.1207,0.278,0.13031600000000002,203,18.096,0.516269,145.59573,-36.904579999999996,9
3037059064035,55301.507671,0.680246477714,17.9869,0.212,0.13031600000000002,203,18.096,0.516269,145.59573,-36.904579999999996,9
3037059064035,55247.584563,0.892929494381,18.4012,0.334,0.13031600000000002,203,18.096,0.516269,145.59573,-36.904579999999996,9
3037059064035,55368.371175,0.767695447954,18.5852,0.278,0.13031600000000002,203,18.096,0.516269,145.59573,-36.904579999999996,9
3037059064035,55368.392807,0.93369194871,19.2996,0.414,0.13031600000000002,203,18.096,0.516269,145.59573,-36.904579999999996,9
3037059064035,55270.596003,0.474776696588,17.8394,0.195,0.13031600000000002,203,18.096,0.516269,145.59573,-36.904579999999996,9
3037059064035,55328.366794,0.787884833757,18.088,0.217,0.13031600000000002,203,18.096,0.516269,145.59573,-36.904579999999996,9
3037059064035,55673.421155,0.615941250464,18.0258,0.178,0.13031600000000002,203,18.096,0.516269,145.59573,-36.904579999999996,9
3037059064035,55673.472183,0.00751250801841,18.1883,0.192,0.13031600000000002,203,18.096,0.516269,145.59573,-36.904579999999996,9
3037059064035,55615.568782,0.676801006775,18.2219,0.224,0.13031600000000002,203,18.096,0.516269,145.59573,-36.904579999999996,9
3037059064035,55615.604463,0.950604683952,18.6317,0.284,0.13031600000000002,203,18.096,0.516269,145.59573,-36.904579999999996,9
3037059064035,55714.361079,0.77478590497,18.2794,0.198,0.13031600000000002,203,18.096,0.516269,145.59573,-36.904579999999996,9
3037059064035,55714.373739,0.871934374853,18.4281,0.213,0.13031600000000002,203,18.096,0.516269,145.59573,-36.904579999999996,9
3037059064035,55714.386446,0.969443506503,18.1859,0.191,0.13031600000000002,203,18.096,0.516269,145.59573,-36.904579999999996,9
3037059064035,55714.399166,0.0670523956651,18.088,0.184,0.13031600000000002,203,18.096,0.516269,145.59573,-36.904579999999996,9
3037059064035,55645.503029,0.381879431487,17.927,0.190,0.13031600000000002,203,18.096,0.516269,145.59573,-36.904579999999996,9
3037059064035,55645.538757,0.65604377049,18.0422,0.204,0.13031600000000002,203,18.096,0.516269,145.59573,-36.904579999999996,9
3037059064035,54966.490290,0.872509898967,18.2826,0.297,0.13031600000000002,203,18.096,0.516269,145.59573,-36.904579999999996,9
3037059064035,54966.500431,0.950328432373,18.3624,0.295,0.13031600000000002,203,18.096,0.516269,145.59573,-36.904579999999996,9
3037059064035,54966.510586,0.0282543969224,17.9997,0.244,0.13031600000000002,203,18.096,0.516269,145.59573,-36.904579999999996,9
3037059064035,54966.520759,0.10631848732,18.0692,0.255,0.13031600000000002,203,18.096,0.516269,145.59573,-36.904579999999996,9
3037059064035,55585.683943,0.350862518768,17.9412,0.200,0.13031600000000002,203,18.096,0.516269,145.59573,-36.904579999999996,9
3037059064035,55585.717913,0.611536572571,17.8486,0.207,0.13031600000000002,203,18.096,0.516269,145.59573,-36.904579999999996,9
3037059064035,55738.358247,0.92076951405,18.2124,0.197,0.13031600000000002,203,18.096,0.516269,145.59573,-36.904579999999996,9
3037059064035,55738.365208,0.974185825209,18.4423,0.220,0.13031600000000002,203,18.096,0.516269,145.59573,-36.904579999999996,9
3037059064035,55738.372238,0.0281316185137,18.2842,0.205,0.13031600000000002,203,18.096,0.516269,145.59573,-36.904579999999996,9
3037059064035,55738.379242,0.081877896795,18.1072,0.189,0.13031600000000002,203,18.096,0.516269,145.59573,-36.904579999999996,9
3037059064035,56001.523494,0.360032536264,17.8268,0.173,0.13031600000000002,203,18.096,0.516269,145.59573,-36.904579999999996,9
3037059064035,56001.535346,0.450980692985,18.0439,0.204,0.13031600000000002,203,18.096,0.516269,145.59573,-36.904579999999996,9
3037059064035,56001.547690,0.545704288001,17.8584,0.194,0.13031600000000002,203,18.096,0.516269,145.59573,-36.904579999999996,9
3037059064035,56001.559893,0.639345897594,18.0216,0.193,0.13031600000000002,203,18.096,0.516269,145.59573,-36.904579999999996,9
3037059064035,56029.442967,0.604430768231,17.9296,0.130,0.13031600000000002,203,18.096,0.516269,145.59573,-36.904579999999996,9
3037059064035,56029.456312,0.706835691642,18.1474,0.142,0.13031600000000002,203,18.096,0.516269,145.59573,-36.904579999999996,9
3037059064035,56029.469597,0.808780195832,18.2612,0.149,0.13031600000000002,203,18.096,0.516269,145.59573,-36.904579999999996,9
3037059064035,56029.482740,0.909635040909,18.4493,0.163,0.13031600000000002,203,18.096,0.516269,145.59573,-36.904579999999996,9
3037059064035,56059.442543,0.810821387917,18.3131,0.157,0.13031600000000002,203,18.096,0.516269,145.59573,-36.904579999999996,9
3037059064035,56059.456573,0.918482764973,18.3041,0.157,0.13031600000000002,203,18.096,0.516269,145.59573,-36.904579999999996,9
3037059064035,56059.470710,0.0269652229617,18.3888,0.163,0.13031600000000002,203,18.096,0.516269,145.59573,-36.904579999999996,9
3037059064035,56059.484796,0.135056324536,17.9639,0.135,0.13031600000000002,203,18.096,0.516269,145.59573,-36.904579999999996,9
3037059064035,56090.381110,0.222704809799,17.9799,0.169,0.13031600000000002,203,18.096,0.516269,145.59573,-36.904579999999996,9
3037059064035,56090.391673,0.303761625546,17.8802,0.163,0.13031600000000002,203,18.096,0.516269,145.59573,-36.904579999999996,9
3037059064035,56090.402278,0.385140734783,18.0822,0.181,0.13031600000000002,203,18.096,0.516269,145.59573,-36.904579999999996,9
3037059064035,56090.412893,0.466596580576,17.8739,0.164,0.13031600000000002,203,18.096,0.516269,145.59573,-36.904579999999996,9
3037059064035,56298.720501,0.94727431779,18.3777,0.211,0.13031600000000002,203,18.096,0.516269,145.59573,-36.904579999999996,9
3037059064035,56298.728936,0.012001596042,18.2037,0.195,0.13031600000000002,203,18.096,0.516269,145.59573,-36.904579999999996,9
3037059064035,56298.737406,0.0769974522991,17.9768,0.177,0.13031600000000002,203,18.096,0.516269,145.59573,-36.904579999999996,9
3037059064035,56298.745972,0.142729979358,17.7754,0.160,0.13031600000000002,203,18.096,0.516269,145.59573,-36.904579999999996,9
3037059064035,56358.546830,0.033871512278,17.9376,0.218,0.13031600000000002,203,18.096,0.516269,145.59573,-36.904579999999996,9
3037059064035,56358.556604,0.108873814344,17.987,0.226,0.13031600000000002,203,18.096,0.516269,145.59573,-36.904579999999996,9
3037059064035,56358.566511,0.184896712541,17.7903,0.204,0.13031600000000002,203,18.096,0.516269,145.59573,-36.904579999999996,9
3037059064035,56358.576232,0.259492310928,17.9418,0.220,0.13031600000000002,203,18.096,0.516269,145.59573,-36.904579999999996,9
3037059064035,56388.514496,0.995395807084,18.1997,0.275,0.13031600000000002,203,18.096,0.516269,145.59573,-36.904579999999996,9
3037059064035,56388.525062,0.0764756437857,18.2479,0.600,0.13031600000000002,203,18.096,0.516269,145.59573,-36.904579999999996,9
3037059064035,56388.535609,0.157409681007,18.3011,0.499,0.13031600000000002,203,18.096,0.516269,145.59573,-36.904579999999996,9
3037059064035,56388.546308,0.239510113781,17.8344,0.445,0.13031600000000002,203,18.096,0.516269,145.59573,-36.904579999999996,9
3037059064035,56388.576963,0.474746002001,17.934,0.225,0.13031600000000002,203,18.096,0.516269,145.59573,-36.904579999999996,9
3037059064035,56388.587684,0.557015255152,18.0043,0.307,0.13031600000000002,203,18.096,0.516269,145.59573,-36.904579999999996,9
3037059064035,56388.514496,0.995395807084,18.1997,0.275,0.13031600000000002,203,18.096,0.516269,145.59573,-36.904579999999996,9
3037059064035,56388.535609,0.157409681007,18.3011,0.499,0.13031600000000002,203,18.096,0.516269,145.59573,-36.904579999999996,9
3037059064035,56388.576963,0.474746002001,17.934,0.225,0.13031600000000002,203,18.096,0.516269,145.59573,-36.904579999999996,9
3037059064035,56388.587684,0.557015255152,18.0043,0.307,0.13031600000000002,203,18.096,0.516269,145.59573,-36.904579999999996,9
3037059064035,56414.388719,0.545251542353,17.9613,0.149,0.13031600000000002,203,18.096,0.516269,145.59573,-36.904579999999996,9
3037059064035,56414.398624,0.621259093226,18.0499,0.156,0.13031600000000002,203,18.096,0.516269,145.59573,-36.904579999999996,9
3037059064035,56414.408790,0.699269468023,18.1419,0.160,0.13031600000000002,203,18.096,0.516269,145.59573,-36.904579999999996,9
3037059064035,56414.418809,0.776151815546,18.395,0.179,0.13031600000000002,203,18.096,0.516269,145.59573,-36.904579999999996,9
