ID,MjD,Phase,Mag,Mag_err,Period,Npts,V,Amp,ra,dec,Type
3039078014633,53607.3751428933,0.439394597197,15.312231,0.083,0.091157,266,15.465,0.183083,199.15948,-39.95994,9
3039078014633,53607.3849479747,0.546957169543,15.374331,0.085,0.091157,266,15.465,0.183083,199.15948,-39.95994,9
3039078014633,53607.3947618054,0.654615722364,15.455902,0.087,0.091157,266,15.465,0.183083,199.15948,-39.95994,9
3039078014633,53607.4045774303,0.762293957639,15.46104,0.088,0.091157,266,15.465,0.183083,199.15948,-39.95994,9
3039078014633,53729.718391169,0.555175894289,15.39883,0.091,0.091157,266,15.465,0.183083,199.15948,-39.95994,9
3039078014633,53729.7235413656,0.611673986656,15.445361,0.092,0.091157,266,15.465,0.183083,199.15948,-39.95994,9
3039078014633,53729.7286696873,0.667932109442,15.448801,0.092,0.091157,266,15.465,0.183083,199.15948,-39.95994,9
3039078014633,53729.7338028589,0.724243436009,15.423826,0.091,0.091157,266,15.465,0.183083,199.15948,-39.95994,9
3039078014633,53555.5098158798,0.472370523377,15.369402,0.089,0.091157,266,15.465,0.183083,199.15948,-39.95994,9
3039078014633,53555.5171076736,0.552362118149,15.455012,0.091,0.091157,266,15.465,0.183083,199.15948,-39.95994,9
3039078014633,53555.5244873843,0.633318168577,15.457087,0.092,0.091157,266,15.465,0.183083,199.15948,-39.95994,9
3039078014633,53555.5318111807,0.71366083459,15.435134,0.091,0.091157,266,15.465,0.183083,199.15948,-39.95994,9
3039078014633,53580.4063646761,0.589616552694,15.416292,0.084,0.091157,266,15.465,0.183083,199.15948,-39.95994,9
3039078014633,53580.4145198497,0.679079496884,15.432319,0.084,0.091157,266,15.465,0.183083,199.15948,-39.95994,9
3039078014633,53580.4226821875,0.768621032941,15.482664,0.085,0.091157,266,15.465,0.183083,199.15948,-39.95994,9
3039078014633,53580.4308866784,0.858624991961,15.506569,0.086,0.091157,266,15.465,0.183083,199.15948,-39.95994,9
3039078014633,53830.5479441436,0.663900123909,15.482407,0.085,0.091157,266,15.465,0.183083,199.15948,-39.95994,9
3039078014633,53830.5575355903,0.769119105418,15.493862,0.085,0.091157,266,15.465,0.183083,199.15948,-39.95994,9
3039078014633,53830.5672239234,0.875400939025,15.479894,0.085,0.091157,266,15.465,0.183083,199.15948,-39.95994,9
3039078014633,53845.5298931596,0.0171479929704,15.095502,0.159,0.091157,266,15.465,0.183083,199.15948,-39.95994,9
3039078014633,53948.3883942592,0.38360476098,15.290286,0.071,0.091157,266,15.465,0.183083,199.15948,-39.95994,9
3039078014633,53948.3938824305,0.443810464349,15.3496,0.072,0.091157,266,15.465,0.183083,199.15948,-39.95994,9
3039078014633,53948.3993916668,0.50424725248,15.427164,0.073,0.091157,266,15.465,0.183083,199.15948,-39.95994,9
3039078014633,53948.404888403,0.564546913491,15.390812,0.073,0.091157,266,15.465,0.183083,199.15948,-39.95994,9
3039078014633,54095.6940533567,0.339144077851,15.397684,0.095,0.091157,266,15.465,0.183083,199.15948,-39.95994,9
3039078014633,54095.7017791087,0.423896230641,15.422839,0.095,0.091157,266,15.465,0.183083,199.15948,-39.95994,9
3039078014633,54095.7095105324,0.508710602531,15.442471,0.095,0.091157,266,15.465,0.183083,199.15948,-39.95994,9
3039078014633,54095.717267662,0.593806970399,15.482381,0.096,0.091157,266,15.465,0.183083,199.15948,-39.95994,9
3039078014633,53936.4348785994,0.252526952419,15.341221,0.077,0.091157,266,15.465,0.183083,199.15948,-39.95994,9
3039078014633,53936.4457398611,0.371675911825,15.360315,0.078,0.091157,266,15.465,0.183083,199.15948,-39.95994,9
3039078014633,53936.4565762617,0.490552142961,15.440484,0.079,0.091157,266,15.465,0.183083,199.15948,-39.95994,9
3039078014633,53936.4674550346,0.60989320185,15.434708,0.079,0.091157,266,15.465,0.183083,199.15948,-39.95994,9
3039078014633,53889.3505490739,0.733449695515,15.522344,0.078,0.091157,266,15.465,0.183083,199.15948,-39.95994,9
3039078014633,53889.3614171757,0.852673691581,15.431703,0.076,0.091157,266,15.465,0.183083,199.15948,-39.95994,9
3039078014633,53889.3722993056,0.972051576944,15.446597,0.076,0.091157,266,15.465,0.183083,199.15948,-39.95994,9
3039078014633,53889.3831616435,0.0912123423768,15.41309,0.075,0.091157,266,15.465,0.183083,199.15948,-39.95994,9
3039078014633,53899.5025098959,0.101318559144,15.504889,0.086,0.091157,266,15.465,0.183083,199.15948,-39.95994,9
3039078014633,53899.5110771876,0.19530247373,15.453839,0.085,0.091157,266,15.465,0.183083,199.15948,-39.95994,9
3039078014633,53899.5196184261,0.289000582532,15.344672,0.083,0.091157,266,15.465,0.183083,199.15948,-39.95994,9
3039078014633,53899.5281734142,0.382849525544,15.481658,0.086,0.091157,266,15.465,0.183083,199.15948,-39.95994,9
3039078014633,53806.6220969327,0.195332587697,15.366954,0.082,0.091157,266,15.465,0.183083,199.15948,-39.95994,9
3039078014633,53806.6316172799,0.299771601683,15.33782,0.082,0.091157,266,15.465,0.183083,199.15948,-39.95994,9
3039078014633,53806.6412459721,0.40539916954,15.438696,0.084,0.091157,266,15.465,0.183083,199.15948,-39.95994,9
3039078014633,53806.6505354514,0.507305543171,15.473416,0.085,0.091157,266,15.465,0.183083,199.15948,-39.95994,9
3039078014633,53820.5731328588,0.239376666606,15.27068,0.080,0.091157,266,15.465,0.183083,199.15948,-39.95994,9
3039078014633,53820.5848958564,0.368417745223,15.369507,0.082,0.091157,266,15.465,0.183083,199.15948,-39.95994,9
3039078014633,53820.5968090507,0.499106494244,15.381538,0.082,0.091157,266,15.465,0.183083,199.15948,-39.95994,9
3039078014633,53820.6089055554,0.631806173944,15.462702,0.084,0.091157,266,15.465,0.183083,199.15948,-39.95994,9
3039078014633,53860.5012028933,0.253682035371,15.306385,0.069,0.091157,266,15.465,0.183083,199.15948,-39.95994,9
3039078014633,53860.5146494674,0.401192090474,15.398428,0.070,0.091157,266,15.465,0.183083,199.15948,-39.95994,9
3039078014633,53860.5280524072,0.54822347383,15.446773,0.070,0.091157,266,15.465,0.183083,199.15948,-39.95994,9
3039078014633,53860.5414019906,0.694669532822,15.521635,0.072,0.091157,266,15.465,0.183083,199.15948,-39.95994,9
3039078014633,53875.5243606946,0.0589937645709,15.357668,0.082,0.091157,266,15.465,0.183083,199.15948,-39.95994,9
3039078014633,53875.5329407059,0.15311721433,15.284677,0.081,0.091157,266,15.465,0.183083,199.15948,-39.95994,9
3039078014633,53875.5414915855,0.246921086684,15.2626,0.080,0.091157,266,15.465,0.183083,199.15948,-39.95994,9
3039078014633,53875.5500851042,0.341192713706,15.354967,0.082,0.091157,266,15.465,0.183083,199.15948,-39.95994,9
3039078014633,53881.5353330324,0.999868714367,15.566716,0.088,0.091157,266,15.465,0.183083,199.15948,-39.95994,9
3039078014633,53881.5457726854,0.114392590825,15.48211,0.086,0.091157,266,15.465,0.183083,199.15948,-39.95994,9
3039078014633,53881.5560690394,0.227344464976,15.304244,0.082,0.091157,266,15.465,0.183083,199.15948,-39.95994,9
3039078014633,53881.5663414236,0.340033388464,15.439428,0.085,0.091157,266,15.465,0.183083,199.15948,-39.95994,9
3039078014633,54197.6747815164,0.0763574535958,15.445786,0.095,0.091157,266,15.465,0.183083,199.15948,-39.95994,9
3039078014633,54197.6843003935,0.180780340452,15.359787,0.093,0.091157,266,15.465,0.183083,199.15948,-39.95994,9
3039078014633,54197.693818472,0.285194466705,15.438614,0.096,0.091157,266,15.465,0.183083,199.15948,-39.95994,9
3039078014633,54197.7033301738,0.389538639924,15.492117,0.098,0.091157,266,15.465,0.183083,199.15948,-39.95994,9
3039078014633,54210.5863141436,0.716962423059,15.626823,0.086,0.091157,266,15.465,0.183083,199.15948,-39.95994,9
3039078014633,54210.5972845834,0.837309075519,15.61699,0.086,0.091157,266,15.465,0.183083,199.15948,-39.95994,9
3039078014633,54210.6082094214,0.957155472366,15.569243,0.085,0.091157,266,15.465,0.183083,199.15948,-39.95994,9
3039078014633,54210.6190740625,0.0763415042311,15.408759,0.081,0.091157,266,15.465,0.183083,199.15948,-39.95994,9
3039078014633,54323.3860687036,0.139810476452,15.453978,0.079,0.091157,266,15.465,0.183083,199.15948,-39.95994,9
3039078014633,54323.3977928702,0.26842557569,15.335744,0.077,0.091157,266,15.465,0.183083,199.15948,-39.95994,9
3039078014633,54323.4094479512,0.396282800008,15.395793,0.079,0.091157,266,15.465,0.183083,199.15948,-39.95994,9
3039078014633,54323.4209305556,0.522247941466,15.438087,0.079,0.091157,266,15.465,0.183083,199.15948,-39.95994,9
3039078014633,54334.3785779281,0.728566408507,15.392576,0.080,0.091157,266,15.465,0.183083,199.15948,-39.95994,9
3039078014633,54334.3948550462,0.907127770712,15.535043,0.083,0.091157,266,15.465,0.183083,199.15948,-39.95994,9
3039078014633,54444.7249653355,0.237769293599,15.35823,0.092,0.091157,266,15.465,0.183083,199.15948,-39.95994,9
3039078014633,54444.7305079053,0.298571753083,15.326413,0.091,0.091157,266,15.465,0.183083,199.15948,-39.95994,9
3039078014633,54444.7361062729,0.359986319207,15.375097,0.092,0.091157,266,15.465,0.183083,199.15948,-39.95994,9
3039078014633,54444.7415972223,0.420222498593,15.432493,0.105,0.091157,266,15.465,0.183083,199.15948,-39.95994,9
3039078014633,54153.7521373378,0.241235865513,15.309725,0.079,0.091157,266,15.465,0.183083,199.15948,-39.95994,9
3039078014633,54153.7615782176,0.344803115469,15.399636,0.081,0.091157,266,15.465,0.183083,199.15948,-39.95994,9
3039078014633,54153.7710341318,0.448535294039,15.393021,0.082,0.091157,266,15.465,0.183083,199.15948,-39.95994,9
3039078014633,54153.7804863541,0.552226972184,15.459661,0.083,0.091157,266,15.465,0.183083,199.15948,-39.95994,9
3039078014633,54125.7048147568,0.559734927607,15.555396,0.083,0.091157,266,15.465,0.183083,199.15948,-39.95994,9
3039078014633,54125.7187128589,0.712198283174,15.621491,0.084,0.091157,266,15.465,0.183083,199.15948,-39.95994,9
3039078014633,54125.7469246993,0.02168455848,15.538195,0.082,0.091157,266,15.465,0.183083,199.15948,-39.95994,9
3039078014633,54287.5030583101,0.50015149801,15.505619,0.097,0.091157,266,15.465,0.183083,199.15948,-39.95994,9
3039078014633,54296.4715569676,0.885340320528,15.631904,0.084,0.091157,266,15.465,0.183083,199.15948,-39.95994,9
3039078014633,54296.4797477895,0.975194329512,15.563063,0.082,0.091157,266,15.465,0.183083,199.15948,-39.95994,9
3039078014633,54296.4879288771,0.0649415524676,15.508059,0.081,0.091157,266,15.465,0.183083,199.15948,-39.95994,9
3039078014633,54296.496129653,0.154904757743,15.427159,0.080,0.091157,266,15.465,0.183083,199.15948,-39.95994,9
3039078014633,54274.4032824539,0.794502384961,15.670062,0.096,0.091157,266,15.465,0.183083,199.15948,-39.95994,9
3039078014633,54274.4122379978,0.89274545887,15.695489,0.096,0.091157,266,15.465,0.183083,199.15948,-39.95994,9
3039078014633,54274.4300893752,0.0885765788844,15.464197,0.090,0.091157,266,15.465,0.183083,199.15948,-39.95994,9
3039078014633,54167.7178040507,0.445780913113,15.231446,0.092,0.091157,266,15.465,0.183083,199.15948,-39.95994,9
3039078014633,54167.7263434955,0.539459344931,15.272632,0.094,0.091157,266,15.465,0.183083,199.15948,-39.95994,9
3039078014633,54167.7436475229,0.729285988957,15.491846,0.115,0.091157,266,15.465,0.183083,199.15948,-39.95994,9
3039078014633,54174.5683070254,0.596377956681,15.508447,0.083,0.091157,266,15.465,0.183083,199.15948,-39.95994,9
3039078014633,54174.5734935766,0.653274862096,15.558853,0.084,0.091157,266,15.465,0.183083,199.15948,-39.95994,9
3039078014633,54174.5786834722,0.710208455799,15.602395,0.085,0.091157,266,15.465,0.183083,199.15948,-39.95994,9
3039078014633,54174.5839172336,0.767623260967,15.593297,0.085,0.091157,266,15.465,0.183083,199.15948,-39.95994,9
3039078014633,54182.6165566202,0.886356727453,15.576928,0.085,0.091157,266,15.465,0.183083,199.15948,-39.95994,9
3039078014633,54182.6317248033,0.0527529789833,15.42385,0.082,0.091157,266,15.465,0.183083,199.15948,-39.95994,9
3039078014633,54182.6466840627,0.216857319814,15.332375,0.080,0.091157,266,15.465,0.183083,199.15948,-39.95994,9
3039078014633,54182.6615234027,0.379646134679,15.439241,0.082,0.091157,266,15.465,0.183083,199.15948,-39.95994,9
3039078014633,54189.6549199537,0.0977977960138,15.383525,0.091,0.091157,266,15.465,0.183083,199.15948,-39.95994,9
3039078014633,54189.6635160071,0.192097228952,15.381142,0.091,0.091157,266,15.465,0.183083,199.15948,-39.95994,9
3039078014633,54189.6721349654,0.286647930508,15.341153,0.090,0.091157,266,15.465,0.183083,199.15948,-39.95994,9
3039078014633,54189.6808768517,0.38254716259,15.408663,0.092,0.091157,266,15.465,0.183083,199.15948,-39.95994,9
3039078014633,54226.6525791781,0.965248725843,15.552747,0.085,0.091157,266,15.465,0.183083,199.15948,-39.95994,9
3039078014633,54226.6635026275,0.0850798896281,15.449288,0.083,0.091157,266,15.465,0.183083,199.15948,-39.95994,9
3039078014633,54226.6743947105,0.204566961387,15.429568,0.082,0.091157,266,15.465,0.183083,199.15948,-39.95994,9
3039078014633,54226.6853418867,0.324658410274,15.343921,0.081,0.091157,266,15.465,0.183083,199.15948,-39.95994,9
3039078014633,54240.5065928586,0.944950564415,15.513642,0.084,0.091157,266,15.465,0.183083,199.15948,-39.95994,9
3039078014633,54240.5177043979,0.0668450903613,15.575385,0.085,0.091157,266,15.465,0.183083,199.15948,-39.95994,9
3039078014633,54240.5290100346,0.190868881182,15.630638,0.087,0.091157,266,15.465,0.183083,199.15948,-39.95994,9
3039078014633,54240.539978507,0.311193951056,15.594938,0.086,0.091157,266,15.465,0.183083,199.15948,-39.95994,9
3039078014633,54246.4899454281,0.58283431991,15.555383,0.097,0.091157,266,15.465,0.183083,199.15948,-39.95994,9
3039078014633,54246.4984948264,0.676621942432,15.528435,0.097,0.091157,266,15.465,0.183083,199.15948,-39.95994,9
3039078014633,54246.5070623957,0.77060890221,15.60469,0.099,0.091157,266,15.465,0.183083,199.15948,-39.95994,9
3039078014633,54246.5156450115,0.864760923432,15.572979,0.098,0.091157,266,15.465,0.183083,199.15948,-39.95994,9
3039078014633,54344.3716907177,0.353858921444,15.318142,0.088,0.091157,266,15.465,0.183083,199.15948,-39.95994,9
3039078014633,54344.3767951966,0.409855486709,15.434541,0.091,0.091157,266,15.465,0.183083,199.15948,-39.95994,9
3039078014633,54344.3818868172,0.46571099537,15.41209,0.091,0.091157,266,15.465,0.183083,199.15948,-39.95994,9
3039078014633,54344.3869664121,0.521434581024,15.40979,0.091,0.091157,266,15.465,0.183083,199.15948,-39.95994,9
3039078014633,54509.6927980785,0.940389421536,15.661826,0.085,0.091157,266,15.465,0.183083,199.15948,-39.95994,9
3039078014633,54509.7012678473,0.0333035015501,15.651254,0.085,0.091157,266,15.465,0.183083,199.15948,-39.95994,9
3039078014633,54509.7184133101,0.221390678664,15.490174,0.081,0.091157,266,15.465,0.183083,199.15948,-39.95994,9
3039078014633,54662.4767560531,0.993330771104,15.555808,0.078,0.091157,266,15.465,0.183083,199.15948,-39.95994,9
3039078014633,54662.4833417246,0.0655761443777,15.547276,0.078,0.091157,266,15.465,0.183083,199.15948,-39.95994,9
3039078014633,54662.4899133798,0.137667757808,15.457121,0.076,0.091157,266,15.465,0.183083,199.15948,-39.95994,9
3039078014633,54662.4964684956,0.209577932605,15.363356,0.075,0.091157,266,15.465,0.183083,199.15948,-39.95994,9
3039078014633,54527.6977441784,0.456170984078,15.477621,0.074,0.091157,266,15.465,0.183083,199.15948,-39.95994,9
3039078014633,54527.7116217938,0.608409598819,15.467079,0.074,0.091157,266,15.465,0.183083,199.15948,-39.95994,9
3039078014633,54527.7251925695,0.757282156032,15.61138,0.077,0.091157,266,15.465,0.183083,199.15948,-39.95994,9
3039078014633,54527.7384455091,0.902668024413,15.592565,0.076,0.091157,266,15.465,0.183083,199.15948,-39.95994,9
3039078014633,54588.6354272571,0.947708427208,15.493401,0.076,0.091157,266,15.465,0.183083,199.15948,-39.95994,9
3039078014633,54588.64848853,0.0909916956443,15.402568,0.074,0.091157,266,15.465,0.183083,199.15948,-39.95994,9
3039078014633,54588.6615594099,0.234380353591,15.337793,0.073,0.091157,266,15.465,0.183083,199.15948,-39.95994,9
3039078014633,54588.6746460185,0.377941556857,15.388838,0.074,0.091157,266,15.465,0.183083,199.15948,-39.95994,9
3039078014633,54595.5490425231,0.790652644238,15.572749,0.085,0.091157,266,15.465,0.183083,199.15948,-39.95994,9
3039078014633,54595.5593674538,0.903918007389,15.536965,0.084,0.091157,266,15.465,0.183083,199.15948,-39.95994,9
3039078014633,54595.569741354,0.0177205699729,15.437607,0.081,0.091157,266,15.465,0.183083,199.15948,-39.95994,9
3039078014633,54595.5801136225,0.131505232654,15.349913,0.081,0.091157,266,15.465,0.183083,199.15948,-39.95994,9
3039078014633,54923.7046536226,0.68546159484,15.549866,0.077,0.091157,266,15.465,0.183083,199.15948,-39.95994,9
3039078014633,54923.7155137616,0.804598238203,15.550891,0.077,0.091157,266,15.465,0.183083,199.15948,-39.95994,9
3039078014633,54923.7262927545,0.922844702029,15.538805,0.077,0.091157,266,15.465,0.183083,199.15948,-39.95994,9
3039078014633,54923.7371087964,0.0414975964231,15.471456,0.076,0.091157,266,15.465,0.183083,199.15948,-39.95994,9
3039078014633,54938.6715212961,0.873265861068,15.541159,0.071,0.091157,266,15.465,0.183083,199.15948,-39.95994,9
3039078014633,54938.6853890627,0.0253964336589,15.434136,0.070,0.091157,266,15.465,0.183083,199.15948,-39.95994,9
3039078014633,54938.6991976968,0.176878317608,15.425262,0.070,0.091157,266,15.465,0.183083,199.15948,-39.95994,9
3039078014633,54938.7131214932,0.329623541795,15.369381,0.069,0.091157,266,15.465,0.183083,199.15948,-39.95994,9
3039078014633,54867.6980421064,0.288196259178,15.34887,0.074,0.091157,266,15.465,0.183083,199.15948,-39.95994,9
3039078014633,54867.7102673496,0.422308211098,15.394119,0.075,0.091157,266,15.465,0.183083,199.15948,-39.95994,9
3039078014633,54867.7233921643,0.566288538394,15.399595,0.075,0.091157,266,15.465,0.183083,199.15948,-39.95994,9
3039078014633,54887.7265500114,0.00262197526172,15.614165,0.078,0.091157,266,15.465,0.183083,199.15948,-39.95994,9
3039078014633,54887.7373792478,0.12141961453,15.509474,0.076,0.091157,266,15.465,0.183083,199.15948,-39.95994,9
3039078014633,54887.748250972,0.2406833485,15.490784,0.076,0.091157,266,15.465,0.183083,199.15948,-39.95994,9
3039078014633,54887.7590300925,0.358931212104,15.372731,0.074,0.091157,266,15.465,0.183083,199.15948,-39.95994,9
3039078014633,54845.6562597455,0.487979480415,15.413038,0.086,0.091157,266,15.465,0.183083,199.15948,-39.95994,9
3039078014633,54845.6651517476,0.585525495582,15.496319,0.087,0.091157,266,15.465,0.183083,199.15948,-39.95994,9
3039078014633,54845.6740354283,0.682980224257,15.48687,0.087,0.091157,266,15.465,0.183083,199.15948,-39.95994,9
3039078014633,54845.6829751275,0.781049480545,15.558268,0.088,0.091157,266,15.465,0.183083,199.15948,-39.95994,9
3039078014633,55043.4488931714,0.289897335344,15.383281,0.088,0.091157,266,15.465,0.183083,199.15948,-39.95994,9
3039078014633,55043.4539283101,0.345133232768,15.355296,0.088,0.091157,266,15.465,0.183083,199.15948,-39.95994,9
3039078014633,55043.4589877661,0.400635892991,15.365302,0.088,0.091157,266,15.465,0.183083,199.15948,-39.95994,9
3039078014633,55043.4640365743,0.456021746038,15.30945,0.087,0.091157,266,15.465,0.183083,199.15948,-39.95994,9
3039078014633,55000.4727787267,0.838286985061,15.579425,0.075,0.091157,266,15.465,0.183083,199.15948,-39.95994,9
3039078014633,55000.4845753702,0.967697162065,15.521679,0.074,0.091157,266,15.465,0.183083,199.15948,-39.95994,9
3039078014633,55000.4963687615,0.0970716620795,15.46118,0.073,0.091157,266,15.465,0.183083,199.15948,-39.95994,9
3039078014633,55000.508118403,0.22596622305,15.397653,0.072,0.091157,266,15.465,0.183083,199.15948,-39.95994,9
3039078014633,54912.6557888775,0.478480835212,15.426465,0.076,0.091157,266,15.465,0.183083,199.15948,-39.95994,9
3039078014633,54912.6681099539,0.613644085475,15.420952,0.075,0.091157,266,15.465,0.183083,199.15948,-39.95994,9
3039078014633,54912.6804743172,0.74928219663,15.504649,0.077,0.091157,266,15.465,0.183083,199.15948,-39.95994,9
3039078014633,54912.6928743287,0.88531137153,15.511121,0.077,0.091157,266,15.465,0.183083,199.15948,-39.95994,9
3039078014633,54954.4895959722,0.398882940412,15.353709,0.084,0.091157,266,15.465,0.183083,199.15948,-39.95994,9
3039078014633,54954.4986233913,0.497914491454,15.440522,0.086,0.091157,266,15.465,0.183083,199.15948,-39.95994,9
3039078014633,54954.5076239697,0.596651597763,15.530036,0.088,0.091157,266,15.465,0.183083,199.15948,-39.95994,9
3039078014633,54954.5167304512,0.696550470078,15.456504,0.086,0.091157,266,15.465,0.183083,199.15948,-39.95994,9
3039078014633,54974.5500045022,0.463261210825,15.35916,0.071,0.091157,266,15.465,0.183083,199.15948,-39.95994,9
3039078014633,54974.5611975234,0.586049600155,15.426529,0.072,0.091157,266,15.465,0.183083,199.15948,-39.95994,9
3039078014633,54974.5723891667,0.70882287377,15.468604,0.072,0.091157,266,15.465,0.183083,199.15948,-39.95994,9
3039078014633,54974.5835346182,0.831089419313,15.508674,0.073,0.091157,266,15.465,0.183083,199.15948,-39.95994,9
3039078014633,55299.7027118748,0.415962293628,15.373574,0.069,0.091157,266,15.465,0.183083,199.15948,-39.95994,9
3039078014633,55238.74494228,0.704074069974,15.511311,0.080,0.091157,266,15.465,0.183083,199.15948,-39.95994,9
3039078014633,55386.451295787,0.0552649494493,15.60396,0.086,0.091157,266,15.465,0.183083,199.15948,-39.95994,9
3039078014633,55386.4730775114,0.294212308479,15.31763,0.078,0.091157,266,15.465,0.183083,199.15948,-39.95994,9
3039078014633,55351.4932640392,0.562699948438,15.386985,0.092,0.091157,266,15.465,0.183083,199.15948,-39.95994,9
3039078014633,55351.5249756944,0.910579488147,15.535224,0.115,0.091157,266,15.465,0.183083,199.15948,-39.95994,9
3039078014633,55360.5598974307,0.0244351031724,15.495404,0.079,0.091157,266,15.465,0.183083,199.15948,-39.95994,9
3039078014633,55265.7512965047,0.966064094915,15.615173,0.078,0.091157,266,15.465,0.183083,199.15948,-39.95994,9
3039078014633,55328.5377726504,0.739017852698,15.575663,0.081,0.091157,266,15.465,0.183083,199.15948,-39.95994,9
3039078014633,55328.5731943981,0.127597420942,15.457874,0.079,0.091157,266,15.465,0.183083,199.15948,-39.95994,9
3039078014633,55654.5219369096,0.812871305505,15.507353,0.074,0.091157,266,15.465,0.183083,199.15948,-39.95994,9
3039078014633,55654.5552745372,0.178587899893,15.441102,0.072,0.091157,266,15.465,0.183083,199.15948,-39.95994,9
3039078014633,55706.4243317708,0.186532803811,15.481699,0.078,0.091157,266,15.465,0.183083,199.15948,-39.95994,9
3039078014633,55706.4352089237,0.305856091087,15.427334,0.077,0.091157,266,15.465,0.183083,199.15948,-39.95994,9
3039078014633,55706.4461093401,0.425434581004,15.392775,0.077,0.091157,266,15.465,0.183083,199.15948,-39.95994,9
3039078014633,55706.4569581365,0.544446795015,15.423648,0.077,0.091157,266,15.465,0.183083,199.15948,-39.95994,9
3039078014633,55737.4915221877,0.996239320026,15.554012,0.074,0.091157,266,15.465,0.183083,199.15948,-39.95994,9
3039078014633,55737.4985552201,0.0733922803774,15.555104,0.074,0.091157,266,15.465,0.183083,199.15948,-39.95994,9
3039078014633,55737.5056540974,0.151267564739,15.547738,0.074,0.091157,266,15.465,0.183083,199.15948,-39.95994,9
3039078014633,55737.5127491549,0.229100945638,15.514808,0.074,0.091157,266,15.465,0.183083,199.15948,-39.95994,9
3039078014633,55741.459450405,0.524747468648,15.459932,0.075,0.091157,266,15.465,0.183083,199.15948,-39.95994,9
3039078014633,55741.4651281711,0.587033042917,15.471017,0.075,0.091157,266,15.465,0.183083,199.15948,-39.95994,9
3039078014633,55741.4708008448,0.649262753199,15.518644,0.078,0.091157,266,15.465,0.183083,199.15948,-39.95994,9
3039078014633,55741.4765489817,0.712320301216,15.528058,0.077,0.091157,266,15.465,0.183083,199.15948,-39.95994,9
3039078014633,56008.7227686113,0.425953150028,15.368598,0.075,0.091157,266,15.465,0.183083,199.15948,-39.95994,9
3039078014633,56008.733908507,0.548158748075,15.393885,0.074,0.091157,266,15.465,0.183083,199.15948,-39.95994,9
3039078014633,56008.7450066204,0.669905990711,15.435273,0.075,0.091157,266,15.465,0.183083,199.15948,-39.95994,9
3039078014633,56008.7563473377,0.794314618688,15.462118,0.076,0.091157,266,15.465,0.183083,199.15948,-39.95994,9
3039078014633,56011.5912236342,0.893147363327,15.525591,0.072,0.091157,266,15.465,0.183083,199.15948,-39.95994,9
3039078014633,56011.6046674422,0.0406270741951,15.448584,0.072,0.091157,266,15.465,0.183083,199.15948,-39.95994,9
3039078014633,56011.6182006019,0.189086980652,15.437304,0.070,0.091157,266,15.465,0.183083,199.15948,-39.95994,9
3039078014633,56011.6317495022,0.337719562929,15.351357,0.070,0.091157,266,15.465,0.183083,199.15948,-39.95994,9
3039078014633,56033.6266762847,0.623926683678,15.418194,0.065,0.091157,266,15.465,0.183083,199.15948,-39.95994,9
3039078014633,56033.6379480208,0.747578582028,15.456654,0.065,0.091157,266,15.465,0.183083,199.15948,-39.95994,9
3039078014633,56033.649322303,0.872355419677,15.54131,0.066,0.091157,266,15.465,0.183083,199.15948,-39.95994,9
3039078014633,56033.6606111573,0.996195106185,15.515969,0.066,0.091157,266,15.465,0.183083,199.15948,-39.95994,9
3039078014633,56046.5903094908,0.836079410277,15.527085,0.071,0.091157,266,15.465,0.183083,199.15948,-39.95994,9
3039078014633,56046.601634919,0.960320315557,15.535737,0.072,0.091157,266,15.465,0.183083,199.15948,-39.95994,9
3039078014633,56046.6130230905,0.0852495200234,15.456667,0.071,0.091157,266,15.465,0.183083,199.15948,-39.95994,9
3039078014633,56046.6244002663,0.210058100871,15.356109,0.069,0.091157,266,15.465,0.183083,199.15948,-39.95994,9
3039078014633,56061.5094150578,0.499929328565,15.482779,0.071,0.091157,266,15.465,0.183083,199.15948,-39.95994,9
3039078014633,56061.5192823381,0.608174227993,15.479309,0.071,0.091157,266,15.465,0.183083,199.15948,-39.95994,9
3039078014633,56061.5291616552,0.716551172081,15.578242,0.073,0.091157,266,15.465,0.183083,199.15948,-39.95994,9
3039078014633,56061.5390737153,0.825287309824,15.495145,0.071,0.091157,266,15.465,0.183083,199.15948,-39.95994,9
3039078014633,56076.4820140163,0.750606275978,15.488928,0.079,0.091157,266,15.465,0.183083,199.15948,-39.95994,9
3039078014633,56076.494410567,0.886597485631,15.554269,0.081,0.091157,266,15.465,0.183083,199.15948,-39.95994,9
3039078014633,56076.5069436804,0.0240867997054,15.50812,0.080,0.091157,266,15.465,0.183083,199.15948,-39.95994,9
3039078014633,56076.519413935,0.160886547412,15.421847,0.078,0.091157,266,15.465,0.183083,199.15948,-39.95994,9
3039078014633,56116.416380382,0.833982930519,15.527462,0.073,0.091157,266,15.465,0.183083,199.15948,-39.95994,9
3039078014633,56116.4220020025,0.895652582869,15.531568,0.071,0.091157,266,15.465,0.183083,199.15948,-39.95994,9
3039078014633,56116.4277247916,0.958432063344,15.568751,0.083,0.091157,266,15.465,0.183083,199.15948,-39.95994,9
3039078014633,56116.4333867015,0.0205436937977,15.5063,0.075,0.091157,266,15.465,0.183083,199.15948,-39.95994,9
3039078014633,56153.4089745139,0.645869367057,15.387883,0.073,0.091157,266,15.465,0.183083,199.15948,-39.95994,9
3039078014633,56153.4160620486,0.723620222183,15.427437,0.074,0.091157,266,15.465,0.183083,199.15948,-39.95994,9
3039078014633,56153.4231683333,0.801576766418,15.460221,0.075,0.091157,266,15.465,0.183083,199.15948,-39.95994,9
3039078014633,56153.4303257871,0.880094639957,15.497695,0.077,0.091157,266,15.465,0.183083,199.15948,-39.95994,9
3039078014633,56363.695078067,0.502211207058,15.421667,0.074,0.091157,266,15.465,0.183083,199.15948,-39.95994,9
3039078014633,56363.7068097685,0.630908964667,15.460621,0.075,0.091157,266,15.465,0.183083,199.15948,-39.95994,9
3039078014633,56363.7187457639,0.761847843882,15.545995,0.076,0.091157,266,15.465,0.183083,199.15948,-39.95994,9
3039078014633,56363.7307237731,0.893247617874,15.569702,0.077,0.091157,266,15.465,0.183083,199.15948,-39.95994,9
3039078014633,56376.5771409143,0.819530198467,15.452489,0.074,0.091157,266,15.465,0.183083,199.15948,-39.95994,9
3039078014633,56376.5893200925,0.953136813361,15.517186,0.075,0.091157,266,15.465,0.183083,199.15948,-39.95994,9
3039078014633,56376.6012828243,0.0843689930625,15.526756,0.078,0.091157,266,15.465,0.183083,199.15948,-39.95994,9
3039078014633,56376.6132656946,0.215822093771,15.39509,0.073,0.091157,266,15.465,0.183083,199.15948,-39.95994,9
3039078014633,56391.6526692361,0.199350966956,15.383864,0.072,0.091157,266,15.465,0.183083,199.15948,-39.95994,9
3039078014633,56391.6662216089,0.348021642887,15.331888,0.071,0.091157,266,15.465,0.183083,199.15948,-39.95994,9
3039078014633,56391.6801840742,0.501191068091,15.347396,0.072,0.091157,266,15.465,0.183083,199.15948,-39.95994,9
3039078014633,56391.6938842591,0.651483255206,15.407965,0.072,0.091157,266,15.465,0.183083,199.15948,-39.95994,9
3039078014633,56404.4867068635,0.989829234197,15.530041,0.070,0.091157,266,15.465,0.183083,199.15948,-39.95994,9
3039078014633,56404.4973388774,0.106463325908,15.439334,0.069,0.091157,266,15.465,0.183083,199.15948,-39.95994,9
3039078014633,56404.5081321181,0.224866089295,15.382887,0.068,0.091157,266,15.465,0.183083,199.15948,-39.95994,9
3039078014633,56404.5206632641,0.362333820784,15.333138,0.068,0.091157,266,15.465,0.183083,199.15948,-39.95994,9
3039078014633,56420.5546979979,0.257050998742,15.322901,0.071,0.091157,266,15.465,0.183083,199.15948,-39.95994,9
3039078014633,56420.5654637036,0.375151700922,15.306742,0.071,0.091157,266,15.465,0.183083,199.15948,-39.95994,9
3039078014633,56420.5763307987,0.494364653248,15.344571,0.072,0.091157,266,15.465,0.183083,199.15948,-39.95994,9
3039078014633,56420.5872000926,0.613601726713,15.880254,0.250,0.091157,266,15.465,0.183083,199.15948,-39.95994,9
3039078014633,56459.4766660071,0.234332054621,15.323482,0.068,0.091157,266,15.465,0.183083,199.15948,-39.95994,9
3039078014633,56459.4872651387,0.350605424726,15.266585,0.068,0.091157,266,15.465,0.183083,199.15948,-39.95994,9
3039078014633,56459.4978922916,0.46718619077,15.308702,0.070,0.091157,266,15.465,0.183083,199.15948,-39.95994,9
3039078014633,56459.5093629862,0.593020680826,15.440401,0.071,0.091157,266,15.465,0.183083,199.15948,-39.95994,9
3039078014633,56495.3661022107,0.944482713239,15.585379,0.076,0.091157,266,15.465,0.183083,199.15948,-39.95994,9
3039078014633,56495.3766312152,0.0599867831916,15.456996,0.074,0.091157,266,15.465,0.183083,199.15948,-39.95994,9
3039078014633,56495.3855611808,0.157949261134,15.516492,0.075,0.091157,266,15.465,0.183083,199.15948,-39.95994,9
3039078014633,56495.3945250693,0.256283876137,15.391967,0.073,0.091157,266,15.465,0.183083,199.15948,-39.95994,9
