ID,MjD,Phase,Mag,Mag_err,Period,Npts,V,Amp,ra,dec,Type
3041084107059,53597.4320413192,0.706731412385,15.068972,0.082,0.144965,234,14.868,0.272712,218.90562000000003,-40.44385,9
3041084107059,53597.4395603819,0.758599537075,15.059071,0.082,0.144965,234,14.868,0.272712,218.90562000000003,-40.44385,9
3041084107059,53597.447283935,0.811878280947,15.041186,0.082,0.144965,234,14.868,0.272712,218.90562000000003,-40.44385,9
3041084107059,53597.4548989122,0.864408044668,15.060014,0.082,0.144965,234,14.868,0.272712,218.90562000000003,-40.44385,9
3041084107059,53611.4252454049,0.234887075436,14.739624,0.081,0.144965,234,14.868,0.272712,218.90562000000003,-40.44385,9
3041084107059,53611.43171831,0.279538578237,14.762079,0.082,0.144965,234,14.868,0.272712,218.90562000000003,-40.44385,9
3041084107059,53611.4382324188,0.324474313064,14.754972,0.082,0.144965,234,14.868,0.272712,218.90562000000003,-40.44385,9
3041084107059,53611.4447241781,0.369255876227,14.734181,0.081,0.144965,234,14.868,0.272712,218.90562000000003,-40.44385,9
3041084107059,53580.5283745951,0.101573449443,14.788407,0.072,0.144965,234,14.868,0.272712,218.90562000000003,-40.44385,9
3041084107059,53580.5364454165,0.157247725292,14.762288,0.072,0.144965,234,14.868,0.272712,218.90562000000003,-40.44385,9
3041084107059,53580.5441362965,0.210301082989,14.772161,0.072,0.144965,234,14.868,0.272712,218.90562000000003,-40.44385,9
3041084107059,53580.5518592591,0.26357575343,14.745131,0.072,0.144965,234,14.868,0.272712,218.90562000000003,-40.44385,9
3041084107059,53830.7012997802,0.848651606939,15.0458,0.075,0.144965,234,14.868,0.272712,218.90562000000003,-40.44385,9
3041084107059,53830.7107127548,0.913584346534,14.964873,0.074,0.144965,234,14.868,0.272712,218.90562000000003,-40.44385,9
3041084107059,53830.72020478,0.979062394355,14.856572,0.072,0.144965,234,14.868,0.272712,218.90562000000003,-40.44385,9
3041084107059,53830.7296330325,0.0441005242174,14.783422,0.071,0.144965,234,14.868,0.272712,218.90562000000003,-40.44385,9
3041084107059,53845.6931224998,0.265495118103,14.784988,0.071,0.144965,234,14.868,0.272712,218.90562000000003,-40.44385,9
3041084107059,53845.7009687267,0.319620092399,14.771828,0.071,0.144965,234,14.868,0.272712,218.90562000000003,-40.44385,9
3041084107059,53845.7088528007,0.374006144237,14.780652,0.076,0.144965,234,14.868,0.272712,218.90562000000003,-40.44385,9
3041084107059,53845.7167500925,0.42848337529,14.832794,0.072,0.144965,234,14.868,0.272712,218.90562000000003,-40.44385,9
3041084107059,53774.7072725116,0.589711389621,15.035122,0.084,0.144965,234,14.868,0.272712,218.90562000000003,-40.44385,9
3041084107059,53774.7188703936,0.669716094155,15.040009,0.084,0.144965,234,14.868,0.272712,218.90562000000003,-40.44385,9
3041084107059,53774.73070625,0.751362397743,15.031137,0.083,0.144965,234,14.868,0.272712,218.90562000000003,-40.44385,9
3041084107059,53919.4656466899,0.164361672825,14.733618,0.076,0.144965,234,14.868,0.272712,218.90562000000003,-40.44385,9
3041084107059,53919.4746647455,0.226570175553,14.714348,0.076,0.144965,234,14.868,0.272712,218.90562000000003,-40.44385,9
3041084107059,53919.4836271179,0.288394563482,14.712098,0.076,0.144965,234,14.868,0.272712,218.90562000000003,-40.44385,9
3041084107059,53919.4926250346,0.350464143732,14.686716,0.074,0.144965,234,14.868,0.272712,218.90562000000003,-40.44385,9
3041084107059,53946.3879007873,0.87990747625,15.005568,0.067,0.144965,234,14.868,0.272712,218.90562000000003,-40.44385,9
3041084107059,53946.3990931598,0.957114888413,14.887417,0.065,0.144965,234,14.868,0.272712,218.90562000000003,-40.44385,9
3041084107059,53946.4102645371,0.0341774711269,14.791496,0.065,0.144965,234,14.868,0.272712,218.90562000000003,-40.44385,9
3041084107059,53946.4214275809,0.111182567489,14.773123,0.064,0.144965,234,14.868,0.272712,218.90562000000003,-40.44385,9
3041084107059,53889.4853115161,0.353509578854,14.774929,0.066,0.144965,234,14.868,0.272712,218.90562000000003,-40.44385,9
3041084107059,53889.4962280789,0.428814395855,14.813608,0.067,0.144965,234,14.868,0.272712,218.90562000000003,-40.44385,9
3041084107059,53889.5070829284,0.503693501174,14.894549,0.068,0.144965,234,14.868,0.272712,218.90562000000003,-40.44385,9
3041084107059,53889.5177065162,0.576977313089,14.973844,0.068,0.144965,234,14.868,0.272712,218.90562000000003,-40.44385,9
3041084107059,53915.5913777083,0.438814253721,14.762621,0.113,0.144965,234,14.868,0.272712,218.90562000000003,-40.44385,9
3041084107059,53915.5997985533,0.496903068328,14.638806,0.083,0.144965,234,14.868,0.272712,218.90562000000003,-40.44385,9
3041084107059,53915.6082555206,0.555241062306,14.179222,0.095,0.144965,234,14.868,0.272712,218.90562000000003,-40.44385,9
3041084107059,53817.6346936572,0.712369587098,15.052496,0.075,0.144965,234,14.868,0.272712,218.90562000000003,-40.44385,9
3041084107059,53817.6442643173,0.778390075488,15.034141,0.075,0.144965,234,14.868,0.272712,218.90562000000003,-40.44385,9
3041084107059,53817.6539585764,0.845263176598,15.010503,0.075,0.144965,234,14.868,0.272712,218.90562000000003,-40.44385,9
3041084107059,53817.6636651044,0.912220911239,14.91808,0.073,0.144965,234,14.868,0.272712,218.90562000000003,-40.44385,9
3041084107059,53860.6230276738,0.255217975355,14.731799,0.062,0.144965,234,14.868,0.272712,218.90562000000003,-40.44385,9
3041084107059,53860.6351655208,0.338947475539,14.709649,0.062,0.144965,234,14.868,0.272712,218.90562000000003,-40.44385,9
3041084107059,53860.6472295139,0.422167515615,14.758781,0.063,0.144965,234,14.868,0.272712,218.90562000000003,-40.44385,9
3041084107059,53860.6592671297,0.505205599242,14.852023,0.063,0.144965,234,14.868,0.272712,218.90562000000003,-40.44385,9
3041084107059,53875.6072751853,0.619806058647,15.047447,0.076,0.144965,234,14.868,0.272712,218.90562000000003,-40.44385,9
3041084107059,53875.6149993517,0.673089033226,15.035468,0.076,0.144965,234,14.868,0.272712,218.90562000000003,-40.44385,9
3041084107059,53875.6228013888,0.726909176679,15.001448,0.075,0.144965,234,14.868,0.272712,218.90562000000003,-40.44385,9
3041084107059,53875.6305424074,0.780308401329,15.018765,0.076,0.144965,234,14.868,0.272712,218.90562000000003,-40.44385,9
3041084107059,53881.6158694212,0.0683918269351,14.797634,0.072,0.144965,234,14.868,0.272712,218.90562000000003,-40.44385,9
3041084107059,53881.6240049304,0.124512333306,14.76724,0.072,0.144965,234,14.868,0.272712,218.90562000000003,-40.44385,9
3041084107059,53881.6322023842,0.18106014689,14.739169,0.071,0.144965,234,14.868,0.272712,218.90562000000003,-40.44385,9
3041084107059,53881.6403326967,0.237144805258,14.757293,0.072,0.144965,234,14.868,0.272712,218.90562000000003,-40.44385,9
3041084107059,54001.4017830558,0.377594976686,14.715294,0.078,0.144965,234,14.868,0.272712,218.90562000000003,-40.44385,9
3041084107059,54001.4057142247,0.404713032069,14.735671,0.079,0.144965,234,14.868,0.272712,218.90562000000003,-40.44385,9
3041084107059,54001.4097411229,0.432491448941,14.793376,0.081,0.144965,234,14.868,0.272712,218.90562000000003,-40.44385,9
3041084107059,54001.4138280788,0.46068415686,14.777182,0.081,0.144965,234,14.868,0.272712,218.90562000000003,-40.44385,9
3041084107059,54210.6386027085,0.738541775616,14.971788,0.073,0.144965,234,14.868,0.272712,218.90562000000003,-40.44385,9
3041084107059,54210.6485204399,0.806956437067,15.03096,0.074,0.144965,234,14.868,0.272712,218.90562000000003,-40.44385,9
3041084107059,54210.6584847109,0.875692138739,14.981176,0.073,0.144965,234,14.868,0.272712,218.90562000000003,-40.44385,9
3041084107059,54210.6684328937,0.944316860579,14.898356,0.072,0.144965,234,14.868,0.272712,218.90562000000003,-40.44385,9
3041084107059,54336.3830589467,0.151063682279,14.705249,0.075,0.144965,234,14.868,0.272712,218.90562000000003,-40.44385,9
3041084107059,54336.3882172337,0.186646664341,14.712548,0.075,0.144965,234,14.868,0.272712,218.90562000000003,-40.44385,9
3041084107059,54336.3933815511,0.222271245439,14.709717,0.089,0.144965,234,14.868,0.272712,218.90562000000003,-40.44385,9
3041084107059,54336.3985516552,0.257935744477,14.679555,0.075,0.144965,234,14.868,0.272712,218.90562000000003,-40.44385,9
3041084107059,54131.7064433104,0.247392890684,14.665822,0.078,0.144965,234,14.868,0.272712,218.90562000000003,-40.44385,9
3041084107059,54131.7368436574,0.457101075444,14.763739,0.078,0.144965,234,14.868,0.272712,218.90562000000003,-40.44385,9
3041084107059,54131.7464502777,0.523369625036,14.800375,0.079,0.144965,234,14.868,0.272712,218.90562000000003,-40.44385,9
3041084107059,54131.7560471643,0.58957102953,14.876688,0.080,0.144965,234,14.868,0.272712,218.90562000000003,-40.44385,9
3041084107059,54283.3963344099,0.637149725109,14.927776,0.078,0.144965,234,14.868,0.272712,218.90562000000003,-40.44385,9
3041084107059,54294.4322740856,0.765454320703,14.988228,0.104,0.144965,234,14.868,0.272712,218.90562000000003,-40.44385,9
3041084107059,54294.4393510881,0.814273018274,15.096017,0.107,0.144965,234,14.868,0.272712,218.90562000000003,-40.44385,9
3041084107059,54295.4142087499,0.539052529202,14.836283,0.083,0.144965,234,14.868,0.272712,218.90562000000003,-40.44385,9
3041084107059,54295.421590741,0.589975104318,14.71733,0.184,0.144965,234,14.868,0.272712,218.90562000000003,-40.44385,9
3041084107059,54295.4327348035,0.666849263594,14.975035,0.347,0.144965,234,14.868,0.272712,218.90562000000003,-40.44385,9
3041084107059,54295.4431035995,0.738375466492,14.927038,0.102,0.144965,234,14.868,0.272712,218.90562000000003,-40.44385,9
3041084107059,54173.5760719446,0.0731690035318,14.738878,0.070,0.144965,234,14.868,0.272712,218.90562000000003,-40.44385,9
3041084107059,54173.5858926969,0.140914682124,14.744963,0.070,0.144965,234,14.868,0.272712,218.90562000000003,-40.44385,9
3041084107059,54173.5956951506,0.208534133038,14.695695,0.069,0.144965,234,14.868,0.272712,218.90562000000003,-40.44385,9
3041084107059,54173.6055133566,0.276262246713,14.685953,0.069,0.144965,234,14.868,0.272712,218.90562000000003,-40.44385,9
3041084107059,54181.7177849305,0.236470392847,14.69593,0.069,0.144965,234,14.868,0.272712,218.90562000000003,-40.44385,9
3041084107059,54181.7289630207,0.313579282549,14.711712,0.069,0.144965,234,14.868,0.272712,218.90562000000003,-40.44385,9
3041084107059,54181.7400916782,0.390347174776,14.721581,0.070,0.144965,234,14.868,0.272712,218.90562000000003,-40.44385,9
3041084107059,54181.7512407294,0.467255747237,14.75328,0.070,0.144965,234,14.868,0.272712,218.90562000000003,-40.44385,9
3041084107059,54187.5919415626,0.757676422538,15.015145,0.085,0.144965,234,14.868,0.272712,218.90562000000003,-40.44385,9
3041084107059,54187.6030754397,0.834480320744,14.995572,0.082,0.144965,234,14.868,0.272712,218.90562000000003,-40.44385,9
3041084107059,54187.6144661458,0.913055881043,14.959166,0.081,0.144965,234,14.868,0.272712,218.90562000000003,-40.44385,9
3041084107059,54187.626127361,0.993497471791,14.720425,0.085,0.144965,234,14.868,0.272712,218.90562000000003,-40.44385,9
3041084107059,54242.5871639005,0.12664367602,15.3218,0.104,0.144965,234,14.868,0.272712,218.90562000000003,-40.44385,9
3041084107059,54242.5970976157,0.195168597216,15.064067,0.091,0.144965,234,14.868,0.272712,218.90562000000003,-40.44385,9
3041084107059,54242.6069207871,0.262930963305,14.870094,0.077,0.144965,234,14.868,0.272712,218.90562000000003,-40.44385,9
3041084107059,54242.6167475577,0.330718157464,14.793234,0.073,0.144965,234,14.868,0.272712,218.90562000000003,-40.44385,9
3041084107059,54247.5183164581,0.142803146271,14.75607,0.078,0.144965,234,14.868,0.272712,218.90562000000003,-40.44385,9
3041084107059,54247.5287527313,0.214794821455,14.685099,0.076,0.144965,234,14.868,0.272712,218.90562000000003,-40.44385,9
3041084107059,54247.5390427082,0.285777313111,14.738626,0.077,0.144965,234,14.868,0.272712,218.90562000000003,-40.44385,9
3041084107059,54247.5493478474,0.356864397589,14.730284,0.077,0.144965,234,14.868,0.272712,218.90562000000003,-40.44385,9
3041084107059,54347.3820468518,0.0244669527165,14.834915,0.070,0.144965,234,14.868,0.272712,218.90562000000003,-40.44385,9
3041084107059,54347.3902144097,0.0808085378958,14.785058,0.069,0.144965,234,14.868,0.272712,218.90562000000003,-40.44385,9
3041084107059,54347.3983971295,0.13725471322,14.732481,0.069,0.144965,234,14.868,0.272712,218.90562000000003,-40.44385,9
3041084107059,54347.4065904976,0.19377434277,14.710892,0.069,0.144965,234,14.868,0.272712,218.90562000000003,-40.44385,9
3041084107059,54653.4646015164,0.448291079898,14.745101,0.071,0.144965,234,14.868,0.272712,218.90562000000003,-40.44385,9
3041084107059,54653.4731101735,0.506985641317,14.778898,0.071,0.144965,234,14.868,0.272712,218.90562000000003,-40.44385,9
3041084107059,54653.4816665162,0.566009148373,14.812412,0.072,0.144965,234,14.868,0.272712,218.90562000000003,-40.44385,9
3041084107059,54653.4901945024,0.624837046198,14.81508,0.147,0.144965,234,14.868,0.272712,218.90562000000003,-40.44385,9
3041084107059,54622.5798461111,0.398552140803,14.731648,0.065,0.144965,234,14.868,0.272712,218.90562000000003,-40.44385,9
3041084107059,54622.5907341549,0.47366022761,14.790196,0.066,0.144965,234,14.868,0.272712,218.90562000000003,-40.44385,9
3041084107059,54622.6051100576,0.57282832131,14.841724,0.067,0.144965,234,14.868,0.272712,218.90562000000003,-40.44385,9
3041084107059,54622.6160068982,0.647997090302,14.963071,0.069,0.144965,234,14.868,0.272712,218.90562000000003,-40.44385,9
3041084107059,54594.5930656713,0.339672826522,14.699089,0.068,0.144965,234,14.868,0.272712,218.90562000000003,-40.44385,9
3041084107059,54594.6007863424,0.392931689683,14.695543,0.068,0.144965,234,14.868,0.272712,218.90562000000003,-40.44385,9
3041084107059,54594.6084911457,0.446081093338,14.739723,0.069,0.144965,234,14.868,0.272712,218.90562000000003,-40.44385,9
3041084107059,54594.6162157521,0.499367103097,14.768338,0.069,0.144965,234,14.868,0.272712,218.90562000000003,-40.44385,9
3041084107059,54615.6080604745,0.305663260049,14.740993,0.064,0.144965,234,14.868,0.272712,218.90562000000003,-40.44385,9
3041084107059,54615.6113687037,0.328484142374,14.719769,0.064,0.144965,234,14.868,0.272712,218.90562000000003,-40.44385,9
3041084107059,54615.614686192,0.351368895906,14.73344,0.064,0.144965,234,14.868,0.272712,218.90562000000003,-40.44385,9
3041084107059,54615.6180022918,0.37424407131,14.73172,0.064,0.144965,234,14.868,0.272712,218.90562000000003,-40.44385,9
3041084107059,54926.5555620253,0.288945782057,14.734135,0.063,0.144965,234,14.868,0.272712,218.90562000000003,-40.44385,9
3041084107059,54926.5634008565,0.343019739259,14.745076,0.063,0.144965,234,14.868,0.272712,218.90562000000003,-40.44385,9
3041084107059,54926.5712284724,0.397016330797,14.74815,0.063,0.144965,234,14.868,0.272712,218.90562000000003,-40.44385,9
3041084107059,54926.5791494905,0.451657231024,14.757938,0.063,0.144965,234,14.868,0.272712,218.90562000000003,-40.44385,9
3041084107059,54927.6255792707,0.670156732318,14.952912,0.062,0.144965,234,14.868,0.272712,218.90562000000003,-40.44385,9
3041084107059,54927.6350870488,0.735743447032,15.004672,0.063,0.144965,234,14.868,0.272712,218.90562000000003,-40.44385,9
3041084107059,54927.6445789581,0.801220695314,15.018968,0.063,0.144965,234,14.868,0.272712,218.90562000000003,-40.44385,9
3041084107059,54927.6540292131,0.866410603223,15.03913,0.063,0.144965,234,14.868,0.272712,218.90562000000003,-40.44385,9
3041084107059,54936.7422818751,0.559147898457,14.773866,0.066,0.144965,234,14.868,0.272712,218.90562000000003,-40.44385,9
3041084107059,54936.7477533794,0.59689152136,14.831673,0.066,0.144965,234,14.868,0.272712,218.90562000000003,-40.44385,9
3041084107059,54936.753256713,0.63485470973,14.865492,0.067,0.144965,234,14.868,0.272712,218.90562000000003,-40.44385,9
3041084107059,54936.7587899189,0.673023963696,14.932486,0.068,0.144965,234,14.868,0.272712,218.90562000000003,-40.44385,9
3041084107059,54859.6854809956,0.00462867307942,15.008703,0.069,0.144965,234,14.868,0.272712,218.90562000000003,-40.44385,9
3041084107059,54859.6962452778,0.0788830255624,14.889485,0.068,0.144965,234,14.868,0.272712,218.90562000000003,-40.44385,9
3041084107059,54859.7070475463,0.153399415663,14.805197,0.066,0.144965,234,14.868,0.272712,218.90562000000003,-40.44385,9
3041084107059,54859.7181905671,0.230266389088,14.790928,0.066,0.144965,234,14.868,0.272712,218.90562000000003,-40.44385,9
3041084107059,54998.5837450926,0.154969079362,14.803685,0.068,0.144965,234,14.868,0.272712,218.90562000000003,-40.44385,9
3041084107059,54998.5923087266,0.214042883425,14.76869,0.067,0.144965,234,14.868,0.272712,218.90562000000003,-40.44385,9
3041084107059,54998.6008790857,0.273163078644,14.755877,0.067,0.144965,234,14.868,0.272712,218.90562000000003,-40.44385,9
3041084107059,54998.6096551158,0.333702036995,14.704261,0.067,0.144965,234,14.868,0.272712,218.90562000000003,-40.44385,9
3041084107059,54896.7527517593,0.702698991459,14.944583,0.067,0.144965,234,14.868,0.272712,218.90562000000003,-40.44385,9
3041084107059,54896.7625385881,0.770210658375,14.948666,0.067,0.144965,234,14.868,0.272712,218.90562000000003,-40.44385,9
3041084107059,54896.7723085187,0.83760575793,14.974037,0.068,0.144965,234,14.868,0.272712,218.90562000000003,-40.44385,9
3041084107059,54896.7821349306,0.905390477681,14.98115,0.068,0.144965,234,14.868,0.272712,218.90562000000003,-40.44385,9
3041084107059,54912.7182048149,0.835855654092,14.981844,0.069,0.144965,234,14.868,0.272712,218.90562000000003,-40.44385,9
3041084107059,54912.7268583798,0.895549820969,14.986258,0.069,0.144965,234,14.868,0.272712,218.90562000000003,-40.44385,9
3041084107059,54912.7355315164,0.955378997664,14.9957,0.069,0.144965,234,14.868,0.272712,218.90562000000003,-40.44385,9
3041084107059,54912.7441486227,0.0148216652451,14.918023,0.068,0.144965,234,14.868,0.272712,218.90562000000003,-40.44385,9
3041084107059,54952.6294610418,0.152354304795,14.731454,0.074,0.144965,234,14.868,0.272712,218.90562000000003,-40.44385,9
3041084107059,54952.6375260415,0.207988421316,14.740967,0.082,0.144965,234,14.868,0.272712,218.90562000000003,-40.44385,9
3041084107059,54952.6455771645,0.263526813302,14.743865,0.086,0.144965,234,14.868,0.272712,218.90562000000003,-40.44385,9
3041084107059,54952.6598183333,0.361765483336,14.72292,0.081,0.144965,234,14.868,0.272712,218.90562000000003,-40.44385,9
3041084107059,54952.6678265046,0.417007585231,14.756972,0.079,0.144965,234,14.868,0.272712,218.90562000000003,-40.44385,9
3041084107059,54966.6366460879,0.776953663968,15.014114,0.077,0.144965,234,14.868,0.272712,218.90562000000003,-40.44385,9
3041084107059,54966.6460383448,0.841743488389,15.027947,0.077,0.144965,234,14.868,0.272712,218.90562000000003,-40.44385,9
3041084107059,54966.6555653239,0.907462655741,14.996788,0.077,0.144965,234,14.868,0.272712,218.90562000000003,-40.44385,9
3041084107059,54966.6650263427,0.97272681474,14.992002,0.077,0.144965,234,14.868,0.272712,218.90562000000003,-40.44385,9
3041084107059,54981.5476963194,0.636611039867,14.887034,0.062,0.144965,234,14.868,0.272712,218.90562000000003,-40.44385,9
3041084107059,54981.5547615276,0.685348377854,14.968319,0.063,0.144965,234,14.868,0.272712,218.90562000000003,-40.44385,9
3041084107059,54981.5619818289,0.735155581671,15.003307,0.064,0.144965,234,14.868,0.272712,218.90562000000003,-40.44385,9
3041084107059,54981.5691825696,0.784827852214,15.048724,0.065,0.144965,234,14.868,0.272712,218.90562000000003,-40.44385,9
3041084107059,55301.6961454397,0.0900247624959,14.782983,0.062,0.144965,234,14.868,0.272712,218.90562000000003,-40.44385,9
3041084107059,55395.3792197338,0.3361827599,14.734405,0.073,0.144965,234,14.868,0.272712,218.90562000000003,-40.44385,9
3041084107059,55395.4160043403,0.589930950897,14.845098,0.075,0.144965,234,14.868,0.272712,218.90562000000003,-40.44385,9
3041084107059,55353.4716373958,0.248593769502,14.770806,0.076,0.144965,234,14.868,0.272712,218.90562000000003,-40.44385,9
3041084107059,55353.4978179165,0.429192677489,14.770799,0.080,0.144965,234,14.868,0.272712,218.90562000000003,-40.44385,9
3041084107059,55366.4724172107,0.930791644147,15.323803,0.127,0.144965,234,14.868,0.272712,218.90562000000003,-40.44385,9
3041084107059,55264.729407905,0.0854544544709,14.876309,0.068,0.144965,234,14.868,0.272712,218.90562000000003,-40.44385,9
3041084107059,55273.6589059026,0.683067654958,15.016591,0.079,0.144965,234,14.868,0.272712,218.90562000000003,-40.44385,9
3041084107059,55328.5949249771,0.643637961533,14.956678,0.071,0.144965,234,14.868,0.272712,218.90562000000003,-40.44385,9
3041084107059,55328.6304338542,0.888585894543,15.037964,0.072,0.144965,234,14.868,0.272712,218.90562000000003,-40.44385,9
3041084107059,55656.7308490277,0.196385525458,14.756357,0.061,0.144965,234,14.868,0.272712,218.90562000000003,-40.44385,9
3041084107059,55656.7906767824,0.609090348706,14.975031,0.063,0.144965,234,14.868,0.272712,218.90562000000003,-40.44385,9
3041084107059,55673.6978375465,0.23835095705,14.737761,0.060,0.144965,234,14.868,0.272712,218.90562000000003,-40.44385,9
3041084107059,55673.7404321297,0.53217762697,14.902421,0.062,0.144965,234,14.868,0.272712,218.90562000000003,-40.44385,9
3041084107059,55715.5367039119,0.851922270202,15.052217,0.067,0.144965,234,14.868,0.272712,218.90562000000003,-40.44385,9
3041084107059,55715.5501576735,0.944729234616,14.895111,0.066,0.144965,234,14.868,0.272712,218.90562000000003,-40.44385,9
3041084107059,55715.5636587617,0.0378626681631,14.80116,0.064,0.144965,234,14.868,0.272712,218.90562000000003,-40.44385,9
3041084107059,55715.5772619558,0.13170045038,14.752889,0.064,0.144965,234,14.868,0.272712,218.90562000000003,-40.44385,9
3041084107059,55691.5616138311,0.46655283065,14.834657,0.064,0.144965,234,14.868,0.272712,218.90562000000003,-40.44385,9
3041084107059,55691.5794683335,0.589717059222,15.011579,0.067,0.144965,234,14.868,0.272712,218.90562000000003,-40.44385,9
3041084107059,55691.6151715511,0.836005595105,15.008129,0.067,0.144965,234,14.868,0.272712,218.90562000000003,-40.44385,9
3041084107059,54187.6386678821,0.0800047052326,14.765853,0.077,0.144965,234,14.868,0.272712,218.90562000000003,-40.44385,9
3041084107059,54187.6511490277,0.1661023536,14.644877,0.082,0.144965,234,14.868,0.272712,218.90562000000003,-40.44385,9
3041084107059,54187.6630663771,0.248310813622,14.705327,0.080,0.144965,234,14.868,0.272712,218.90562000000003,-40.44385,9
3041084107059,54187.6746661227,0.328328373726,14.685486,0.076,0.144965,234,14.868,0.272712,218.90562000000003,-40.44385,9
3041084107059,55746.4607102429,0.172422604752,14.73147,0.067,0.144965,234,14.868,0.272712,218.90562000000003,-40.44385,9
3041084107059,55746.4731365279,0.25814181281,14.741423,0.067,0.144965,234,14.868,0.272712,218.90562000000003,-40.44385,9
3041084107059,55746.4855441782,0.343732474721,14.766471,0.067,0.144965,234,14.868,0.272712,218.90562000000003,-40.44385,9
3041084107059,55746.4979446526,0.429273635673,14.823706,0.068,0.144965,234,14.868,0.272712,218.90562000000003,-40.44385,9
3041084107059,56041.6982292361,0.784839348111,14.931449,0.060,0.144965,234,14.868,0.272712,218.90562000000003,-40.44385,9
3041084107059,56041.7085614582,0.856113256305,14.874054,0.060,0.144965,234,14.868,0.272712,218.90562000000003,-40.44385,9
3041084107059,56041.7189806137,0.927986849914,14.825678,0.060,0.144965,234,14.868,0.272712,218.90562000000003,-40.44385,9
3041084107059,56041.7293637614,0.999612053914,14.770376,0.059,0.144965,234,14.868,0.272712,218.90562000000003,-40.44385,9
3041084107059,56048.5735491666,0.212286873371,14.730031,0.062,0.144965,234,14.868,0.272712,218.90562000000003,-40.44385,9
3041084107059,56048.5821051619,0.27130798396,14.739378,0.062,0.144965,234,14.868,0.272712,218.90562000000003,-40.44385,9
3041084107059,56048.5906601272,0.33032198943,14.777672,0.063,0.144965,234,14.868,0.272712,218.90562000000003,-40.44385,9
3041084107059,56048.5991967938,0.389209766465,14.844289,0.063,0.144965,234,14.868,0.272712,218.90562000000003,-40.44385,9
3041084107059,56066.5509378126,0.22421144828,14.718202,0.062,0.144965,234,14.868,0.272712,218.90562000000003,-40.44385,9
3041084107059,56066.5628951042,0.306695438165,14.786537,0.063,0.144965,234,14.868,0.272712,218.90562000000003,-40.44385,9
3041084107059,56066.574949155,0.389846894075,14.85129,0.064,0.144965,234,14.868,0.272712,218.90562000000003,-40.44385,9
3041084107059,56066.5871255438,0.473842263978,14.95765,0.065,0.144965,234,14.868,0.272712,218.90562000000003,-40.44385,9
3041084107059,56076.541755544,0.143038278155,14.715833,0.067,0.144965,234,14.868,0.272712,218.90562000000003,-40.44385,9
3041084107059,56076.5502295834,0.201494039211,14.732025,0.067,0.144965,234,14.868,0.272712,218.90562000000003,-40.44385,9
3041084107059,56076.5586662614,0.259692073218,14.753785,0.067,0.144965,234,14.868,0.272712,218.90562000000003,-40.44385,9
3041084107059,56076.5669922801,0.317126755428,14.812233,0.068,0.144965,234,14.868,0.272712,218.90562000000003,-40.44385,9
3041084107059,56102.4917251387,0.151554780081,14.724264,0.066,0.144965,234,14.868,0.272712,218.90562000000003,-40.44385,9
3041084107059,56102.5030165392,0.229445308854,14.77305,0.067,0.144965,234,14.868,0.272712,218.90562000000003,-40.44385,9
3041084107059,56102.5143356136,0.30752673815,14.831582,0.067,0.144965,234,14.868,0.272712,218.90562000000003,-40.44385,9
3041084107059,56102.5256473844,0.38555778563,14.926235,0.068,0.144965,234,14.868,0.272712,218.90562000000003,-40.44385,9
3041084107059,56149.4232328011,0.895269900269,14.81456,0.062,0.144965,234,14.868,0.272712,218.90562000000003,-40.44385,9
3041084107059,56149.4345154165,0.973099827534,14.753772,0.061,0.144965,234,14.868,0.272712,218.90562000000003,-40.44385,9
3041084107059,56149.4458255673,0.0511196998996,14.70669,0.061,0.144965,234,14.868,0.272712,218.90562000000003,-40.44385,9
3041084107059,56149.457161771,0.129319290863,14.732263,0.061,0.144965,234,14.868,0.272712,218.90562000000003,-40.44385,9
3041084107059,56366.6268862962,0.213163840934,14.796251,0.072,0.144965,234,14.868,0.272712,218.90562000000003,-40.44385,9
3041084107059,56366.6349412386,0.268728579977,14.813757,0.072,0.144965,234,14.868,0.272712,218.90562000000003,-40.44385,9
3041084107059,56366.6432246526,0.325869365712,14.912152,0.073,0.144965,234,14.868,0.272712,218.90562000000003,-40.44385,9
3041084107059,56366.6514966205,0.382931193686,14.942358,0.074,0.144965,234,14.868,0.272712,218.90562000000003,-40.44385,9
3041084107059,56367.6030084722,0.946666244941,14.726008,0.062,0.144965,234,14.868,0.272712,218.90562000000003,-40.44385,9
3041084107059,56367.6150256017,0.0295630096807,14.715598,0.061,0.144965,234,14.868,0.272712,218.90562000000003,-40.44385,9
3041084107059,56367.62701669,0.112280136556,14.754865,0.062,0.144965,234,14.868,0.272712,218.90562000000003,-40.44385,9
3041084107059,56367.6390677317,0.195410835033,14.787279,0.062,0.144965,234,14.868,0.272712,218.90562000000003,-40.44385,9
3041084107059,56393.5775551503,0.12472079671,14.77741,0.064,0.144965,234,14.868,0.272712,218.90562000000003,-40.44385,9
3041084107059,56393.5911719906,0.218652713404,14.83157,0.064,0.144965,234,14.868,0.272712,218.90562000000003,-40.44385,9
3041084107059,56393.6043984373,0.309891610406,14.943835,0.066,0.144965,234,14.868,0.272712,218.90562000000003,-40.44385,9
3041084107059,56393.6182068405,0.405144969467,14.976093,0.066,0.144965,234,14.868,0.272712,218.90562000000003,-40.44385,9
3041084107059,56419.5767904053,0.473082504701,15.035915,0.064,0.144965,234,14.868,0.272712,218.90562000000003,-40.44385,9
3041084107059,56419.5875231133,0.547119051509,15.041928,0.064,0.144965,234,14.868,0.272712,218.90562000000003,-40.44385,9
3041084107059,56419.5983775811,0.621995523688,15.951263,0.185,0.144965,234,14.868,0.272712,218.90562000000003,-40.44385,9
3041084107059,56419.6675308331,0.0990296492237,14.751815,0.062,0.144965,234,14.868,0.272712,218.90562000000003,-40.44385,9
3041084107059,56419.6783082176,0.173374384118,14.790322,0.062,0.144965,234,14.868,0.272712,218.90562000000003,-40.44385,9
3041084107059,56419.68909625,0.247792570561,14.819692,0.063,0.144965,234,14.868,0.272712,218.90562000000003,-40.44385,9
3041084107059,56419.6998772224,0.322162055643,15.015446,0.070,0.144965,234,14.868,0.272712,218.90562000000003,-40.44385,9
3041084107059,56426.6236566206,0.0838934956118,14.728976,0.061,0.144965,234,14.868,0.272712,218.90562000000003,-40.44385,9
3041084107059,56426.6343685881,0.15778696991,14.77159,0.061,0.144965,234,14.868,0.272712,218.90562000000003,-40.44385,9
3041084107059,56426.6451592826,0.232223520114,14.839568,0.062,0.144965,234,14.868,0.272712,218.90562000000003,-40.44385,9
3041084107059,56426.6557943056,0.305586214585,14.937355,0.063,0.144965,234,14.868,0.272712,218.90562000000003,-40.44385,9
