ID,MjD,Phase,Mag,Mag_err,Period,Npts,V,Amp,ra,dec,Type
3045072023505,53587.462839,0.31148468866,15.0953,0.078,0.15370899999999998,169,14.96,0.42464300000000005,200.97759,-45.99559,9
3045072023505,53587.470687,0.362542206421,15.1443,0.079,0.15370899999999998,169,14.96,0.42464300000000005,200.97759,-45.99559,9
3045072023505,53587.478441,0.412988179014,15.1511,0.079,0.15370899999999998,169,14.96,0.42464300000000005,200.97759,-45.99559,9
3045072023505,53587.486326,0.464286411356,15.1372,0.080,0.15370899999999998,169,14.96,0.42464300000000005,200.97759,-45.99559,9
3045072023505,53607.378372,0.877957699297,14.8208,0.074,0.15370899999999998,169,14.96,0.42464300000000005,200.97759,-45.99559,9
3045072023505,53607.388174,0.941727550118,14.8265,0.074,0.15370899999999998,169,14.96,0.42464300000000005,200.97759,-45.99559,9
3045072023505,53607.397993,0.0056079995702,14.833,0.074,0.15370899999999998,169,14.96,0.42464300000000005,200.97759,-45.99559,9
3045072023505,53830.660874,0.50924148882,15.095,0.076,0.15370899999999998,169,14.96,0.42464300000000005,200.97759,-45.99559,9
3045072023505,53830.670339,0.570818885055,15.1211,0.077,0.15370899999999998,169,14.96,0.42464300000000005,200.97759,-45.99559,9
3045072023505,53830.679815,0.632467845164,15.1247,0.077,0.15370899999999998,169,14.96,0.42464300000000005,200.97759,-45.99559,9
3045072023505,53830.689303,0.694194874784,15.0464,0.075,0.15370899999999998,169,14.96,0.42464300000000005,200.97759,-45.99559,9
3045072023505,53845.617707,0.815404433059,14.7321,0.071,0.15370899999999998,169,14.96,0.42464300000000005,200.97759,-45.99559,9
3045072023505,53845.626420,0.872089467826,14.7041,0.070,0.15370899999999998,169,14.96,0.42464300000000005,200.97759,-45.99559,9
3045072023505,53845.635078,0.928416683513,14.7693,0.071,0.15370899999999998,169,14.96,0.42464300000000005,200.97759,-45.99559,9
3045072023505,53845.643848,0.985472548811,14.807,0.072,0.15370899999999998,169,14.96,0.42464300000000005,200.97759,-45.99559,9
3045072023505,53948.391685,0.44234234828,15.0797,0.068,0.15370899999999998,169,14.96,0.42464300000000005,200.97759,-45.99559,9
3045072023505,53948.397171,0.478033166612,15.1048,0.069,0.15370899999999998,169,14.96,0.42464300000000005,200.97759,-45.99559,9
3045072023505,53948.402679,0.513867112575,15.1126,0.069,0.15370899999999998,169,14.96,0.42464300000000005,200.97759,-45.99559,9
3045072023505,53948.408176,0.549629494722,15.1919,0.070,0.15370899999999998,169,14.96,0.42464300000000005,200.97759,-45.99559,9
3045072023505,53769.620877,0.395233851043,15.055,0.071,0.15370899999999998,169,14.96,0.42464300000000005,200.97759,-45.99559,9
3045072023505,53889.352701,0.346524927008,15.0877,0.071,0.15370899999999998,169,14.96,0.42464300000000005,200.97759,-45.99559,9
3045072023505,53889.363573,0.417255983746,15.0846,0.070,0.15370899999999998,169,14.96,0.42464300000000005,200.97759,-45.99559,9
3045072023505,53889.374449,0.488013063674,15.1395,0.071,0.15370899999999998,169,14.96,0.42464300000000005,200.97759,-45.99559,9
3045072023505,53889.385334,0.558828695794,15.1466,0.071,0.15370899999999998,169,14.96,0.42464300000000005,200.97759,-45.99559,9
3045072023505,53904.509345,0.95261825918,14.7564,0.068,0.15370899999999998,169,14.96,0.42464300000000005,200.97759,-45.99559,9
3045072023505,53904.520850,0.0274674873217,14.7964,0.069,0.15370899999999998,169,14.96,0.42464300000000005,200.97759,-45.99559,9
3045072023505,53904.532376,0.102453337226,14.8829,0.070,0.15370899999999998,169,14.96,0.42464300000000005,200.97759,-45.99559,9
3045072023505,53904.543914,0.1775172567,14.9467,0.071,0.15370899999999998,169,14.96,0.42464300000000005,200.97759,-45.99559,9
3045072023505,53817.600227,0.539285272884,15.1798,0.078,0.15370899999999998,169,14.96,0.42464300000000005,200.97759,-45.99559,9
3045072023505,53817.609287,0.598227820126,15.1171,0.077,0.15370899999999998,169,14.96,0.42464300000000005,200.97759,-45.99559,9
3045072023505,53817.618371,0.657326506567,15.138,0.077,0.15370899999999998,169,14.96,0.42464300000000005,200.97759,-45.99559,9
3045072023505,53817.627512,0.716796023713,15.0539,0.075,0.15370899999999998,169,14.96,0.42464300000000005,200.97759,-45.99559,9
3045072023505,53860.503885,0.661900083942,15.0816,0.066,0.15370899999999998,169,14.96,0.42464300000000005,200.97759,-45.99559,9
3045072023505,53860.517307,0.749220930506,14.8636,0.064,0.15370899999999998,169,14.96,0.42464300000000005,200.97759,-45.99559,9
3045072023505,53860.530701,0.836359614681,14.7291,0.063,0.15370899999999998,169,14.96,0.42464300000000005,200.97759,-45.99559,9
3045072023505,53860.544036,0.923114456586,14.7239,0.063,0.15370899999999998,169,14.96,0.42464300000000005,200.97759,-45.99559,9
3045072023505,53875.568255,0.667677234276,15.0822,0.077,0.15370899999999998,169,14.96,0.42464300000000005,200.97759,-45.99559,9
3045072023505,53875.576851,0.723601090373,14.964,0.075,0.15370899999999998,169,14.96,0.42464300000000005,200.97759,-45.99559,9
3045072023505,53875.585390,0.779154115939,14.8633,0.073,0.15370899999999998,169,14.96,0.42464300000000005,200.97759,-45.99559,9
3045072023505,53875.593948,0.834830751643,14.7532,0.071,0.15370899999999998,169,14.96,0.42464300000000005,200.97759,-45.99559,9
3045072023505,53881.543997,0.544659063569,15.1506,0.078,0.15370899999999998,169,14.96,0.42464300000000005,200.97759,-45.99559,9
3045072023505,53881.554297,0.611668802798,15.0874,0.077,0.15370899999999998,169,14.96,0.42464300000000005,200.97759,-45.99559,9
3045072023505,53881.564569,0.67849637958,15.0322,0.076,0.15370899999999998,169,14.96,0.42464300000000005,200.97759,-45.99559,9
3045072023505,53881.574867,0.745493107184,14.9247,0.074,0.15370899999999998,169,14.96,0.42464300000000005,200.97759,-45.99559,9
3045072023505,54197.683796,0.286938305537,15.0618,0.085,0.15370899999999998,169,14.96,0.42464300000000005,200.97759,-45.99559,9
3045072023505,54197.693321,0.348906049796,15.1202,0.088,0.15370899999999998,169,14.96,0.42464300000000005,200.97759,-45.99559,9
3045072023505,54197.702837,0.410815241805,15.1632,0.089,0.15370899999999998,169,14.96,0.42464300000000005,200.97759,-45.99559,9
3045072023505,54197.712345,0.472672387492,15.1642,0.089,0.15370899999999998,169,14.96,0.42464300000000005,200.97759,-45.99559,9
3045072023505,54210.589580,0.249386828393,14.963,0.073,0.15370899999999998,169,14.96,0.42464300000000005,200.97759,-45.99559,9
3045072023505,54210.600536,0.320664372295,15.0524,0.074,0.15370899999999998,169,14.96,0.42464300000000005,200.97759,-45.99559,9
3045072023505,54210.611454,0.391694695863,15.0918,0.075,0.15370899999999998,169,14.96,0.42464300000000005,200.97759,-45.99559,9
3045072023505,54210.622326,0.462425752601,15.0774,0.075,0.15370899999999998,169,14.96,0.42464300000000005,200.97759,-45.99559,9
3045072023505,54334.380732,0.609853684553,15.2114,0.083,0.15370899999999998,169,14.96,0.42464300000000005,200.97759,-45.99559,9
3045072023505,54337.401059,0.259496841463,14.9731,0.081,0.15370899999999998,169,14.96,0.42464300000000005,200.97759,-45.99559,9
3045072023505,54337.404458,0.281610055361,14.9838,0.081,0.15370899999999998,169,14.96,0.42464300000000005,200.97759,-45.99559,9
3045072023505,54337.407863,0.303762304131,14.9609,0.081,0.15370899999999998,169,14.96,0.42464300000000005,200.97759,-45.99559,9
3045072023505,54337.411272,0.325940576033,15.039,0.082,0.15370899999999998,169,14.96,0.42464300000000005,200.97759,-45.99559,9
3045072023505,54129.692699,0.950464839407,14.7048,0.076,0.15370899999999998,169,14.96,0.42464300000000005,200.97759,-45.99559,9
3045072023505,54129.702809,0.0162384766736,14.7796,0.077,0.15370899999999998,169,14.96,0.42464300000000005,200.97759,-45.99559,9
3045072023505,54129.712934,0.0821097008302,14.8727,0.078,0.15370899999999998,169,14.96,0.42464300000000005,200.97759,-45.99559,9
3045072023505,54129.723104,0.148273686005,14.934,0.079,0.15370899999999998,169,14.96,0.42464300000000005,200.97759,-45.99559,9
3045072023505,54296.474801,0.00145079341019,14.7785,0.069,0.15370899999999998,169,14.96,0.42464300000000005,200.97759,-45.99559,9
3045072023505,54296.482990,0.0547267889488,14.8409,0.070,0.15370899999999998,169,14.96,0.42464300000000005,200.97759,-45.99559,9
3045072023505,54296.491189,0.108067842491,14.904,0.071,0.15370899999999998,169,14.96,0.42464300000000005,200.97759,-45.99559,9
3045072023505,54296.499382,0.161369861278,14.9078,0.071,0.15370899999999998,169,14.96,0.42464300000000005,200.97759,-45.99559,9
3045072023505,54273.471566,0.347006356227,15.0365,0.080,0.15370899999999998,169,14.96,0.42464300000000005,200.97759,-45.99559,9
3045072023505,54273.481349,0.410652596853,15.0767,0.080,0.15370899999999998,169,14.96,0.42464300000000005,200.97759,-45.99559,9
3045072023505,54273.491177,0.474591598497,15.078,0.080,0.15370899999999998,169,14.96,0.42464300000000005,200.97759,-45.99559,9
3045072023505,54273.501009,0.538556623273,15.0935,0.081,0.15370899999999998,169,14.96,0.42464300000000005,200.97759,-45.99559,9
3045072023505,54174.567700,0.8982427835,14.7006,0.069,0.15370899999999998,169,14.96,0.42464300000000005,200.97759,-45.99559,9
3045072023505,54174.572885,0.93197535607,14.6873,0.069,0.15370899999999998,169,14.96,0.42464300000000005,200.97759,-45.99559,9
3045072023505,54174.578072,0.965720940207,14.758,0.070,0.15370899999999998,169,14.96,0.42464300000000005,200.97759,-45.99559,9
3045072023505,54174.583303,0.999752779608,14.7625,0.070,0.15370899999999998,169,14.96,0.42464300000000005,200.97759,-45.99559,9
3045072023505,54185.650426,0.000240714638494,14.7679,0.071,0.15370899999999998,169,14.96,0.42464300000000005,200.97759,-45.99559,9
3045072023505,54185.662083,0.0760788243497,14.8555,0.073,0.15370899999999998,169,14.96,0.42464300000000005,200.97759,-45.99559,9
3045072023505,54185.673702,0.15166971361,14.8908,0.073,0.15370899999999998,169,14.96,0.42464300000000005,200.97759,-45.99559,9
3045072023505,54185.685329,0.227312649251,14.9807,0.074,0.15370899999999998,169,14.96,0.42464300000000005,200.97759,-45.99559,9
3045072023505,54226.655839,0.773253355408,14.8741,0.072,0.15370899999999998,169,14.96,0.42464300000000005,200.97759,-45.99559,9
3045072023505,54226.666757,0.844283678918,14.768,0.071,0.15370899999999998,169,14.96,0.42464300000000005,200.97759,-45.99559,9
3045072023505,54226.677663,0.915235932858,14.7742,0.071,0.15370899999999998,169,14.96,0.42464300000000005,200.97759,-45.99559,9
3045072023505,54226.688615,0.986487453571,14.8285,0.072,0.15370899999999998,169,14.96,0.42464300000000005,200.97759,-45.99559,9
3045072023505,54240.504938,0.872720530373,15.11,0.076,0.15370899999999998,169,14.96,0.42464300000000005,200.97759,-45.99559,9
3045072023505,54240.516042,0.944960932713,15.0688,0.075,0.15370899999999998,169,14.96,0.42464300000000005,200.97759,-45.99559,9
3045072023505,54240.527302,0.0182162398123,14.9306,0.073,0.15370899999999998,169,14.96,0.42464300000000005,200.97759,-45.99559,9
3045072023505,54509.696736,0.180698592798,14.9592,0.072,0.15370899999999998,169,14.96,0.42464300000000005,200.97759,-45.99559,9
3045072023505,54509.705303,0.236433780752,14.9839,0.072,0.15370899999999998,169,14.96,0.42464300000000005,200.97759,-45.99559,9
3045072023505,54509.713910,0.292429200665,15.0382,0.073,0.15370899999999998,169,14.96,0.42464300000000005,200.97759,-45.99559,9
3045072023505,54509.722343,0.347292611434,15.0544,0.073,0.15370899999999998,169,14.96,0.42464300000000005,200.97759,-45.99559,9
3045072023505,54662.478940,0.151149249577,14.9877,0.071,0.15370899999999998,169,14.96,0.42464300000000005,200.97759,-45.99559,9
3045072023505,54662.485512,0.193905366643,14.9344,0.068,0.15370899999999998,169,14.96,0.42464300000000005,200.97759,-45.99559,9
3045072023505,54662.492070,0.236570402572,15.0038,0.069,0.15370899999999998,169,14.96,0.42464300000000005,200.97759,-45.99559,9
3045072023505,54662.498630,0.279248450068,14.9494,0.090,0.15370899999999998,169,14.96,0.42464300000000005,200.97759,-45.99559,9
3045072023505,54622.492075,0.00460610637674,14.7396,0.065,0.15370899999999998,169,14.96,0.42464300000000005,200.97759,-45.99559,9
3045072023505,54622.501907,0.0685711312108,14.8331,0.066,0.15370899999999998,169,14.96,0.42464300000000005,200.97759,-45.99559,9
3045072023505,54622.511739,0.132536156045,14.8829,0.066,0.15370899999999998,169,14.96,0.42464300000000005,200.97759,-45.99559,9
3045072023505,54622.521546,0.196338535869,14.9126,0.066,0.15370899999999998,169,14.96,0.42464300000000005,200.97759,-45.99559,9
3045072023505,54527.699742,0.304653598694,15.0028,0.068,0.15370899999999998,169,14.96,0.42464300000000005,200.97759,-45.99559,9
3045072023505,54527.713623,0.39496060746,15.0548,0.069,0.15370899999999998,169,14.96,0.42464300000000005,200.97759,-45.99559,9
3045072023505,54527.727173,0.483114196337,15.043,0.068,0.15370899999999998,169,14.96,0.42464300000000005,200.97759,-45.99559,9
3045072023505,54527.740433,0.569381103269,15.1211,0.069,0.15370899999999998,169,14.96,0.42464300000000005,200.97759,-45.99559,9
3045072023505,54590.573074,0.345971934032,15.0469,0.069,0.15370899999999998,169,14.96,0.42464300000000005,200.97759,-45.99559,9
3045072023505,54590.581401,0.400145729946,15.0637,0.069,0.15370899999999998,169,14.96,0.42464300000000005,200.97759,-45.99559,9
3045072023505,54590.589749,0.45445614768,15.0959,0.069,0.15370899999999998,169,14.96,0.42464300000000005,200.97759,-45.99559,9
3045072023505,54590.598073,0.508610426215,15.0981,0.069,0.15370899999999998,169,14.96,0.42464300000000005,200.97759,-45.99559,9
3045072023505,54595.554139,0.751784215681,14.8845,0.072,0.15370899999999998,169,14.96,0.42464300000000005,200.97759,-45.99559,9
3045072023505,54595.564498,0.819177797064,14.722,0.069,0.15370899999999998,169,14.96,0.42464300000000005,200.97759,-45.99559,9
3045072023505,54595.574860,0.886590895825,14.6671,0.068,0.15370899999999998,169,14.96,0.42464300000000005,200.97759,-45.99559,9
3045072023505,54595.585241,0.954127604782,14.7691,0.071,0.15370899999999998,169,14.96,0.42464300000000005,200.97759,-45.99559,9
3045072023505,54887.728688,0.58094190975,15.1334,0.070,0.15370899999999998,169,14.96,0.42464300000000005,200.97759,-45.99559,9
3045072023505,54887.739509,0.651341170655,15.081,0.070,0.15370899999999998,169,14.96,0.42464300000000005,200.97759,-45.99559,9
3045072023505,54887.750386,0.722104756453,15.0629,0.069,0.15370899999999998,169,14.96,0.42464300000000005,200.97759,-45.99559,9
3045072023505,54887.761170,0.792263302777,14.8617,0.067,0.15370899999999998,169,14.96,0.42464300000000005,200.97759,-45.99559,9
3045072023505,54995.418062,0.186462731566,14.9445,0.075,0.15370899999999998,169,14.96,0.42464300000000005,200.97759,-45.99559,9
3045072023505,54954.494825,0.948070705053,14.7269,0.072,0.15370899999999998,169,14.96,0.42464300000000005,200.97759,-45.99559,9
3045072023505,54954.503784,0.00635616655927,14.7728,0.072,0.15370899999999998,169,14.96,0.42464300000000005,200.97759,-45.99559,9
3045072023505,54954.512857,0.0653832892422,14.8515,0.074,0.15370899999999998,169,14.96,0.42464300000000005,200.97759,-45.99559,9
3045072023505,54954.521921,0.124351859733,14.9074,0.075,0.15370899999999998,169,14.96,0.42464300000000005,200.97759,-45.99559,9
3045072023505,54974.552598,0.439928696491,15.1013,0.068,0.15370899999999998,169,14.96,0.42464300000000005,200.97759,-45.99559,9
3045072023505,54974.563825,0.512969312142,15.0764,0.067,0.15370899999999998,169,14.96,0.42464300000000005,200.97759,-45.99559,9
3045072023505,54974.574986,0.58558054507,15.0893,0.068,0.15370899999999998,169,14.96,0.42464300000000005,200.97759,-45.99559,9
3045072023505,54974.586135,0.65811370837,15.0827,0.068,0.15370899999999998,169,14.96,0.42464300000000005,200.97759,-45.99559,9
3045072023505,55386.453705,0.186117924168,14.9246,0.086,0.15370899999999998,169,14.96,0.42464300000000005,200.97759,-45.99559,9
3045072023505,55265.753428,0.934265397664,14.7532,0.066,0.15370899999999998,169,14.96,0.42464300000000005,200.97759,-45.99559,9
3045072023505,55273.612225,0.0620262964512,14.8753,0.077,0.15370899999999998,169,14.96,0.42464300000000005,200.97759,-45.99559,9
3045072023505,55329.550418,0.98471787601,14.7352,0.074,0.15370899999999998,169,14.96,0.42464300000000005,200.97759,-45.99559,9
3045072023505,55329.577944,0.163796524634,14.971,0.078,0.15370899999999998,169,14.96,0.42464300000000005,200.97759,-45.99559,9
3045072023505,55714.500745,0.394524718809,15.0546,0.068,0.15370899999999998,169,14.96,0.42464300000000005,200.97759,-45.99559,9
3045072023505,55714.513400,0.476855616842,15.1273,0.069,0.15370899999999998,169,14.96,0.42464300000000005,200.97759,-45.99559,9
3045072023505,55714.526147,0.559785048361,15.155,0.070,0.15370899999999998,169,14.96,0.42464300000000005,200.97759,-45.99559,9
3045072023505,55714.538952,0.643091816397,15.1551,0.070,0.15370899999999998,169,14.96,0.42464300000000005,200.97759,-45.99559,9
3045072023505,55691.505135,0.789687005978,14.8478,0.068,0.15370899999999998,169,14.96,0.42464300000000005,200.97759,-45.99559,9
3045072023505,55691.515195,0.855135353224,14.7164,0.067,0.15370899999999998,169,14.96,0.42464300000000005,200.97759,-45.99559,9
3045072023505,55691.535536,0.987469829386,14.7822,0.067,0.15370899999999998,169,14.96,0.42464300000000005,200.97759,-45.99559,9
3045072023505,55744.439771,0.171837693313,14.962,0.070,0.15370899999999998,169,14.96,0.42464300000000005,200.97759,-45.99559,9
3045072023505,55744.449209,0.233239432971,14.9896,0.070,0.15370899999999998,169,14.96,0.42464300000000005,200.97759,-45.99559,9
3045072023505,55744.458696,0.294959956838,15.0549,0.071,0.15370899999999998,169,14.96,0.42464300000000005,200.97759,-45.99559,9
3045072023505,55744.468193,0.356745538709,15.0673,0.071,0.15370899999999998,169,14.96,0.42464300000000005,200.97759,-45.99559,9
3045072023505,55980.605892,0.621368950466,15.1578,0.070,0.15370899999999998,169,14.96,0.42464300000000005,200.97759,-45.99559,9
3045072023505,55980.617979,0.700004554121,15.1044,0.070,0.15370899999999998,169,14.96,0.42464300000000005,200.97759,-45.99559,9
3045072023505,55980.629939,0.777813921159,14.923,0.067,0.15370899999999998,169,14.96,0.42464300000000005,200.97759,-45.99559,9
3045072023505,55980.641940,0.855890026025,14.7987,0.066,0.15370899999999998,169,14.96,0.42464300000000005,200.97759,-45.99559,9
3045072023505,56011.594104,0.224476120493,14.9486,0.065,0.15370899999999998,169,14.96,0.42464300000000005,200.97759,-45.99559,9
3045072023505,56011.607550,0.311953106255,15.0054,0.065,0.15370899999999998,169,14.96,0.42464300000000005,200.97759,-45.99559,9
3045072023505,56011.621076,0.399950555991,15.0698,0.066,0.15370899999999998,169,14.96,0.42464300000000005,200.97759,-45.99559,9
3045072023505,56011.634620,0.488065110054,15.0763,0.067,0.15370899999999998,169,14.96,0.42464300000000005,200.97759,-45.99559,9
3045072023505,56033.630439,0.588462614454,15.0924,0.062,0.15370899999999998,169,14.96,0.42464300000000005,200.97759,-45.99559,9
3045072023505,56033.641736,0.661958636134,15.1124,0.062,0.15370899999999998,169,14.96,0.42464300000000005,200.97759,-45.99559,9
3045072023505,56033.653076,0.735734407266,15.0118,0.061,0.15370899999999998,169,14.96,0.42464300000000005,200.97759,-45.99559,9
3045072023505,56033.664367,0.809191394132,14.8521,0.060,0.15370899999999998,169,14.96,0.42464300000000005,200.97759,-45.99559,9
3045072023505,56046.630937,0.167101470986,14.8867,0.064,0.15370899999999998,169,14.96,0.42464300000000005,200.97759,-45.99559,9
3045072023505,56046.642931,0.245132035285,15.0186,0.065,0.15370899999999998,169,14.96,0.42464300000000005,200.97759,-45.99559,9
3045072023505,56046.655062,0.324053894088,15.0208,0.066,0.15370899999999998,169,14.96,0.42464300000000005,200.97759,-45.99559,9
3045072023505,56046.667184,0.402917200699,15.083,0.066,0.15370899999999998,169,14.96,0.42464300000000005,200.97759,-45.99559,9
3045072023505,56076.434446,0.0627679576864,14.844,0.065,0.15370899999999998,169,14.96,0.42464300000000005,200.97759,-45.99559,9
3045072023505,56076.447120,0.145222465857,14.9228,0.066,0.15370899999999998,169,14.96,0.42464300000000005,200.97759,-45.99559,9
3045072023505,56076.459784,0.227611916023,14.9582,0.066,0.15370899999999998,169,14.96,0.42464300000000005,200.97759,-45.99559,9
3045072023505,56076.472510,0.310404725838,15.0379,0.067,0.15370899999999998,169,14.96,0.42464300000000005,200.97759,-45.99559,9
3045072023505,56101.459736,0.872297653405,14.7172,0.063,0.15370899999999998,169,14.96,0.42464300000000005,200.97759,-45.99559,9
3045072023505,56101.472383,0.954576504999,14.7673,0.063,0.15370899999999998,169,14.96,0.42464300000000005,200.97759,-45.99559,9
3045072023505,56101.485111,0.0373823263799,14.7959,0.065,0.15370899999999998,169,14.96,0.42464300000000005,200.97759,-45.99559,9
3045072023505,56101.497928,0.120767163928,14.9034,0.066,0.15370899999999998,169,14.96,0.42464300000000005,200.97759,-45.99559,9
3045072023505,56368.686439,0.395760820771,15.0249,0.064,0.15370899999999998,169,14.96,0.42464300000000005,200.97759,-45.99559,9
3045072023505,56368.700026,0.484155124344,15.0806,0.065,0.15370899999999998,169,14.96,0.42464300000000005,200.97759,-45.99559,9
3045072023505,56368.713624,0.572620991676,15.1222,0.065,0.15370899999999998,169,14.96,0.42464300000000005,200.97759,-45.99559,9
3045072023505,56368.727288,0.661516241787,15.0877,0.065,0.15370899999999998,169,14.96,0.42464300000000005,200.97759,-45.99559,9
3045072023505,56391.659718,0.855317515612,14.6788,0.064,0.15370899999999998,169,14.96,0.42464300000000005,200.97759,-45.99559,9
3045072023505,56391.673449,0.944648654317,14.708,0.064,0.15370899999999998,169,14.96,0.42464300000000005,200.97759,-45.99559,9
3045072023505,56391.687285,0.0346629020059,14.7559,0.064,0.15370899999999998,169,14.96,0.42464300000000005,200.97759,-45.99559,9
3045072023505,56391.701203,0.125210625294,14.8878,0.066,0.15370899999999998,169,14.96,0.42464300000000005,200.97759,-45.99559,9
