ID,MjD,Phase,Mag,Mag_err,Period,Npts,V,Amp,ra,dec,Type
3053037060101,53714.686874,0.659456025518,15.9735,0.102,0.185744,150,15.913,0.243243,121.37393999999999,-53.19229,9
3053037060101,53714.695752,0.707252993365,15.9941,0.103,0.185744,150,15.913,0.243243,121.37393999999999,-53.19229,9
3053037060101,53714.704672,0.75527607894,15.968,0.102,0.185744,150,15.913,0.243243,121.37393999999999,-53.19229,9
3053037060101,53714.713625,0.803476828325,15.9974,0.103,0.185744,150,15.913,0.243243,121.37393999999999,-53.19229,9
3053037060101,53826.473225,0.489668576105,15.7942,0.087,0.185744,150,15.913,0.243243,121.37393999999999,-53.19229,9
3053037060101,53826.486958,0.56360366958,15.8529,0.088,0.185744,150,15.913,0.243243,121.37393999999999,-53.19229,9
3053037060101,53826.500671,0.637431087962,15.9307,0.091,0.185744,150,15.913,0.243243,121.37393999999999,-53.19229,9
3053037060101,53826.514406,0.711376948922,16.0024,0.093,0.185744,150,15.913,0.243243,121.37393999999999,-53.19229,9
3053037060101,53848.427421,0.685658756178,15.9354,0.090,0.185744,150,15.913,0.243243,121.37393999999999,-53.19229,9
3053037060101,53848.439542,0.750915238168,16.0846,0.094,0.185744,150,15.913,0.243243,121.37393999999999,-53.19229,9
3053037060101,53848.451717,0.816462442977,16.0647,0.094,0.185744,150,15.913,0.243243,121.37393999999999,-53.19229,9
3053037060101,53848.463914,0.882128090307,15.9802,0.092,0.185744,150,15.913,0.243243,121.37393999999999,-53.19229,9
3053037060101,54096.561523,0.578618959407,15.8641,0.119,0.185744,150,15.913,0.243243,121.37393999999999,-53.19229,9
3053037060101,53772.548613,0.17282388662,15.9154,0.115,0.185744,150,15.913,0.243243,121.37393999999999,-53.19229,9
3053037060101,53772.560799,0.238430312718,15.7994,0.111,0.185744,150,15.913,0.243243,121.37393999999999,-53.19229,9
3053037060101,53772.573008,0.30416056508,15.8701,0.114,0.185744,150,15.913,0.243243,121.37393999999999,-53.19229,9
3053037060101,53772.585170,0.369637781056,15.8396,0.112,0.185744,150,15.913,0.243243,121.37393999999999,-53.19229,9
3053037060101,53755.617199,0.0182563097915,15.9503,0.101,0.185744,150,15.913,0.243243,121.37393999999999,-53.19229,9
3053037060101,53757.689335,0.174126755155,15.7675,0.088,0.185744,150,15.913,0.243243,121.37393999999999,-53.19229,9
3053037060101,53757.702728,0.246231372177,15.79,0.089,0.185744,150,15.913,0.243243,121.37393999999999,-53.19229,9
3053037060101,53757.727152,0.377724179532,15.9322,0.093,0.185744,150,15.913,0.243243,121.37393999999999,-53.19229,9
3053037060101,53757.740566,0.449941855448,15.738,0.088,0.185744,150,15.913,0.243243,121.37393999999999,-53.19229,9
3053037060101,53814.471669,0.876243647188,15.9031,0.091,0.185744,150,15.913,0.243243,121.37393999999999,-53.19229,9
3053037060101,53814.477718,0.908809975022,15.9317,0.092,0.185744,150,15.913,0.243243,121.37393999999999,-53.19229,9
3053037060101,53814.483736,0.941209406534,15.8609,0.090,0.185744,150,15.913,0.243243,121.37393999999999,-53.19229,9
3053037060101,53814.489759,0.97363575676,15.9423,0.093,0.185744,150,15.913,0.243243,121.37393999999999,-53.19229,9
3053037060101,53879.395048,0.40774399176,15.7686,0.100,0.185744,150,15.913,0.243243,121.37393999999999,-53.19229,9
3053037060101,53879.401323,0.441527048009,15.8005,0.102,0.185744,150,15.913,0.243243,121.37393999999999,-53.19229,9
3053037060101,53879.407711,0.475918468437,15.7813,0.101,0.185744,150,15.913,0.243243,121.37393999999999,-53.19229,9
3053037060101,53879.413988,0.509712292172,15.7829,0.101,0.185744,150,15.913,0.243243,121.37393999999999,-53.19229,9
3053037060101,54055.670322,0.430452666013,15.8111,0.109,0.185744,150,15.913,0.243243,121.37393999999999,-53.19229,9
3053037060101,54055.677811,0.470771599619,15.8776,0.112,0.185744,150,15.913,0.243243,121.37393999999999,-53.19229,9
3053037060101,54055.685270,0.510929020587,15.7991,0.109,0.185744,150,15.913,0.243243,121.37393999999999,-53.19229,9
3053037060101,54055.692821,0.551581746899,15.8262,0.110,0.185744,150,15.913,0.243243,121.37393999999999,-53.19229,9
3053037060101,54063.649949,0.390801317932,15.7964,0.113,0.185744,150,15.913,0.243243,121.37393999999999,-53.19229,9
3053037060101,54063.657047,0.429015203728,15.7719,0.112,0.185744,150,15.913,0.243243,121.37393999999999,-53.19229,9
3053037060101,54015.732968,0.417563958967,15.8834,0.114,0.185744,150,15.913,0.243243,121.37393999999999,-53.19229,9
3053037060101,54015.738241,0.445952493756,15.8215,0.111,0.185744,150,15.913,0.243243,121.37393999999999,-53.19229,9
3053037060101,54015.743515,0.474346412288,15.8728,0.113,0.185744,150,15.913,0.243243,121.37393999999999,-53.19229,9
3053037060101,54015.748850,0.503068739781,15.8933,0.114,0.185744,150,15.913,0.243243,121.37393999999999,-53.19229,9
3053037060101,54464.672445,0.397261822713,15.8351,0.125,0.185744,150,15.913,0.243243,121.37393999999999,-53.19229,9
3053037060101,54464.683785,0.458313592942,15.8706,0.126,0.185744,150,15.913,0.243243,121.37393999999999,-53.19229,9
3053037060101,54464.695125,0.519365363056,15.8416,0.125,0.185744,150,15.913,0.243243,121.37393999999999,-53.19229,9
3053037060101,54464.706630,0.581305452681,16.0041,0.134,0.185744,150,15.913,0.243243,121.37393999999999,-53.19229,9
3053037060101,54131.550622,0.951320096501,16.0485,0.124,0.185744,150,15.913,0.243243,121.37393999999999,-53.19229,9
3053037060101,54131.559847,0.000985227001365,16.0169,0.122,0.185744,150,15.913,0.243243,121.37393999999999,-53.19229,9
3053037060101,54131.568988,0.0501981221605,15.9707,0.120,0.185744,150,15.913,0.243243,121.37393999999999,-53.19229,9
3053037060101,54131.578142,0.0994810060947,15.9572,0.119,0.185744,150,15.913,0.243243,121.37393999999999,-53.19229,9
3053037060101,54258.354248,0.63084675686,16.0125,0.107,0.185744,150,15.913,0.243243,121.37393999999999,-53.19229,9
3053037060101,54258.359767,0.660559695098,15.9405,0.105,0.185744,150,15.913,0.243243,121.37393999999999,-53.19229,9
3053037060101,54258.365308,0.690391075914,15.8649,0.103,0.185744,150,15.913,0.243243,121.37393999999999,-53.19229,9
3053037060101,54258.370804,0.719980187772,16.1025,0.133,0.185744,150,15.913,0.243243,121.37393999999999,-53.19229,9
3053037060101,54185.549054,0.66559350508,15.9956,0.104,0.185744,150,15.913,0.243243,121.37393999999999,-53.19229,9
3053037060101,54185.558968,0.718968042056,15.9399,0.103,0.185744,150,15.913,0.243243,121.37393999999999,-53.19229,9
3053037060101,54185.568866,0.77225643897,15.9774,0.104,0.185744,150,15.913,0.243243,121.37393999999999,-53.19229,9
3053037060101,54185.578775,0.825604057231,16.0616,0.108,0.185744,150,15.913,0.243243,121.37393999999999,-53.19229,9
3053037060101,54227.430540,0.145210612449,15.8668,0.101,0.185744,150,15.913,0.243243,121.37393999999999,-53.19229,9
3053037060101,54227.438769,0.189513524005,15.8531,0.100,0.185744,150,15.913,0.243243,121.37393999999999,-53.19229,9
3053037060101,54227.446990,0.2337733655,15.7589,0.098,0.185744,150,15.913,0.243243,121.37393999999999,-53.19229,9
3053037060101,54227.455210,0.278027823253,15.7563,0.098,0.185744,150,15.913,0.243243,121.37393999999999,-53.19229,9
3053037060101,54234.442331,0.894968343549,16.0807,0.128,0.185744,150,15.913,0.243243,121.37393999999999,-53.19229,9
3053037060101,54234.449357,0.932794599037,15.9869,0.124,0.185744,150,15.913,0.243243,121.37393999999999,-53.19229,9
3053037060101,54234.456366,0.97052933072,15.9345,0.121,0.185744,150,15.913,0.243243,121.37393999999999,-53.19229,9
3053037060101,54510.593570,0.625301490247,15.9224,0.097,0.185744,150,15.913,0.243243,121.37393999999999,-53.19229,9
3053037060101,54510.600392,0.662029459898,15.9225,0.097,0.185744,150,15.913,0.243243,121.37393999999999,-53.19229,9
3053037060101,54510.607162,0.698477474391,15.9811,0.099,0.185744,150,15.913,0.243243,121.37393999999999,-53.19229,9
3053037060101,54510.613968,0.735119303979,16.0726,0.102,0.185744,150,15.913,0.243243,121.37393999999999,-53.19229,9
3053037060101,54475.670492,0.608041174943,15.9988,0.119,0.185744,150,15.913,0.243243,121.37393999999999,-53.19229,9
3053037060101,54475.680217,0.660398182459,15.9843,0.118,0.185744,150,15.913,0.243243,121.37393999999999,-53.19229,9
3053037060101,54475.689964,0.712873632496,16.1004,0.123,0.185744,150,15.913,0.243243,121.37393999999999,-53.19229,9
3053037060101,54475.699778,0.765709794126,15.9852,0.118,0.185744,150,15.913,0.243243,121.37393999999999,-53.19229,9
3053037060101,54596.415892,0.671569471946,16.0125,0.104,0.185744,150,15.913,0.243243,121.37393999999999,-53.19229,9
3053037060101,54596.425157,0.721449952631,16.0389,0.106,0.185744,150,15.913,0.243243,121.37393999999999,-53.19229,9
3053037060101,54596.434449,0.771475794667,15.9633,0.103,0.185744,150,15.913,0.243243,121.37393999999999,-53.19229,9
3053037060101,54596.443733,0.821458566643,16.0052,0.104,0.185744,150,15.913,0.243243,121.37393999999999,-53.19229,9
3053037060101,54617.354931,0.40220410889,15.8966,0.087,0.185744,150,15.913,0.243243,121.37393999999999,-53.19229,9
3053037060101,54617.361454,0.437322336133,15.8976,0.087,0.185744,150,15.913,0.243243,121.37393999999999,-53.19229,9
3053037060101,54758.723736,0.497071237827,15.9435,0.114,0.185744,150,15.913,0.243243,121.37393999999999,-53.19229,9
3053037060101,54758.731445,0.538574597274,16.0558,0.119,0.185744,150,15.913,0.243243,121.37393999999999,-53.19229,9
3053037060101,54758.739059,0.57956650015,15.9547,0.115,0.185744,150,15.913,0.243243,121.37393999999999,-53.19229,9
3053037060101,54758.746716,0.62078990438,15.9814,0.115,0.185744,150,15.913,0.243243,121.37393999999999,-53.19229,9
3053037060101,54926.505322,0.791853303497,16.0873,0.088,0.185744,150,15.913,0.243243,121.37393999999999,-53.19229,9
3053037060101,54926.513124,0.83385735203,16.0986,0.088,0.185744,150,15.913,0.243243,121.37393999999999,-53.19229,9
3053037060101,54926.520920,0.875829098164,16.028,0.086,0.185744,150,15.913,0.243243,121.37393999999999,-53.19229,9
3053037060101,54926.528727,0.91786006547,15.9941,0.085,0.185744,150,15.913,0.243243,121.37393999999999,-53.19229,9
3053037060101,54929.517545,0.00892088038381,15.9569,0.133,0.185744,150,15.913,0.243243,121.37393999999999,-53.19229,9
3053037060101,54929.523947,0.0433876733878,15.9872,0.134,0.185744,150,15.913,0.243243,121.37393999999999,-53.19229,9
3053037060101,54929.530369,0.0779621414258,15.9986,0.135,0.185744,150,15.913,0.243243,121.37393999999999,-53.19229,9
3053037060101,55188.706685,0.419485959166,15.9037,0.091,0.185744,150,15.913,0.243243,121.37393999999999,-53.19229,9
3053037060101,55188.713248,0.454819536593,15.8833,0.092,0.185744,150,15.913,0.243243,121.37393999999999,-53.19229,9
3053037060101,55188.719807,0.49013157899,15.8837,0.094,0.185744,150,15.913,0.243243,121.37393999999999,-53.19229,9
3053037060101,55188.726287,0.525018304761,15.9141,0.092,0.185744,150,15.913,0.243243,121.37393999999999,-53.19229,9
3053037060101,54889.572303,0.953565121919,15.955,0.106,0.185744,150,15.913,0.243243,121.37393999999999,-53.19229,9
3053037060101,54889.580469,0.997528856911,15.9888,0.107,0.185744,150,15.913,0.243243,121.37393999999999,-53.19229,9
3053037060101,54889.588650,0.0415733482805,15.9295,0.105,0.185744,150,15.913,0.243243,121.37393999999999,-53.19229,9
3053037060101,54889.596832,0.0856232233928,15.8937,0.104,0.185744,150,15.913,0.243243,121.37393999999999,-53.19229,9
3053037060101,54836.728302,0.454464208859,15.8442,0.089,0.185744,150,15.913,0.243243,121.37393999999999,-53.19229,9
3053037060101,54836.732103,0.474927857693,15.8837,0.089,0.185744,150,15.913,0.243243,121.37393999999999,-53.19229,9
3053037060101,54836.735912,0.495434576587,15.8695,0.089,0.185744,150,15.913,0.243243,121.37393999999999,-53.19229,9
3053037060101,54836.739713,0.515898225538,15.9192,0.090,0.185744,150,15.913,0.243243,121.37393999999999,-53.19229,9
3053037060101,54855.695361,0.568443664408,16.0154,0.094,0.185744,150,15.913,0.243243,121.37393999999999,-53.19229,9
3053037060101,54855.701837,0.603308855207,15.8828,0.091,0.185744,150,15.913,0.243243,121.37393999999999,-53.19229,9
3053037060101,54855.708332,0.638276337355,15.9692,0.096,0.185744,150,15.913,0.243243,121.37393999999999,-53.19229,9
3053037060101,54855.714843,0.673329959507,16.0203,0.094,0.185744,150,15.913,0.243243,121.37393999999999,-53.19229,9
3053037060101,54909.482792,0.146739598596,15.8347,0.103,0.185744,150,15.913,0.243243,121.37393999999999,-53.19229,9
3053037060101,54909.490968,0.190757171134,15.8207,0.103,0.185744,150,15.913,0.243243,121.37393999999999,-53.19229,9
3053037060101,54909.499182,0.234979326371,15.8549,0.104,0.185744,150,15.913,0.243243,121.37393999999999,-53.19229,9
3053037060101,54909.507381,0.279120725347,15.7939,0.102,0.185744,150,15.913,0.243243,121.37393999999999,-53.19229,9
3053037060101,54954.401938,0.980370833015,15.9609,0.108,0.185744,150,15.913,0.243243,121.37393999999999,-53.19229,9
3053037060101,54954.410924,0.0287492463249,15.9502,0.108,0.185744,150,15.913,0.243243,121.37393999999999,-53.19229,9
3053037060101,54954.419778,0.0764170040493,15.9518,0.108,0.185744,150,15.913,0.243243,121.37393999999999,-53.19229,9
3053037060101,54954.428636,0.124106296862,15.9229,0.107,0.185744,150,15.913,0.243243,121.37393999999999,-53.19229,9
3053037060101,54975.363967,0.834777974,15.9117,0.095,0.185744,150,15.913,0.243243,121.37393999999999,-53.19229,9
3053037060101,54975.368230,0.85772891721,16.0039,0.098,0.185744,150,15.913,0.243243,121.37393999999999,-53.19229,9
3053037060101,54975.372523,0.880841373059,16.0181,0.099,0.185744,150,15.913,0.243243,121.37393999999999,-53.19229,9
3053037060101,54975.376788,0.903803083813,16.1108,0.100,0.185744,150,15.913,0.243243,121.37393999999999,-53.19229,9
3053037060101,55126.680231,0.484317124647,15.9273,0.097,0.185744,150,15.913,0.243243,121.37393999999999,-53.19229,9
3053037060101,55126.690370,0.538903006294,15.9095,0.092,0.185744,150,15.913,0.243243,121.37393999999999,-53.19229,9
3053037060101,55126.700594,0.593946507026,15.9797,0.094,0.185744,150,15.913,0.243243,121.37393999999999,-53.19229,9
3053037060101,55126.710943,0.649662977026,15.9374,0.093,0.185744,150,15.913,0.243243,121.37393999999999,-53.19229,9
3053037060101,55542.691325,0.18570182618,15.8395,0.106,0.185744,150,15.913,0.243243,121.37393999999999,-53.19229,9
3053037060101,55542.727697,0.38151972607,15.8595,0.108,0.185744,150,15.913,0.243243,121.37393999999999,-53.19229,9
3053037060101,55250.567681,0.463869627041,15.8629,0.086,0.185744,150,15.913,0.243243,121.37393999999999,-53.19229,9
3053037060101,55275.498209,0.683699069661,15.9549,0.115,0.185744,150,15.913,0.243243,121.37393999999999,-53.19229,9
3053037060101,55331.432164,0.818352140603,16.0009,0.099,0.185744,150,15.913,0.243243,121.37393999999999,-53.19229,9
3053037060101,55331.453401,0.932686923945,16.0128,0.100,0.185744,150,15.913,0.243243,121.37393999999999,-53.19229,9
3053037060101,55662.439790,0.881977345154,16.0845,0.118,0.185744,150,15.913,0.243243,121.37393999999999,-53.19229,9
3053037060101,55662.463966,0.0121349815163,15.9224,0.109,0.185744,150,15.913,0.243243,121.37393999999999,-53.19229,9
3053037060101,55678.467198,0.169599018001,15.86,0.086,0.185744,150,15.913,0.243243,121.37393999999999,-53.19229,9
3053037060101,55678.484181,0.261031311937,15.8003,0.085,0.185744,150,15.913,0.243243,121.37393999999999,-53.19229,9
3053037060101,55596.551569,0.156005039229,15.8829,0.094,0.185744,150,15.913,0.243243,121.37393999999999,-53.19229,9
3053037060101,55596.581693,0.318185244221,15.8304,0.094,0.185744,150,15.913,0.243243,121.37393999999999,-53.19229,9
3053037060101,55627.526952,0.919846670702,16.0514,0.100,0.185744,150,15.913,0.243243,121.37393999999999,-53.19229,9
3053037060101,55627.569595,0.14942609187,15.8899,0.094,0.185744,150,15.913,0.243243,121.37393999999999,-53.19229,9
3053037060101,56299.656173,0.498217977467,15.8606,0.085,0.185744,150,15.913,0.243243,121.37393999999999,-53.19229,9
3053037060101,56299.669971,0.572503014933,15.9233,0.087,0.185744,150,15.913,0.243243,121.37393999999999,-53.19229,9
3053037060101,56299.683879,0.647380265291,15.8903,0.086,0.185744,150,15.913,0.243243,121.37393999999999,-53.19229,9
3053037060101,56299.697621,0.721363812569,15.934,0.088,0.185744,150,15.913,0.243243,121.37393999999999,-53.19229,9
3053037060101,56363.560204,0.541799465951,15.8884,0.087,0.185744,150,15.913,0.243243,121.37393999999999,-53.19229,9
3053037060101,56363.572085,0.605763847008,15.9742,0.090,0.185744,150,15.913,0.243243,121.37393999999999,-53.19229,9
3053037060101,56363.583962,0.669706693094,15.8832,0.088,0.185744,150,15.913,0.243243,121.37393999999999,-53.19229,9
3053037060101,56363.595890,0.733924110595,15.9423,0.090,0.185744,150,15.913,0.243243,121.37393999999999,-53.19229,9
3053037060101,56393.469718,0.56726462231,15.8754,0.086,0.185744,150,15.913,0.243243,121.37393999999999,-53.19229,9
3053037060101,56393.481790,0.632257300371,15.8712,0.086,0.185744,150,15.913,0.243243,121.37393999999999,-53.19229,9
3053037060101,56393.493979,0.697879877698,15.9914,0.090,0.185744,150,15.913,0.243243,121.37393999999999,-53.19229,9
3053037060101,56393.505858,0.761833491269,15.9988,0.089,0.185744,150,15.913,0.243243,121.37393999999999,-53.19229,9
3053037060101,56426.382370,0.760885950585,15.9208,0.086,0.185744,150,15.913,0.243243,121.37393999999999,-53.19229,9
3053037060101,56426.390205,0.803067663044,16.0319,0.089,0.185744,150,15.913,0.243243,121.37393999999999,-53.19229,9
3053037060101,56426.398100,0.845572400722,16.0669,0.090,0.185744,150,15.913,0.243243,121.37393999999999,-53.19229,9
3053037060101,56426.405982,0.888007149624,16.0329,0.089,0.185744,150,15.913,0.243243,121.37393999999999,-53.19229,9
