ID,MjD,Phase,Mag,Mag_err,Period,Npts,V,Amp,ra,dec,Type
3053034060979,53714.688520,0.968589418801,13.0058,0.056,0.13817000000000002,221,12.838,0.404999,110.27056,-52.60063,9
3053034060979,53714.697411,0.0329376854352,13.0079,0.056,0.13817000000000002,221,12.838,0.404999,110.27056,-52.60063,9
3053034060979,53714.706308,0.0973293767893,12.9488,0.056,0.13817000000000002,221,12.838,0.404999,110.27056,-52.60063,9
3053034060979,53714.715268,0.162177028251,12.825,0.055,0.13817000000000002,221,12.838,0.404999,110.27056,-52.60063,9
3053034060979,53729.646820,0.22870377067,12.673,0.056,0.13817000000000002,221,12.838,0.404999,110.27056,-52.60063,9
3053034060979,53729.655808,0.293754071055,12.6144,0.056,0.13817000000000002,221,12.838,0.404999,110.27056,-52.60063,9
3053034060979,53729.664795,0.3587971339,12.6401,0.056,0.13817000000000002,221,12.838,0.404999,110.27056,-52.60063,9
3053034060979,53729.673754,0.423637547938,12.7224,0.056,0.13817000000000002,221,12.838,0.404999,110.27056,-52.60063,9
3053034060979,53833.455314,0.538640804763,12.8053,0.054,0.13817000000000002,221,12.838,0.404999,110.27056,-52.60063,9
3053034060979,53833.466921,0.62264601572,12.7582,0.054,0.13817000000000002,221,12.838,0.404999,110.27056,-52.60063,9
3053034060979,53833.478556,0.706853875658,12.871,0.054,0.13817000000000002,221,12.838,0.404999,110.27056,-52.60063,9
3053034060979,53833.490204,0.791155822517,12.9104,0.054,0.13817000000000002,221,12.838,0.404999,110.27056,-52.60063,9
3053034060979,53848.421966,0.859202431748,12.9889,0.055,0.13817000000000002,221,12.838,0.404999,110.27056,-52.60063,9
3053034060979,53848.434113,0.947115871706,12.998,0.055,0.13817000000000002,221,12.838,0.404999,110.27056,-52.60063,9
3053034060979,53848.446254,0.0349858869449,13.0205,0.055,0.13817000000000002,221,12.838,0.404999,110.27056,-52.60063,9
3053034060979,53848.458447,0.123232250044,12.9268,0.054,0.13817000000000002,221,12.838,0.404999,110.27056,-52.60063,9
3053034060979,54096.560200,0.750018093619,12.9304,0.058,0.13817000000000002,221,12.838,0.404999,110.27056,-52.60063,9
3053034060979,54096.569054,0.814098574163,12.9704,0.059,0.13817000000000002,221,12.838,0.404999,110.27056,-52.60063,9
3053034060979,54096.577839,0.877679669939,12.972,0.059,0.13817000000000002,221,12.838,0.404999,110.27056,-52.60063,9
3053034060979,54096.586640,0.941376565082,13.006,0.059,0.13817000000000002,221,12.838,0.404999,110.27056,-52.60063,9
3053034060979,53772.541294,0.675790692621,12.9274,0.058,0.13817000000000002,221,12.838,0.404999,110.27056,-52.60063,9
3053034060979,53772.553525,0.764312079293,12.981,0.058,0.13817000000000002,221,12.838,0.404999,110.27056,-52.60063,9
3053034060979,53772.565729,0.852638054523,13.0095,0.058,0.13817000000000002,221,12.838,0.404999,110.27056,-52.60063,9
3053034060979,53772.577944,0.941043641826,13.0349,0.058,0.13817000000000002,221,12.838,0.404999,110.27056,-52.60063,9
3053034060979,53757.680016,0.117869291396,12.9157,0.055,0.13817000000000002,221,12.838,0.404999,110.27056,-52.60063,9
3053034060979,53757.693459,0.215162480948,12.6984,0.054,0.13817000000000002,221,12.838,0.404999,110.27056,-52.60063,9
3053034060979,53757.706866,0.312195121893,12.6396,0.054,0.13817000000000002,221,12.838,0.404999,110.27056,-52.60063,9
3053034060979,53757.731292,0.488977346686,12.7614,0.054,0.13817000000000002,221,12.838,0.404999,110.27056,-52.60063,9
3053034060979,53817.485410,0.957081855624,13.0148,0.056,0.13817000000000002,221,12.838,0.404999,110.27056,-52.60063,9
3053034060979,53817.492398,0.00765723380027,13.0143,0.056,0.13817000000000002,221,12.838,0.404999,110.27056,-52.60063,9
3053034060979,53817.499372,0.0581312875147,12.9998,0.056,0.13817000000000002,221,12.838,0.404999,110.27056,-52.60063,9
3053034060979,53817.506342,0.108576391358,12.9414,0.056,0.13817000000000002,221,12.838,0.404999,110.27056,-52.60063,9
3053034060979,53876.384349,0.235861619702,12.6501,0.055,0.13817000000000002,221,12.838,0.404999,110.27056,-52.60063,9
3053034060979,53876.391481,0.287479192251,12.6058,0.055,0.13817000000000002,221,12.838,0.404999,110.27056,-52.60063,9
3053034060979,53876.398635,0.339255988947,12.6571,0.055,0.13817000000000002,221,12.838,0.404999,110.27056,-52.60063,9
3053034060979,53876.405801,0.391119635198,12.7234,0.055,0.13817000000000002,221,12.838,0.404999,110.27056,-52.60063,9
3053034060979,54052.700773,0.319121372129,12.6181,0.056,0.13817000000000002,221,12.838,0.404999,110.27056,-52.60063,9
3053034060979,54052.711323,0.395476586767,12.6973,0.056,0.13817000000000002,221,12.838,0.404999,110.27056,-52.60063,9
3053034060979,54052.721802,0.471317941614,12.7441,0.056,0.13817000000000002,221,12.838,0.404999,110.27056,-52.60063,9
3053034060979,54052.732251,0.54694217263,12.7353,0.056,0.13817000000000002,221,12.838,0.404999,110.27056,-52.60063,9
3053034060979,54062.591520,0.903018021258,12.9985,0.056,0.13817000000000002,221,12.838,0.404999,110.27056,-52.60063,9
3053034060979,54062.604672,0.998205109616,13.0143,0.056,0.13817000000000002,221,12.838,0.404999,110.27056,-52.60063,9
3053034060979,54062.617841,0.0935152348247,12.9288,0.055,0.13817000000000002,221,12.838,0.404999,110.27056,-52.60063,9
3053034060979,54062.631138,0.189751755039,12.7466,0.055,0.13817000000000002,221,12.838,0.404999,110.27056,-52.60063,9
3053034060979,54014.744207,0.609951508988,12.9803,0.059,0.13817000000000002,221,12.838,0.404999,110.27056,-52.60063,9
3053034060979,54014.751696,0.664152855112,12.8896,0.057,0.13817000000000002,221,12.838,0.404999,110.27056,-52.60063,9
3053034060979,54014.759248,0.718810161343,12.8971,0.058,0.13817000000000002,221,12.838,0.404999,110.27056,-52.60063,9
3053034060979,54014.766767,0.773228631355,12.9482,0.057,0.13817000000000002,221,12.838,0.404999,110.27056,-52.60063,9
3053034060979,54201.481902,0.116754722374,12.8935,0.056,0.13817000000000002,221,12.838,0.404999,110.27056,-52.60063,9
3053034060979,54201.490592,0.179648259364,12.757,0.055,0.13817000000000002,221,12.838,0.404999,110.27056,-52.60063,9
3053034060979,54201.499273,0.242476659128,12.6195,0.055,0.13817000000000002,221,12.838,0.404999,110.27056,-52.60063,9
3053034060979,54201.507936,0.305174784677,12.6072,0.055,0.13817000000000002,221,12.838,0.404999,110.27056,-52.60063,9
3053034060979,54463.596689,0.162329014915,12.7906,0.057,0.13817000000000002,221,12.838,0.404999,110.27056,-52.60063,9
3053034060979,54463.606520,0.233480494993,12.6202,0.056,0.13817000000000002,221,12.838,0.404999,110.27056,-52.60063,9
3053034060979,54463.616342,0.304566837905,12.6002,0.056,0.13817000000000002,221,12.838,0.404999,110.27056,-52.60063,9
3053034060979,54463.626205,0.375949916721,12.6787,0.056,0.13817000000000002,221,12.838,0.404999,110.27056,-52.60063,9
3053034060979,54139.626413,0.440059347136,12.7103,0.055,0.13817000000000002,221,12.838,0.404999,110.27056,-52.60063,9
3053034060979,54139.632951,0.487377867801,12.7866,0.055,0.13817000000000002,221,12.838,0.404999,110.27056,-52.60063,9
3053034060979,54139.639541,0.535072736442,12.8342,0.056,0.13817000000000002,221,12.838,0.404999,110.27056,-52.60063,9
3053034060979,54139.646107,0.582593906031,12.8449,0.056,0.13817000000000002,221,12.838,0.404999,110.27056,-52.60063,9
3053034060979,54110.691484,0.0246363175684,13.0146,0.056,0.13817000000000002,221,12.838,0.404999,110.27056,-52.60063,9
3053034060979,54110.704644,0.119881305553,12.9042,0.056,0.13817000000000002,221,12.838,0.404999,110.27056,-52.60063,9
3053034060979,54110.717948,0.216168488027,12.6874,0.055,0.13817000000000002,221,12.838,0.404999,110.27056,-52.60063,9
3053034060979,54110.731081,0.311218064628,12.6342,0.055,0.13817000000000002,221,12.838,0.404999,110.27056,-52.60063,9
3053034060979,54120.542986,0.3244988058,12.5928,0.054,0.13817000000000002,221,12.838,0.404999,110.27056,-52.60063,9
3053034060979,54120.556084,0.419295071275,12.6802,0.055,0.13817000000000002,221,12.838,0.404999,110.27056,-52.60063,9
3053034060979,54120.569169,0.513997249713,12.7509,0.055,0.13817000000000002,221,12.838,0.404999,110.27056,-52.60063,9
3053034060979,54120.582259,0.608735615504,12.8535,0.055,0.13817000000000002,221,12.838,0.404999,110.27056,-52.60063,9
3053034060979,54172.547255,0.703372656833,12.8908,0.056,0.13817000000000002,221,12.838,0.404999,110.27056,-52.60063,9
3053034060979,54172.557125,0.774806397851,12.922,0.056,0.13817000000000002,221,12.838,0.404999,110.27056,-52.60063,9
3053034060979,54172.566994,0.846232901444,12.9523,0.056,0.13817000000000002,221,12.838,0.404999,110.27056,-52.60063,9
3053034060979,54172.576836,0.917463993595,12.9846,0.056,0.13817000000000002,221,12.838,0.404999,110.27056,-52.60063,9
3053034060979,54186.473834,0.496446406527,12.7591,0.057,0.13817000000000002,221,12.838,0.404999,110.27056,-52.60063,9
3053034060979,54186.482603,0.559911702934,12.7969,0.057,0.13817000000000002,221,12.838,0.404999,110.27056,-52.60063,9
3053034060979,54186.491320,0.623000651365,12.8324,0.057,0.13817000000000002,221,12.838,0.404999,110.27056,-52.60063,9
3053034060979,54186.500027,0.686017225147,12.8764,0.058,0.13817000000000002,221,12.838,0.404999,110.27056,-52.60063,9
3053034060979,54232.378669,0.730903958844,12.9128,0.059,0.13817000000000002,221,12.838,0.404999,110.27056,-52.60063,9
3053034060979,54232.383563,0.766324093507,12.9257,0.061,0.13817000000000002,221,12.838,0.404999,110.27056,-52.60063,9
3053034060979,54232.388440,0.801621191262,13.1719,0.067,0.13817000000000002,221,12.838,0.404999,110.27056,-52.60063,9
3053034060979,54232.393327,0.836990663607,12.9501,0.060,0.13817000000000002,221,12.838,0.404999,110.27056,-52.60063,9
3053034060979,54418.654453,0.894644278742,12.9848,0.056,0.13817000000000002,221,12.838,0.404999,110.27056,-52.60063,9
3053034060979,54418.667661,0.990236664948,12.9812,0.056,0.13817000000000002,221,12.838,0.404999,110.27056,-52.60063,9
3053034060979,54418.680789,0.0852500542533,12.9052,0.055,0.13817000000000002,221,12.838,0.404999,110.27056,-52.60063,9
3053034060979,54418.693902,0.180154881615,12.7358,0.055,0.13817000000000002,221,12.838,0.404999,110.27056,-52.60063,9
3053034060979,54382.745261,0.00326409487752,12.9654,0.058,0.13817000000000002,221,12.838,0.404999,110.27056,-52.60063,9
3053034060979,54382.753361,0.0618875298533,12.9911,0.058,0.13817000000000002,221,12.838,0.404999,110.27056,-52.60063,9
3053034060979,54382.761451,0.120438590064,12.878,0.057,0.13817000000000002,221,12.838,0.404999,110.27056,-52.60063,9
3053034060979,54382.769564,0.179156112019,12.7851,0.057,0.13817000000000002,221,12.838,0.404999,110.27056,-52.60063,9
3053034060979,54365.711236,0.720170804067,12.8495,0.057,0.13817000000000002,221,12.838,0.404999,110.27056,-52.60063,9
3053034060979,54365.721962,0.797799811815,12.9399,0.058,0.13817000000000002,221,12.838,0.404999,110.27056,-52.60063,9
3053034060979,54365.732664,0.875255120452,12.9819,0.058,0.13817000000000002,221,12.838,0.404999,110.27056,-52.60063,9
3053034060979,54365.743365,0.952703191666,13.0134,0.058,0.13817000000000002,221,12.838,0.404999,110.27056,-52.60063,9
3053034060979,54817.542409,0.830708547437,12.6256,0.062,0.13817000000000002,221,12.838,0.404999,110.27056,-52.60063,9
3053034060979,54817.558610,0.947962654638,12.9754,0.057,0.13817000000000002,221,12.838,0.404999,110.27056,-52.60063,9
3053034060979,54817.565773,0.9998045885,12.995,0.057,0.13817000000000002,221,12.838,0.404999,110.27056,-52.60063,9
3053034060979,54817.571714,0.0428023448912,12.9697,0.057,0.13817000000000002,221,12.838,0.404999,110.27056,-52.60063,9
3053034060979,54501.596161,0.182029384072,12.6993,0.055,0.13817000000000002,221,12.838,0.404999,110.27056,-52.60063,9
3053034060979,54501.600512,0.213519577286,12.6365,0.055,0.13817000000000002,221,12.838,0.404999,110.27056,-52.60063,9
3053034060979,54501.604889,0.245197944518,12.6113,0.055,0.13817000000000002,221,12.838,0.404999,110.27056,-52.60063,9
3053034060979,54501.609246,0.27673156251,12.6076,0.055,0.13817000000000002,221,12.838,0.404999,110.27056,-52.60063,9
3053034060979,54529.589448,0.782355069765,12.916,0.054,0.13817000000000002,221,12.838,0.404999,110.27056,-52.60063,9
3053034060979,54529.600232,0.860403850267,12.9539,0.054,0.13817000000000002,221,12.838,0.404999,110.27056,-52.60063,9
3053034060979,54529.611003,0.93835854379,12.9729,0.055,0.13817000000000002,221,12.838,0.404999,110.27056,-52.60063,9
3053034060979,54529.621779,0.0163494246081,12.9797,0.055,0.13817000000000002,221,12.838,0.404999,110.27056,-52.60063,9
3053034060979,54588.397953,0.406622276874,12.6763,0.053,0.13817000000000002,221,12.838,0.404999,110.27056,-52.60063,9
3053034060979,54588.407840,0.478179054742,12.7341,0.054,0.13817000000000002,221,12.838,0.404999,110.27056,-52.60063,9
3053034060979,54588.417694,0.549496996449,12.7867,0.054,0.13817000000000002,221,12.838,0.404999,110.27056,-52.60063,9
3053034060979,54588.427548,0.620814938098,12.8214,0.054,0.13817000000000002,221,12.838,0.404999,110.27056,-52.60063,9
3053034060979,54602.387280,0.653832235606,12.875,0.056,0.13817000000000002,221,12.838,0.404999,110.27056,-52.60063,9
3053034060979,54602.394935,0.709235000308,12.9046,0.056,0.13817000000000002,221,12.838,0.404999,110.27056,-52.60063,9
3053034060979,54602.402569,0.764485778345,12.9338,0.056,0.13817000000000002,221,12.838,0.404999,110.27056,-52.60063,9
3053034060979,54602.410227,0.819910255435,12.9435,0.056,0.13817000000000002,221,12.838,0.404999,110.27056,-52.60063,9
3053034060979,54615.356143,0.515473691747,12.755,0.054,0.13817000000000002,221,12.838,0.404999,110.27056,-52.60063,9
3053034060979,54615.363147,0.566164869291,12.7944,0.054,0.13817000000000002,221,12.838,0.404999,110.27056,-52.60063,9
3053034060979,54615.370329,0.618144314911,12.8406,0.054,0.13817000000000002,221,12.838,0.404999,110.27056,-52.60063,9
3053034060979,54615.377677,0.67132517905,12.86,0.054,0.13817000000000002,221,12.838,0.404999,110.27056,-52.60063,9
3053034060979,54758.669503,0.740341608122,12.9102,0.057,0.13817000000000002,221,12.838,0.404999,110.27056,-52.60063,9
3053034060979,54758.679764,0.814605196472,12.9366,0.058,0.13817000000000002,221,12.838,0.404999,110.27056,-52.60063,9
3053034060979,54758.690097,0.889389881981,12.9768,0.058,0.13817000000000002,221,12.838,0.404999,110.27056,-52.60063,9
3053034060979,54758.700348,0.963581095682,13.005,0.058,0.13817000000000002,221,12.838,0.404999,110.27056,-52.60063,9
3053034060979,54927.484232,0.530375624192,12.7924,0.054,0.13817000000000002,221,12.838,0.404999,110.27056,-52.60063,9
3053034060979,54927.493920,0.600492147321,12.8466,0.054,0.13817000000000002,221,12.838,0.404999,110.27056,-52.60063,9
3053034060979,54927.503619,0.670688282524,12.8715,0.054,0.13817000000000002,221,12.838,0.404999,110.27056,-52.60063,9
3053034060979,54927.513326,0.74094231741,12.9048,0.055,0.13817000000000002,221,12.838,0.404999,110.27056,-52.60063,9
3053034060979,54929.484570,0.00774408335565,12.9967,0.060,0.13817000000000002,221,12.838,0.404999,110.27056,-52.60063,9
3053034060979,54929.492679,0.0664326553815,12.9699,0.060,0.13817000000000002,221,12.838,0.404999,110.27056,-52.60063,9
3053034060979,54929.500749,0.124838966411,12.8664,0.059,0.13817000000000002,221,12.838,0.404999,110.27056,-52.60063,9
3053034060979,54929.508821,0.183259752463,12.7027,0.058,0.13817000000000002,221,12.838,0.404999,110.27056,-52.60063,9
3053034060979,54944.438501,0.236237967678,12.598,0.053,0.13817000000000002,221,12.838,0.404999,110.27056,-52.60063,9
3053034060979,54944.446565,0.294600853988,12.5808,0.053,0.13817000000000002,221,12.838,0.404999,110.27056,-52.60063,9
3053034060979,54944.454632,0.352985452686,12.6637,0.054,0.13817000000000002,221,12.838,0.404999,110.27056,-52.60063,9
3053034060979,54944.462701,0.411384526233,12.7202,0.054,0.13817000000000002,221,12.838,0.404999,110.27056,-52.60063,9
3053034060979,55188.671339,0.861902004748,12.9609,0.057,0.13817000000000002,221,12.838,0.404999,110.27056,-52.60063,9
3053034060979,55188.680270,0.926539769804,12.9806,0.057,0.13817000000000002,221,12.838,0.404999,110.27056,-52.60063,9
3053034060979,55188.689197,0.991148585046,12.9945,0.057,0.13817000000000002,221,12.838,0.404999,110.27056,-52.60063,9
3053034060979,55188.698117,0.0557067380287,12.9323,0.056,0.13817000000000002,221,12.838,0.404999,110.27056,-52.60063,9
3053034060979,54888.439633,0.946609249455,12.9978,0.057,0.13817000000000002,221,12.838,0.404999,110.27056,-52.60063,9
3053034060979,54888.446077,0.993247448758,12.9945,0.057,0.13817000000000002,221,12.838,0.404999,110.27056,-52.60063,9
3053034060979,54888.452548,0.040081059502,12.9506,0.057,0.13817000000000002,221,12.838,0.404999,110.27056,-52.60063,9
3053034060979,54888.459007,0.086827820749,12.9207,0.056,0.13817000000000002,221,12.838,0.404999,110.27056,-52.60063,9
3053034060979,54836.725066,0.664442353591,12.8376,0.054,0.13817000000000002,221,12.838,0.404999,110.27056,-52.60063,9
3053034060979,54836.728887,0.692096692394,12.867,0.054,0.13817000000000002,221,12.838,0.404999,110.27056,-52.60063,9
3053034060979,54836.732686,0.719591807167,12.8921,0.054,0.13817000000000002,221,12.838,0.404999,110.27056,-52.60063,9
3053034060979,54836.736498,0.747181008861,12.916,0.054,0.13817000000000002,221,12.838,0.404999,110.27056,-52.60063,9
3053034060979,54857.667656,0.235622783483,12.5672,0.053,0.13817000000000002,221,12.838,0.404999,110.27056,-52.60063,9
3053034060979,54857.678425,0.313563002041,12.6008,0.054,0.13817000000000002,221,12.838,0.404999,110.27056,-52.60063,9
3053034060979,54857.689176,0.391372946324,12.672,0.054,0.13817000000000002,221,12.838,0.404999,110.27056,-52.60063,9
3053034060979,54857.699960,0.469421726826,12.7329,0.054,0.13817000000000002,221,12.838,0.404999,110.27056,-52.60063,9
3053034060979,54909.446279,0.981392487476,12.9587,0.057,0.13817000000000002,221,12.838,0.404999,110.27056,-52.60063,9
3053034060979,54909.453921,0.0367011651979,12.9438,0.056,0.13817000000000002,221,12.838,0.404999,110.27056,-52.60063,9
3053034060979,54909.461534,0.0917999565718,12.8917,0.056,0.13817000000000002,221,12.838,0.404999,110.27056,-52.60063,9
3053034060979,54909.469176,0.147108634235,12.7714,0.056,0.13817000000000002,221,12.838,0.404999,110.27056,-52.60063,9
3053034060979,54977.393946,0.749989143747,12.8852,0.057,0.13817000000000002,221,12.838,0.404999,110.27056,-52.60063,9
3053034060979,54977.398231,0.781001664582,12.8892,0.057,0.13817000000000002,221,12.838,0.404999,110.27056,-52.60063,9
3053034060979,54977.402527,0.812093797431,12.9283,0.057,0.13817000000000002,221,12.838,0.404999,110.27056,-52.60063,9
3053034060979,54977.406808,0.843077368394,12.9521,0.057,0.13817000000000002,221,12.838,0.404999,110.27056,-52.60063,9
3053034060979,55144.696372,0.594789027935,12.8285,0.055,0.13817000000000002,221,12.838,0.404999,110.27056,-52.60063,9
3053034060979,55144.703967,0.649757545034,12.8684,0.056,0.13817000000000002,221,12.838,0.404999,110.27056,-52.60063,9
3053034060979,55144.711557,0.704689874779,12.8852,0.056,0.13817000000000002,221,12.838,0.404999,110.27056,-52.60063,9
3053034060979,55144.719088,0.759195194289,12.9368,0.056,0.13817000000000002,221,12.838,0.404999,110.27056,-52.60063,9
3053034060979,55103.726822,0.0792646738701,12.9144,0.057,0.13817000000000002,221,12.838,0.404999,110.27056,-52.60063,9
3053034060979,55103.736004,0.145719041699,12.7991,0.056,0.13817000000000002,221,12.838,0.404999,110.27056,-52.60063,9
3053034060979,55103.745280,0.212853730889,12.6297,0.055,0.13817000000000002,221,12.838,0.404999,110.27056,-52.60063,9
3053034060979,55103.754527,0.279778533615,12.5558,0.055,0.13817000000000002,221,12.838,0.404999,110.27056,-52.60063,9
3053034060979,55301.479361,0.305572844984,12.6216,0.054,0.13817000000000002,221,12.838,0.404999,110.27056,-52.60063,9
3053034060979,55542.645331,0.734899037343,12.977,0.057,0.13817000000000002,221,12.838,0.404999,110.27056,-52.60063,9
3053034060979,55542.674211,0.943916913879,12.9848,0.057,0.13817000000000002,221,12.838,0.404999,110.27056,-52.60063,9
3053034060979,55559.702994,0.189071433677,12.6512,0.054,0.13817000000000002,221,12.838,0.404999,110.27056,-52.60063,9
3053034060979,55559.729677,0.38218860823,12.7279,0.054,0.13817000000000002,221,12.838,0.404999,110.27056,-52.60063,9
3053034060979,55250.526083,0.533205471467,12.8254,0.054,0.13817000000000002,221,12.838,0.404999,110.27056,-52.60063,9
3053034060979,55204.694664,0.830093363242,12.9306,0.054,0.13817000000000002,221,12.838,0.404999,110.27056,-52.60063,9
3053034060979,55204.730938,0.092625027115,12.8732,0.054,0.13817000000000002,221,12.838,0.404999,110.27056,-52.60063,9
3053034060979,55267.501804,0.39432583045,12.7131,0.054,0.13817000000000002,221,12.838,0.404999,110.27056,-52.60063,9
3053034060979,55677.451608,0.390084678249,12.6659,0.054,0.13817000000000002,221,12.838,0.404999,110.27056,-52.60063,9
3053034060979,55677.472829,0.543670840212,12.7749,0.054,0.13817000000000002,221,12.838,0.404999,110.27056,-52.60063,9
3053034060979,55618.582877,0.329934139038,12.6809,0.054,0.13817000000000002,221,12.838,0.404999,110.27056,-52.60063,9
3053034060979,55618.604155,0.48393283633,12.7923,0.055,0.13817000000000002,221,12.838,0.404999,110.27056,-52.60063,9
3053034060979,55588.601601,0.341615401267,12.7418,0.053,0.13817000000000002,221,12.838,0.404999,110.27056,-52.60063,9
3053034060979,55588.635594,0.587638416386,12.8914,0.054,0.13817000000000002,221,12.838,0.404999,110.27056,-52.60063,9
3053034060979,55647.510367,0.691517695552,12.9374,0.054,0.13817000000000002,221,12.838,0.404999,110.27056,-52.60063,9
3053034060979,55647.542279,0.922479554138,13.0189,0.054,0.13817000000000002,221,12.838,0.404999,110.27056,-52.60063,9
3053034060979,55707.383951,0.0242527321097,13.0325,0.055,0.13817000000000002,221,12.838,0.404999,110.27056,-52.60063,9
3053034060979,55707.388637,0.0581674747518,12.9927,0.055,0.13817000000000002,221,12.838,0.404999,110.27056,-52.60063,9
3053034060979,55707.393396,0.0926105521503,12.9446,0.055,0.13817000000000002,221,12.838,0.404999,110.27056,-52.60063,9
3053034060979,55707.398172,0.127176666399,12.8876,0.055,0.13817000000000002,221,12.838,0.404999,110.27056,-52.60063,9
3053034060979,55879.706843,0.204479988373,12.6895,0.054,0.13817000000000002,221,12.838,0.404999,110.27056,-52.60063,9
3053034060979,55879.718840,0.291307809181,12.694,0.054,0.13817000000000002,221,12.838,0.404999,110.27056,-52.60063,9
3053034060979,55879.730851,0.37823695445,12.7549,0.054,0.13817000000000002,221,12.838,0.404999,110.27056,-52.60063,9
3053034060979,55879.742898,0.465426648268,12.8097,0.055,0.13817000000000002,221,12.838,0.404999,110.27056,-52.60063,9
3053034060979,55919.656159,0.336100455897,12.6946,0.053,0.13817000000000002,221,12.838,0.404999,110.27056,-52.60063,9
3053034060979,55919.668951,0.428682058293,12.7748,0.053,0.13817000000000002,221,12.838,0.404999,110.27056,-52.60063,9
3053034060979,55919.681874,0.522211768082,12.829,0.053,0.13817000000000002,221,12.838,0.404999,110.27056,-52.60063,9
3053034060979,55919.694827,0.615958601702,12.8946,0.054,0.13817000000000002,221,12.838,0.404999,110.27056,-52.60063,9
3053034060979,55963.570839,0.166888615408,12.7153,0.053,0.13817000000000002,221,12.838,0.404999,110.27056,-52.60063,9
3053034060979,55963.583646,0.259578779689,12.6536,0.053,0.13817000000000002,221,12.838,0.404999,110.27056,-52.60063,9
3053034060979,55963.596415,0.351993920514,12.733,0.053,0.13817000000000002,221,12.838,0.404999,110.27056,-52.60063,9
3053034060979,55963.609294,0.445205182012,12.8187,0.053,0.13817000000000002,221,12.838,0.404999,110.27056,-52.60063,9
3053034060979,56028.459634,0.797018165991,12.999,0.054,0.13817000000000002,221,12.838,0.404999,110.27056,-52.60063,9
3053034060979,56028.470155,0.873163494223,13.0297,0.055,0.13817000000000002,221,12.838,0.404999,110.27056,-52.60063,9
3053034060979,56028.480793,0.950155605387,13.0403,0.055,0.13817000000000002,221,12.838,0.404999,110.27056,-52.60063,9
3053034060979,56028.491272,0.0259969602339,13.0029,0.055,0.13817000000000002,221,12.838,0.404999,110.27056,-52.60063,9
3053034060979,56264.696004,0.548556126421,12.8439,0.053,0.13817000000000002,221,12.838,0.404999,110.27056,-52.60063,9
3053034060979,56264.706994,0.628095823922,12.8888,0.053,0.13817000000000002,221,12.838,0.404999,110.27056,-52.60063,9
3053034060979,56264.717610,0.70492871094,12.9302,0.053,0.13817000000000002,221,12.838,0.404999,110.27056,-52.60063,9
3053034060979,56264.728330,0.782514293911,12.9777,0.053,0.13817000000000002,221,12.838,0.404999,110.27056,-52.60063,9
3053034060979,56298.667167,0.413526814722,12.7544,0.053,0.13817000000000002,221,12.838,0.404999,110.27056,-52.60063,9
3053034060979,56298.678568,0.496041108738,12.8063,0.053,0.13817000000000002,221,12.838,0.404999,110.27056,-52.60063,9
3053034060979,56298.690249,0.580581891816,12.8537,0.054,0.13817000000000002,221,12.838,0.404999,110.27056,-52.60063,9
3053034060979,56298.701551,0.662379677175,12.9351,0.054,0.13817000000000002,221,12.838,0.404999,110.27056,-52.60063,9
3053034060979,56374.516422,0.369559238607,12.7671,0.054,0.13817000000000002,221,12.838,0.404999,110.27056,-52.60063,9
3053034060979,56374.525895,0.438119707571,12.806,0.054,0.13817000000000002,221,12.838,0.404999,110.27056,-52.60063,9
3053034060979,56374.535563,0.508091481461,12.8347,0.056,0.13817000000000002,221,12.838,0.404999,110.27056,-52.60063,9
3053034060979,56374.545226,0.578027068055,12.8831,0.059,0.13817000000000002,221,12.838,0.404999,110.27056,-52.60063,9
3053034060979,56380.441278,0.250474053668,12.6592,0.052,0.13817000000000002,221,12.838,0.404999,110.27056,-52.60063,9
3053034060979,56380.452540,0.331982340547,12.7109,0.052,0.13817000000000002,221,12.838,0.404999,110.27056,-52.60063,9
3053034060979,56380.463829,0.413686038868,12.7741,0.053,0.13817000000000002,221,12.838,0.404999,110.27056,-52.60063,9
3053034060979,56380.475110,0.495331837563,12.8354,0.053,0.13817000000000002,221,12.838,0.404999,110.27056,-52.60063,9
3053034060979,56411.416779,0.434457552212,12.791,0.055,0.13817000000000002,221,12.838,0.404999,110.27056,-52.60063,9
3053034060979,56411.425588,0.49821234704,12.8373,0.055,0.13817000000000002,221,12.838,0.404999,110.27056,-52.60063,9
3053034060979,56411.434442,0.562292827643,12.9404,0.057,0.13817000000000002,221,12.838,0.404999,110.27056,-52.60063,9
3053034060979,56411.443313,0.626496345038,12.9458,0.056,0.13817000000000002,221,12.838,0.404999,110.27056,-52.60063,9
