ID,MjD,Phase,Mag,Mag_err,Period,Npts,V,Amp,ra,dec,Type
3053029008825,53729.6103716206,0.036706077808,12.083915,0.053,0.22093400000000002,112,12.085999999999999,0.302789,93.13773,-54.0432,9
3053029008825,53729.637156875,0.157942530321,12.214147,0.054,0.22093400000000002,112,12.085999999999999,0.302789,93.13773,-54.0432,9
3053029008825,53834.4192798262,0.426832566271,12.214167,0.051,0.22093400000000002,112,12.085999999999999,0.302789,93.13773,-54.0432,9
3053029008825,53834.4272917131,0.46309627805,12.171594,0.051,0.22093400000000002,112,12.085999999999999,0.302789,93.13773,-54.0432,9
3053029008825,53834.4352591437,0.499158770021,12.152552,0.051,0.22093400000000002,112,12.085999999999999,0.302789,93.13773,-54.0432,9
3053029008825,53834.4432075926,0.53513534629,12.125128,0.051,0.22093400000000002,112,12.085999999999999,0.302789,93.13773,-54.0432,9
3053029008825,54077.7021862846,0.583315762167,12.021918,0.052,0.22093400000000002,112,12.085999999999999,0.302789,93.13773,-54.0432,9
3053029008825,54077.7120648958,0.628028713545,12.005837,0.052,0.22093400000000002,112,12.085999999999999,0.302789,93.13773,-54.0432,9
3053029008825,54086.6512467942,0.0888989209197,12.155305,0.054,0.22093400000000002,112,12.085999999999999,0.302789,93.13773,-54.0432,9
3053029008825,54086.6686660994,0.167742852616,12.216125,0.054,0.22093400000000002,112,12.085999999999999,0.302789,93.13773,-54.0432,9
3053029008825,54086.6773499885,0.207048206707,12.234605,0.054,0.22093400000000002,112,12.085999999999999,0.302789,93.13773,-54.0432,9
3053029008825,53744.5302424423,0.567601375486,12.113391,0.054,0.22093400000000002,112,12.085999999999999,0.302789,93.13773,-54.0432,9
3053029008825,53762.5739638891,0.237789969397,12.221896,0.054,0.22093400000000002,112,12.085999999999999,0.302789,93.13773,-54.0432,9
3053029008825,53762.5787638311,0.259515652171,12.236249,0.054,0.22093400000000002,112,12.085999999999999,0.302789,93.13773,-54.0432,9
3053029008825,53762.58354978,0.281177998841,12.229008,0.054,0.22093400000000002,112,12.085999999999999,0.302789,93.13773,-54.0432,9
3053029008825,53762.5883092244,0.302720379812,12.263513,0.054,0.22093400000000002,112,12.085999999999999,0.302789,93.13773,-54.0432,9
3053029008825,53819.4744384607,0.782914629206,11.935293,0.052,0.22093400000000002,112,12.085999999999999,0.302789,93.13773,-54.0432,9
3053029008825,53819.4796092591,0.806318896561,11.948951,0.052,0.22093400000000002,112,12.085999999999999,0.302789,93.13773,-54.0432,9
3053029008825,53819.4899940162,0.853322785057,11.968652,0.052,0.22093400000000002,112,12.085999999999999,0.302789,93.13773,-54.0432,9
3053029008825,53874.3587980789,0.202621954493,12.192055,0.053,0.22093400000000002,112,12.085999999999999,0.302789,93.13773,-54.0432,9
3053029008825,53874.3641067247,0.226650152064,12.190953,0.053,0.22093400000000002,112,12.085999999999999,0.302789,93.13773,-54.0432,9
3053029008825,53874.3694347569,0.250766097102,12.210372,0.053,0.22093400000000002,112,12.085999999999999,0.302789,93.13773,-54.0432,9
3053029008825,53874.3747537501,0.274841129431,12.217977,0.053,0.22093400000000002,112,12.085999999999999,0.302789,93.13773,-54.0432,9
3053029008825,53880.3551034026,0.343330599164,12.165124,0.056,0.22093400000000002,112,12.085999999999999,0.302789,93.13773,-54.0432,9
3053029008825,53880.3608740393,0.369449877791,12.261931,0.053,0.22093400000000002,112,12.085999999999999,0.302789,93.13773,-54.0432,9
3053029008825,53880.366787662,0.396216345136,11.800909,0.055,0.22093400000000002,112,12.085999999999999,0.302789,93.13773,-54.0432,9
3053029008825,53880.3725568169,0.422328916786,13.069096,0.076,0.22093400000000002,112,12.085999999999999,0.302789,93.13773,-54.0432,9
3053029008825,54210.4106521411,0.253497157973,12.236112,0.053,0.22093400000000002,112,12.085999999999999,0.302789,93.13773,-54.0432,9
3053029008825,54210.4182245368,0.287771627714,12.246196,0.053,0.22093400000000002,112,12.085999999999999,0.302789,93.13773,-54.0432,9
3053029008825,54210.4258109373,0.3221094865,12.248455,0.053,0.22093400000000002,112,12.085999999999999,0.302789,93.13773,-54.0432,9
3053029008825,54210.4334129514,0.356518016226,12.235028,0.053,0.22093400000000002,112,12.085999999999999,0.302789,93.13773,-54.0432,9
3053029008825,54448.6085303125,0.393929012702,12.201644,0.054,0.22093400000000002,112,12.085999999999999,0.302789,93.13773,-54.0432,9
3053029008825,54448.6175770719,0.434876804356,12.144764,0.053,0.22093400000000002,112,12.085999999999999,0.302789,93.13773,-54.0432,9
3053029008825,54448.6269186341,0.477158943831,12.092161,0.053,0.22093400000000002,112,12.085999999999999,0.302789,93.13773,-54.0432,9
3053029008825,54464.6213385418,0.871719797753,11.973104,0.054,0.22093400000000002,112,12.085999999999999,0.302789,93.13773,-54.0432,9
3053029008825,54464.6324622339,0.92206828238,12.022155,0.054,0.22093400000000002,112,12.085999999999999,0.302789,93.13773,-54.0432,9
3053029008825,54464.6436270137,0.972602739697,12.062435,0.054,0.22093400000000002,112,12.085999999999999,0.302789,93.13773,-54.0432,9
3053029008825,54464.6547448031,0.0229245072987,12.115202,0.054,0.22093400000000002,112,12.085999999999999,0.302789,93.13773,-54.0432,9
3053029008825,54153.5132892132,0.722456539952,11.927818,0.052,0.22093400000000002,112,12.085999999999999,0.302789,93.13773,-54.0432,9
3053029008825,54153.5206724769,0.755874953145,11.910986,0.052,0.22093400000000002,112,12.085999999999999,0.302789,93.13773,-54.0432,9
3053029008825,54153.5280837617,0.789420196525,11.948798,0.052,0.22093400000000002,112,12.085999999999999,0.302789,93.13773,-54.0432,9
3053029008825,54153.5354635534,0.82282289461,11.933745,0.052,0.22093400000000002,112,12.085999999999999,0.302789,93.13773,-54.0432,9
3053029008825,54119.6197532985,0.312225816306,12.256598,0.054,0.22093400000000002,112,12.085999999999999,0.302789,93.13773,-54.0432,9
3053029008825,54119.6285471527,0.352028898662,12.25936,0.054,0.22093400000000002,112,12.085999999999999,0.302789,93.13773,-54.0432,9
3053029008825,54119.6372627664,0.391477845871,12.249045,0.054,0.22093400000000002,112,12.085999999999999,0.302789,93.13773,-54.0432,9
3053029008825,54119.6460044213,0.431044661731,12.227626,0.054,0.22093400000000002,112,12.085999999999999,0.302789,93.13773,-54.0432,9
3053029008825,54130.5429442362,0.753194330406,11.915679,0.052,0.22093400000000002,112,12.085999999999999,0.302789,93.13773,-54.0432,9
3053029008825,54130.5562368748,0.8133599844,11.927576,0.052,0.22093400000000002,112,12.085999999999999,0.302789,93.13773,-54.0432,9
3053029008825,54130.5694985418,0.873385453568,11.970208,0.052,0.22093400000000002,112,12.085999999999999,0.302789,93.13773,-54.0432,9
3053029008825,54184.4500601967,0.749663685507,11.93069,0.052,0.22093400000000002,112,12.085999999999999,0.302789,93.13773,-54.0432,9
3053029008825,54185.452801852,0.288311676763,12.206791,0.053,0.22093400000000002,112,12.085999999999999,0.302789,93.13773,-54.0432,9
3053029008825,54185.4642975461,0.340343931224,12.210942,0.053,0.22093400000000002,112,12.085999999999999,0.302789,93.13773,-54.0432,9
3053029008825,54185.475791736,0.392369377252,12.197971,0.053,0.22093400000000002,112,12.085999999999999,0.302789,93.13773,-54.0432,9
3053029008825,54185.4880545833,0.447873950121,12.171697,0.052,0.22093400000000002,112,12.085999999999999,0.302789,93.13773,-54.0432,9
3053029008825,54246.3481259259,0.915078375867,12.022057,0.053,0.22093400000000002,112,12.085999999999999,0.302789,93.13773,-54.0432,9
3053029008825,54246.3525575811,0.935137104738,12.057642,0.054,0.22093400000000002,112,12.085999999999999,0.302789,93.13773,-54.0432,9
3053029008825,54246.3569719793,0.955117724283,12.05086,0.054,0.22093400000000002,112,12.085999999999999,0.302789,93.13773,-54.0432,9
3053029008825,54246.3613758564,0.975050722831,12.097708,0.054,0.22093400000000002,112,12.085999999999999,0.302789,93.13773,-54.0432,9
3053029008825,54416.7449848843,0.171919597255,12.180554,0.052,0.22093400000000002,112,12.085999999999999,0.302789,93.13773,-54.0432,9
3053029008825,54382.6832900924,0.000561671768082,12.052913,0.053,0.22093400000000002,112,12.085999999999999,0.302789,93.13773,-54.0432,9
3053029008825,54503.570019676,0.162743968773,12.224577,0.055,0.22093400000000002,112,12.085999999999999,0.302789,93.13773,-54.0432,9
3053029008825,54503.5780346875,0.199021823268,12.230758,0.055,0.22093400000000002,112,12.085999999999999,0.302789,93.13773,-54.0432,9
3053029008825,54503.586051088,0.235305964656,12.245251,0.056,0.22093400000000002,112,12.085999999999999,0.302789,93.13773,-54.0432,9
3053029008825,54589.3702595369,0.515101962112,12.025582,0.051,0.22093400000000002,112,12.085999999999999,0.302789,93.13773,-54.0432,9
3053029008825,54589.3756812732,0.539642034273,11.987328,0.051,0.22093400000000002,112,12.085999999999999,0.302789,93.13773,-54.0432,9
3053029008825,54589.3884979747,0.59765348339,11.938229,0.051,0.22093400000000002,112,12.085999999999999,0.302789,93.13773,-54.0432,9
3053029008825,54779.722262824,0.093687816232,12.164323,0.052,0.22093400000000002,112,12.085999999999999,0.302789,93.13773,-54.0432,9
3053029008825,54936.4392389931,0.432115442149,12.091639,0.053,0.22093400000000002,112,12.085999999999999,0.302789,93.13773,-54.0432,9
3053029008825,54936.4434190045,0.451035171107,12.072606,0.053,0.22093400000000002,112,12.085999999999999,0.302789,93.13773,-54.0432,9
3053029008825,54936.4475960184,0.469941332674,12.028866,0.052,0.22093400000000002,112,12.085999999999999,0.302789,93.13773,-54.0432,9
3053029008825,54936.4517646992,0.488809776667,12.016392,0.052,0.22093400000000002,112,12.085999999999999,0.302789,93.13773,-54.0432,9
3053029008825,54869.5596782984,0.719265927357,11.901733,0.054,0.22093400000000002,112,12.085999999999999,0.302789,93.13773,-54.0432,9
3053029008825,54857.5897036344,0.540304499969,11.923235,0.051,0.22093400000000002,112,12.085999999999999,0.302789,93.13773,-54.0432,9
3053029008825,54857.6026769327,0.599024743569,11.87208,0.051,0.22093400000000002,112,12.085999999999999,0.302789,93.13773,-54.0432,9
3053029008825,54857.6156818285,0.657888004993,11.86818,0.051,0.22093400000000002,112,12.085999999999999,0.302789,93.13773,-54.0432,9
3053029008825,54857.6286736573,0.716692122078,11.897641,0.051,0.22093400000000002,112,12.085999999999999,0.302789,93.13773,-54.0432,9
3053029008825,54894.5325806364,0.752580573346,11.89344,0.051,0.22093400000000002,112,12.085999999999999,0.302789,93.13773,-54.0432,9
3053029008825,54894.5411494793,0.791365200887,11.921956,0.051,0.22093400000000002,112,12.085999999999999,0.302789,93.13773,-54.0432,9
3053029008825,54894.5497409026,0.830252032698,11.948901,0.052,0.22093400000000002,112,12.085999999999999,0.302789,93.13773,-54.0432,9
3053029008825,54894.558377685,0.869344170642,12.009319,0.052,0.22093400000000002,112,12.085999999999999,0.302789,93.13773,-54.0432,9
3053029008825,55301.4222423034,0.43227526499,12.143753,0.052,0.22093400000000002,112,12.085999999999999,0.302789,93.13773,-54.0432,9
3053029008825,55550.6835221993,0.648303109978,11.970882,0.052,0.22093400000000002,112,12.085999999999999,0.302789,93.13773,-54.0432,9
3053029008825,55237.5233380785,0.210588132642,12.211741,0.052,0.22093400000000002,112,12.085999999999999,0.302789,93.13773,-54.0432,9
3053029008825,55271.4652935184,0.839977180498,11.962971,0.053,0.22093400000000002,112,12.085999999999999,0.302789,93.13773,-54.0432,9
3053029008825,55680.3962462731,0.759042397694,11.949288,0.052,0.22093400000000002,112,12.085999999999999,0.302789,93.13773,-54.0432,9
3053029008825,55680.4157184376,0.847178060416,11.972119,0.052,0.22093400000000002,112,12.085999999999999,0.302789,93.13773,-54.0432,9
3053029008825,55596.5170540974,0.101804599544,12.152194,0.053,0.22093400000000002,112,12.085999999999999,0.302789,93.13773,-54.0432,9
3053029008825,55596.5415896528,0.212858377578,12.209379,0.053,0.22093400000000002,112,12.085999999999999,0.302789,93.13773,-54.0432,9
3053029008825,55626.4275391206,0.483796611661,12.140731,0.053,0.22093400000000002,112,12.085999999999999,0.302789,93.13773,-54.0432,9
3053029008825,55626.4491093863,0.581428780977,11.988853,0.053,0.22093400000000002,112,12.085999999999999,0.302789,93.13773,-54.0432,9
3053029008825,54531.567936852,0.887997555808,11.988629,0.051,0.22093400000000002,112,12.085999999999999,0.302789,93.13773,-54.0432,9
3053029008825,54531.5719779859,0.906288692058,11.996647,0.051,0.22093400000000002,112,12.085999999999999,0.302789,93.13773,-54.0432,9
3053029008825,54837.6368344678,0.2288577937,12.223228,0.052,0.22093400000000002,112,12.085999999999999,0.302789,93.13773,-54.0432,9
3053029008825,54837.6484976504,0.281648141041,12.20351,0.052,0.22093400000000002,112,12.085999999999999,0.302789,93.13773,-54.0432,9
3053029008825,55971.5432851967,0.560009761713,12.102202,0.051,0.22093400000000002,112,12.085999999999999,0.302789,93.13773,-54.0432,9
3053029008825,55971.554132604,0.609107715398,12.054331,0.051,0.22093400000000002,112,12.085999999999999,0.302789,93.13773,-54.0432,9
3053029008825,55971.5789894676,0.721615811024,11.957337,0.051,0.22093400000000002,112,12.085999999999999,0.302789,93.13773,-54.0432,9
3053029008825,55971.5897009955,0.770098742127,11.935748,0.051,0.22093400000000002,112,12.085999999999999,0.302789,93.13773,-54.0432,9
3053029008825,56019.4494564932,0.394771710999,12.244575,0.051,0.22093400000000002,112,12.085999999999999,0.302789,93.13773,-54.0432,9
3053029008825,56019.4621870717,0.452393346874,12.235009,0.051,0.22093400000000002,112,12.085999999999999,0.302789,93.13773,-54.0432,9
3053029008825,56019.4748791203,0.509840587212,12.178536,0.051,0.22093400000000002,112,12.085999999999999,0.302789,93.13773,-54.0432,9
3053029008825,56019.4875500927,0.567192431656,12.094581,0.051,0.22093400000000002,112,12.085999999999999,0.302789,93.13773,-54.0432,9
3053029008825,56264.6541715626,0.249819233781,12.216471,0.051,0.22093400000000002,112,12.085999999999999,0.302789,93.13773,-54.0432,9
3053029008825,56264.6651645832,0.299576268008,12.223325,0.051,0.22093400000000002,112,12.085999999999999,0.302789,93.13773,-54.0432,9
3053029008825,56298.6141315973,0.960701373697,12.063472,0.051,0.22093400000000002,112,12.085999999999999,0.302789,93.13773,-54.0432,9
3053029008825,56298.6375915278,0.0668866167834,12.154449,0.051,0.22093400000000002,112,12.085999999999999,0.302789,93.13773,-54.0432,9
3053029008825,56298.6492874539,0.119825169037,12.175883,0.051,0.22093400000000002,112,12.085999999999999,0.302789,93.13773,-54.0432,9
3053029008825,56378.4852185532,0.476298592315,12.039067,0.051,0.22093400000000002,112,12.085999999999999,0.302789,93.13773,-54.0432,9
3053029008825,56412.4048046414,0.00443861694657,12.117974,0.051,0.22093400000000002,112,12.085999999999999,0.302789,93.13773,-54.0432,9
3053029008825,56412.4118646411,0.0363938601513,12.142351,0.051,0.22093400000000002,112,12.085999999999999,0.302789,93.13773,-54.0432,9
3053029008825,56412.419076609,0.0690369476797,12.1855,0.052,0.22093400000000002,112,12.085999999999999,0.302789,93.13773,-54.0432,9
3053029008825,56412.4262522915,0.101515798829,12.187378,0.052,0.22093400000000002,112,12.085999999999999,0.302789,93.13773,-54.0432,9
